0	10		
10	0.75		PRODUCTDATACODE_A(10),
20	1		PRODUCTDATACODE_B(20),
30	0.6495		PRODUCTDATACODE_C(30),
40	0.405		PRODUCTDATACODE_D(40),
50	2		PRODUCTDATACODE_E(50),
60	0.827		PRODUCTDATACODE_F0(60),
70	0.825		PRODUCTDATACODE_F1(70),
80	0.827		PRODUCTDATACODE_F2(80),
90	2.303		PRODUCTDATACODE_G0(90),
100	2.295		PRODUCTDATACODE_G1(100),
110	2.303		PRODUCTDATACODE_G2(110),
120	1.7515		PRODUCTDATACODE_H0(120),
130	1.7425		PRODUCTDATACODE_H1(130),
140	1.7515		PRODUCTDATACODE_H2(140),
150	2.2045		PRODUCTDATACODE_I0(150),
160	1.72		PRODUCTDATACODE_I1(160),
170	2.2045		PRODUCTDATACODE_I2(170),