<?xml version="1.0" encoding="utf-8"?>
<!-- Generator: Adobe Illustrator 15.0.2, SVG Export Plug-In . SVG Version: 6.00 Build 0)  -->
<!DOCTYPE svg PUBLIC "-//W3C//DTD SVG 1.1//EN" "http://www.w3.org/Graphics/SVG/1.1/DTD/svg11.dtd">
<svg version="1.1" xmlns="http://www.w3.org/2000/svg" xmlns:xlink="http://www.w3.org/1999/xlink" x="0px" y="0px"
	 width="550.471px" height="1888.461px" viewBox="0 0 550.471 1888.461" enable-background="new 0 0 550.471 1888.461"
	 xml:space="preserve">
<g id="Tole_alu">
	<g id="ARC">
		
			<path fill="none" stroke="#000000" stroke-width="0.4252" stroke-linecap="round" stroke-linejoin="round" stroke-miterlimit="10" d="
			M286.914,922.509c30.39-65.634,46.805-136.867,48.203-209.182"/>
	</g>
	<g id="ARC_1_">
		
			<path fill="none" stroke="#000000" stroke-width="0.4252" stroke-linecap="round" stroke-linejoin="round" stroke-miterlimit="10" d="
			M281.263,920.596c15.188-68.114,23.195-137.632,23.891-207.415"/>
	</g>
	<g id="ARC_2_">
		
			<path fill="none" stroke="#000000" stroke-width="0.4252" stroke-linecap="round" stroke-linejoin="round" stroke-miterlimit="10" d="
			M286.914,922.509c30.39-65.634,46.805-136.867,48.203-209.182"/>
	</g>
	<g id="ARC_3_">
		
			<path fill="none" stroke="#000000" stroke-width="0.4252" stroke-linecap="round" stroke-linejoin="round" stroke-miterlimit="10" d="
			M281.263,920.596c15.188-68.114,23.195-137.632,23.891-207.415"/>
	</g>
	<g id="ARC_4_">
		
			<path fill="none" stroke="#000000" stroke-width="0.4252" stroke-linecap="round" stroke-linejoin="round" stroke-miterlimit="10" d="
			M245.318,1195.181c0.695,69.783,8.703,139.301,23.891,207.415"/>
	</g>
	<g id="ARC_5_">
		
			<path fill="none" stroke="#000000" stroke-width="0.4252" stroke-linecap="round" stroke-linejoin="round" stroke-miterlimit="10" d="
			M215.354,1195.328c1.399,72.314,17.814,143.548,48.204,209.182"/>
	</g>
	<g id="ARC_6_">
		
			<path fill="none" stroke="#000000" stroke-width="0.4252" stroke-linecap="round" stroke-linejoin="round" stroke-miterlimit="10" d="
			M245.318,1195.181c0.695,69.783,8.703,139.301,23.891,207.415"/>
	</g>
	<g id="ARC_7_">
		
			<path fill="none" stroke="#000000" stroke-width="0.4252" stroke-linecap="round" stroke-linejoin="round" stroke-miterlimit="10" d="
			M215.354,1195.328c1.399,72.314,17.814,143.548,48.204,209.182"/>
	</g>
	<g id="ARC_8_">
		
			<path fill="none" stroke="#000000" stroke-width="0.4252" stroke-linecap="round" stroke-linejoin="round" stroke-miterlimit="10" d="
			M286.914,1886.509c30.39-65.634,46.805-136.867,48.203-209.182"/>
	</g>
	<g id="ARC_9_">
		
			<path fill="none" stroke="#000000" stroke-width="0.4252" stroke-linecap="round" stroke-linejoin="round" stroke-miterlimit="10" d="
			M281.263,1884.596c15.188-68.114,23.195-137.632,23.891-207.415"/>
	</g>
	<g id="ARC_10_">
		
			<path fill="none" stroke="#000000" stroke-width="0.4252" stroke-linecap="round" stroke-linejoin="round" stroke-miterlimit="10" d="
			M281.263,1884.596c15.188-68.114,23.195-137.632,23.891-207.415"/>
	</g>
	<g id="ARC_11_">
		
			<path fill="none" stroke="#000000" stroke-width="0.4252" stroke-linecap="round" stroke-linejoin="round" stroke-miterlimit="10" d="
			M286.914,1886.509c30.39-65.634,46.805-136.867,48.203-209.182"/>
	</g>
	<g id="ARC_12_">
		
			<path fill="none" stroke="#000000" stroke-width="0.4252" stroke-linecap="round" stroke-linejoin="round" stroke-miterlimit="10" d="
			M305.154,1657.281c-0.695-69.783-8.702-139.301-23.891-207.415"/>
	</g>
	<g id="ARC_13_">
		
			<path fill="none" stroke="#000000" stroke-width="0.4252" stroke-linecap="round" stroke-linejoin="round" stroke-miterlimit="10" d="
			M335.117,1657.134c-1.398-72.314-17.813-143.548-48.203-209.182"/>
	</g>
	<g id="ARC_14_">
		
			<path fill="none" stroke="#000000" stroke-width="0.4252" stroke-linecap="round" stroke-linejoin="round" stroke-miterlimit="10" d="
			M335.117,1657.134c-1.398-72.314-17.813-143.548-48.203-209.182"/>
	</g>
	<g id="ARC_15_">
		
			<path fill="none" stroke="#000000" stroke-width="0.4252" stroke-linecap="round" stroke-linejoin="round" stroke-miterlimit="10" d="
			M305.154,1657.281c-0.695-69.783-8.702-139.301-23.891-207.415"/>
	</g>
	<g id="ARC_16_">
		
			<path fill="none" stroke="#000000" stroke-width="0.4252" stroke-linecap="round" stroke-linejoin="round" stroke-miterlimit="10" d="
			M263.558,1404.509c0.696,1.504,2.479,2.158,3.983,1.462c1.281-0.593,1.975-1.998,1.667-3.375"/>
	</g>
	<g id="ARC_17_">
		
			<path fill="none" stroke="#000000" stroke-width="0.4252" stroke-linecap="round" stroke-linejoin="round" stroke-miterlimit="10" d="
			M263.558,1404.509c0.696,1.504,2.479,2.158,3.983,1.462c1.281-0.593,1.975-1.998,1.667-3.375"/>
	</g>
	<g id="ARC_18_">
		
			<path fill="none" stroke="#000000" stroke-width="0.4252" stroke-linecap="round" stroke-linejoin="round" stroke-miterlimit="10" d="
			M286.914,1447.953c-0.696-1.504-2.479-2.158-3.983-1.462c-1.28,0.593-1.975,1.998-1.667,3.375"/>
	</g>
	<g id="ARC_19_">
		
			<path fill="none" stroke="#000000" stroke-width="0.4252" stroke-linecap="round" stroke-linejoin="round" stroke-miterlimit="10" d="
			M286.914,1447.953c-0.696-1.504-2.479-2.158-3.983-1.462c-1.28,0.593-1.975,1.998-1.667,3.375"/>
	</g>
	<g id="ARC_20_">
		
			<path fill="none" stroke="#000000" stroke-width="0.4252" stroke-linecap="round" stroke-linejoin="round" stroke-miterlimit="10" d="
			M281.263,1884.596c-0.36,1.617,0.658,3.221,2.275,3.581c1.377,0.307,2.782-0.388,3.375-1.668"/>
	</g>
	<g id="ARC_21_">
		
			<path fill="none" stroke="#000000" stroke-width="0.4252" stroke-linecap="round" stroke-linejoin="round" stroke-miterlimit="10" d="
			M281.263,1884.596c-0.36,1.617,0.658,3.221,2.275,3.581c1.377,0.307,2.782-0.388,3.375-1.668"/>
	</g>
	<g id="ARC_22_">
		
			<path fill="none" stroke="#000000" stroke-width="0.4252" stroke-linecap="round" stroke-linejoin="round" stroke-miterlimit="10" d="
			M335.117,1677.328c0.054-2.761-2.141-5.042-4.902-5.096c-0.032-0.001-0.064-0.001-0.097-0.001"/>
	</g>
	<g id="ARC_23_">
		
			<path fill="none" stroke="#000000" stroke-width="0.4252" stroke-linecap="round" stroke-linejoin="round" stroke-miterlimit="10" d="
			M330.118,1662.231c2.762,0,5-2.238,5-5c0-0.032,0-0.064-0.001-0.097"/>
	</g>
	<g id="ARC_24_">
		
			<path fill="none" stroke="#000000" stroke-width="0.4252" stroke-linecap="round" stroke-linejoin="round" stroke-miterlimit="10" d="
			M335.117,1677.328c0.054-2.761-2.141-5.042-4.902-5.096c-0.032-0.001-0.064-0.001-0.097-0.001"/>
	</g>
	<g id="ARC_25_">
		
			<path fill="none" stroke="#000000" stroke-width="0.4252" stroke-linecap="round" stroke-linejoin="round" stroke-miterlimit="10" d="
			M330.118,1662.231c2.762,0,5-2.238,5-5c0-0.032,0-0.064-0.001-0.097"/>
	</g>
	<g id="ARC_26_">
		
			<path fill="none" stroke="#000000" stroke-width="0.4252" stroke-linecap="round" stroke-linejoin="round" stroke-miterlimit="10" d="
			M310.154,1672.231c-2.742,0-4.973,2.208-5,4.95"/>
	</g>
	<g id="ARC_27_">
		
			<path fill="none" stroke="#000000" stroke-width="0.4252" stroke-linecap="round" stroke-linejoin="round" stroke-miterlimit="10" d="
			M305.154,1657.281c0.027,2.742,2.258,4.95,5,4.95"/>
	</g>
	<g id="ARC_28_">
		
			<path fill="none" stroke="#000000" stroke-width="0.4252" stroke-linecap="round" stroke-linejoin="round" stroke-miterlimit="10" d="
			M310.154,1672.231c-2.742,0-4.973,2.208-5,4.95"/>
	</g>
	<g id="ARC_29_">
		
			<path fill="none" stroke="#000000" stroke-width="0.4252" stroke-linecap="round" stroke-linejoin="round" stroke-miterlimit="10" d="
			M305.154,1657.281c0.027,2.742,2.258,4.95,5,4.95"/>
	</g>
	<g id="LINE">
		
			<line fill="none" stroke="#000000" stroke-width="0.4252" stroke-linecap="round" stroke-linejoin="round" stroke-miterlimit="10" x1="310.154" y1="1672.231" x2="330.118" y2="1672.231"/>
	</g>
	<g id="LINE_1_">
		
			<line fill="none" stroke="#000000" stroke-width="0.4252" stroke-linecap="round" stroke-linejoin="round" stroke-miterlimit="10" x1="310.154" y1="1662.231" x2="330.118" y2="1662.231"/>
	</g>
	<g id="LINE_2_">
		
			<line fill="none" stroke="#000000" stroke-width="0.4252" stroke-linecap="round" stroke-linejoin="round" stroke-miterlimit="10" x1="310.154" y1="1662.231" x2="330.118" y2="1662.231"/>
	</g>
	<g id="LINE_3_">
		
			<line fill="none" stroke="#000000" stroke-width="0.4252" stroke-linecap="round" stroke-linejoin="round" stroke-miterlimit="10" x1="310.154" y1="1672.231" x2="330.118" y2="1672.231"/>
	</g>
	<g id="ARC_30_">
		
			<path fill="none" stroke="#000000" stroke-width="0.4252" stroke-linecap="round" stroke-linejoin="round" stroke-miterlimit="10" d="
			M281.263,920.596c-0.36,1.617,0.658,3.22,2.275,3.581c1.377,0.307,2.782-0.387,3.375-1.668"/>
	</g>
	<g id="ARC_31_">
		
			<path fill="none" stroke="#000000" stroke-width="0.4252" stroke-linecap="round" stroke-linejoin="round" stroke-miterlimit="10" d="
			M281.263,920.596c-0.36,1.617,0.658,3.22,2.275,3.581c1.377,0.307,2.782-0.387,3.375-1.668"/>
	</g>
	<g id="ARC_32_">
		
			<path fill="none" stroke="#000000" stroke-width="0.4252" stroke-linecap="round" stroke-linejoin="round" stroke-miterlimit="10" d="
			M269.208,967.866c0.361-1.617-0.658-3.221-2.275-3.581c-1.377-0.307-2.783,0.388-3.375,1.668"/>
	</g>
	<g id="ARC_33_">
		
			<path fill="none" stroke="#000000" stroke-width="0.4252" stroke-linecap="round" stroke-linejoin="round" stroke-miterlimit="10" d="
			M269.208,967.866c0.361-1.617-0.658-3.221-2.275-3.581c-1.377-0.307-2.783,0.388-3.375,1.668"/>
	</g>
	<g id="ARC_34_">
		
			<path fill="none" stroke="#000000" stroke-width="0.4252" stroke-linecap="round" stroke-linejoin="round" stroke-miterlimit="10" d="
			M220.354,1190.231c-2.761,0-5,2.238-5,5c0,0.032,0,0.064,0.001,0.097"/>
	</g>
	<g id="LINE_4_">
		
			<line fill="none" stroke="#000000" stroke-width="0.4252" stroke-linecap="round" stroke-linejoin="round" stroke-miterlimit="10" x1="240.318" y1="1190.231" x2="220.354" y2="1190.231"/>
	</g>
	<g id="LINE_5_">
		
			<line fill="none" stroke="#000000" stroke-width="0.4252" stroke-linecap="round" stroke-linejoin="round" stroke-miterlimit="10" x1="240.318" y1="1190.231" x2="220.354" y2="1190.231"/>
	</g>
	<g id="ARC_35_">
		
			<path fill="none" stroke="#000000" stroke-width="0.4252" stroke-linecap="round" stroke-linejoin="round" stroke-miterlimit="10" d="
			M220.354,1190.231c-2.761,0-5,2.238-5,5c0,0.032,0,0.064,0.001,0.097"/>
	</g>
	<g id="LINE_6_">
		
			<line fill="none" stroke="#000000" stroke-width="0.4252" stroke-linecap="round" stroke-linejoin="round" stroke-miterlimit="10" x1="240.318" y1="1180.231" x2="220.354" y2="1180.231"/>
	</g>
	<g id="ARC_36_">
		
			<path fill="none" stroke="#000000" stroke-width="0.4252" stroke-linecap="round" stroke-linejoin="round" stroke-miterlimit="10" d="
			M215.354,1175.134c-0.053,2.761,2.142,5.042,4.902,5.096c0.032,0.001,0.064,0.001,0.097,0.001"/>
	</g>
	<g id="LINE_7_">
		
			<line fill="none" stroke="#000000" stroke-width="0.4252" stroke-linecap="round" stroke-linejoin="round" stroke-miterlimit="10" x1="240.318" y1="1180.231" x2="220.354" y2="1180.231"/>
	</g>
	<g id="ARC_37_">
		
			<path fill="none" stroke="#000000" stroke-width="0.4252" stroke-linecap="round" stroke-linejoin="round" stroke-miterlimit="10" d="
			M215.354,1175.134c-0.053,2.761,2.142,5.042,4.902,5.096c0.032,0.001,0.064,0.001,0.097,0.001"/>
	</g>
	<g id="ARC_38_">
		
			<path fill="none" stroke="#000000" stroke-width="0.4252" stroke-linecap="round" stroke-linejoin="round" stroke-miterlimit="10" d="
			M245.318,1195.181c-0.027-2.742-2.258-4.95-5-4.95"/>
	</g>
	<g id="ARC_39_">
		
			<path fill="none" stroke="#000000" stroke-width="0.4252" stroke-linecap="round" stroke-linejoin="round" stroke-miterlimit="10" d="
			M245.318,1195.181c-0.027-2.742-2.258-4.95-5-4.95"/>
	</g>
	<g id="ARC_40_">
		
			<path fill="none" stroke="#000000" stroke-width="0.4252" stroke-linecap="round" stroke-linejoin="round" stroke-miterlimit="10" d="
			M240.318,1180.231c2.742,0,4.973-2.208,5-4.95"/>
	</g>
	<g id="ARC_41_">
		
			<path fill="none" stroke="#000000" stroke-width="0.4252" stroke-linecap="round" stroke-linejoin="round" stroke-miterlimit="10" d="
			M240.318,1180.231c2.742,0,4.973-2.208,5-4.95"/>
	</g>
	<g id="ARC_42_">
		
			<path fill="none" stroke="#000000" stroke-width="0.4252" stroke-linecap="round" stroke-linejoin="round" stroke-miterlimit="10" d="
			M263.558,965.953c-30.389,65.634-46.804,136.867-48.204,209.182"/>
	</g>
	<g id="ARC_43_">
		
			<path fill="none" stroke="#000000" stroke-width="0.4252" stroke-linecap="round" stroke-linejoin="round" stroke-miterlimit="10" d="
			M269.208,967.866c-15.188,68.114-23.195,137.632-23.891,207.415"/>
	</g>
	<g id="ARC_44_">
		
			<path fill="none" stroke="#000000" stroke-width="0.4252" stroke-linecap="round" stroke-linejoin="round" stroke-miterlimit="10" d="
			M269.208,967.866c-15.188,68.114-23.195,137.632-23.891,207.415"/>
	</g>
	<g id="ARC_45_">
		
			<path fill="none" stroke="#000000" stroke-width="0.4252" stroke-linecap="round" stroke-linejoin="round" stroke-miterlimit="10" d="
			M263.558,965.953c-30.389,65.634-46.804,136.867-48.204,209.182"/>
	</g>
	<g id="ELLIPSE">
		
			<path fill="none" stroke="#000000" stroke-width="0.7087" stroke-linecap="round" stroke-linejoin="round" stroke-miterlimit="10" d="
			M150.354,1185.231c0-11.046-33.579-20-75-20s-75,8.954-75,20s33.579,20,75,20S150.354,1196.277,150.354,1185.231"/>
	</g>
	<g id="ELLIPSE_1_">
		
			<path fill="none" stroke="#000000" stroke-width="0.7087" stroke-linecap="round" stroke-linejoin="round" stroke-miterlimit="10" d="
			M150.354,1185.231c0-11.046-33.579-20-75-20s-75,8.954-75,20s33.579,20,75,20S150.354,1196.277,150.354,1185.231"/>
	</g>
	<g id="ARC_46_">
		
			<path fill="none" stroke="#000000" stroke-width="0.4252" stroke-linecap="round" stroke-linejoin="round" stroke-miterlimit="10" d="
			M263.558,1.953c-30.389,65.634-46.804,136.867-48.204,209.182"/>
	</g>
	<g id="ARC_47_">
		
			<path fill="none" stroke="#000000" stroke-width="0.4252" stroke-linecap="round" stroke-linejoin="round" stroke-miterlimit="10" d="
			M269.208,3.866c-15.188,68.114-23.195,137.632-23.891,207.415"/>
	</g>
	<g id="ARC_48_">
		
			<path fill="none" stroke="#000000" stroke-width="0.4252" stroke-linecap="round" stroke-linejoin="round" stroke-miterlimit="10" d="
			M269.208,3.866c-15.188,68.114-23.195,137.632-23.891,207.415"/>
	</g>
	<g id="ARC_49_">
		
			<path fill="none" stroke="#000000" stroke-width="0.4252" stroke-linecap="round" stroke-linejoin="round" stroke-miterlimit="10" d="
			M263.558,1.953c-30.389,65.634-46.804,136.867-48.204,209.182"/>
	</g>
	<g id="ARC_50_">
		
			<path fill="none" stroke="#000000" stroke-width="0.4252" stroke-linecap="round" stroke-linejoin="round" stroke-miterlimit="10" d="
			M305.154,693.281c-0.695-69.783-8.702-139.301-23.891-207.415"/>
	</g>
	<g id="ARC_51_">
		
			<path fill="none" stroke="#000000" stroke-width="0.4252" stroke-linecap="round" stroke-linejoin="round" stroke-miterlimit="10" d="
			M335.117,693.134c-1.398-72.314-17.813-143.548-48.203-209.182"/>
	</g>
	<g id="ARC_52_">
		
			<path fill="none" stroke="#000000" stroke-width="0.4252" stroke-linecap="round" stroke-linejoin="round" stroke-miterlimit="10" d="
			M305.154,693.281c-0.695-69.783-8.702-139.301-23.891-207.415"/>
	</g>
	<g id="ARC_53_">
		
			<path fill="none" stroke="#000000" stroke-width="0.4252" stroke-linecap="round" stroke-linejoin="round" stroke-miterlimit="10" d="
			M335.117,693.134c-1.398-72.314-17.813-143.548-48.203-209.182"/>
	</g>
	<g id="ARC_54_">
		
			<path fill="none" stroke="#000000" stroke-width="0.4252" stroke-linecap="round" stroke-linejoin="round" stroke-miterlimit="10" d="
			M220.354,226.231c-2.761,0-5,2.238-5,5c0,0.032,0,0.064,0.001,0.097"/>
	</g>
	<g id="LINE_8_">
		
			<line fill="none" stroke="#000000" stroke-width="0.4252" stroke-linecap="round" stroke-linejoin="round" stroke-miterlimit="10" x1="240.318" y1="226.231" x2="220.354" y2="226.231"/>
	</g>
	<g id="LINE_9_">
		
			<line fill="none" stroke="#000000" stroke-width="0.4252" stroke-linecap="round" stroke-linejoin="round" stroke-miterlimit="10" x1="240.318" y1="216.231" x2="220.354" y2="216.231"/>
	</g>
	<g id="LINE_10_">
		
			<line fill="none" stroke="#000000" stroke-width="0.4252" stroke-linecap="round" stroke-linejoin="round" stroke-miterlimit="10" x1="240.318" y1="216.231" x2="220.354" y2="216.231"/>
	</g>
	<g id="LINE_11_">
		
			<line fill="none" stroke="#000000" stroke-width="0.4252" stroke-linecap="round" stroke-linejoin="round" stroke-miterlimit="10" x1="240.318" y1="226.231" x2="220.354" y2="226.231"/>
	</g>
	<g id="ARC_55_">
		
			<path fill="none" stroke="#000000" stroke-width="0.4252" stroke-linecap="round" stroke-linejoin="round" stroke-miterlimit="10" d="
			M220.354,226.231c-2.761,0-5,2.238-5,5c0,0.032,0,0.064,0.001,0.097"/>
	</g>
	<g id="ARC_56_">
		
			<path fill="none" stroke="#000000" stroke-width="0.4252" stroke-linecap="round" stroke-linejoin="round" stroke-miterlimit="10" d="
			M245.318,231.181c-0.027-2.742-2.258-4.95-5-4.95"/>
	</g>
	<g id="ARC_57_">
		
			<path fill="none" stroke="#000000" stroke-width="0.4252" stroke-linecap="round" stroke-linejoin="round" stroke-miterlimit="10" d="
			M245.318,231.181c-0.027-2.742-2.258-4.95-5-4.95"/>
	</g>
	<g id="ARC_58_">
		
			<path fill="none" stroke="#000000" stroke-width="0.4252" stroke-linecap="round" stroke-linejoin="round" stroke-miterlimit="10" d="
			M215.354,211.134c-0.053,2.761,2.142,5.042,4.902,5.096c0.032,0,0.064,0.001,0.097,0.001"/>
	</g>
	<g id="ARC_59_">
		
			<path fill="none" stroke="#000000" stroke-width="0.4252" stroke-linecap="round" stroke-linejoin="round" stroke-miterlimit="10" d="
			M240.318,216.231c2.742,0,4.973-2.208,5-4.95"/>
	</g>
	<g id="ARC_60_">
		
			<path fill="none" stroke="#000000" stroke-width="0.4252" stroke-linecap="round" stroke-linejoin="round" stroke-miterlimit="10" d="
			M240.318,216.231c2.742,0,4.973-2.208,5-4.95"/>
	</g>
	<g id="ARC_61_">
		
			<path fill="none" stroke="#000000" stroke-width="0.4252" stroke-linecap="round" stroke-linejoin="round" stroke-miterlimit="10" d="
			M215.354,211.134c-0.053,2.761,2.142,5.042,4.902,5.096c0.032,0,0.064,0.001,0.097,0.001"/>
	</g>
	<g id="ARC_62_">
		
			<path fill="none" stroke="#000000" stroke-width="0.4252" stroke-linecap="round" stroke-linejoin="round" stroke-miterlimit="10" d="
			M263.558,440.509c0.696,1.504,2.479,2.158,3.983,1.462c1.281-0.593,1.975-1.998,1.667-3.375"/>
	</g>
	<g id="ARC_63_">
		
			<path fill="none" stroke="#000000" stroke-width="0.4252" stroke-linecap="round" stroke-linejoin="round" stroke-miterlimit="10" d="
			M263.558,440.509c0.696,1.504,2.479,2.158,3.983,1.462c1.281-0.593,1.975-1.998,1.667-3.375"/>
	</g>
	<g id="ARC_64_">
		
			<path fill="none" stroke="#000000" stroke-width="0.4252" stroke-linecap="round" stroke-linejoin="round" stroke-miterlimit="10" d="
			M286.914,483.953c-0.696-1.504-2.479-2.158-3.983-1.462c-1.28,0.593-1.975,1.998-1.667,3.375"/>
	</g>
	<g id="ARC_65_">
		
			<path fill="none" stroke="#000000" stroke-width="0.4252" stroke-linecap="round" stroke-linejoin="round" stroke-miterlimit="10" d="
			M286.914,483.953c-0.696-1.504-2.479-2.158-3.983-1.462c-1.28,0.593-1.975,1.998-1.667,3.375"/>
	</g>
	<g id="ARC_66_">
		
			<path fill="none" stroke="#000000" stroke-width="0.4252" stroke-linecap="round" stroke-linejoin="round" stroke-miterlimit="10" d="
			M245.318,231.181c0.695,69.783,8.703,139.301,23.891,207.415"/>
	</g>
	<g id="ARC_67_">
		
			<path fill="none" stroke="#000000" stroke-width="0.4252" stroke-linecap="round" stroke-linejoin="round" stroke-miterlimit="10" d="
			M215.354,231.328c1.399,72.314,17.814,143.548,48.204,209.182"/>
	</g>
	<g id="ARC_68_">
		
			<path fill="none" stroke="#000000" stroke-width="0.4252" stroke-linecap="round" stroke-linejoin="round" stroke-miterlimit="10" d="
			M245.318,231.181c0.695,69.783,8.703,139.301,23.891,207.415"/>
	</g>
	<g id="ARC_69_">
		
			<path fill="none" stroke="#000000" stroke-width="0.4252" stroke-linecap="round" stroke-linejoin="round" stroke-miterlimit="10" d="
			M215.354,231.328c1.399,72.314,17.814,143.548,48.204,209.182"/>
	</g>
	<g id="ELLIPSE_2_">
		
			<path fill="none" stroke="#000000" stroke-width="0.7087" stroke-linecap="round" stroke-linejoin="round" stroke-miterlimit="10" d="
			M150.354,221.231c0-11.046-33.579-20-75-20s-75,8.954-75,20s33.579,20,75,20S150.354,232.277,150.354,221.231"/>
	</g>
	<g id="ELLIPSE_3_">
		
			<path fill="none" stroke="#000000" stroke-width="0.7087" stroke-linecap="round" stroke-linejoin="round" stroke-miterlimit="10" d="
			M150.354,221.231c0-11.046-33.579-20-75-20s-75,8.954-75,20s33.579,20,75,20S150.354,232.277,150.354,221.231"/>
	</g>
	<g id="ARC_70_">
		
			<path fill="none" stroke="#000000" stroke-width="0.4252" stroke-linecap="round" stroke-linejoin="round" stroke-miterlimit="10" d="
			M330.118,698.231c2.762,0,5-2.239,5-5c0-0.032,0-0.064-0.001-0.097"/>
	</g>
	<g id="ARC_71_">
		
			<path fill="none" stroke="#000000" stroke-width="0.4252" stroke-linecap="round" stroke-linejoin="round" stroke-miterlimit="10" d="
			M330.118,698.231c2.762,0,5-2.239,5-5c0-0.032,0-0.064-0.001-0.097"/>
	</g>
	<g id="ARC_72_">
		
			<path fill="none" stroke="#000000" stroke-width="0.4252" stroke-linecap="round" stroke-linejoin="round" stroke-miterlimit="10" d="
			M305.154,693.281c0.027,2.742,2.258,4.95,5,4.95"/>
	</g>
	<g id="ARC_73_">
		
			<path fill="none" stroke="#000000" stroke-width="0.4252" stroke-linecap="round" stroke-linejoin="round" stroke-miterlimit="10" d="
			M305.154,693.281c0.027,2.742,2.258,4.95,5,4.95"/>
	</g>
	<g id="LINE_12_">
		
			<line fill="none" stroke="#000000" stroke-width="0.4252" stroke-linecap="round" stroke-linejoin="round" stroke-miterlimit="10" x1="310.154" y1="698.231" x2="330.118" y2="698.231"/>
	</g>
	<g id="LINE_13_">
		
			<line fill="none" stroke="#000000" stroke-width="0.4252" stroke-linecap="round" stroke-linejoin="round" stroke-miterlimit="10" x1="310.154" y1="698.231" x2="330.118" y2="698.231"/>
	</g>
	<g id="ARC_74_">
		
			<path fill="none" stroke="#000000" stroke-width="0.4252" stroke-linecap="round" stroke-linejoin="round" stroke-miterlimit="10" d="
			M335.117,713.328c0.054-2.761-2.141-5.042-4.902-5.096c-0.032,0-0.064-0.001-0.097-0.001"/>
	</g>
	<g id="ARC_75_">
		
			<path fill="none" stroke="#000000" stroke-width="0.4252" stroke-linecap="round" stroke-linejoin="round" stroke-miterlimit="10" d="
			M335.117,713.328c0.054-2.761-2.141-5.042-4.902-5.096c-0.032,0-0.064-0.001-0.097-0.001"/>
	</g>
	<g id="ARC_76_">
		
			<path fill="none" stroke="#000000" stroke-width="0.4252" stroke-linecap="round" stroke-linejoin="round" stroke-miterlimit="10" d="
			M310.154,708.231c-2.742,0-4.973,2.208-5,4.95"/>
	</g>
	<g id="ARC_77_">
		
			<path fill="none" stroke="#000000" stroke-width="0.4252" stroke-linecap="round" stroke-linejoin="round" stroke-miterlimit="10" d="
			M310.154,708.231c-2.742,0-4.973,2.208-5,4.95"/>
	</g>
	<g id="LINE_14_">
		
			<line fill="none" stroke="#000000" stroke-width="0.4252" stroke-linecap="round" stroke-linejoin="round" stroke-miterlimit="10" x1="310.154" y1="708.231" x2="330.118" y2="708.231"/>
	</g>
	<g id="LINE_15_">
		
			<line fill="none" stroke="#000000" stroke-width="0.4252" stroke-linecap="round" stroke-linejoin="round" stroke-miterlimit="10" x1="310.154" y1="708.231" x2="330.118" y2="708.231"/>
	</g>
	<g id="ARC_78_">
		
			<path fill="none" stroke="#000000" stroke-width="0.4252" stroke-linecap="round" stroke-linejoin="round" stroke-miterlimit="10" d="
			M269.208,3.866c0.361-1.617-0.658-3.22-2.275-3.581c-1.377-0.307-2.783,0.387-3.375,1.668"/>
	</g>
	<g id="ARC_79_">
		
			<path fill="none" stroke="#000000" stroke-width="0.4252" stroke-linecap="round" stroke-linejoin="round" stroke-miterlimit="10" d="
			M269.208,3.866c0.361-1.617-0.658-3.22-2.275-3.581c-1.377-0.307-2.783,0.387-3.375,1.668"/>
	</g>
	<g id="ELLIPSE_4_">
		
			<path fill="none" stroke="#000000" stroke-width="0.7087" stroke-linecap="round" stroke-linejoin="round" stroke-miterlimit="10" d="
			M550.117,1667.231c0-11.046-33.578-20-75-20c-41.421,0-75,8.954-75,20s33.579,20,75,20
			C516.539,1687.231,550.117,1678.277,550.117,1667.231"/>
	</g>
	<g id="ELLIPSE_5_">
		
			<path fill="none" stroke="#000000" stroke-width="0.7087" stroke-linecap="round" stroke-linejoin="round" stroke-miterlimit="10" d="
			M550.117,703.231c0-11.046-33.578-20-75-20c-41.421,0-75,8.954-75,20s33.579,20,75,20
			C516.539,723.231,550.117,714.277,550.117,703.231"/>
	</g>
</g>
<g id="décor_marbre">
	<g id="ARC_80_">
		
			<path fill="none" stroke="#000000" stroke-width="0.4252" stroke-linecap="round" stroke-linejoin="round" stroke-miterlimit="10" d="
			M269.208,3.866c-15.188,68.114-23.195,137.632-23.891,207.415"/>
	</g>
	<g id="ARC_81_">
		
			<path fill="none" stroke="#000000" stroke-width="0.4252" stroke-linecap="round" stroke-linejoin="round" stroke-miterlimit="10" d="
			M263.558,1.953c-30.389,65.634-46.804,136.867-48.204,209.182"/>
	</g>
	<g id="ARC_82_">
		
			<path fill="none" stroke="#000000" stroke-width="0.4252" stroke-linecap="round" stroke-linejoin="round" stroke-miterlimit="10" d="
			M215.354,211.134c-0.053,2.761,2.142,5.042,4.902,5.096c0.032,0,0.064,0.001,0.097,0.001"/>
	</g>
	<g id="ARC_83_">
		
			<path fill="none" stroke="#000000" stroke-width="0.4252" stroke-linecap="round" stroke-linejoin="round" stroke-miterlimit="10" d="
			M240.318,216.231c2.742,0,4.973-2.208,5-4.95"/>
	</g>
	<g id="ARC_84_">
		
			<path fill="none" stroke="#000000" stroke-width="0.4252" stroke-linecap="round" stroke-linejoin="round" stroke-miterlimit="10" d="
			M269.208,3.866c0.361-1.617-0.658-3.22-2.275-3.581c-1.377-0.307-2.783,0.387-3.375,1.668"/>
	</g>
	<g id="LINE_16_">
		
			<line fill="none" stroke="#000000" stroke-width="0.7087" stroke-linecap="round" stroke-linejoin="round" stroke-miterlimit="10" x1="220.354" y1="216.231" x2="240.318" y2="216.231"/>
	</g>
	<g id="ARC_85_">
		<path fill="none" stroke="#000000" stroke-width="0" stroke-linecap="round" stroke-linejoin="round" stroke-miterlimit="10" d="
			M269.069,3.853c-15.291,68.106-23.302,137.645-23.897,207.443"/>
	</g>
	<g id="ARC_86_">
		<path fill="none" stroke="#000000" stroke-width="0" stroke-linecap="round" stroke-linejoin="round" stroke-miterlimit="10" d="
			M263.681,2.028c-30.286,65.649-46.689,136.844-48.184,209.126"/>
	</g>
	<g id="POLYLINE">
		
			<polyline fill="none" stroke="#000000" stroke-width="0.7087" stroke-linecap="round" stroke-linejoin="round" stroke-miterlimit="10" points="
			266.652,3.291 262.637,23.627 259.253,44.085 256.3,64.609 251.205,105.03 248.063,134.958 245.791,160.379 243.958,185.836 
			242.789,211.323 		"/>
	</g>
	<g id="POLYLINE_1_">
		
			<polyline fill="none" stroke="#000000" stroke-width="0.7087" stroke-linecap="round" stroke-linejoin="round" stroke-miterlimit="10" points="
			217.743,211.283 217.906,190.365 219.137,169.461 221.375,148.653 224.569,127.964 228.692,107.43 233.727,87.111 238.103,72.059 
			243.038,57.18 250.062,38.892 257.825,20.891 265.958,3.053 		"/>
	</g>
	<g id="POLYLINE_2_">
		
			<polyline fill="none" stroke="#000000" stroke-width="0.7087" stroke-linecap="round" stroke-linejoin="round" stroke-miterlimit="10" points="
			220.35,216.099 230.336,216.093 240.314,216.105 		"/>
	</g>
	<g id="POLYLINE_3_">
		
			<polyline fill="none" stroke="#000000" stroke-width="0.7087" stroke-linecap="round" stroke-linejoin="round" stroke-miterlimit="10" points="
			240.371,213.71 230.375,213.962 220.232,213.826 		"/>
	</g>
	<g id="LINE_17_">
		
			<line fill="none" stroke="#000000" stroke-width="0" stroke-linecap="round" stroke-linejoin="round" stroke-miterlimit="10" x1="220.35" y1="216.099" x2="220.35" y2="216.231"/>
	</g>
	<g id="POLYLINE_4_">
		
			<polyline fill="none" stroke="#000000" stroke-width="0.7087" stroke-linecap="round" stroke-linejoin="round" stroke-miterlimit="10" points="
			220.232,213.826 220.237,214.265 220.245,214.683 220.257,215.066 220.271,215.403 220.289,215.682 220.308,215.896 
			220.329,216.036 220.35,216.099 		"/>
	</g>
	<g id="LINE_18_">
		
			<line fill="none" stroke="#000000" stroke-width="0" stroke-linecap="round" stroke-linejoin="round" stroke-miterlimit="10" x1="215.497" y1="211.154" x2="215.354" y2="211.152"/>
	</g>
	<g id="POLYLINE_5_">
		
			<polyline fill="none" stroke="#000000" stroke-width="0.7087" stroke-linecap="round" stroke-linejoin="round" stroke-miterlimit="10" points="
			215.497,211.154 215.559,211.171 215.697,211.188 215.908,211.206 216.183,211.224 216.516,211.241 216.895,211.256 
			217.308,211.271 217.743,211.283 		"/>
	</g>
	<g id="ARC_87_">
		<path fill="none" stroke="#000000" stroke-width="0" stroke-linecap="round" stroke-linejoin="round" stroke-miterlimit="10" d="
			M217.743,211.283c0.035,1.369,1.121,2.479,2.489,2.543"/>
	</g>
	<g id="ARC_88_">
		<path fill="none" stroke="#000000" stroke-width="0" stroke-linecap="round" stroke-linejoin="round" stroke-miterlimit="10" d="
			M215.497,211.154c-0.053,2.677,2.073,4.891,4.75,4.944c0.034,0.001,0.068,0.001,0.102,0.001"/>
	</g>
	<g id="LINE_19_">
		
			<line fill="none" stroke="#000000" stroke-width="0" stroke-linecap="round" stroke-linejoin="round" stroke-miterlimit="10" x1="240.314" y1="216.105" x2="240.314" y2="216.231"/>
	</g>
	<g id="POLYLINE_6_">
		
			<polyline fill="none" stroke="#000000" stroke-width="0.7087" stroke-linecap="round" stroke-linejoin="round" stroke-miterlimit="10" points="
			240.371,213.71 240.369,214.167 240.365,214.605 240.359,215.01 240.353,215.366 240.344,215.663 240.335,215.89 240.325,216.039 
			240.314,216.105 		"/>
	</g>
	<g id="POLYLINE_7_">
		
			<polyline fill="none" stroke="#000000" stroke-width="0.7087" stroke-linecap="round" stroke-linejoin="round" stroke-miterlimit="10" points="
			242.789,211.323 243.244,211.326 243.68,211.327 244.082,211.326 244.437,211.323 244.731,211.319 244.957,211.313 
			245.105,211.305 245.172,211.296 		"/>
	</g>
	<g id="ARC_89_">
		<path fill="none" stroke="#000000" stroke-width="0" stroke-linecap="round" stroke-linejoin="round" stroke-miterlimit="10" d="
			M240.371,213.71c1.309-0.035,2.367-1.079,2.418-2.387"/>
	</g>
	<g id="ARC_90_">
		<path fill="none" stroke="#000000" stroke-width="0" stroke-linecap="round" stroke-linejoin="round" stroke-miterlimit="10" d="
			M240.314,216.105c2.664,0.001,4.832-2.145,4.857-4.809"/>
	</g>
	<g id="ARC_91_">
		<path fill="none" stroke="#000000" stroke-width="0" stroke-linecap="round" stroke-linejoin="round" stroke-miterlimit="10" d="
			M269.069,3.853c0.344-1.542-0.627-3.071-2.169-3.415c-1.313-0.293-2.653,0.369-3.219,1.59"/>
	</g>
	<g id="POLYLINE_8_">
		
			<polyline fill="none" stroke="#000000" stroke-width="0.7087" stroke-linecap="round" stroke-linejoin="round" stroke-miterlimit="10" points="
			269.069,3.853 269.002,3.833 268.852,3.796 268.622,3.741 268.321,3.67 267.96,3.586 267.552,3.494 267.111,3.394 266.652,3.291 
					"/>
	</g>
	<g id="LINE_20_">
		
			<line fill="none" stroke="#000000" stroke-width="0" stroke-linecap="round" stroke-linejoin="round" stroke-miterlimit="10" x1="269.069" y1="3.853" x2="269.205" y2="3.883"/>
	</g>
	<g id="POLYLINE_9_">
		
			<polyline fill="none" stroke="#000000" stroke-width="0.7087" stroke-linecap="round" stroke-linejoin="round" stroke-miterlimit="10" points="
			263.681,2.028 263.746,2.053 263.89,2.114 264.108,2.21 264.393,2.337 264.732,2.491 265.116,2.666 265.529,2.855 265.958,3.053 
					"/>
	</g>
	<g id="LINE_21_">
		
			<line fill="none" stroke="#000000" stroke-width="0" stroke-linecap="round" stroke-linejoin="round" stroke-miterlimit="10" x1="263.681" y1="2.028" x2="263.551" y2="1.968"/>
	</g>
	<g id="ARC_92_">
		<path fill="none" stroke="#000000" stroke-width="0" stroke-linecap="round" stroke-linejoin="round" stroke-miterlimit="10" d="
			M266.652,3.291c0.042-0.2-0.086-0.396-0.287-0.438c-0.166-0.035-0.334,0.047-0.408,0.2"/>
	</g>
	<g id="LINE_22_">
		
			<line fill="none" stroke="#000000" stroke-width="0" stroke-linecap="round" stroke-linejoin="round" stroke-miterlimit="10" x1="245.172" y1="211.296" x2="245.318" y2="211.294"/>
	</g>
	<g id="ARC_93_">
		
			<path fill="none" stroke="#000000" stroke-width="0.4252" stroke-linecap="round" stroke-linejoin="round" stroke-miterlimit="10" d="
			M245.318,231.181c0.695,69.783,8.703,139.301,23.891,207.415"/>
	</g>
	<g id="ARC_94_">
		
			<path fill="none" stroke="#000000" stroke-width="0.4252" stroke-linecap="round" stroke-linejoin="round" stroke-miterlimit="10" d="
			M215.354,231.328c1.399,72.314,17.814,143.548,48.204,209.182"/>
	</g>
	<g id="ARC_95_">
		
			<path fill="none" stroke="#000000" stroke-width="0.4252" stroke-linecap="round" stroke-linejoin="round" stroke-miterlimit="10" d="
			M220.354,226.231c-2.761,0-5,2.238-5,5c0,0.032,0,0.064,0.001,0.097"/>
	</g>
	<g id="ARC_96_">
		
			<path fill="none" stroke="#000000" stroke-width="0.4252" stroke-linecap="round" stroke-linejoin="round" stroke-miterlimit="10" d="
			M245.318,231.181c-0.027-2.742-2.258-4.95-5-4.95"/>
	</g>
	<g id="ARC_97_">
		
			<path fill="none" stroke="#000000" stroke-width="0.4252" stroke-linecap="round" stroke-linejoin="round" stroke-miterlimit="10" d="
			M263.558,440.509c0.696,1.504,2.479,2.158,3.983,1.462c1.281-0.593,1.975-1.998,1.667-3.375"/>
	</g>
	<g id="LINE_23_">
		
			<line fill="none" stroke="#000000" stroke-width="0.7087" stroke-linecap="round" stroke-linejoin="round" stroke-miterlimit="10" x1="220.354" y1="226.231" x2="240.318" y2="226.231"/>
	</g>
	<g id="ARC_98_">
		<path fill="none" stroke="#000000" stroke-width="0" stroke-linecap="round" stroke-linejoin="round" stroke-miterlimit="10" d="
			M245.172,231.166c0.595,69.799,8.606,139.337,23.897,207.443"/>
	</g>
	<g id="ARC_99_">
		<path fill="none" stroke="#000000" stroke-width="0" stroke-linecap="round" stroke-linejoin="round" stroke-miterlimit="10" d="
			M215.497,231.308c1.494,72.282,17.898,143.478,48.184,209.126"/>
	</g>
	<g id="POLYLINE_10_">
		
			<polyline fill="none" stroke="#000000" stroke-width="0.7087" stroke-linecap="round" stroke-linejoin="round" stroke-miterlimit="10" points="
			266.652,439.171 262.637,418.835 259.253,398.377 256.3,377.853 251.205,337.432 248.063,307.504 245.791,282.083 
			243.958,256.626 242.789,231.139 		"/>
	</g>
	<g id="POLYLINE_11_">
		
			<polyline fill="none" stroke="#000000" stroke-width="0.7087" stroke-linecap="round" stroke-linejoin="round" stroke-miterlimit="10" points="
			217.743,231.179 217.906,252.097 219.137,273 221.375,293.809 224.569,314.498 228.692,335.032 233.727,355.351 238.103,370.403 
			243.038,385.282 250.062,403.57 257.825,421.571 265.958,439.409 		"/>
	</g>
	<g id="POLYLINE_12_">
		
			<polyline fill="none" stroke="#000000" stroke-width="0.7087" stroke-linecap="round" stroke-linejoin="round" stroke-miterlimit="10" points="
			220.35,226.363 230.336,226.369 240.314,226.356 		"/>
	</g>
	<g id="POLYLINE_13_">
		
			<polyline fill="none" stroke="#000000" stroke-width="0.7087" stroke-linecap="round" stroke-linejoin="round" stroke-miterlimit="10" points="
			240.371,228.751 230.375,228.5 220.232,228.636 		"/>
	</g>
	<g id="LINE_24_">
		
			<line fill="none" stroke="#000000" stroke-width="0" stroke-linecap="round" stroke-linejoin="round" stroke-miterlimit="10" x1="220.35" y1="226.363" x2="220.35" y2="226.231"/>
	</g>
	<g id="POLYLINE_14_">
		
			<polyline fill="none" stroke="#000000" stroke-width="0.7087" stroke-linecap="round" stroke-linejoin="round" stroke-miterlimit="10" points="
			220.232,228.636 220.237,228.197 220.245,227.779 220.257,227.396 220.271,227.059 220.289,226.78 220.308,226.566 
			220.329,226.426 220.35,226.363 		"/>
	</g>
	<g id="LINE_25_">
		
			<line fill="none" stroke="#000000" stroke-width="0" stroke-linecap="round" stroke-linejoin="round" stroke-miterlimit="10" x1="215.497" y1="231.308" x2="215.354" y2="231.31"/>
	</g>
	<g id="POLYLINE_15_">
		
			<polyline fill="none" stroke="#000000" stroke-width="0.7087" stroke-linecap="round" stroke-linejoin="round" stroke-miterlimit="10" points="
			215.497,231.308 215.559,231.291 215.697,231.274 215.908,231.256 216.183,231.238 216.516,231.221 216.895,231.206 
			217.308,231.191 217.743,231.179 		"/>
	</g>
	<g id="ARC_100_">
		<path fill="none" stroke="#000000" stroke-width="0" stroke-linecap="round" stroke-linejoin="round" stroke-miterlimit="10" d="
			M220.232,228.636c-1.368,0.064-2.454,1.174-2.489,2.543"/>
	</g>
	<g id="ARC_101_">
		<path fill="none" stroke="#000000" stroke-width="0" stroke-linecap="round" stroke-linejoin="round" stroke-miterlimit="10" d="
			M220.35,226.363c-2.677-0.003-4.851,2.165-4.854,4.842c0,0.034,0,0.068,0.001,0.103"/>
	</g>
	<g id="LINE_26_">
		
			<line fill="none" stroke="#000000" stroke-width="0" stroke-linecap="round" stroke-linejoin="round" stroke-miterlimit="10" x1="240.314" y1="226.356" x2="240.314" y2="226.231"/>
	</g>
	<g id="POLYLINE_16_">
		
			<polyline fill="none" stroke="#000000" stroke-width="0.7087" stroke-linecap="round" stroke-linejoin="round" stroke-miterlimit="10" points="
			240.371,228.751 240.369,228.294 240.365,227.856 240.359,227.452 240.353,227.096 240.344,226.799 240.335,226.572 
			240.325,226.423 240.314,226.356 		"/>
	</g>
	<g id="POLYLINE_17_">
		
			<polyline fill="none" stroke="#000000" stroke-width="0.7087" stroke-linecap="round" stroke-linejoin="round" stroke-miterlimit="10" points="
			242.789,231.139 243.244,231.136 243.68,231.135 244.082,231.136 244.437,231.139 244.731,231.143 244.957,231.149 
			245.105,231.157 245.172,231.166 		"/>
	</g>
	<g id="ARC_102_">
		<path fill="none" stroke="#000000" stroke-width="0" stroke-linecap="round" stroke-linejoin="round" stroke-miterlimit="10" d="
			M242.789,231.139c-0.051-1.308-1.109-2.353-2.418-2.387"/>
	</g>
	<g id="ARC_103_">
		<path fill="none" stroke="#000000" stroke-width="0" stroke-linecap="round" stroke-linejoin="round" stroke-miterlimit="10" d="
			M245.172,231.166c-0.025-2.665-2.193-4.811-4.857-4.809"/>
	</g>
	<g id="ARC_104_">
		<path fill="none" stroke="#000000" stroke-width="0" stroke-linecap="round" stroke-linejoin="round" stroke-miterlimit="10" d="
			M263.681,440.434c0.664,1.434,2.364,2.058,3.798,1.395c1.221-0.565,1.883-1.906,1.59-3.219"/>
	</g>
	<g id="POLYLINE_18_">
		
			<polyline fill="none" stroke="#000000" stroke-width="0.7087" stroke-linecap="round" stroke-linejoin="round" stroke-miterlimit="10" points="
			269.069,438.609 269.002,438.628 268.852,438.666 268.622,438.721 268.321,438.792 267.96,438.875 267.552,438.969 
			267.111,439.068 266.652,439.171 		"/>
	</g>
	<g id="LINE_27_">
		
			<line fill="none" stroke="#000000" stroke-width="0" stroke-linecap="round" stroke-linejoin="round" stroke-miterlimit="10" x1="269.069" y1="438.609" x2="269.205" y2="438.579"/>
	</g>
	<g id="POLYLINE_19_">
		
			<polyline fill="none" stroke="#000000" stroke-width="0.7087" stroke-linecap="round" stroke-linejoin="round" stroke-miterlimit="10" points="
			263.681,440.434 263.746,440.409 263.89,440.348 264.108,440.252 264.393,440.125 264.732,439.971 265.116,439.796 
			265.529,439.607 265.958,439.409 		"/>
	</g>
	<g id="LINE_28_">
		
			<line fill="none" stroke="#000000" stroke-width="0" stroke-linecap="round" stroke-linejoin="round" stroke-miterlimit="10" x1="263.681" y1="440.434" x2="263.551" y2="440.494"/>
	</g>
	<g id="ARC_105_">
		<path fill="none" stroke="#000000" stroke-width="0" stroke-linecap="round" stroke-linejoin="round" stroke-miterlimit="10" d="
			M265.958,439.409c0.09,0.184,0.312,0.26,0.495,0.17c0.152-0.075,0.234-0.243,0.2-0.408"/>
	</g>
	<g id="LINE_29_">
		
			<line fill="none" stroke="#000000" stroke-width="0" stroke-linecap="round" stroke-linejoin="round" stroke-miterlimit="10" x1="245.172" y1="231.166" x2="245.318" y2="231.168"/>
	</g>
	<g id="ARC_106_">
		
			<path fill="none" stroke="#000000" stroke-width="0.4252" stroke-linecap="round" stroke-linejoin="round" stroke-miterlimit="10" d="
			M245.318,1195.181c0.695,69.783,8.703,139.301,23.891,207.415"/>
	</g>
	<g id="ARC_107_">
		
			<path fill="none" stroke="#000000" stroke-width="0.4252" stroke-linecap="round" stroke-linejoin="round" stroke-miterlimit="10" d="
			M215.354,1195.328c1.399,72.314,17.814,143.548,48.204,209.182"/>
	</g>
	<g id="ARC_108_">
		
			<path fill="none" stroke="#000000" stroke-width="0.4252" stroke-linecap="round" stroke-linejoin="round" stroke-miterlimit="10" d="
			M220.354,1190.231c-2.761,0-5,2.238-5,5c0,0.032,0,0.064,0.001,0.097"/>
	</g>
	<g id="ARC_109_">
		
			<path fill="none" stroke="#000000" stroke-width="0.4252" stroke-linecap="round" stroke-linejoin="round" stroke-miterlimit="10" d="
			M245.318,1195.181c-0.027-2.742-2.258-4.95-5-4.95"/>
	</g>
	<g id="ARC_110_">
		
			<path fill="none" stroke="#000000" stroke-width="0.4252" stroke-linecap="round" stroke-linejoin="round" stroke-miterlimit="10" d="
			M263.558,1404.509c0.696,1.504,2.479,2.158,3.983,1.462c1.281-0.593,1.975-1.998,1.667-3.375"/>
	</g>
	<g id="LINE_30_">
		
			<line fill="none" stroke="#000000" stroke-width="0.7087" stroke-linecap="round" stroke-linejoin="round" stroke-miterlimit="10" x1="220.354" y1="1190.231" x2="240.318" y2="1190.231"/>
	</g>
	<g id="ARC_111_">
		<path fill="none" stroke="#000000" stroke-width="0" stroke-linecap="round" stroke-linejoin="round" stroke-miterlimit="10" d="
			M245.172,1195.166c0.595,69.799,8.606,139.337,23.897,207.443"/>
	</g>
	<g id="ARC_112_">
		<path fill="none" stroke="#000000" stroke-width="0" stroke-linecap="round" stroke-linejoin="round" stroke-miterlimit="10" d="
			M215.497,1195.307c1.494,72.283,17.898,143.478,48.184,209.127"/>
	</g>
	<g id="POLYLINE_20_">
		
			<polyline fill="none" stroke="#000000" stroke-width="0.7087" stroke-linecap="round" stroke-linejoin="round" stroke-miterlimit="10" points="
			266.652,1403.171 262.637,1382.835 259.253,1362.377 256.3,1341.853 251.205,1301.432 248.063,1271.504 245.791,1246.083 
			243.958,1220.625 242.789,1195.139 		"/>
	</g>
	<g id="POLYLINE_21_">
		
			<polyline fill="none" stroke="#000000" stroke-width="0.7087" stroke-linecap="round" stroke-linejoin="round" stroke-miterlimit="10" points="
			217.743,1195.179 217.906,1216.097 219.137,1237 221.375,1257.809 224.569,1278.498 228.692,1299.032 233.727,1319.351 
			238.103,1334.403 243.038,1349.282 250.062,1367.571 257.825,1385.572 265.958,1403.41 		"/>
	</g>
	<g id="POLYLINE_22_">
		
			<polyline fill="none" stroke="#000000" stroke-width="0.7087" stroke-linecap="round" stroke-linejoin="round" stroke-miterlimit="10" points="
			220.35,1190.363 230.336,1190.369 240.314,1190.356 		"/>
	</g>
	<g id="POLYLINE_23_">
		
			<polyline fill="none" stroke="#000000" stroke-width="0.7087" stroke-linecap="round" stroke-linejoin="round" stroke-miterlimit="10" points="
			240.371,1192.751 230.375,1192.5 220.232,1192.636 		"/>
	</g>
	<g id="LINE_31_">
		
			<line fill="none" stroke="#000000" stroke-width="0" stroke-linecap="round" stroke-linejoin="round" stroke-miterlimit="10" x1="220.35" y1="1190.363" x2="220.35" y2="1190.231"/>
	</g>
	<g id="POLYLINE_24_">
		
			<polyline fill="none" stroke="#000000" stroke-width="0.7087" stroke-linecap="round" stroke-linejoin="round" stroke-miterlimit="10" points="
			220.232,1192.636 220.237,1192.197 220.245,1191.78 220.257,1191.396 220.271,1191.059 220.289,1190.78 220.308,1190.566 
			220.329,1190.425 220.35,1190.363 		"/>
	</g>
	<g id="LINE_32_">
		
			<line fill="none" stroke="#000000" stroke-width="0" stroke-linecap="round" stroke-linejoin="round" stroke-miterlimit="10" x1="215.497" y1="1195.307" x2="215.354" y2="1195.31"/>
	</g>
	<g id="POLYLINE_25_">
		
			<polyline fill="none" stroke="#000000" stroke-width="0.7087" stroke-linecap="round" stroke-linejoin="round" stroke-miterlimit="10" points="
			215.497,1195.307 215.559,1195.292 215.697,1195.274 215.908,1195.256 216.183,1195.238 216.516,1195.221 216.895,1195.206 
			217.308,1195.191 217.743,1195.179 		"/>
	</g>
	<g id="ARC_113_">
		<path fill="none" stroke="#000000" stroke-width="0" stroke-linecap="round" stroke-linejoin="round" stroke-miterlimit="10" d="
			M220.232,1192.636c-1.368,0.064-2.454,1.174-2.489,2.543"/>
	</g>
	<g id="ARC_114_">
		<path fill="none" stroke="#000000" stroke-width="0" stroke-linecap="round" stroke-linejoin="round" stroke-miterlimit="10" d="
			M220.35,1190.363c-2.677-0.003-4.851,2.165-4.854,4.843c0,0.034,0,0.068,0.001,0.102"/>
	</g>
	<g id="LINE_33_">
		
			<line fill="none" stroke="#000000" stroke-width="0" stroke-linecap="round" stroke-linejoin="round" stroke-miterlimit="10" x1="240.314" y1="1190.356" x2="240.314" y2="1190.231"/>
	</g>
	<g id="POLYLINE_26_">
		
			<polyline fill="none" stroke="#000000" stroke-width="0.7087" stroke-linecap="round" stroke-linejoin="round" stroke-miterlimit="10" points="
			240.371,1192.751 240.369,1192.294 240.365,1191.856 240.359,1191.452 240.353,1191.095 240.344,1190.799 240.335,1190.572 
			240.325,1190.423 240.314,1190.356 		"/>
	</g>
	<g id="POLYLINE_27_">
		
			<polyline fill="none" stroke="#000000" stroke-width="0.7087" stroke-linecap="round" stroke-linejoin="round" stroke-miterlimit="10" points="
			242.789,1195.139 243.244,1195.136 243.68,1195.135 244.082,1195.136 244.437,1195.139 244.731,1195.143 244.957,1195.149 
			245.105,1195.157 245.172,1195.166 		"/>
	</g>
	<g id="ARC_115_">
		<path fill="none" stroke="#000000" stroke-width="0" stroke-linecap="round" stroke-linejoin="round" stroke-miterlimit="10" d="
			M242.789,1195.139c-0.051-1.309-1.109-2.354-2.418-2.388"/>
	</g>
	<g id="ARC_116_">
		<path fill="none" stroke="#000000" stroke-width="0" stroke-linecap="round" stroke-linejoin="round" stroke-miterlimit="10" d="
			M245.172,1195.166c-0.025-2.664-2.193-4.811-4.857-4.81"/>
	</g>
	<g id="ARC_117_">
		<path fill="none" stroke="#000000" stroke-width="0" stroke-linecap="round" stroke-linejoin="round" stroke-miterlimit="10" d="
			M263.681,1404.434c0.664,1.434,2.364,2.058,3.798,1.394c1.221-0.565,1.883-1.905,1.59-3.219"/>
	</g>
	<g id="POLYLINE_28_">
		
			<polyline fill="none" stroke="#000000" stroke-width="0.7087" stroke-linecap="round" stroke-linejoin="round" stroke-miterlimit="10" points="
			269.069,1402.609 269.002,1402.628 268.852,1402.667 268.622,1402.721 268.321,1402.792 267.96,1402.875 267.552,1402.968 
			267.111,1403.069 266.652,1403.171 		"/>
	</g>
	<g id="LINE_34_">
		
			<line fill="none" stroke="#000000" stroke-width="0" stroke-linecap="round" stroke-linejoin="round" stroke-miterlimit="10" x1="269.069" y1="1402.609" x2="269.205" y2="1402.579"/>
	</g>
	<g id="POLYLINE_29_">
		
			<polyline fill="none" stroke="#000000" stroke-width="0.7087" stroke-linecap="round" stroke-linejoin="round" stroke-miterlimit="10" points="
			263.681,1404.434 263.746,1404.409 263.89,1404.348 264.108,1404.251 264.393,1404.125 264.732,1403.971 265.116,1403.796 
			265.529,1403.607 265.958,1403.41 		"/>
	</g>
	<g id="LINE_35_">
		
			<line fill="none" stroke="#000000" stroke-width="0" stroke-linecap="round" stroke-linejoin="round" stroke-miterlimit="10" x1="263.681" y1="1404.434" x2="263.551" y2="1404.494"/>
	</g>
	<g id="ARC_118_">
		<path fill="none" stroke="#000000" stroke-width="0" stroke-linecap="round" stroke-linejoin="round" stroke-miterlimit="10" d="
			M265.958,1403.41c0.09,0.184,0.312,0.26,0.495,0.17c0.152-0.074,0.234-0.242,0.2-0.408"/>
	</g>
	<g id="LINE_36_">
		
			<line fill="none" stroke="#000000" stroke-width="0" stroke-linecap="round" stroke-linejoin="round" stroke-miterlimit="10" x1="245.172" y1="1195.166" x2="245.318" y2="1195.168"/>
	</g>
	<g id="ARC_119_">
		
			<path fill="none" stroke="#000000" stroke-width="0.4252" stroke-linecap="round" stroke-linejoin="round" stroke-miterlimit="10" d="
			M305.154,693.281c-0.695-69.783-8.702-139.301-23.891-207.415"/>
	</g>
	<g id="ARC_120_">
		
			<path fill="none" stroke="#000000" stroke-width="0.4252" stroke-linecap="round" stroke-linejoin="round" stroke-miterlimit="10" d="
			M335.117,693.134c-1.398-72.314-17.813-143.548-48.203-209.182"/>
	</g>
	<g id="ARC_121_">
		
			<path fill="none" stroke="#000000" stroke-width="0.4252" stroke-linecap="round" stroke-linejoin="round" stroke-miterlimit="10" d="
			M330.118,698.231c2.762,0,5-2.239,5-5c0-0.032,0-0.064-0.001-0.097"/>
	</g>
	<g id="ARC_122_">
		
			<path fill="none" stroke="#000000" stroke-width="0.4252" stroke-linecap="round" stroke-linejoin="round" stroke-miterlimit="10" d="
			M305.154,693.281c0.027,2.742,2.258,4.95,5,4.95"/>
	</g>
	<g id="ARC_123_">
		
			<path fill="none" stroke="#000000" stroke-width="0.4252" stroke-linecap="round" stroke-linejoin="round" stroke-miterlimit="10" d="
			M286.914,483.953c-0.696-1.504-2.479-2.158-3.983-1.462c-1.28,0.593-1.975,1.998-1.667,3.375"/>
	</g>
	<g id="LINE_37_">
		
			<line fill="none" stroke="#000000" stroke-width="0.7087" stroke-linecap="round" stroke-linejoin="round" stroke-miterlimit="10" x1="330.118" y1="698.231" x2="310.154" y2="698.231"/>
	</g>
	<g id="ARC_124_">
		<path fill="none" stroke="#000000" stroke-width="0" stroke-linecap="round" stroke-linejoin="round" stroke-miterlimit="10" d="
			M305.3,693.297c-0.596-69.799-8.606-139.338-23.897-207.444"/>
	</g>
	<g id="ARC_125_">
		<path fill="none" stroke="#000000" stroke-width="0" stroke-linecap="round" stroke-linejoin="round" stroke-miterlimit="10" d="
			M334.975,693.154c-1.495-72.282-17.898-143.478-48.185-209.126"/>
	</g>
	<g id="POLYLINE_30_">
		
			<polyline fill="none" stroke="#000000" stroke-width="0.7087" stroke-linecap="round" stroke-linejoin="round" stroke-miterlimit="10" points="
			283.819,485.291 287.835,505.627 291.218,526.085 294.171,546.609 299.267,587.03 302.409,616.958 304.681,642.379 
			306.513,667.836 307.683,693.323 		"/>
	</g>
	<g id="POLYLINE_31_">
		
			<polyline fill="none" stroke="#000000" stroke-width="0.7087" stroke-linecap="round" stroke-linejoin="round" stroke-miterlimit="10" points="
			332.729,693.283 332.566,672.365 331.334,651.461 329.097,630.653 325.903,609.964 321.78,589.43 316.745,569.111 
			312.369,554.059 307.434,539.18 300.41,520.892 292.647,502.891 284.514,485.053 		"/>
	</g>
	<g id="POLYLINE_32_">
		
			<polyline fill="none" stroke="#000000" stroke-width="0.7087" stroke-linecap="round" stroke-linejoin="round" stroke-miterlimit="10" points="
			330.122,698.099 320.136,698.093 310.158,698.105 		"/>
	</g>
	<g id="POLYLINE_33_">
		
			<polyline fill="none" stroke="#000000" stroke-width="0.7087" stroke-linecap="round" stroke-linejoin="round" stroke-miterlimit="10" points="
			310.101,695.71 320.096,695.963 330.24,695.826 		"/>
	</g>
	<g id="LINE_38_">
		
			<line fill="none" stroke="#000000" stroke-width="0" stroke-linecap="round" stroke-linejoin="round" stroke-miterlimit="10" x1="330.122" y1="698.099" x2="330.122" y2="698.231"/>
	</g>
	<g id="POLYLINE_34_">
		
			<polyline fill="none" stroke="#000000" stroke-width="0.7087" stroke-linecap="round" stroke-linejoin="round" stroke-miterlimit="10" points="
			330.24,695.826 330.235,696.265 330.226,696.683 330.214,697.066 330.2,697.403 330.183,697.682 330.164,697.896 330.143,698.036 
			330.122,698.099 		"/>
	</g>
	<g id="LINE_39_">
		
			<line fill="none" stroke="#000000" stroke-width="0" stroke-linecap="round" stroke-linejoin="round" stroke-miterlimit="10" x1="334.975" y1="693.154" x2="335.118" y2="693.152"/>
	</g>
	<g id="POLYLINE_35_">
		
			<polyline fill="none" stroke="#000000" stroke-width="0.7087" stroke-linecap="round" stroke-linejoin="round" stroke-miterlimit="10" points="
			334.975,693.154 334.913,693.171 334.775,693.188 334.564,693.206 334.289,693.224 333.956,693.241 333.577,693.256 
			333.164,693.271 332.729,693.283 		"/>
	</g>
	<g id="ARC_126_">
		<path fill="none" stroke="#000000" stroke-width="0" stroke-linecap="round" stroke-linejoin="round" stroke-miterlimit="10" d="
			M330.24,695.826c1.368-0.064,2.454-1.174,2.489-2.543"/>
	</g>
	<g id="ARC_127_">
		<path fill="none" stroke="#000000" stroke-width="0" stroke-linecap="round" stroke-linejoin="round" stroke-miterlimit="10" d="
			M330.122,698.099c2.678,0.003,4.851-2.165,4.854-4.842c0-0.034-0.001-0.068-0.001-0.103"/>
	</g>
	<g id="LINE_40_">
		
			<line fill="none" stroke="#000000" stroke-width="0" stroke-linecap="round" stroke-linejoin="round" stroke-miterlimit="10" x1="310.158" y1="698.105" x2="310.158" y2="698.231"/>
	</g>
	<g id="POLYLINE_36_">
		
			<polyline fill="none" stroke="#000000" stroke-width="0.7087" stroke-linecap="round" stroke-linejoin="round" stroke-miterlimit="10" points="
			310.101,695.71 310.103,696.167 310.107,696.605 310.112,697.01 310.12,697.366 310.127,697.663 310.137,697.89 310.147,698.039 
			310.158,698.105 		"/>
	</g>
	<g id="POLYLINE_37_">
		
			<polyline fill="none" stroke="#000000" stroke-width="0.7087" stroke-linecap="round" stroke-linejoin="round" stroke-miterlimit="10" points="
			307.683,693.323 307.228,693.326 306.792,693.327 306.39,693.326 306.035,693.323 305.74,693.319 305.514,693.313 
			305.366,693.305 305.3,693.297 		"/>
	</g>
	<g id="ARC_128_">
		<path fill="none" stroke="#000000" stroke-width="0" stroke-linecap="round" stroke-linejoin="round" stroke-miterlimit="10" d="
			M307.683,693.323c0.051,1.308,1.108,2.353,2.418,2.387"/>
	</g>
	<g id="ARC_129_">
		<path fill="none" stroke="#000000" stroke-width="0" stroke-linecap="round" stroke-linejoin="round" stroke-miterlimit="10" d="
			M305.3,693.297c0.025,2.664,2.192,4.81,4.857,4.809"/>
	</g>
	<g id="ARC_130_">
		<path fill="none" stroke="#000000" stroke-width="0" stroke-linecap="round" stroke-linejoin="round" stroke-miterlimit="10" d="
			M286.791,484.028c-0.663-1.434-2.363-2.058-3.798-1.395c-1.221,0.565-1.883,1.906-1.59,3.219"/>
	</g>
	<g id="POLYLINE_38_">
		
			<polyline fill="none" stroke="#000000" stroke-width="0.7087" stroke-linecap="round" stroke-linejoin="round" stroke-miterlimit="10" points="
			281.403,485.853 281.469,485.833 281.62,485.796 281.85,485.741 282.151,485.67 282.512,485.586 282.92,485.493 283.361,485.394 
			283.819,485.291 		"/>
	</g>
	<g id="LINE_41_">
		
			<line fill="none" stroke="#000000" stroke-width="0" stroke-linecap="round" stroke-linejoin="round" stroke-miterlimit="10" x1="281.403" y1="485.853" x2="281.267" y2="485.883"/>
	</g>
	<g id="POLYLINE_39_">
		
			<polyline fill="none" stroke="#000000" stroke-width="0.7087" stroke-linecap="round" stroke-linejoin="round" stroke-miterlimit="10" points="
			286.791,484.028 286.726,484.053 286.582,484.114 286.364,484.21 286.08,484.337 285.74,484.491 285.356,484.666 284.943,484.855 
			284.514,485.053 		"/>
	</g>
	<g id="LINE_42_">
		
			<line fill="none" stroke="#000000" stroke-width="0" stroke-linecap="round" stroke-linejoin="round" stroke-miterlimit="10" x1="286.791" y1="484.028" x2="286.92" y2="483.968"/>
	</g>
	<g id="ARC_131_">
		<path fill="none" stroke="#000000" stroke-width="0" stroke-linecap="round" stroke-linejoin="round" stroke-miterlimit="10" d="
			M284.514,485.053c-0.09-0.184-0.312-0.26-0.495-0.17c-0.152,0.075-0.234,0.243-0.2,0.408"/>
	</g>
	<g id="LINE_43_">
		
			<line fill="none" stroke="#000000" stroke-width="0" stroke-linecap="round" stroke-linejoin="round" stroke-miterlimit="10" x1="305.3" y1="693.297" x2="305.154" y2="693.294"/>
	</g>
	<g id="ARC_132_">
		
			<path fill="none" stroke="#000000" stroke-width="0.4252" stroke-linecap="round" stroke-linejoin="round" stroke-miterlimit="10" d="
			M305.154,1657.281c-0.695-69.783-8.702-139.301-23.891-207.415"/>
	</g>
	<g id="ARC_133_">
		
			<path fill="none" stroke="#000000" stroke-width="0.4252" stroke-linecap="round" stroke-linejoin="round" stroke-miterlimit="10" d="
			M335.117,1657.134c-1.398-72.314-17.813-143.548-48.203-209.182"/>
	</g>
	<g id="ARC_134_">
		
			<path fill="none" stroke="#000000" stroke-width="0.4252" stroke-linecap="round" stroke-linejoin="round" stroke-miterlimit="10" d="
			M330.118,1662.231c2.762,0,5-2.238,5-5c0-0.032,0-0.064-0.001-0.097"/>
	</g>
	<g id="ARC_135_">
		
			<path fill="none" stroke="#000000" stroke-width="0.4252" stroke-linecap="round" stroke-linejoin="round" stroke-miterlimit="10" d="
			M305.154,1657.281c0.027,2.742,2.258,4.95,5,4.95"/>
	</g>
	<g id="ARC_136_">
		
			<path fill="none" stroke="#000000" stroke-width="0.4252" stroke-linecap="round" stroke-linejoin="round" stroke-miterlimit="10" d="
			M286.914,1447.953c-0.696-1.504-2.479-2.158-3.983-1.462c-1.28,0.593-1.975,1.998-1.667,3.375"/>
	</g>
	<g id="LINE_44_">
		
			<line fill="none" stroke="#000000" stroke-width="0.7087" stroke-linecap="round" stroke-linejoin="round" stroke-miterlimit="10" x1="330.118" y1="1662.231" x2="310.154" y2="1662.231"/>
	</g>
	<g id="ARC_137_">
		<path fill="none" stroke="#000000" stroke-width="0" stroke-linecap="round" stroke-linejoin="round" stroke-miterlimit="10" d="
			M305.3,1657.296c-0.596-69.799-8.606-139.337-23.897-207.443"/>
	</g>
	<g id="ARC_138_">
		<path fill="none" stroke="#000000" stroke-width="0" stroke-linecap="round" stroke-linejoin="round" stroke-miterlimit="10" d="
			M334.975,1657.155c-1.495-72.283-17.898-143.478-48.185-209.127"/>
	</g>
	<g id="POLYLINE_40_">
		
			<polyline fill="none" stroke="#000000" stroke-width="0.7087" stroke-linecap="round" stroke-linejoin="round" stroke-miterlimit="10" points="
			283.819,1449.291 287.835,1469.626 291.218,1490.084 294.171,1510.609 299.267,1551.03 302.409,1580.958 304.681,1606.379 
			306.513,1631.836 307.683,1657.323 		"/>
	</g>
	<g id="POLYLINE_41_">
		
			<polyline fill="none" stroke="#000000" stroke-width="0.7087" stroke-linecap="round" stroke-linejoin="round" stroke-miterlimit="10" points="
			332.729,1657.283 332.566,1636.365 331.334,1615.461 329.097,1594.653 325.903,1573.964 321.78,1553.43 316.745,1533.111 
			312.369,1518.059 307.434,1503.18 300.41,1484.891 292.647,1466.89 284.514,1449.052 		"/>
	</g>
	<g id="POLYLINE_42_">
		
			<polyline fill="none" stroke="#000000" stroke-width="0.7087" stroke-linecap="round" stroke-linejoin="round" stroke-miterlimit="10" points="
			330.122,1662.099 320.136,1662.093 310.158,1662.106 		"/>
	</g>
	<g id="POLYLINE_43_">
		
			<polyline fill="none" stroke="#000000" stroke-width="0.7087" stroke-linecap="round" stroke-linejoin="round" stroke-miterlimit="10" points="
			310.101,1659.71 320.096,1659.962 330.24,1659.826 		"/>
	</g>
	<g id="LINE_45_">
		
			<line fill="none" stroke="#000000" stroke-width="0" stroke-linecap="round" stroke-linejoin="round" stroke-miterlimit="10" x1="330.122" y1="1662.099" x2="330.122" y2="1662.231"/>
	</g>
	<g id="POLYLINE_44_">
		
			<polyline fill="none" stroke="#000000" stroke-width="0.7087" stroke-linecap="round" stroke-linejoin="round" stroke-miterlimit="10" points="
			330.24,1659.826 330.235,1660.265 330.226,1660.682 330.214,1661.066 330.2,1661.403 330.183,1661.682 330.164,1661.896 
			330.143,1662.037 330.122,1662.099 		"/>
	</g>
	<g id="LINE_46_">
		
			<line fill="none" stroke="#000000" stroke-width="0" stroke-linecap="round" stroke-linejoin="round" stroke-miterlimit="10" x1="334.975" y1="1657.155" x2="335.118" y2="1657.152"/>
	</g>
	<g id="POLYLINE_45_">
		
			<polyline fill="none" stroke="#000000" stroke-width="0.7087" stroke-linecap="round" stroke-linejoin="round" stroke-miterlimit="10" points="
			334.975,1657.155 334.913,1657.17 334.775,1657.188 334.564,1657.206 334.289,1657.224 333.956,1657.241 333.577,1657.256 
			333.164,1657.271 332.729,1657.283 		"/>
	</g>
	<g id="ARC_139_">
		<path fill="none" stroke="#000000" stroke-width="0" stroke-linecap="round" stroke-linejoin="round" stroke-miterlimit="10" d="
			M330.24,1659.826c1.368-0.064,2.454-1.174,2.489-2.543"/>
	</g>
	<g id="ARC_140_">
		<path fill="none" stroke="#000000" stroke-width="0" stroke-linecap="round" stroke-linejoin="round" stroke-miterlimit="10" d="
			M330.122,1662.099c2.678,0.003,4.851-2.165,4.854-4.843c0-0.034-0.001-0.068-0.001-0.102"/>
	</g>
	<g id="LINE_47_">
		
			<line fill="none" stroke="#000000" stroke-width="0" stroke-linecap="round" stroke-linejoin="round" stroke-miterlimit="10" x1="310.158" y1="1662.106" x2="310.158" y2="1662.231"/>
	</g>
	<g id="POLYLINE_46_">
		
			<polyline fill="none" stroke="#000000" stroke-width="0.7087" stroke-linecap="round" stroke-linejoin="round" stroke-miterlimit="10" points="
			310.101,1659.71 310.103,1660.167 310.107,1660.606 310.112,1661.01 310.12,1661.367 310.127,1661.663 310.137,1661.89 
			310.147,1662.039 310.158,1662.106 		"/>
	</g>
	<g id="POLYLINE_47_">
		
			<polyline fill="none" stroke="#000000" stroke-width="0.7087" stroke-linecap="round" stroke-linejoin="round" stroke-miterlimit="10" points="
			307.683,1657.323 307.228,1657.326 306.792,1657.327 306.39,1657.326 306.035,1657.323 305.74,1657.319 305.514,1657.313 
			305.366,1657.305 305.3,1657.296 		"/>
	</g>
	<g id="ARC_141_">
		<path fill="none" stroke="#000000" stroke-width="0" stroke-linecap="round" stroke-linejoin="round" stroke-miterlimit="10" d="
			M307.683,1657.323c0.051,1.309,1.108,2.354,2.418,2.388"/>
	</g>
	<g id="ARC_142_">
		<path fill="none" stroke="#000000" stroke-width="0" stroke-linecap="round" stroke-linejoin="round" stroke-miterlimit="10" d="
			M305.3,1657.296c0.025,2.664,2.192,4.811,4.857,4.81"/>
	</g>
	<g id="ARC_143_">
		<path fill="none" stroke="#000000" stroke-width="0" stroke-linecap="round" stroke-linejoin="round" stroke-miterlimit="10" d="
			M286.791,1448.028c-0.663-1.434-2.363-2.058-3.798-1.394c-1.221,0.565-1.883,1.905-1.59,3.219"/>
	</g>
	<g id="POLYLINE_48_">
		
			<polyline fill="none" stroke="#000000" stroke-width="0.7087" stroke-linecap="round" stroke-linejoin="round" stroke-miterlimit="10" points="
			281.403,1449.853 281.469,1449.833 281.62,1449.795 281.85,1449.741 282.151,1449.67 282.512,1449.586 282.92,1449.494 
			283.361,1449.393 283.819,1449.291 		"/>
	</g>
	<g id="LINE_48_">
		
			<line fill="none" stroke="#000000" stroke-width="0" stroke-linecap="round" stroke-linejoin="round" stroke-miterlimit="10" x1="281.403" y1="1449.853" x2="281.267" y2="1449.883"/>
	</g>
	<g id="POLYLINE_49_">
		
			<polyline fill="none" stroke="#000000" stroke-width="0.7087" stroke-linecap="round" stroke-linejoin="round" stroke-miterlimit="10" points="
			286.791,1448.028 286.726,1448.053 286.582,1448.114 286.364,1448.21 286.08,1448.337 285.74,1448.491 285.356,1448.666 
			284.943,1448.855 284.514,1449.052 		"/>
	</g>
	<g id="LINE_49_">
		
			<line fill="none" stroke="#000000" stroke-width="0" stroke-linecap="round" stroke-linejoin="round" stroke-miterlimit="10" x1="286.791" y1="1448.028" x2="286.92" y2="1447.968"/>
	</g>
	<g id="ARC_144_">
		<path fill="none" stroke="#000000" stroke-width="0" stroke-linecap="round" stroke-linejoin="round" stroke-miterlimit="10" d="
			M284.514,1449.052c-0.09-0.184-0.312-0.26-0.495-0.17c-0.152,0.074-0.234,0.242-0.2,0.408"/>
	</g>
	<g id="LINE_50_">
		
			<line fill="none" stroke="#000000" stroke-width="0" stroke-linecap="round" stroke-linejoin="round" stroke-miterlimit="10" x1="305.3" y1="1657.296" x2="305.154" y2="1657.293"/>
	</g>
	<g id="ARC_145_">
		
			<path fill="none" stroke="#000000" stroke-width="0.4252" stroke-linecap="round" stroke-linejoin="round" stroke-miterlimit="10" d="
			M281.263,920.596c15.188-68.114,23.195-137.632,23.891-207.415"/>
	</g>
	<g id="ARC_146_">
		
			<path fill="none" stroke="#000000" stroke-width="0.4252" stroke-linecap="round" stroke-linejoin="round" stroke-miterlimit="10" d="
			M286.914,922.509c30.39-65.634,46.805-136.867,48.203-209.182"/>
	</g>
	<g id="ARC_147_">
		
			<path fill="none" stroke="#000000" stroke-width="0.4252" stroke-linecap="round" stroke-linejoin="round" stroke-miterlimit="10" d="
			M335.117,713.328c0.054-2.761-2.141-5.042-4.902-5.096c-0.032,0-0.064-0.001-0.097-0.001"/>
	</g>
	<g id="ARC_148_">
		
			<path fill="none" stroke="#000000" stroke-width="0.4252" stroke-linecap="round" stroke-linejoin="round" stroke-miterlimit="10" d="
			M310.154,708.231c-2.742,0-4.973,2.208-5,4.95"/>
	</g>
	<g id="ARC_149_">
		
			<path fill="none" stroke="#000000" stroke-width="0.4252" stroke-linecap="round" stroke-linejoin="round" stroke-miterlimit="10" d="
			M281.263,920.596c-0.36,1.617,0.658,3.22,2.275,3.581c1.377,0.307,2.782-0.387,3.375-1.668"/>
	</g>
	<g id="LINE_51_">
		
			<line fill="none" stroke="#000000" stroke-width="0.7087" stroke-linecap="round" stroke-linejoin="round" stroke-miterlimit="10" x1="330.118" y1="708.231" x2="310.154" y2="708.231"/>
	</g>
	<g id="ARC_150_">
		<path fill="none" stroke="#000000" stroke-width="0" stroke-linecap="round" stroke-linejoin="round" stroke-miterlimit="10" d="
			M281.403,920.609c15.291-68.106,23.302-137.645,23.897-207.444"/>
	</g>
	<g id="ARC_151_">
		<path fill="none" stroke="#000000" stroke-width="0" stroke-linecap="round" stroke-linejoin="round" stroke-miterlimit="10" d="
			M286.791,922.434c30.286-65.648,46.689-136.844,48.185-209.126"/>
	</g>
	<g id="POLYLINE_50_">
		
			<polyline fill="none" stroke="#000000" stroke-width="0.7087" stroke-linecap="round" stroke-linejoin="round" stroke-miterlimit="10" points="
			283.819,921.171 287.835,900.835 291.218,880.377 294.171,859.853 299.267,819.432 302.409,789.504 304.681,764.083 
			306.513,738.626 307.683,713.139 		"/>
	</g>
	<g id="POLYLINE_51_">
		
			<polyline fill="none" stroke="#000000" stroke-width="0.7087" stroke-linecap="round" stroke-linejoin="round" stroke-miterlimit="10" points="
			332.729,713.179 332.566,734.097 331.334,755 329.097,775.809 325.903,796.498 321.78,817.032 316.745,837.351 312.369,852.403 
			307.434,867.282 300.41,885.57 292.647,903.571 284.514,921.409 		"/>
	</g>
	<g id="POLYLINE_52_">
		
			<polyline fill="none" stroke="#000000" stroke-width="0.7087" stroke-linecap="round" stroke-linejoin="round" stroke-miterlimit="10" points="
			330.122,708.363 320.136,708.369 310.158,708.356 		"/>
	</g>
	<g id="POLYLINE_53_">
		
			<polyline fill="none" stroke="#000000" stroke-width="0.7087" stroke-linecap="round" stroke-linejoin="round" stroke-miterlimit="10" points="
			310.101,710.751 320.096,710.499 330.24,710.636 		"/>
	</g>
	<g id="LINE_52_">
		
			<line fill="none" stroke="#000000" stroke-width="0" stroke-linecap="round" stroke-linejoin="round" stroke-miterlimit="10" x1="330.122" y1="708.363" x2="330.122" y2="708.231"/>
	</g>
	<g id="POLYLINE_54_">
		
			<polyline fill="none" stroke="#000000" stroke-width="0.7087" stroke-linecap="round" stroke-linejoin="round" stroke-miterlimit="10" points="
			330.24,710.636 330.235,710.197 330.226,709.779 330.214,709.396 330.2,709.059 330.183,708.78 330.164,708.566 330.143,708.426 
			330.122,708.363 		"/>
	</g>
	<g id="LINE_53_">
		
			<line fill="none" stroke="#000000" stroke-width="0" stroke-linecap="round" stroke-linejoin="round" stroke-miterlimit="10" x1="334.975" y1="713.308" x2="335.118" y2="713.31"/>
	</g>
	<g id="POLYLINE_55_">
		
			<polyline fill="none" stroke="#000000" stroke-width="0.7087" stroke-linecap="round" stroke-linejoin="round" stroke-miterlimit="10" points="
			334.975,713.308 334.913,713.291 334.775,713.274 334.564,713.256 334.289,713.238 333.956,713.221 333.577,713.206 
			333.164,713.191 332.729,713.179 		"/>
	</g>
	<g id="ARC_152_">
		<path fill="none" stroke="#000000" stroke-width="0" stroke-linecap="round" stroke-linejoin="round" stroke-miterlimit="10" d="
			M332.729,713.179c-0.035-1.369-1.121-2.479-2.489-2.543"/>
	</g>
	<g id="ARC_153_">
		<path fill="none" stroke="#000000" stroke-width="0" stroke-linecap="round" stroke-linejoin="round" stroke-miterlimit="10" d="
			M334.975,713.308c0.053-2.677-2.074-4.891-4.751-4.944c-0.034,0-0.068-0.001-0.103-0.001"/>
	</g>
	<g id="LINE_54_">
		
			<line fill="none" stroke="#000000" stroke-width="0" stroke-linecap="round" stroke-linejoin="round" stroke-miterlimit="10" x1="310.158" y1="708.356" x2="310.158" y2="708.231"/>
	</g>
	<g id="POLYLINE_56_">
		
			<polyline fill="none" stroke="#000000" stroke-width="0.7087" stroke-linecap="round" stroke-linejoin="round" stroke-miterlimit="10" points="
			310.101,710.751 310.103,710.294 310.107,709.856 310.112,709.452 310.12,709.096 310.127,708.799 310.137,708.572 
			310.147,708.423 310.158,708.356 		"/>
	</g>
	<g id="POLYLINE_57_">
		
			<polyline fill="none" stroke="#000000" stroke-width="0.7087" stroke-linecap="round" stroke-linejoin="round" stroke-miterlimit="10" points="
			307.683,713.139 307.228,713.136 306.792,713.135 306.39,713.136 306.035,713.139 305.74,713.143 305.514,713.149 
			305.366,713.157 305.3,713.165 		"/>
	</g>
	<g id="ARC_154_">
		<path fill="none" stroke="#000000" stroke-width="0" stroke-linecap="round" stroke-linejoin="round" stroke-miterlimit="10" d="
			M310.101,710.751c-1.31,0.035-2.367,1.079-2.418,2.387"/>
	</g>
	<g id="ARC_155_">
		<path fill="none" stroke="#000000" stroke-width="0" stroke-linecap="round" stroke-linejoin="round" stroke-miterlimit="10" d="
			M310.158,708.356c-2.665-0.001-4.832,2.145-4.857,4.809"/>
	</g>
	<g id="ARC_156_">
		<path fill="none" stroke="#000000" stroke-width="0" stroke-linecap="round" stroke-linejoin="round" stroke-miterlimit="10" d="
			M281.403,920.609c-0.344,1.542,0.627,3.071,2.169,3.415c1.313,0.293,2.654-0.369,3.219-1.59"/>
	</g>
	<g id="POLYLINE_58_">
		
			<polyline fill="none" stroke="#000000" stroke-width="0.7087" stroke-linecap="round" stroke-linejoin="round" stroke-miterlimit="10" points="
			281.403,920.609 281.469,920.628 281.62,920.666 281.85,920.721 282.151,920.792 282.512,920.875 282.92,920.969 283.361,921.068 
			283.819,921.171 		"/>
	</g>
	<g id="LINE_55_">
		
			<line fill="none" stroke="#000000" stroke-width="0" stroke-linecap="round" stroke-linejoin="round" stroke-miterlimit="10" x1="281.403" y1="920.609" x2="281.267" y2="920.579"/>
	</g>
	<g id="POLYLINE_59_">
		
			<polyline fill="none" stroke="#000000" stroke-width="0.7087" stroke-linecap="round" stroke-linejoin="round" stroke-miterlimit="10" points="
			286.791,922.434 286.726,922.409 286.582,922.348 286.364,922.252 286.08,922.125 285.74,921.971 285.356,921.796 
			284.943,921.607 284.514,921.409 		"/>
	</g>
	<g id="LINE_56_">
		
			<line fill="none" stroke="#000000" stroke-width="0" stroke-linecap="round" stroke-linejoin="round" stroke-miterlimit="10" x1="286.791" y1="922.434" x2="286.92" y2="922.494"/>
	</g>
	<g id="ARC_157_">
		<path fill="none" stroke="#000000" stroke-width="0" stroke-linecap="round" stroke-linejoin="round" stroke-miterlimit="10" d="
			M283.819,921.171c-0.042,0.2,0.087,0.396,0.287,0.438c0.166,0.035,0.334-0.048,0.408-0.2"/>
	</g>
	<g id="LINE_57_">
		
			<line fill="none" stroke="#000000" stroke-width="0" stroke-linecap="round" stroke-linejoin="round" stroke-miterlimit="10" x1="305.3" y1="713.165" x2="305.154" y2="713.168"/>
	</g>
	<g id="ARC_158_">
		
			<path fill="none" stroke="#000000" stroke-width="0.4252" stroke-linecap="round" stroke-linejoin="round" stroke-miterlimit="10" d="
			M281.263,1884.596c15.188-68.114,23.195-137.632,23.891-207.415"/>
	</g>
	<g id="ARC_159_">
		
			<path fill="none" stroke="#000000" stroke-width="0.4252" stroke-linecap="round" stroke-linejoin="round" stroke-miterlimit="10" d="
			M286.914,1886.509c30.39-65.634,46.805-136.867,48.203-209.182"/>
	</g>
	<g id="ARC_160_">
		
			<path fill="none" stroke="#000000" stroke-width="0.4252" stroke-linecap="round" stroke-linejoin="round" stroke-miterlimit="10" d="
			M335.117,1677.328c0.054-2.761-2.141-5.042-4.902-5.096c-0.032-0.001-0.064-0.001-0.097-0.001"/>
	</g>
	<g id="ARC_161_">
		
			<path fill="none" stroke="#000000" stroke-width="0.4252" stroke-linecap="round" stroke-linejoin="round" stroke-miterlimit="10" d="
			M310.154,1672.231c-2.742,0-4.973,2.208-5,4.95"/>
	</g>
	<g id="ARC_162_">
		
			<path fill="none" stroke="#000000" stroke-width="0.4252" stroke-linecap="round" stroke-linejoin="round" stroke-miterlimit="10" d="
			M281.263,1884.596c-0.36,1.617,0.658,3.221,2.275,3.581c1.377,0.307,2.782-0.388,3.375-1.668"/>
	</g>
	<g id="LINE_58_">
		
			<line fill="none" stroke="#000000" stroke-width="0.7087" stroke-linecap="round" stroke-linejoin="round" stroke-miterlimit="10" x1="330.118" y1="1672.231" x2="310.154" y2="1672.231"/>
	</g>
	<g id="ARC_163_">
		<path fill="none" stroke="#000000" stroke-width="0" stroke-linecap="round" stroke-linejoin="round" stroke-miterlimit="10" d="
			M281.403,1884.609c15.291-68.106,23.302-137.645,23.897-207.443"/>
	</g>
	<g id="ARC_164_">
		<path fill="none" stroke="#000000" stroke-width="0" stroke-linecap="round" stroke-linejoin="round" stroke-miterlimit="10" d="
			M286.791,1886.434c30.286-65.649,46.689-136.844,48.185-209.127"/>
	</g>
	<g id="POLYLINE_60_">
		
			<polyline fill="none" stroke="#000000" stroke-width="0.7087" stroke-linecap="round" stroke-linejoin="round" stroke-miterlimit="10" points="
			283.819,1885.171 287.835,1864.835 291.218,1844.377 294.171,1823.852 299.267,1783.432 302.409,1753.504 304.681,1728.083 
			306.513,1702.625 307.683,1677.139 		"/>
	</g>
	<g id="POLYLINE_61_">
		
			<polyline fill="none" stroke="#000000" stroke-width="0.7087" stroke-linecap="round" stroke-linejoin="round" stroke-miterlimit="10" points="
			332.729,1677.179 332.566,1698.097 331.334,1719 329.097,1739.809 325.903,1760.498 321.78,1781.032 316.745,1801.351 
			312.369,1816.403 307.434,1831.282 300.41,1849.571 292.647,1867.572 284.514,1885.41 		"/>
	</g>
	<g id="POLYLINE_62_">
		
			<polyline fill="none" stroke="#000000" stroke-width="0.7087" stroke-linecap="round" stroke-linejoin="round" stroke-miterlimit="10" points="
			330.122,1672.363 320.136,1672.369 310.158,1672.356 		"/>
	</g>
	<g id="POLYLINE_63_">
		
			<polyline fill="none" stroke="#000000" stroke-width="0.7087" stroke-linecap="round" stroke-linejoin="round" stroke-miterlimit="10" points="
			310.101,1674.751 320.096,1674.5 330.24,1674.636 		"/>
	</g>
	<g id="LINE_59_">
		
			<line fill="none" stroke="#000000" stroke-width="0" stroke-linecap="round" stroke-linejoin="round" stroke-miterlimit="10" x1="330.122" y1="1672.363" x2="330.122" y2="1672.231"/>
	</g>
	<g id="POLYLINE_64_">
		
			<polyline fill="none" stroke="#000000" stroke-width="0.7087" stroke-linecap="round" stroke-linejoin="round" stroke-miterlimit="10" points="
			330.24,1674.636 330.235,1674.197 330.226,1673.78 330.214,1673.396 330.2,1673.059 330.183,1672.78 330.164,1672.566 
			330.143,1672.425 330.122,1672.363 		"/>
	</g>
	<g id="LINE_60_">
		
			<line fill="none" stroke="#000000" stroke-width="0" stroke-linecap="round" stroke-linejoin="round" stroke-miterlimit="10" x1="334.975" y1="1677.307" x2="335.118" y2="1677.31"/>
	</g>
	<g id="POLYLINE_65_">
		
			<polyline fill="none" stroke="#000000" stroke-width="0.7087" stroke-linecap="round" stroke-linejoin="round" stroke-miterlimit="10" points="
			334.975,1677.307 334.913,1677.292 334.775,1677.274 334.564,1677.256 334.289,1677.238 333.956,1677.221 333.577,1677.206 
			333.164,1677.191 332.729,1677.179 		"/>
	</g>
	<g id="ARC_165_">
		<path fill="none" stroke="#000000" stroke-width="0" stroke-linecap="round" stroke-linejoin="round" stroke-miterlimit="10" d="
			M332.729,1677.179c-0.035-1.369-1.121-2.479-2.489-2.543"/>
	</g>
	<g id="ARC_166_">
		<path fill="none" stroke="#000000" stroke-width="0" stroke-linecap="round" stroke-linejoin="round" stroke-miterlimit="10" d="
			M334.975,1677.307c0.053-2.677-2.074-4.89-4.751-4.943c-0.034-0.001-0.068-0.001-0.103-0.001"/>
	</g>
	<g id="LINE_61_">
		
			<line fill="none" stroke="#000000" stroke-width="0" stroke-linecap="round" stroke-linejoin="round" stroke-miterlimit="10" x1="310.158" y1="1672.356" x2="310.158" y2="1672.231"/>
	</g>
	<g id="POLYLINE_66_">
		
			<polyline fill="none" stroke="#000000" stroke-width="0.7087" stroke-linecap="round" stroke-linejoin="round" stroke-miterlimit="10" points="
			310.101,1674.751 310.103,1674.294 310.107,1673.856 310.112,1673.452 310.12,1673.095 310.127,1672.799 310.137,1672.572 
			310.147,1672.423 310.158,1672.356 		"/>
	</g>
	<g id="POLYLINE_67_">
		
			<polyline fill="none" stroke="#000000" stroke-width="0.7087" stroke-linecap="round" stroke-linejoin="round" stroke-miterlimit="10" points="
			307.683,1677.139 307.228,1677.136 306.792,1677.135 306.39,1677.136 306.035,1677.139 305.74,1677.143 305.514,1677.149 
			305.366,1677.157 305.3,1677.166 		"/>
	</g>
	<g id="ARC_167_">
		<path fill="none" stroke="#000000" stroke-width="0" stroke-linecap="round" stroke-linejoin="round" stroke-miterlimit="10" d="
			M310.101,1674.751c-1.31,0.034-2.367,1.079-2.418,2.388"/>
	</g>
	<g id="ARC_168_">
		<path fill="none" stroke="#000000" stroke-width="0" stroke-linecap="round" stroke-linejoin="round" stroke-miterlimit="10" d="
			M310.158,1672.356c-2.665-0.001-4.832,2.146-4.857,4.81"/>
	</g>
	<g id="ARC_169_">
		<path fill="none" stroke="#000000" stroke-width="0" stroke-linecap="round" stroke-linejoin="round" stroke-miterlimit="10" d="
			M281.403,1884.609c-0.344,1.542,0.627,3.071,2.169,3.415c1.313,0.293,2.654-0.369,3.219-1.59"/>
	</g>
	<g id="POLYLINE_68_">
		
			<polyline fill="none" stroke="#000000" stroke-width="0.7087" stroke-linecap="round" stroke-linejoin="round" stroke-miterlimit="10" points="
			281.403,1884.609 281.469,1884.628 281.62,1884.667 281.85,1884.721 282.151,1884.792 282.512,1884.875 282.92,1884.968 
			283.361,1885.069 283.819,1885.171 		"/>
	</g>
	<g id="LINE_62_">
		
			<line fill="none" stroke="#000000" stroke-width="0" stroke-linecap="round" stroke-linejoin="round" stroke-miterlimit="10" x1="281.403" y1="1884.609" x2="281.267" y2="1884.579"/>
	</g>
	<g id="POLYLINE_69_">
		
			<polyline fill="none" stroke="#000000" stroke-width="0.7087" stroke-linecap="round" stroke-linejoin="round" stroke-miterlimit="10" points="
			286.791,1886.434 286.726,1886.409 286.582,1886.348 286.364,1886.251 286.08,1886.125 285.74,1885.971 285.356,1885.796 
			284.943,1885.607 284.514,1885.41 		"/>
	</g>
	<g id="LINE_63_">
		
			<line fill="none" stroke="#000000" stroke-width="0" stroke-linecap="round" stroke-linejoin="round" stroke-miterlimit="10" x1="286.791" y1="1886.434" x2="286.92" y2="1886.494"/>
	</g>
	<g id="ARC_170_">
		<path fill="none" stroke="#000000" stroke-width="0" stroke-linecap="round" stroke-linejoin="round" stroke-miterlimit="10" d="
			M283.819,1885.171c-0.042,0.2,0.087,0.396,0.287,0.438c0.166,0.035,0.334-0.048,0.408-0.199"/>
	</g>
	<g id="LINE_64_">
		
			<line fill="none" stroke="#000000" stroke-width="0" stroke-linecap="round" stroke-linejoin="round" stroke-miterlimit="10" x1="305.3" y1="1677.166" x2="305.154" y2="1677.168"/>
	</g>
	<g id="ARC_171_">
		
			<path fill="none" stroke="#000000" stroke-width="0.4252" stroke-linecap="round" stroke-linejoin="round" stroke-miterlimit="10" d="
			M269.208,967.866c-15.188,68.114-23.195,137.632-23.891,207.415"/>
	</g>
	<g id="ARC_172_">
		
			<path fill="none" stroke="#000000" stroke-width="0.4252" stroke-linecap="round" stroke-linejoin="round" stroke-miterlimit="10" d="
			M263.558,965.953c-30.389,65.634-46.804,136.867-48.204,209.182"/>
	</g>
	<g id="ARC_173_">
		
			<path fill="none" stroke="#000000" stroke-width="0.4252" stroke-linecap="round" stroke-linejoin="round" stroke-miterlimit="10" d="
			M215.354,1175.134c-0.053,2.761,2.142,5.042,4.902,5.096c0.032,0.001,0.064,0.001,0.097,0.001"/>
	</g>
	<g id="ARC_174_">
		
			<path fill="none" stroke="#000000" stroke-width="0.4252" stroke-linecap="round" stroke-linejoin="round" stroke-miterlimit="10" d="
			M240.318,1180.231c2.742,0,4.973-2.208,5-4.95"/>
	</g>
	<g id="ARC_175_">
		
			<path fill="none" stroke="#000000" stroke-width="0.4252" stroke-linecap="round" stroke-linejoin="round" stroke-miterlimit="10" d="
			M269.208,967.866c0.361-1.617-0.658-3.221-2.275-3.581c-1.377-0.307-2.783,0.388-3.375,1.668"/>
	</g>
	<g id="LINE_65_">
		
			<line fill="none" stroke="#000000" stroke-width="0.7087" stroke-linecap="round" stroke-linejoin="round" stroke-miterlimit="10" x1="220.354" y1="1180.231" x2="240.318" y2="1180.231"/>
	</g>
	<g id="ARC_176_">
		<path fill="none" stroke="#000000" stroke-width="0" stroke-linecap="round" stroke-linejoin="round" stroke-miterlimit="10" d="
			M269.069,967.853c-15.291,68.106-23.302,137.645-23.897,207.443"/>
	</g>
	<g id="ARC_177_">
		<path fill="none" stroke="#000000" stroke-width="0" stroke-linecap="round" stroke-linejoin="round" stroke-miterlimit="10" d="
			M263.681,966.028c-30.286,65.649-46.689,136.844-48.184,209.127"/>
	</g>
	<g id="POLYLINE_70_">
		
			<polyline fill="none" stroke="#000000" stroke-width="0.7087" stroke-linecap="round" stroke-linejoin="round" stroke-miterlimit="10" points="
			266.652,967.291 262.637,987.626 259.253,1008.084 256.3,1028.61 251.205,1069.03 248.063,1098.958 245.791,1124.379 
			243.958,1149.836 242.789,1175.323 		"/>
	</g>
	<g id="POLYLINE_71_">
		
			<polyline fill="none" stroke="#000000" stroke-width="0.7087" stroke-linecap="round" stroke-linejoin="round" stroke-miterlimit="10" points="
			217.743,1175.283 217.906,1154.365 219.137,1133.461 221.375,1112.653 224.569,1091.964 228.692,1071.43 233.727,1051.111 
			238.103,1036.059 243.038,1021.18 250.062,1002.891 257.825,984.89 265.958,967.052 		"/>
	</g>
	<g id="POLYLINE_72_">
		
			<polyline fill="none" stroke="#000000" stroke-width="0.7087" stroke-linecap="round" stroke-linejoin="round" stroke-miterlimit="10" points="
			220.35,1180.099 230.336,1180.093 240.314,1180.106 		"/>
	</g>
	<g id="POLYLINE_73_">
		
			<polyline fill="none" stroke="#000000" stroke-width="0.7087" stroke-linecap="round" stroke-linejoin="round" stroke-miterlimit="10" points="
			240.371,1177.71 230.375,1177.962 220.232,1177.826 		"/>
	</g>
	<g id="LINE_66_">
		
			<line fill="none" stroke="#000000" stroke-width="0" stroke-linecap="round" stroke-linejoin="round" stroke-miterlimit="10" x1="220.35" y1="1180.099" x2="220.35" y2="1180.231"/>
	</g>
	<g id="POLYLINE_74_">
		
			<polyline fill="none" stroke="#000000" stroke-width="0.7087" stroke-linecap="round" stroke-linejoin="round" stroke-miterlimit="10" points="
			220.232,1177.826 220.237,1178.265 220.245,1178.682 220.257,1179.066 220.271,1179.403 220.289,1179.682 220.308,1179.896 
			220.329,1180.037 220.35,1180.099 		"/>
	</g>
	<g id="LINE_67_">
		
			<line fill="none" stroke="#000000" stroke-width="0" stroke-linecap="round" stroke-linejoin="round" stroke-miterlimit="10" x1="215.497" y1="1175.155" x2="215.354" y2="1175.152"/>
	</g>
	<g id="POLYLINE_75_">
		
			<polyline fill="none" stroke="#000000" stroke-width="0.7087" stroke-linecap="round" stroke-linejoin="round" stroke-miterlimit="10" points="
			215.497,1175.155 215.559,1175.17 215.697,1175.188 215.908,1175.206 216.183,1175.224 216.516,1175.241 216.895,1175.256 
			217.308,1175.271 217.743,1175.283 		"/>
	</g>
	<g id="ARC_178_">
		<path fill="none" stroke="#000000" stroke-width="0" stroke-linecap="round" stroke-linejoin="round" stroke-miterlimit="10" d="
			M217.743,1175.283c0.035,1.369,1.121,2.479,2.489,2.543"/>
	</g>
	<g id="ARC_179_">
		<path fill="none" stroke="#000000" stroke-width="0" stroke-linecap="round" stroke-linejoin="round" stroke-miterlimit="10" d="
			M215.497,1175.155c-0.053,2.677,2.073,4.89,4.75,4.943c0.034,0.001,0.068,0.001,0.102,0.001"/>
	</g>
	<g id="LINE_68_">
		
			<line fill="none" stroke="#000000" stroke-width="0" stroke-linecap="round" stroke-linejoin="round" stroke-miterlimit="10" x1="240.314" y1="1180.106" x2="240.314" y2="1180.231"/>
	</g>
	<g id="POLYLINE_76_">
		
			<polyline fill="none" stroke="#000000" stroke-width="0.7087" stroke-linecap="round" stroke-linejoin="round" stroke-miterlimit="10" points="
			240.371,1177.71 240.369,1178.167 240.365,1178.606 240.359,1179.01 240.353,1179.367 240.344,1179.663 240.335,1179.89 
			240.325,1180.039 240.314,1180.106 		"/>
	</g>
	<g id="POLYLINE_77_">
		
			<polyline fill="none" stroke="#000000" stroke-width="0.7087" stroke-linecap="round" stroke-linejoin="round" stroke-miterlimit="10" points="
			242.789,1175.323 243.244,1175.326 243.68,1175.327 244.082,1175.326 244.437,1175.323 244.731,1175.319 244.957,1175.313 
			245.105,1175.305 245.172,1175.296 		"/>
	</g>
	<g id="ARC_180_">
		<path fill="none" stroke="#000000" stroke-width="0" stroke-linecap="round" stroke-linejoin="round" stroke-miterlimit="10" d="
			M240.371,1177.71c1.309-0.034,2.367-1.079,2.418-2.388"/>
	</g>
	<g id="ARC_181_">
		<path fill="none" stroke="#000000" stroke-width="0" stroke-linecap="round" stroke-linejoin="round" stroke-miterlimit="10" d="
			M240.314,1180.106c2.664,0.001,4.832-2.146,4.857-4.81"/>
	</g>
	<g id="ARC_182_">
		<path fill="none" stroke="#000000" stroke-width="0" stroke-linecap="round" stroke-linejoin="round" stroke-miterlimit="10" d="
			M269.069,967.853c0.344-1.542-0.627-3.071-2.169-3.415c-1.313-0.293-2.653,0.369-3.219,1.59"/>
	</g>
	<g id="POLYLINE_78_">
		
			<polyline fill="none" stroke="#000000" stroke-width="0.7087" stroke-linecap="round" stroke-linejoin="round" stroke-miterlimit="10" points="
			269.069,967.853 269.002,967.833 268.852,967.795 268.622,967.741 268.321,967.67 267.96,967.586 267.552,967.494 
			267.111,967.393 266.652,967.291 		"/>
	</g>
	<g id="LINE_69_">
		
			<line fill="none" stroke="#000000" stroke-width="0" stroke-linecap="round" stroke-linejoin="round" stroke-miterlimit="10" x1="269.069" y1="967.853" x2="269.205" y2="967.883"/>
	</g>
	<g id="POLYLINE_79_">
		
			<polyline fill="none" stroke="#000000" stroke-width="0.7087" stroke-linecap="round" stroke-linejoin="round" stroke-miterlimit="10" points="
			263.681,966.028 263.746,966.053 263.89,966.114 264.108,966.21 264.393,966.337 264.732,966.491 265.116,966.666 
			265.529,966.855 265.958,967.052 		"/>
	</g>
	<g id="LINE_70_">
		
			<line fill="none" stroke="#000000" stroke-width="0" stroke-linecap="round" stroke-linejoin="round" stroke-miterlimit="10" x1="263.681" y1="966.028" x2="263.551" y2="965.968"/>
	</g>
	<g id="ARC_183_">
		<path fill="none" stroke="#000000" stroke-width="0" stroke-linecap="round" stroke-linejoin="round" stroke-miterlimit="10" d="
			M266.652,967.291c0.042-0.2-0.086-0.396-0.287-0.438c-0.166-0.035-0.334,0.048-0.408,0.199"/>
	</g>
	<g id="LINE_71_">
		
			<line fill="none" stroke="#000000" stroke-width="0" stroke-linecap="round" stroke-linejoin="round" stroke-miterlimit="10" x1="245.172" y1="1175.296" x2="245.318" y2="1175.293"/>
	</g>
</g>
</svg>
