<?xml version="1.0" encoding="utf-8"?>
<!-- Generator: Adobe Illustrator 15.0.2, SVG Export Plug-In . SVG Version: 6.00 Build 0)  -->
<!DOCTYPE svg PUBLIC "-//W3C//DTD SVG 1.1//EN" "http://www.w3.org/Graphics/SVG/1.1/DTD/svg11.dtd">
<svg version="1.1" xmlns="http://www.w3.org/2000/svg" xmlns:xlink="http://www.w3.org/1999/xlink" x="0px" y="0px"
	 width="235.209px" height="265.709px" viewBox="0 0 235.209 265.709" enable-background="new 0 0 235.209 265.709"
	 xml:space="preserve">
<g id="Jaune">
</g>
<g id="_x30_">
	<g id="LINE_16_">
		
			<polyline stroke="#000000" stroke-width="0.7087" stroke-linecap="round" stroke-linejoin="round" stroke-miterlimit="10" points="
			49.905,129.354 0.354,129.354 0.354,136.354 49.905,136.354 		"/>
	</g>
	<g id="LINE_17_">
		
			<polyline stroke="#000000" stroke-width="0.7087" stroke-linecap="round" stroke-linejoin="round" stroke-miterlimit="10" points="
			121.104,65.155 121.104,0.354 114.104,0.354 114.104,65.155 49.905,129.354 49.905,136.354 114.104,200.555 121.104,200.555 
			185.305,136.354 185.305,129.354 121.104,65.155 117.604,71.554 178.905,132.854 117.604,194.155 56.304,132.854 117.604,71.554 
					"/>
	</g>
	<g id="LINE_18_">
		
			<polyline stroke="#000000" stroke-width="0.7087" stroke-linecap="round" stroke-linejoin="round" stroke-miterlimit="10" points="
			185.305,136.354 234.854,136.354 234.854,129.354 185.305,129.354 		"/>
	</g>
	<g id="LINE_19_">
		
			<polyline stroke="#000000" stroke-width="0.7087" stroke-linecap="round" stroke-linejoin="round" stroke-miterlimit="10" points="
			121.104,200.555 121.104,265.354 114.104,265.354 114.104,200.555 		"/>
	</g>
</g>
</svg>
