<?xml version="1.0" encoding="utf-8"?>
<!-- Generator: Adobe Illustrator 15.0.2, SVG Export Plug-In . SVG Version: 6.00 Build 0)  -->
<!DOCTYPE svg PUBLIC "-//W3C//DTD SVG 1.1//EN" "http://www.w3.org/Graphics/SVG/1.1/DTD/svg11.dtd">
<svg version="1.1" id="Elévation" xmlns="http://www.w3.org/2000/svg" xmlns:xlink="http://www.w3.org/1999/xlink" x="0px" y="0px"
	 width="528.709px" height="225.709px" viewBox="41.646 282.645 528.709 225.709"
	 enable-background="new 41.646 282.645 528.709 225.709" xml:space="preserve">
<polyline stroke="#000000" stroke-width="0.7087" stroke-linecap="round" stroke-linejoin="round" stroke-miterlimit="10" points="
	42,390.5 210.82,390.5 301,338.435 301,283 301.125,283 310.875,283 311,283 311,338.435 401.18,390.5 570,390.5 570,390.625 
	570,400.375 570,400.5 401.18,400.5 311,452.565 311,508 310.875,508 301.125,508 301,508 301,452.565 210.82,400.5 42,400.5 
	42,390.75 222.16,395.5 306,443.905 389.84,395.5 306,347.095 222.16,395.5 "/>
</svg>
