<?xml version="1.0" encoding="utf-8"?>
<!-- Generator: Adobe Illustrator 15.0.2, SVG Export Plug-In . SVG Version: 6.00 Build 0)  -->
<!DOCTYPE svg PUBLIC "-//W3C//DTD SVG 1.1//EN" "http://www.w3.org/Graphics/SVG/1.1/DTD/svg11.dtd">
<svg version="1.1" xmlns="http://www.w3.org/2000/svg" xmlns:xlink="http://www.w3.org/1999/xlink" x="0px" y="0px"
	 width="227.615px" height="1635.709px" viewBox="0 0 227.615 1635.709" enable-background="new 0 0 227.615 1635.709"
	 xml:space="preserve">
<g id="ENSEMBLE">
	<g id="LINE_1_">
		
			<polyline stroke="#000000" stroke-width="0.7087" stroke-linecap="round" stroke-linejoin="round" stroke-miterlimit="10" points="
			195.301,982.565 195.301,1461.229 192.301,1461.229 192.301,982.565 		"/>
	</g>
	<g id="LINE_3_">
		
			<polyline stroke="#000000" stroke-width="0.7087" stroke-linecap="round" stroke-linejoin="round" stroke-miterlimit="10" points="
			35.301,982.565 35.301,1461.229 32.301,1461.229 32.301,982.565 		"/>
	</g>
	<g id="LINE_9_">
		
			<polyline stroke="#000000" stroke-width="0.7087" stroke-linecap="round" stroke-linejoin="round" stroke-miterlimit="10" points="
			115.301,1531.618 115.301,1635.354 112.301,1635.354 112.301,1531.618 		"/>
	</g>
	<g id="LINE_17_">
		
			<line fill="none" stroke="#000000" stroke-width="0.7087" stroke-linecap="round" stroke-linejoin="round" stroke-miterlimit="10" x1="82.301" y1="1515.793" x2="62.605" y2="1519.266"/>
	</g>
	<g id="LINE_27_">
		
			<polyline stroke="#000000" stroke-width="0.7087" stroke-linecap="round" stroke-linejoin="round" stroke-miterlimit="10" points="
			115.301,703.641 115.301,487.399 112.301,487.399 112.301,703.641 		"/>
	</g>
	<g id="LINE_39_">
		
			<line fill="none" stroke="#000000" stroke-width="0.7087" stroke-linecap="round" stroke-linejoin="round" stroke-miterlimit="10" x1="145.301" y1="928.001" x2="164.998" y2="924.528"/>
	</g>
	<g id="LINE_42_">
		
			<line fill="none" stroke="#000000" stroke-width="0.7087" stroke-linecap="round" stroke-linejoin="round" stroke-miterlimit="10" x1="145.301" y1="928.001" x2="144.78" y2="925.047"/>
	</g>
	<g id="LINE_43_">
		
			<line fill="none" stroke="#000000" stroke-width="0.7087" stroke-linecap="round" stroke-linejoin="round" stroke-miterlimit="10" x1="82.301" y1="928.001" x2="62.605" y2="924.528"/>
	</g>
	<g id="LINE_48_">
		
			<line fill="none" stroke="#000000" stroke-width="0.7087" stroke-linecap="round" stroke-linejoin="round" stroke-miterlimit="10" x1="106.301" y1="715.641" x2="108.889" y2="715.641"/>
	</g>
	<g id="LINE_49_">
		
			<line fill="none" stroke="#000000" stroke-width="0.7087" stroke-linecap="round" stroke-linejoin="round" stroke-miterlimit="10" x1="106.301" y1="703.641" x2="109" y2="703.641"/>
	</g>
	<g id="ARC_76_">
		<path stroke="#000000" stroke-width="0.7087" stroke-linecap="round" stroke-linejoin="round" stroke-miterlimit="10" d="
			M118.602,703.641c2.976-29.555,27.164-52.463,56.837-53.829c5.062-0.233,10.13-0.254,15.193-0.064
			c2.483,0.093,4.572-1.844,4.666-4.328c0.002-0.057,0.003-0.113,0.003-0.169h-3c0,0.019,0,0.038-0.001,0.057
			c-0.031,0.828-0.728,1.474-1.556,1.442c-5.146-0.193-10.299-0.171-15.443,0.065c-31.273,1.439-56.727,25.662-59.714,56.826"/>
	</g>
	<g id="LINE_58_">
		
			<polyline stroke="#000000" stroke-width="0.7087" stroke-linecap="round" stroke-linejoin="round" stroke-miterlimit="10" points="
			106.301,715.641 106.301,703.641 121.301,703.641 121.301,715.641 		"/>
	</g>
	<g id="ARC_79_">
		<path stroke="#000000" stroke-width="0.7087" stroke-linecap="round" stroke-linejoin="round" stroke-miterlimit="10" d="
			M62.605,703.289l19.696-3.473L62.605,703.289c-11.236,1.981-19.146,12.149-18.304,23.527c1.217,15.836,15.041,27.687,30.876,26.47
			c2.427-0.187,4.821-0.681,7.124-1.47c15.935-5.463,27.406-19.474,29.616-36.174h-3.028c-2.19,15.41-12.838,28.289-27.561,33.337
			c-2.063,0.707-4.207,1.149-6.38,1.316c-14.184,1.09-26.565-9.525-27.655-23.708l0,0.008c-0.729-9.842,6.114-18.637,15.833-20.351
			l19.696-3.473l-0.521-2.955"/>
	</g>
	<g id="ARC_83_">
		<path stroke="#000000" stroke-width="0.7087" stroke-linecap="round" stroke-linejoin="round" stroke-miterlimit="10" d="
			M112.015,703.641c-2.987-31.164-28.44-55.386-59.713-56.826c-5.145-0.236-10.297-0.258-15.444-0.065
			c-0.019,0.001-0.038,0.001-0.056,0.001c-0.829,0-1.5-0.671-1.5-1.5h-3c0,2.485,2.015,4.5,4.5,4.5c0.056,0,0.113-0.001,0.169-0.003
			c5.063-0.19,10.132-0.169,15.193,0.064c29.673,1.366,53.861,24.274,56.837,53.829"/>
	</g>
	<g id="LINE_61_">
		
			<polyline stroke="#000000" stroke-width="0.7087" stroke-linecap="round" stroke-linejoin="round" stroke-miterlimit="10" points="
			115.301,324.44 115.301,108.199 112.301,108.199 112.301,324.44 		"/>
	</g>
	<g id="ARC_103_">
		<path stroke="#000000" stroke-width="0.7087" stroke-linecap="round" stroke-linejoin="round" stroke-miterlimit="10" d="
			M112.301,324.44c0,0.935-0.219,1.857-0.638,2.692c-2.624,5.552-4.1,11.576-4.341,17.711c-0.16,7.332,1.571,14.581,5.026,21.05
			c-3.03,5.715-4.735,12.039-4.989,18.503c-0.262,7.48,1.458,14.897,4.987,21.498c-3.065,5.786-4.774,12.194-4.996,18.739
			c-0.217,7.401,1.505,14.731,4.996,21.261c-3.217,6.081-4.897,12.856-4.894,19.736c-0.055,6.595,1.384,13.117,4.21,19.076
			c0.419,0.835,0.638,1.757,0.638,2.692h3c0-0.935,0.219-1.856,0.638-2.692c2.796-5.792,4.197-12.159,4.091-18.59
			c0.193-7.027-1.436-13.986-4.729-20.197c2.977-5.854,4.745-12.246,5.199-18.797c-0.106-7.37-1.884-14.62-5.199-21.203
			c3.008-5.851,4.747-12.271,5.103-18.84c-0.021-7.355-1.769-14.604-5.103-21.16c2.977-5.806,4.72-12.166,5.119-18.678
			c-0.058-6.944-1.585-13.798-4.481-20.109c-0.419-0.835-0.638-1.757-0.638-2.692"/>
	</g>
	<g id="ARC_109_">
		<path stroke="#000000" stroke-width="0.7087" stroke-linecap="round" stroke-linejoin="round" stroke-miterlimit="10" d="
			M190.632,162.091c0.056-0.002,0.112-0.003,0.169-0.003c2.485,0,4.5,2.015,4.5,4.5v478.664h-3V166.588c0-0.828-0.672-1.5-1.5-1.5
			c-0.019,0-0.038,0-0.057,0.001"/>
	</g>
	<g id="ARC_111_">
		<path stroke="#000000" stroke-width="0.7087" stroke-linecap="round" stroke-linejoin="round" stroke-miterlimit="10" d="
			M115.587,108.199c2.987,31.164,28.44,55.386,59.714,56.825c5.145,0.237,10.297,0.258,15.443,0.065l-0.112-2.998
			c-5.063,0.19-10.132,0.169-15.193-0.063c-29.673-1.366-53.861-24.274-56.837-53.829"/>
	</g>
	<g id="ARC_113_">
		<path stroke="#000000" stroke-width="0.7087" stroke-linecap="round" stroke-linejoin="round" stroke-miterlimit="10" d="
			M36.97,162.091c-2.483-0.093-4.573,1.845-4.666,4.328c-0.002,0.056-0.003,0.113-0.003,0.169v478.664h3V166.588
			c0-0.019,0-0.038,0.001-0.056c0.031-0.828,0.728-1.474,1.555-1.443"/>
	</g>
	<g id="ARC_115_">
		<path stroke="#000000" stroke-width="0.7087" stroke-linecap="round" stroke-linejoin="round" stroke-miterlimit="10" d="
			M109,108.199c-2.976,29.555-27.164,52.463-56.837,53.829c-5.061,0.232-10.13,0.254-15.193,0.063l-0.113,2.998
			c5.146,0.193,10.299,0.172,15.444-0.065c31.273-1.439,56.727-25.662,59.713-56.825"/>
	</g>
	<g id="LINE_62_">
		
			<line fill="none" stroke="#000000" stroke-width="0.7087" stroke-linecap="round" stroke-linejoin="round" stroke-miterlimit="10" x1="106.301" y1="108.199" x2="109" y2="108.199"/>
	</g>
	<g id="LINE_63_">
		
			<line fill="none" stroke="#000000" stroke-width="0.7087" stroke-linecap="round" stroke-linejoin="round" stroke-miterlimit="10" x1="106.301" y1="96.199" x2="108.889" y2="96.199"/>
	</g>
	<g id="LINE_70_">
		
			<polyline stroke="#000000" stroke-width="0.7087" stroke-linecap="round" stroke-linejoin="round" stroke-miterlimit="10" points="
			115.301,96.199 115.301,0.354 112.301,0.354 112.301,96.199 		"/>
	</g>
	<g id="LINE_75_">
		
			<polyline stroke="#000000" stroke-width="0.7087" stroke-linecap="round" stroke-linejoin="round" stroke-miterlimit="10" points="
			106.301,96.199 106.301,108.199 121.301,108.199 121.301,96.199 		"/>
	</g>
	<g id="ARC_127_">
		<path stroke="#000000" stroke-width="0.7087" stroke-linecap="round" stroke-linejoin="round" stroke-miterlimit="10" d="
			M62.605,108.551l19.696,3.473L62.605,108.551c-11.236-1.981-19.146-12.148-18.304-23.527c0.187-2.427,0.68-4.821,1.47-7.124
			c5.151-15.024,21.506-23.027,36.53-17.876c15.935,5.463,27.406,19.475,29.616,36.175h-3.028
			c-2.19-15.41-12.838-28.289-27.561-33.337c-13.457-4.614-28.105,2.555-32.719,16.011c-0.707,2.063-1.149,4.207-1.316,6.381
			l0-0.008c-0.729,9.842,6.114,18.637,15.833,20.351l19.696,3.473l-0.521,2.955"/>
	</g>
	<g id="LINE_80_">
		
			<line fill="none" stroke="#000000" stroke-width="0.7087" stroke-linecap="round" stroke-linejoin="round" stroke-miterlimit="10" x1="111.917" y1="96.199" x2="112.301" y2="96.199"/>
	</g>
	<g id="LINE_81_">
		
			<line fill="none" stroke="#000000" stroke-width="0.7087" stroke-linecap="round" stroke-linejoin="round" stroke-miterlimit="10" x1="115.301" y1="96.199" x2="115.685" y2="96.199"/>
	</g>
	<g id="LINE_82_">
		
			<line fill="none" stroke="#000000" stroke-width="0.7087" stroke-linecap="round" stroke-linejoin="round" stroke-miterlimit="10" x1="118.713" y1="96.199" x2="121.301" y2="96.199"/>
	</g>
	<g id="LINE_83_">
		
			<line fill="none" stroke="#000000" stroke-width="0.7087" stroke-linecap="round" stroke-linejoin="round" stroke-miterlimit="10" x1="118.602" y1="108.199" x2="121.301" y2="108.199"/>
	</g>
	<g id="LINE_84_">
		
			<line fill="none" stroke="#000000" stroke-width="0.7087" stroke-linecap="round" stroke-linejoin="round" stroke-miterlimit="10" x1="115.301" y1="108.199" x2="115.587" y2="108.199"/>
	</g>
	<g id="LINE_85_">
		
			<line fill="none" stroke="#000000" stroke-width="0.7087" stroke-linecap="round" stroke-linejoin="round" stroke-miterlimit="10" x1="112.015" y1="108.199" x2="112.301" y2="108.199"/>
	</g>
	<g id="LINE_86_">
		
			<line fill="none" stroke="#000000" stroke-width="0.7087" stroke-linecap="round" stroke-linejoin="round" stroke-miterlimit="10" x1="112.015" y1="703.641" x2="112.301" y2="703.641"/>
	</g>
	<g id="LINE_87_">
		
			<line fill="none" stroke="#000000" stroke-width="0.7087" stroke-linecap="round" stroke-linejoin="round" stroke-miterlimit="10" x1="115.301" y1="703.641" x2="115.587" y2="703.641"/>
	</g>
	<g id="LINE_88_">
		
			<line fill="none" stroke="#000000" stroke-width="0.7087" stroke-linecap="round" stroke-linejoin="round" stroke-miterlimit="10" x1="118.602" y1="703.641" x2="121.301" y2="703.641"/>
	</g>
	<g id="LINE_89_">
		
			<line fill="none" stroke="#000000" stroke-width="0.7087" stroke-linecap="round" stroke-linejoin="round" stroke-miterlimit="10" x1="118.713" y1="715.641" x2="121.301" y2="715.641"/>
	</g>
	<g id="LINE_90_">
		
			<line fill="none" stroke="#000000" stroke-width="0.7087" stroke-linecap="round" stroke-linejoin="round" stroke-miterlimit="10" x1="115.301" y1="715.641" x2="115.685" y2="715.641"/>
	</g>
	<g id="LINE_91_">
		
			<line fill="none" stroke="#000000" stroke-width="0.7087" stroke-linecap="round" stroke-linejoin="round" stroke-miterlimit="10" x1="111.917" y1="715.641" x2="112.301" y2="715.641"/>
	</g>
	<g id="LINE_98_">
		
			<line fill="none" stroke="#000000" stroke-width="0.7087" stroke-linecap="round" stroke-linejoin="round" stroke-miterlimit="10" x1="112.015" y1="1519.618" x2="112.301" y2="1519.618"/>
	</g>
	<g id="LINE_99_">
		
			<line fill="none" stroke="#000000" stroke-width="0.7087" stroke-linecap="round" stroke-linejoin="round" stroke-miterlimit="10" x1="115.301" y1="1519.618" x2="115.587" y2="1519.618"/>
	</g>
	<g id="LINE_100_">
		
			<line fill="none" stroke="#000000" stroke-width="0.7087" stroke-linecap="round" stroke-linejoin="round" stroke-miterlimit="10" x1="118.602" y1="1519.618" x2="121.301" y2="1519.618"/>
	</g>
	<g id="LINE_101_">
		
			<line fill="none" stroke="#000000" stroke-width="0.7087" stroke-linecap="round" stroke-linejoin="round" stroke-miterlimit="10" x1="118.713" y1="1531.618" x2="121.301" y2="1531.618"/>
	</g>
	<g id="LINE_102_">
		
			<line fill="none" stroke="#000000" stroke-width="0.7087" stroke-linecap="round" stroke-linejoin="round" stroke-miterlimit="10" x1="115.301" y1="1531.618" x2="115.685" y2="1531.618"/>
	</g>
	<g id="LINE_103_">
		
			<line fill="none" stroke="#000000" stroke-width="0.7087" stroke-linecap="round" stroke-linejoin="round" stroke-miterlimit="10" x1="111.917" y1="1531.618" x2="112.301" y2="1531.618"/>
	</g>
	<path stroke="#000000" stroke-width="0.7087" stroke-linecap="round" stroke-linejoin="round" stroke-miterlimit="10" d="
		M164.998,108.551l-19.696,3.473L164.998,108.551c11.235-1.981,19.146-12.148,18.304-23.527
		c-1.217-15.835-15.041-27.687-30.877-26.47c-2.427,0.187-4.82,0.681-7.123,1.47c-15.936,5.463-27.406,19.475-29.616,36.175h3.028
		c2.189-15.41,12.838-28.289,27.561-33.337c2.063-0.707,4.207-1.149,6.381-1.317c14.184-1.09,26.565,9.525,27.655,23.709
		l-0.001-0.008c0.729,9.842-6.113,18.637-15.833,20.351l-19.696,3.473l0.521,2.955"/>
	<path stroke="#000000" stroke-width="0.7087" stroke-linecap="round" stroke-linejoin="round" stroke-miterlimit="10" d="
		M164.998,703.289l-19.696-3.473L164.998,703.289c11.235,1.981,19.146,12.149,18.304,23.527c-0.187,2.427-0.681,4.821-1.47,7.124
		c-5.151,15.024-21.507,23.027-36.53,17.876c-15.936-5.463-27.406-19.474-29.616-36.174h3.028
		c2.189,15.41,12.838,28.289,27.561,33.337c13.457,4.613,28.105-2.555,32.72-16.012c0.707-2.063,1.149-4.207,1.316-6.38
		l-0.001,0.008c0.729-9.842-6.113-18.637-15.833-20.351l-19.696-3.473l0.521-2.955"/>
</g>
<g id="ELEVATION">
	<g id="LINE_76_">
		
			<line fill="none" stroke="#000000" stroke-width="0.7087" stroke-linecap="round" stroke-linejoin="round" stroke-miterlimit="10" x1="112.301" y1="0.354" x2="115.301" y2="0.354"/>
	</g>
	<g id="LINE_78_">
		<path stroke="#000000" stroke-width="0.7087" stroke-linecap="round" stroke-linejoin="round" stroke-miterlimit="10" d="
			M112.015,924.176h0.287v216.242c0,0.935-0.219,1.856-0.638,2.691c-2.817,5.94-4.256,12.439-4.209,19.014
			c-0.018,6.888,1.646,13.675,4.847,19.774c-3.331,6.51-5.06,13.721-5.044,21.033c0.278,6.614,2,13.088,5.044,18.967
			c-3.325,6.465-5.039,13.639-4.997,20.909c0.213,6.657,1.92,13.182,4.997,19.091c-3.371,6.538-5.078,13.806-4.969,21.161
			c0.246,6.106,1.719,12.101,4.332,17.626c0.419,0.835,0.638,1.757,0.638,2.691v216.242h3v-216.242c0-0.935,0.219-1.856,0.638-2.691
			c2.939-6.292,4.417-13.167,4.322-20.111c-0.238-6.53-1.948-12.922-5.003-18.699c3.487-6.509,5.194-13.823,4.948-21.203
			c-0.169-6.565-1.864-13.001-4.95-18.798c3.467-6.484,5.188-13.759,4.992-21.109c-0.198-6.59-1.899-13.048-4.974-18.881
			c3.362-6.213,5.002-13.212,4.747-20.271c0.102-6.401-1.297-12.737-4.083-18.502c-0.419-0.835-0.638-1.757-0.638-2.691V924.176v-12
			v-86.5c5.361-0.684,9.584-4.905,10.268-10.268H227.26v-3H125.569c-0.684-5.362-4.906-9.583-10.268-10.267v-86.5h-3v86.5
			c-5.362,0.684-9.584,4.905-10.267,10.267H0.354v3h101.68c0.683,5.362,4.905,9.584,10.267,10.268v86.5h-0.384
			c-2.21-16.7-13.681-30.711-29.616-36.175c-15.024-5.151-31.379,2.853-36.53,17.877c-0.79,2.303-1.283,4.696-1.47,7.123
			c-0.843,11.378,7.068,21.546,18.304,23.527l19.696,3.473l0.521-2.954l-19.696-3.474c-9.719-1.713-16.562-10.509-15.833-20.351
			l0,0.009c0.167-2.175,0.609-4.318,1.316-6.381c4.614-13.457,19.263-20.625,32.719-16.012
			c14.723,5.048,25.371,17.928,27.561,33.337h-2.588v12H109c-2.976,29.555-27.164,52.463-56.837,53.828
			c-5.061,0.233-10.13,0.255-15.193,0.064c-2.483-0.094-4.573,1.844-4.666,4.328c-0.002,0.056-0.003,0.112-0.003,0.169h3
			c0-0.02,0-0.038,0.001-0.057c0.031-0.828,0.728-1.474,1.555-1.442c5.146,0.193,10.299,0.172,15.444-0.065
			C83.575,979.562,109.028,955.34,112.015,924.176h3.287h0.286c2.987,31.164,28.44,55.386,59.714,56.825
			c5.145,0.237,10.297,0.259,15.443,0.065c0.019-0.001,0.038-0.001,0.057-0.001c0.828,0,1.5,0.671,1.5,1.5h3
			c0-2.485-2.015-4.5-4.5-4.5c-0.057,0-0.113,0.001-0.169,0.003c-5.063,0.19-10.132,0.169-15.193-0.064
			c-29.673-1.365-53.861-24.273-56.837-53.828h2.699v-12h-2.588c2.189-15.409,12.838-28.289,27.561-33.337
			c2.063-0.707,4.207-1.149,6.381-1.316c14.184-1.09,26.565,9.524,27.655,23.709l-0.001-0.009
			c0.729,9.842-6.113,18.638-15.833,20.351l-19.696,3.474l0.521,2.954l19.696-3.473c11.235-1.981,19.146-12.149,18.304-23.527
			c-1.217-15.836-15.041-27.687-30.877-26.47c-2.427,0.187-4.82,0.681-7.123,1.47c-15.936,5.464-27.406,19.475-29.616,36.175h-0.384
			"/>
	</g>
	<g id="LINE_79_">
		
			<line fill="none" stroke="#000000" stroke-width="0.7087" stroke-linecap="round" stroke-linejoin="round" stroke-miterlimit="10" x1="112.301" y1="1635.354" x2="115.301" y2="1635.354"/>
	</g>
	
		<line fill="none" stroke="#000000" stroke-width="0.7087" stroke-linecap="round" stroke-linejoin="round" stroke-miterlimit="10" x1="108.889" y1="96.199" x2="115.301" y2="96.199"/>
	
		<path fill="none" stroke="#000000" stroke-width="0.7087" stroke-linecap="round" stroke-linejoin="round" stroke-miterlimit="10" d="
		M115.301,1531.618"/>
	
		<path fill="none" stroke="#000000" stroke-width="0.7087" stroke-linecap="round" stroke-linejoin="round" stroke-miterlimit="10" d="
		M115.685,1519.917"/>
	<path stroke="#000000" stroke-width="0.7087" stroke-linecap="round" stroke-linejoin="round" stroke-miterlimit="10" d="
		M164.998,1519.266l-19.696-3.473L164.998,1519.266c11.235,1.981,19.146,12.149,18.304,23.527c-0.187,2.427-0.681,4.82-1.47,7.123
		c-5.151,15.024-21.507,23.028-36.53,17.877c-15.936-5.464-27.406-19.475-29.616-36.175h3.028
		c2.189,15.409,12.838,28.289,27.561,33.337c13.457,4.613,28.105-2.555,32.72-16.012c0.707-2.063,1.149-4.206,1.316-6.38
		l-0.001,0.008c0.729-9.842-6.113-18.638-15.833-20.351l-19.696-3.474l0.521-2.954"/>
	<path stroke="#000000" stroke-width="0.7087" stroke-linecap="round" stroke-linejoin="round" stroke-miterlimit="10" d="
		M195.301,1461.229c0,0.057-0.001,0.113-0.003,0.169c-0.094,2.484-2.183,4.422-4.666,4.328c-5.063-0.19-10.132-0.169-15.193,0.064
		c-29.673,1.365-53.861,24.273-56.837,53.828l-2.917,0.299l-0.098-0.299c2.987-31.164,28.44-55.386,59.714-56.825
		c5.145-0.237,10.297-0.259,15.443-0.065c0.828,0.031,1.524-0.614,1.556-1.442c0.001-0.019,0.001-0.037,0.001-0.057"/>
	<path stroke="#000000" stroke-width="0.7087" stroke-linecap="round" stroke-linejoin="round" stroke-miterlimit="10" d="
		M106.301,1519.618h15v12h-15h5.616c-2.21,16.7-13.681,30.711-29.616,36.175c-2.303,0.789-4.696,1.283-7.124,1.47
		c-15.836,1.217-29.66-10.634-30.876-26.47c-0.843-11.378,7.068-21.546,18.304-23.527l19.696-3.473l0.521,2.954l-19.696,3.474
		c-9.719,1.713-16.562,10.509-15.833,20.351l0-0.008c1.09,14.184,13.472,24.798,27.655,23.708c2.174-0.167,4.318-0.609,6.38-1.316
		c14.723-5.048,25.371-17.928,27.561-33.337h-2.588V1519.618H109c-2.976-29.555-27.164-52.463-56.837-53.828
		c-5.061-0.233-10.13-0.255-15.193-0.064c-0.056,0.002-0.113,0.003-0.169,0.003c-2.485,0-4.5-2.015-4.5-4.5h3
		c0,0.829,0.671,1.5,1.5,1.5c0.019,0,0.038,0,0.056-0.001c5.146-0.193,10.299-0.172,15.444,0.065
		c31.273,1.439,56.727,25.661,59.713,56.825"/>
</g>
</svg>
