<?xml version="1.0" encoding="utf-8"?>
<!-- Generator: Adobe Illustrator 15.0.2, SVG Export Plug-In . SVG Version: 6.00 Build 0)  -->
<!DOCTYPE svg PUBLIC "-//W3C//DTD SVG 1.1//EN" "http://www.w3.org/Graphics/SVG/1.1/DTD/svg11.dtd">
<svg version="1.1" id="ELEVATION" xmlns="http://www.w3.org/2000/svg" xmlns:xlink="http://www.w3.org/1999/xlink" x="0px" y="0px"
	 width="103.583px" height="1636.591px" viewBox="0 0 103.583 1636.591" enable-background="new 0 0 103.583 1636.591"
	 xml:space="preserve">
<g id="LWPOLYLINE">
	
		<line fill="none" stroke="#000000" stroke-width="2" stroke-linecap="round" stroke-linejoin="round" stroke-miterlimit="10" x1="100.905" y1="1427.38" x2="102.421" y2="1423.679"/>
</g>
<g id="LWPOLYLINE_4_">
	
		<line fill="none" stroke="#000000" stroke-width="2" stroke-linecap="round" stroke-linejoin="round" stroke-miterlimit="10" x1="3.475" y1="1427.38" x2="1.958" y2="1423.679"/>
</g>
<g id="LWPOLYLINE_6_">
	
		<path fill="#7F7F7F" stroke="#000000" stroke-width="2" stroke-linecap="round" stroke-linejoin="round" stroke-miterlimit="10" d="
		M1.958,1423.679c33.462-13.715,49.47-51.959,35.755-85.421c-6.673-16.281-19.618-29.191-35.917-35.821l1.507-3.705
		c17.294,7.034,31.03,20.733,38.111,38.009c14.552,35.506-2.433,76.087-37.939,90.64"/>
</g>
<g id="LWPOLYLINE_7_">
	
		<path fill="#7F7F7F" stroke="#000000" stroke-width="2" stroke-linecap="round" stroke-linejoin="round" stroke-miterlimit="10" d="
		M102.583,1423.745c-16.299-6.629-29.244-19.539-35.917-35.82c-13.715-33.462,2.293-71.707,35.755-85.422l-1.517-3.701
		c-35.506,14.553-52.492,55.134-37.939,90.64c7.08,17.275,20.816,30.975,38.11,38.01"/>
</g>
<g id="LWPOLYLINE_10_">
	
		<line fill="none" stroke="#000000" stroke-width="2" stroke-linecap="round" stroke-linejoin="round" stroke-miterlimit="10" x1="100.905" y1="882.38" x2="102.421" y2="878.679"/>
</g>
<g id="LWPOLYLINE_13_">
	
		<line fill="none" stroke="#000000" stroke-linecap="round" stroke-linejoin="round" stroke-miterlimit="10" x1="1.796" y1="878.745" x2="3.303" y2="882.451"/>
</g>
<g id="LWPOLYLINE_14_">
	
		<path fill="#7F7F7F" stroke="#000000" stroke-width="2" stroke-linecap="round" stroke-linejoin="round" stroke-miterlimit="10" d="
		M1.796,878.745c33.499-13.625,49.608-51.826,35.983-85.325c-6.629-16.299-19.54-29.244-35.821-35.917l1.517-3.701
		c17.276,7.081,30.975,20.816,38.01,38.111c14.458,35.545-2.637,76.08-38.181,90.538"/>
</g>
<g id="LWPOLYLINE_15_">
	
		<path fill="#7F7F7F" stroke="#000000" stroke-width="2" stroke-linecap="round" stroke-linejoin="round" stroke-miterlimit="10" d="
		M102.421,878.679C86.14,872.006,73.23,859.061,66.6,842.762c-13.626-33.499,2.484-71.7,35.983-85.325l-0.162,0.066l-1.517-3.701
		l0.171-0.07c-35.544,14.458-52.639,54.993-38.181,90.537c7.034,17.295,20.733,31.03,38.01,38.111"/>
</g>
<g id="LWPOLYLINE_18_">
	
		<line fill="none" stroke="#000000" stroke-width="2" stroke-linecap="round" stroke-linejoin="round" stroke-miterlimit="10" x1="100.905" y1="337.38" x2="102.421" y2="333.679"/>
</g>
<g id="LWPOLYLINE_21_">
	
		<line fill="none" stroke="#000000" stroke-width="2" stroke-linecap="round" stroke-linejoin="round" stroke-miterlimit="10" x1="1.796" y1="333.745" x2="3.303" y2="337.45"/>
</g>
<g id="LWPOLYLINE_22_">
	
		<path fill="#7F7F7F" stroke="#000000" stroke-width="2" stroke-linecap="round" stroke-linejoin="round" stroke-miterlimit="10" d="
		M1.796,333.745c33.499-13.625,49.608-51.827,35.983-85.325c-6.629-16.299-19.54-29.244-35.821-35.917l1.517-3.701
		c17.276,7.081,30.975,20.816,38.01,38.111c14.458,35.545-2.636,76.08-38.181,90.538"/>
</g>
<g id="LWPOLYLINE_23_">
	
		<path fill="#7F7F7F" stroke="#000000" stroke-width="2" stroke-linecap="round" stroke-linejoin="round" stroke-miterlimit="10" d="
		M102.421,333.679C86.14,327.006,73.23,314.061,66.6,297.762c-13.626-33.498,2.484-71.7,35.983-85.325l-0.162,0.066l-1.517-3.701
		l0.171-0.07c-35.544,14.458-52.639,54.993-38.181,90.538c7.034,17.294,20.733,31.03,38.01,38.111"/>
</g>
<g id="LWPOLYLINE_24_">
	
		<line fill="none" stroke="#000000" stroke-width="2" stroke-linecap="round" stroke-linejoin="round" stroke-miterlimit="10" x1="2.679" y1="1155.081" x2="1.162" y2="1151.379"/>
</g>
<g id="LWPOLYLINE_27_">
	
		<path fill="#7F7F7F" stroke="#000000" stroke-width="2" stroke-linecap="round" stroke-linejoin="round" stroke-miterlimit="10" d="
		M1,1151.445c33.498-13.625,49.608-51.826,35.983-85.325c-6.63-16.299-19.54-29.243-35.821-35.917l1.517-3.701
		c17.275,7.081,30.975,20.816,38.009,38.111c14.458,35.545-2.636,76.08-38.181,90.537"/>
</g>
<g id="LWPOLYLINE_30_">
	
		<line fill="none" stroke="#000000" stroke-width="2" stroke-linecap="round" stroke-linejoin="round" stroke-miterlimit="10" x1="100.108" y1="1155.081" x2="101.625" y2="1151.379"/>
</g>
<g id="LWPOLYLINE_31_">
	
		<path fill="#7F7F7F" stroke="#000000" stroke-width="2" stroke-linecap="round" stroke-linejoin="round" stroke-miterlimit="10" d="
		M101.625,1151.379c-16.281-6.674-29.191-19.618-35.821-35.917c-13.626-33.499,2.484-71.7,35.982-85.325l-1.507-3.705
		c-35.545,14.457-52.639,54.992-38.181,90.537c7.034,17.295,20.733,31.03,38.009,38.111"/>
</g>
<g id="LWPOLYLINE_34_">
	
		<path fill="#7F7F7F" stroke="#000000" stroke-width="2" stroke-linecap="round" stroke-linejoin="round" stroke-miterlimit="10" d="
		M2.679,610.498c35.506-14.553,52.492-55.133,37.939-90.639c-7.081-17.276-20.816-30.975-38.111-38.01l0.172,0.07l-1.517,3.701
		L1,485.555c16.299,6.629,29.244,19.54,35.917,35.821c13.715,33.462-2.293,71.707-35.755,85.421"/>
</g>
<g id="LWPOLYLINE_35_">
	
		<line fill="none" stroke="#000000" stroke-width="2" stroke-linecap="round" stroke-linejoin="round" stroke-miterlimit="10" x1="2.679" y1="610.498" x2="1.162" y2="606.797"/>
</g>
<g id="LWPOLYLINE_38_">
	
		<path fill="#7F7F7F" stroke="#000000" stroke-width="2" stroke-linecap="round" stroke-linejoin="round" stroke-miterlimit="10" d="
		M101.787,606.862c-16.299-6.629-29.243-19.54-35.916-35.821c-13.715-33.462,2.293-71.706,35.755-85.421l-1.518-3.701
		c-35.506,14.553-52.492,55.133-37.939,90.639c7.081,17.276,20.816,30.975,38.111,38.009"/>
</g>
<g id="LWPOLYLINE_39_">
	
		<line fill="none" stroke="#000000" stroke-width="2" stroke-linecap="round" stroke-linejoin="round" stroke-miterlimit="10" x1="101.787" y1="606.863" x2="100.28" y2="610.568"/>
</g>
<g id="LWPOLYLINE_41_">
	
		<polyline fill="#7F7F7F" stroke="#000000" stroke-width="2" stroke-linecap="round" stroke-linejoin="round" stroke-miterlimit="10" points="
		58.19,1635.591 58.19,1 46.19,1 46.189,1635.591 	"/>
</g>
<g id="LWPOLYLINE_42_">
	
		<line fill="none" stroke="#000000" stroke-width="0.5" stroke-linecap="round" stroke-linejoin="round" stroke-miterlimit="10" x1="54.65" y1="1369.831" x2="64.65" y2="1369.831"/>
</g>
<g id="LWPOLYLINE_43_">
	
		<line fill="none" stroke="#000000" stroke-width="0.5" stroke-linecap="round" stroke-linejoin="round" stroke-miterlimit="10" x1="65.65" y1="1368.831" x2="65.65" y2="1358.831"/>
</g>
<g id="LWPOLYLINE_44_">
	
		<line fill="none" stroke="#000000" stroke-width="0.5" stroke-linecap="round" stroke-linejoin="round" stroke-miterlimit="10" x1="64.65" y1="1357.831" x2="54.65" y2="1357.831"/>
</g>
<g id="LWPOLYLINE_45_">
	
		<line fill="none" stroke="#000000" stroke-width="0.5" stroke-linecap="round" stroke-linejoin="round" stroke-miterlimit="10" x1="54.65" y1="1369.831" x2="40.645" y2="1369.726"/>
</g>
<g id="LWPOLYLINE_46_">
	
		<line fill="none" stroke="#000000" stroke-width="0.5" stroke-linecap="round" stroke-linejoin="round" stroke-miterlimit="10" x1="39.645" y1="1368.726" x2="39.645" y2="1358.726"/>
</g>
<g id="LWPOLYLINE_47_">
	
		<line fill="none" stroke="#000000" stroke-width="0.5" stroke-linecap="round" stroke-linejoin="round" stroke-miterlimit="10" x1="40.645" y1="1357.726" x2="54.65" y2="1357.831"/>
</g>
<g id="LWPOLYLINE_48_">
	
		<polyline fill="none" stroke="#000000" stroke-width="0.5" stroke-linecap="round" stroke-linejoin="round" stroke-miterlimit="10" points="
		64.65,1369.831 64.702,1369.83 64.754,1369.826 64.806,1369.819 64.858,1369.809 64.909,1369.796 64.958,1369.782 65.008,1369.764 
		65.056,1369.745 65.104,1369.722 65.15,1369.697 65.195,1369.669 65.238,1369.64 65.279,1369.608 65.319,1369.574 65.357,1369.538 
		65.393,1369.5 65.427,1369.46 65.458,1369.418 65.489,1369.375 65.516,1369.331 65.541,1369.285 65.563,1369.238 65.583,1369.189 
		65.601,1369.14 65.616,1369.089 65.628,1369.039 65.637,1368.987 65.644,1368.935 65.65,1368.831 	"/>
</g>
<g id="LWPOLYLINE_49_">
	
		<polyline fill="none" stroke="#000000" stroke-width="0.5" stroke-linecap="round" stroke-linejoin="round" stroke-miterlimit="10" points="
		65.65,1358.831 65.649,1358.779 65.644,1358.726 65.637,1358.674 65.628,1358.623 65.616,1358.572 65.601,1358.522 
		65.583,1358.472 65.563,1358.424 65.541,1358.376 65.516,1358.331 65.489,1358.287 65.458,1358.243 65.427,1358.202 
		65.393,1358.162 65.357,1358.124 65.319,1358.087 65.279,1358.053 65.238,1358.022 65.195,1357.992 65.15,1357.964 65.104,1357.94 
		65.056,1357.917 65.008,1357.897 64.958,1357.879 64.909,1357.865 64.858,1357.853 64.806,1357.843 64.754,1357.836 
		64.702,1357.833 64.65,1357.831 	"/>
</g>
<g id="LWPOLYLINE_50_">
	
		<polyline fill="none" stroke="#000000" stroke-width="0.5" stroke-linecap="round" stroke-linejoin="round" stroke-miterlimit="10" points="
		39.645,1368.726 39.646,1368.779 39.65,1368.831 39.657,1368.882 39.666,1368.934 39.678,1368.985 39.693,1369.036 
		39.711,1369.084 39.731,1369.133 39.753,1369.18 39.778,1369.226 39.806,1369.271 39.835,1369.314 39.867,1369.356 
		39.901,1369.395 39.937,1369.433 39.975,1369.469 40.015,1369.503 40.057,1369.536 40.1,1369.565 40.145,1369.592 40.19,1369.618 
		40.238,1369.64 40.286,1369.66 40.335,1369.677 40.386,1369.692 40.437,1369.705 40.488,1369.714 40.54,1369.721 40.592,1369.725 
		40.645,1369.726 	"/>
</g>
<g id="LWPOLYLINE_51_">
	
		<polyline fill="none" stroke="#000000" stroke-width="0.5" stroke-linecap="round" stroke-linejoin="round" stroke-miterlimit="10" points="
		40.645,1357.726 40.592,1357.728 40.54,1357.732 40.488,1357.739 40.437,1357.749 40.386,1357.76 40.335,1357.775 40.286,1357.792 
		40.238,1357.813 40.19,1357.835 40.145,1357.86 40.1,1357.887 40.057,1357.917 40.015,1357.949 39.975,1357.983 39.937,1358.019 
		39.901,1358.057 39.867,1358.097 39.835,1358.138 39.806,1358.182 39.778,1358.226 39.753,1358.272 39.731,1358.32 
		39.711,1358.368 39.693,1358.417 39.678,1358.467 39.666,1358.518 39.657,1358.57 39.65,1358.622 39.646,1358.674 39.645,1358.726 
			"/>
</g>
<g id="LWPOLYLINE_52_">
	
		<line fill="none" stroke="#000000" stroke-width="0.0728" stroke-linecap="round" stroke-linejoin="round" stroke-miterlimit="10" x1="39.65" y1="1368.831" x2="39.65" y2="1358.831"/>
</g>
<g id="HATCH">
	
		<polygon fill-rule="evenodd" clip-rule="evenodd" fill="#7F7F7F" stroke="#000000" stroke-width="2" stroke-linecap="round" stroke-linejoin="round" stroke-miterlimit="10" points="
		54.679,1369.761 64.65,1369.761 64.703,1369.83 64.754,1369.826 64.806,1369.819 64.858,1369.809 64.909,1369.796 64.959,1369.782 
		65.008,1369.764 65.057,1369.745 65.104,1369.722 65.15,1369.697 65.195,1369.669 65.238,1369.64 65.28,1369.608 65.319,1369.574 
		65.357,1369.538 65.393,1369.5 65.427,1369.46 65.459,1369.418 65.489,1369.375 65.516,1369.331 65.542,1369.285 65.564,1369.238 
		65.583,1369.189 65.601,1369.14 65.616,1369.089 65.628,1369.039 65.637,1368.987 65.645,1368.935 65.65,1368.831 65.65,1358.768 
		65.637,1358.674 65.628,1358.623 65.616,1358.572 65.601,1358.522 65.583,1358.472 65.564,1358.424 65.542,1358.376 
		65.516,1358.331 65.489,1358.286 65.459,1358.243 65.427,1358.202 65.393,1358.162 65.357,1358.124 65.319,1358.087 
		65.28,1358.053 65.238,1358.022 65.195,1357.992 65.15,1357.964 65.104,1357.94 65.057,1357.917 65.008,1357.897 64.959,1357.879 
		64.909,1357.865 64.858,1357.853 64.806,1357.843 64.754,1357.836 64.703,1357.833 64.65,1357.831 54.65,1357.831 40.645,1357.726 
		40.592,1357.728 40.54,1357.732 40.488,1357.739 40.437,1357.749 40.385,1357.76 40.335,1357.775 40.287,1357.792 40.238,1357.813 
		40.191,1357.835 40.145,1357.86 40.1,1357.887 40.057,1357.917 40.015,1357.949 39.975,1357.983 39.937,1358.019 39.902,1358.057 
		39.868,1358.097 39.835,1358.138 39.806,1358.181 39.779,1358.226 39.753,1358.272 39.731,1358.32 39.711,1358.368 
		39.694,1358.417 39.678,1358.467 39.667,1358.518 39.657,1358.57 39.65,1358.622 39.646,1358.674 39.65,1358.517 39.65,1368.831 
		39.657,1368.882 39.667,1368.934 39.678,1368.985 39.694,1369.036 39.711,1369.084 39.731,1369.133 39.753,1369.18 
		39.779,1369.226 39.806,1369.271 39.835,1369.314 39.868,1369.356 39.902,1369.395 39.937,1369.433 39.975,1369.469 
		40.015,1369.503 40.057,1369.536 40.1,1369.565 40.145,1369.592 40.191,1369.618 40.238,1369.64 40.287,1369.66 40.335,1369.677 
		40.385,1369.692 40.437,1369.705 40.488,1369.714 40.54,1369.721 40.592,1369.725 40.645,1369.726 54.679,1369.761 	"/>
</g>
<g id="LWPOLYLINE_53_">
	
		<line fill="none" stroke="#000000" stroke-width="0.5" stroke-linecap="round" stroke-linejoin="round" stroke-miterlimit="10" x1="53.494" y1="1097.023" x2="63.494" y2="1097.023"/>
</g>
<g id="LWPOLYLINE_54_">
	
		<line fill="none" stroke="#000000" stroke-width="0.5" stroke-linecap="round" stroke-linejoin="round" stroke-miterlimit="10" x1="64.494" y1="1096.023" x2="64.494" y2="1086.023"/>
</g>
<g id="LWPOLYLINE_55_">
	
		<line fill="none" stroke="#000000" stroke-width="0.5" stroke-linecap="round" stroke-linejoin="round" stroke-miterlimit="10" x1="63.494" y1="1085.023" x2="53.494" y2="1085.023"/>
</g>
<g id="LWPOLYLINE_56_">
	
		<line fill="none" stroke="#000000" stroke-width="0.5" stroke-linecap="round" stroke-linejoin="round" stroke-miterlimit="10" x1="53.494" y1="1097.023" x2="39.488" y2="1096.918"/>
</g>
<g id="LWPOLYLINE_57_">
	
		<line fill="none" stroke="#000000" stroke-width="0.5" stroke-linecap="round" stroke-linejoin="round" stroke-miterlimit="10" x1="38.488" y1="1095.918" x2="38.488" y2="1085.918"/>
</g>
<g id="LWPOLYLINE_58_">
	
		<line fill="none" stroke="#000000" stroke-width="0.5" stroke-linecap="round" stroke-linejoin="round" stroke-miterlimit="10" x1="39.488" y1="1084.918" x2="53.494" y2="1085.023"/>
</g>
<g id="LWPOLYLINE_59_">
	
		<polyline fill="none" stroke="#000000" stroke-width="0.5" stroke-linecap="round" stroke-linejoin="round" stroke-miterlimit="10" points="
		63.494,1097.023 63.546,1097.022 63.598,1097.018 63.65,1097.011 63.702,1097.001 63.752,1096.989 63.803,1096.974 
		63.852,1096.957 63.901,1096.937 63.948,1096.915 63.994,1096.889 64.039,1096.862 64.082,1096.833 64.124,1096.8 64.163,1096.766 
		64.201,1096.73 64.237,1096.692 64.271,1096.653 64.303,1096.611 64.333,1096.568 64.36,1096.523 64.385,1096.477 64.408,1096.43 
		64.427,1096.381 64.445,1096.333 64.459,1096.282 64.472,1096.231 64.482,1096.179 64.489,1096.127 64.494,1096.023 	"/>
</g>
<g id="LWPOLYLINE_60_">
	
		<polyline fill="none" stroke="#000000" stroke-width="0.5" stroke-linecap="round" stroke-linejoin="round" stroke-miterlimit="10" points="
		64.494,1086.023 64.493,1085.971 64.489,1085.918 64.482,1085.867 64.472,1085.815 64.459,1085.764 64.445,1085.714 
		64.427,1085.665 64.408,1085.617 64.385,1085.569 64.36,1085.523 64.333,1085.478 64.303,1085.435 64.271,1085.394 
		64.237,1085.354 64.201,1085.316 64.163,1085.28 64.124,1085.246 64.082,1085.214 64.039,1085.184 63.994,1085.157 
		63.948,1085.132 63.901,1085.11 63.852,1085.089 63.803,1085.072 63.752,1085.057 63.702,1085.045 63.65,1085.036 63.598,1085.029 
		63.546,1085.025 63.494,1085.023 	"/>
</g>
<g id="LWPOLYLINE_61_">
	
		<polyline fill="none" stroke="#000000" stroke-width="0.5" stroke-linecap="round" stroke-linejoin="round" stroke-miterlimit="10" points="
		38.488,1095.918 38.49,1095.971 38.494,1096.023 38.5,1096.075 38.51,1096.126 38.522,1096.177 38.537,1096.228 38.555,1096.277 
		38.575,1096.326 38.597,1096.373 38.623,1096.418 38.65,1096.463 38.679,1096.506 38.711,1096.548 38.745,1096.587 
		38.781,1096.625 38.819,1096.662 38.859,1096.696 38.9,1096.728 38.944,1096.757 38.988,1096.785 39.034,1096.81 39.082,1096.833 
		39.13,1096.852 39.179,1096.87 39.229,1096.884 39.28,1096.897 39.332,1096.907 39.384,1096.914 39.436,1096.917 39.488,1096.918 	
		"/>
</g>
<g id="LWPOLYLINE_62_">
	
		<polyline fill="none" stroke="#000000" stroke-width="0.5" stroke-linecap="round" stroke-linejoin="round" stroke-miterlimit="10" points="
		39.488,1084.918 39.436,1084.92 39.384,1084.924 39.332,1084.931 39.28,1084.941 39.229,1084.953 39.179,1084.967 39.13,1084.985 
		39.082,1085.005 39.034,1085.028 38.988,1085.052 38.944,1085.08 38.9,1085.11 38.859,1085.141 38.819,1085.175 38.781,1085.211 
		38.745,1085.25 38.711,1085.29 38.679,1085.331 38.65,1085.374 38.623,1085.418 38.597,1085.464 38.575,1085.512 38.555,1085.56 
		38.537,1085.61 38.522,1085.66 38.51,1085.71 38.5,1085.762 38.494,1085.814 38.49,1085.867 38.488,1085.918 	"/>
</g>
<g id="LWPOLYLINE_63_">
	
		<line fill="none" stroke="#000000" stroke-width="0.0728" stroke-linecap="round" stroke-linejoin="round" stroke-miterlimit="10" x1="38.494" y1="1096.023" x2="38.494" y2="1086.023"/>
</g>
<g id="HATCH_1_">
	
		<polygon fill-rule="evenodd" clip-rule="evenodd" fill="#7F7F7F" stroke="#000000" stroke-width="2" stroke-linecap="round" stroke-linejoin="round" stroke-miterlimit="10" points="
		53.524,1096.954 63.494,1096.954 63.546,1097.022 63.598,1097.017 63.651,1097.01 63.702,1097.001 63.752,1096.989 
		63.803,1096.974 63.852,1096.957 63.901,1096.937 63.948,1096.914 63.994,1096.889 64.039,1096.862 64.082,1096.833 64.124,1096.8 
		64.164,1096.766 64.202,1096.73 64.237,1096.692 64.271,1096.652 64.303,1096.611 64.333,1096.568 64.36,1096.523 64.385,1096.477 
		64.408,1096.43 64.427,1096.381 64.445,1096.333 64.459,1096.282 64.472,1096.231 64.482,1096.179 64.489,1096.127 
		64.494,1096.023 64.494,1085.96 64.482,1085.867 64.472,1085.815 64.459,1085.764 64.445,1085.714 64.427,1085.665 
		64.408,1085.617 64.385,1085.569 64.36,1085.523 64.333,1085.478 64.303,1085.435 64.271,1085.394 64.237,1085.354 
		64.202,1085.316 64.164,1085.28 64.124,1085.246 64.082,1085.214 64.039,1085.184 63.994,1085.157 63.948,1085.132 63.901,1085.11 
		63.852,1085.089 63.803,1085.072 63.752,1085.057 63.702,1085.044 63.651,1085.036 63.598,1085.029 63.546,1085.024 
		63.494,1085.023 53.494,1085.023 39.489,1084.918 39.436,1084.919 39.384,1084.924 39.333,1084.931 39.281,1084.94 39.23,1084.953 
		39.179,1084.967 39.13,1084.985 39.082,1085.005 39.035,1085.028 38.989,1085.052 38.944,1085.08 38.901,1085.11 38.859,1085.141 
		38.82,1085.175 38.782,1085.211 38.746,1085.25 38.711,1085.29 38.679,1085.331 38.65,1085.374 38.623,1085.418 38.597,1085.464 
		38.575,1085.512 38.555,1085.56 38.538,1085.61 38.523,1085.66 38.51,1085.71 38.5,1085.762 38.494,1085.814 38.49,1085.866 
		38.494,1085.709 38.494,1096.023 38.5,1096.075 38.51,1096.126 38.523,1096.177 38.538,1096.227 38.555,1096.277 38.575,1096.326 
		38.597,1096.373 38.623,1096.418 38.65,1096.463 38.679,1096.506 38.711,1096.547 38.746,1096.587 38.782,1096.625 38.82,1096.662 
		38.859,1096.696 38.901,1096.727 38.944,1096.757 38.989,1096.785 39.035,1096.809 39.082,1096.833 39.13,1096.852 39.179,1096.87 
		39.23,1096.884 39.281,1096.897 39.333,1096.906 39.384,1096.913 39.436,1096.917 39.489,1096.918 53.524,1096.954 	"/>
</g>
<g id="LWPOLYLINE_64_">
	
		<line fill="none" stroke="#000000" stroke-width="0.5" stroke-linecap="round" stroke-linejoin="round" stroke-miterlimit="10" x1="54.361" y1="823.926" x2="64.361" y2="823.926"/>
</g>
<g id="LWPOLYLINE_65_">
	
		<line fill="none" stroke="#000000" stroke-width="0.5" stroke-linecap="round" stroke-linejoin="round" stroke-miterlimit="10" x1="65.361" y1="822.926" x2="65.361" y2="812.926"/>
</g>
<g id="LWPOLYLINE_66_">
	
		<line fill="none" stroke="#000000" stroke-width="0.5" stroke-linecap="round" stroke-linejoin="round" stroke-miterlimit="10" x1="64.361" y1="811.926" x2="54.361" y2="811.926"/>
</g>
<g id="LWPOLYLINE_67_">
	
		<line fill="none" stroke="#000000" stroke-width="0.5" stroke-linecap="round" stroke-linejoin="round" stroke-miterlimit="10" x1="54.361" y1="823.926" x2="40.355" y2="823.822"/>
</g>
<g id="LWPOLYLINE_68_">
	
		<line fill="none" stroke="#000000" stroke-width="0.5" stroke-linecap="round" stroke-linejoin="round" stroke-miterlimit="10" x1="39.355" y1="822.822" x2="39.355" y2="812.822"/>
</g>
<g id="LWPOLYLINE_69_">
	
		<line fill="none" stroke="#000000" stroke-width="0.5" stroke-linecap="round" stroke-linejoin="round" stroke-miterlimit="10" x1="40.355" y1="811.822" x2="54.361" y2="811.926"/>
</g>
<g id="LWPOLYLINE_70_">
	
		<polyline fill="none" stroke="#000000" stroke-width="0.5" stroke-linecap="round" stroke-linejoin="round" stroke-miterlimit="10" points="
		64.361,823.926 64.414,823.925 64.465,823.921 64.517,823.915 64.569,823.905 64.62,823.892 64.669,823.877 64.719,823.86 
		64.767,823.84 64.815,823.818 64.861,823.792 64.906,823.765 64.949,823.736 64.99,823.704 65.03,823.669 65.068,823.633 
		65.104,823.595 65.138,823.556 65.169,823.514 65.2,823.471 65.227,823.426 65.251,823.38 65.274,823.333 65.294,823.285 
		65.312,823.236 65.327,823.185 65.339,823.134 65.348,823.083 65.355,823.031 65.361,822.926 	"/>
</g>
<g id="LWPOLYLINE_71_">
	
		<polyline fill="none" stroke="#000000" stroke-width="0.5" stroke-linecap="round" stroke-linejoin="round" stroke-miterlimit="10" points="
		65.361,812.926 65.36,812.874 65.355,812.822 65.348,812.77 65.339,812.718 65.327,812.667 65.312,812.617 65.294,812.568 
		65.274,812.52 65.251,812.472 65.227,812.426 65.2,812.382 65.169,812.338 65.138,812.297 65.104,812.257 65.068,812.219 
		65.03,812.183 64.99,812.149 64.949,812.117 64.906,812.088 64.861,812.061 64.815,812.036 64.767,812.013 64.719,811.993 
		64.669,811.975 64.62,811.96 64.569,811.948 64.517,811.939 64.465,811.932 64.414,811.928 64.361,811.926 	"/>
</g>
<g id="LWPOLYLINE_72_">
	
		<polyline fill="none" stroke="#000000" stroke-width="0.5" stroke-linecap="round" stroke-linejoin="round" stroke-miterlimit="10" points="
		39.355,822.822 39.357,822.875 39.361,822.926 39.368,822.978 39.377,823.03 39.39,823.081 39.404,823.131 39.422,823.18 
		39.442,823.229 39.464,823.276 39.489,823.322 39.517,823.367 39.546,823.41 39.578,823.452 39.612,823.491 39.648,823.529 
		39.686,823.565 39.726,823.599 39.768,823.631 39.811,823.661 39.855,823.688 39.901,823.713 39.949,823.736 39.997,823.755 
		40.046,823.773 40.097,823.788 40.147,823.8 40.199,823.809 40.251,823.817 40.303,823.821 40.355,823.822 	"/>
</g>
<g id="LWPOLYLINE_73_">
	
		<polyline fill="none" stroke="#000000" stroke-width="0.5" stroke-linecap="round" stroke-linejoin="round" stroke-miterlimit="10" points="
		40.355,811.822 40.303,811.823 40.251,811.827 40.199,811.834 40.147,811.844 40.097,811.856 40.046,811.871 39.997,811.888 
		39.949,811.908 39.901,811.931 39.855,811.956 39.811,811.983 39.768,812.013 39.726,812.045 39.686,812.079 39.648,812.115 
		39.612,812.153 39.578,812.192 39.546,812.234 39.517,812.277 39.489,812.322 39.464,812.368 39.442,812.415 39.422,812.463 
		39.404,812.513 39.39,812.563 39.377,812.614 39.368,812.666 39.361,812.717 39.357,812.77 39.355,812.822 	"/>
</g>
<g id="LWPOLYLINE_74_">
	
		<line fill="none" stroke="#000000" stroke-width="0.0728" stroke-linecap="round" stroke-linejoin="round" stroke-miterlimit="10" x1="39.361" y1="822.926" x2="39.361" y2="812.926"/>
</g>
<g id="HATCH_2_">
	<polygon fill-rule="evenodd" clip-rule="evenodd" fill="#7F7F7F" stroke="#000000" stroke-miterlimit="10" points="54.39,823.857 
		64.361,823.857 64.414,823.925 64.465,823.92 64.517,823.914 64.569,823.905 64.62,823.892 64.67,823.877 64.719,823.86 
		64.768,823.84 64.815,823.817 64.861,823.792 64.906,823.765 64.949,823.735 64.991,823.704 65.03,823.669 65.068,823.633 
		65.104,823.595 65.138,823.555 65.17,823.514 65.2,823.471 65.227,823.426 65.252,823.38 65.275,823.333 65.294,823.285 
		65.312,823.235 65.327,823.185 65.339,823.134 65.349,823.083 65.356,823.031 65.361,822.926 65.361,812.864 65.349,812.77 
		65.339,812.719 65.327,812.667 65.312,812.618 65.294,812.568 65.275,812.52 65.252,812.473 65.227,812.426 65.2,812.382 
		65.17,812.339 65.138,812.297 65.104,812.257 65.068,812.219 65.03,812.183 64.991,812.149 64.949,812.118 64.906,812.088 
		64.861,812.061 64.815,812.036 64.768,812.013 64.719,811.993 64.67,811.976 64.62,811.96 64.569,811.948 64.517,811.939 
		64.465,811.932 64.414,811.928 64.361,811.926 54.361,811.926 40.356,811.822 40.303,811.823 40.251,811.828 40.199,811.834 
		40.148,811.844 40.097,811.856 40.046,811.871 39.998,811.888 39.949,811.909 39.902,811.931 39.856,811.956 39.811,811.983 
		39.768,812.013 39.726,812.045 39.686,812.079 39.649,812.115 39.613,812.153 39.579,812.193 39.546,812.234 39.517,812.277 
		39.49,812.322 39.464,812.368 39.442,812.416 39.422,812.463 39.405,812.513 39.389,812.563 39.377,812.614 39.368,812.666 
		39.361,812.717 39.357,812.77 39.361,812.613 39.361,822.926 39.368,822.978 39.377,823.03 39.389,823.081 39.405,823.13 
		39.422,823.18 39.442,823.229 39.464,823.276 39.49,823.322 39.517,823.367 39.546,823.41 39.579,823.451 39.613,823.491 
		39.649,823.529 39.686,823.565 39.726,823.599 39.768,823.63 39.811,823.661 39.856,823.688 39.902,823.712 39.949,823.735 
		39.998,823.755 40.046,823.773 40.097,823.788 40.148,823.8 40.199,823.809 40.251,823.816 40.303,823.821 40.356,823.822 
		54.39,823.857 	"/>
</g>
<g id="LWPOLYLINE_75_">
	
		<line fill="none" stroke="#000000" stroke-width="0.5" stroke-linecap="round" stroke-linejoin="round" stroke-miterlimit="10" x1="53.205" y1="551.986" x2="63.205" y2="551.986"/>
</g>
<g id="LWPOLYLINE_76_">
	
		<line fill="none" stroke="#000000" stroke-width="0.5" stroke-linecap="round" stroke-linejoin="round" stroke-miterlimit="10" x1="64.205" y1="550.986" x2="64.205" y2="540.986"/>
</g>
<g id="LWPOLYLINE_77_">
	
		<line fill="none" stroke="#000000" stroke-width="0.5" stroke-linecap="round" stroke-linejoin="round" stroke-miterlimit="10" x1="63.205" y1="539.986" x2="53.205" y2="539.986"/>
</g>
<g id="LWPOLYLINE_78_">
	
		<line fill="none" stroke="#000000" stroke-width="0.5" stroke-linecap="round" stroke-linejoin="round" stroke-miterlimit="10" x1="53.205" y1="551.986" x2="39.199" y2="551.881"/>
</g>
<g id="LWPOLYLINE_79_">
	
		<line fill="none" stroke="#000000" stroke-width="0.5" stroke-linecap="round" stroke-linejoin="round" stroke-miterlimit="10" x1="38.199" y1="550.881" x2="38.199" y2="540.881"/>
</g>
<g id="LWPOLYLINE_80_">
	
		<line fill="none" stroke="#000000" stroke-width="0.5" stroke-linecap="round" stroke-linejoin="round" stroke-miterlimit="10" x1="39.199" y1="539.881" x2="53.205" y2="539.986"/>
</g>
<g id="LWPOLYLINE_81_">
	
		<polyline fill="none" stroke="#000000" stroke-width="0.5" stroke-linecap="round" stroke-linejoin="round" stroke-miterlimit="10" points="
		63.205,551.986 63.257,551.984 63.309,551.98 63.361,551.974 63.413,551.964 63.463,551.952 63.514,551.937 63.563,551.919 
		63.612,551.899 63.659,551.877 63.705,551.852 63.75,551.824 63.792,551.795 63.834,551.763 63.874,551.729 63.912,551.693 
		63.948,551.655 63.982,551.615 64.014,551.574 64.043,551.53 64.071,551.486 64.096,551.44 64.119,551.393 64.138,551.344 
		64.156,551.295 64.17,551.245 64.183,551.194 64.193,551.142 64.2,551.09 64.205,550.986 	"/>
</g>
<g id="LWPOLYLINE_82_">
	
		<polyline fill="none" stroke="#000000" stroke-width="0.5" stroke-linecap="round" stroke-linejoin="round" stroke-miterlimit="10" points="
		64.205,540.986 64.204,540.934 64.2,540.881 64.193,540.829 64.183,540.778 64.17,540.727 64.156,540.677 64.138,540.627 
		64.119,540.579 64.096,540.532 64.071,540.486 64.043,540.441 64.014,540.398 63.982,540.356 63.948,540.316 63.912,540.279 
		63.874,540.243 63.834,540.208 63.792,540.177 63.75,540.147 63.705,540.12 63.659,540.095 63.612,540.072 63.563,540.052 
		63.514,540.035 63.463,540.02 63.413,540.007 63.361,539.998 63.309,539.991 63.257,539.987 63.205,539.986 	"/>
</g>
<g id="LWPOLYLINE_83_">
	
		<polyline fill="none" stroke="#000000" stroke-width="0.5" stroke-linecap="round" stroke-linejoin="round" stroke-miterlimit="10" points="
		38.199,550.881 38.201,550.934 38.205,550.986 38.212,551.038 38.221,551.089 38.233,551.14 38.249,551.19 38.266,551.24 
		38.286,551.288 38.309,551.335 38.333,551.381 38.361,551.426 38.39,551.469 38.422,551.51 38.456,551.55 38.492,551.588 
		38.53,551.625 38.57,551.658 38.612,551.69 38.655,551.72 38.699,551.747 38.746,551.772 38.792,551.795 38.841,551.815 
		38.89,551.833 38.94,551.847 38.992,551.859 39.043,551.869 39.095,551.875 39.147,551.88 39.199,551.881 	"/>
</g>
<g id="LWPOLYLINE_84_">
	
		<polyline fill="none" stroke="#000000" stroke-width="0.5" stroke-linecap="round" stroke-linejoin="round" stroke-miterlimit="10" points="
		39.199,539.881 39.147,539.882 39.095,539.887 39.043,539.894 38.992,539.903 38.94,539.916 38.89,539.93 38.841,539.948 
		38.792,539.968 38.746,539.99 38.699,540.015 38.655,540.042 38.612,540.072 38.57,540.104 38.53,540.138 38.492,540.174 
		38.456,540.212 38.422,540.252 38.39,540.293 38.361,540.336 38.333,540.381 38.309,540.427 38.286,540.475 38.266,540.523 
		38.249,540.572 38.233,540.623 38.221,540.673 38.212,540.725 38.205,540.777 38.201,540.829 38.199,540.881 	"/>
</g>
<g id="LWPOLYLINE_85_">
	
		<line fill="none" stroke="#000000" stroke-width="0.0728" stroke-linecap="round" stroke-linejoin="round" stroke-miterlimit="10" x1="38.205" y1="550.986" x2="38.205" y2="540.986"/>
</g>
<g id="HATCH_3_">
	
		<polygon fill-rule="evenodd" clip-rule="evenodd" fill="#7F7F7F" stroke="#000000" stroke-width="2" stroke-linecap="round" stroke-linejoin="round" stroke-miterlimit="10" points="
		53.235,551.917 63.206,551.917 63.257,551.984 63.309,551.98 63.362,551.974 63.413,551.964 63.463,551.952 63.514,551.937 
		63.563,551.919 63.612,551.899 63.659,551.877 63.706,551.852 63.75,551.825 63.792,551.795 63.834,551.763 63.875,551.729 
		63.913,551.693 63.948,551.655 63.982,551.615 64.014,551.574 64.043,551.531 64.071,551.486 64.096,551.44 64.119,551.393 
		64.139,551.344 64.156,551.295 64.171,551.245 64.183,551.194 64.193,551.142 64.2,551.09 64.206,550.986 64.206,540.923 
		64.193,540.83 64.183,540.778 64.171,540.727 64.156,540.677 64.139,540.627 64.119,540.579 64.096,540.532 64.071,540.486 
		64.043,540.441 64.014,540.398 63.982,540.356 63.948,540.317 63.913,540.279 63.875,540.243 63.834,540.208 63.792,540.177 
		63.75,540.147 63.706,540.12 63.659,540.095 63.612,540.072 63.563,540.052 63.514,540.035 63.463,540.02 63.413,540.008 
		63.362,539.998 63.309,539.991 63.257,539.987 63.206,539.986 53.206,539.986 39.2,539.881 39.147,539.883 39.095,539.887 
		39.043,539.894 38.992,539.903 38.941,539.916 38.89,539.93 38.841,539.948 38.792,539.968 38.746,539.99 38.7,540.015 
		38.655,540.042 38.612,540.072 38.57,540.104 38.531,540.138 38.493,540.174 38.457,540.212 38.422,540.252 38.39,540.293 
		38.361,540.336 38.333,540.381 38.309,540.427 38.286,540.475 38.266,540.523 38.249,540.572 38.234,540.623 38.221,540.673 
		38.211,540.725 38.206,540.777 38.201,540.829 38.206,540.672 38.206,550.986 38.211,551.038 38.221,551.089 38.234,551.14 
		38.249,551.19 38.266,551.24 38.286,551.288 38.309,551.335 38.333,551.381 38.361,551.426 38.39,551.469 38.422,551.511 
		38.457,551.55 38.493,551.588 38.531,551.625 38.57,551.659 38.612,551.69 38.655,551.72 38.7,551.748 38.746,551.772 
		38.792,551.795 38.841,551.815 38.89,551.833 38.941,551.847 38.992,551.859 39.043,551.869 39.095,551.876 39.147,551.88 
		39.2,551.881 53.235,551.917 	"/>
</g>
<g id="LWPOLYLINE_86_">
	
		<line fill="none" stroke="#000000" stroke-width="0.5" stroke-linecap="round" stroke-linejoin="round" stroke-miterlimit="10" x1="53.783" y1="278.889" x2="63.783" y2="278.889"/>
</g>
<g id="LWPOLYLINE_87_">
	
		<line fill="none" stroke="#000000" stroke-width="0.5" stroke-linecap="round" stroke-linejoin="round" stroke-miterlimit="10" x1="64.783" y1="277.889" x2="64.783" y2="267.889"/>
</g>
<g id="LWPOLYLINE_88_">
	
		<line fill="none" stroke="#000000" stroke-width="0.5" stroke-linecap="round" stroke-linejoin="round" stroke-miterlimit="10" x1="63.783" y1="266.889" x2="53.783" y2="266.889"/>
</g>
<g id="LWPOLYLINE_89_">
	
		<line fill="none" stroke="#000000" stroke-width="0.5" stroke-linecap="round" stroke-linejoin="round" stroke-miterlimit="10" x1="53.783" y1="278.889" x2="39.777" y2="278.784"/>
</g>
<g id="LWPOLYLINE_90_">
	
		<line fill="none" stroke="#000000" stroke-width="0.5" stroke-linecap="round" stroke-linejoin="round" stroke-miterlimit="10" x1="38.777" y1="277.784" x2="38.777" y2="267.784"/>
</g>
<g id="LWPOLYLINE_91_">
	
		<line fill="none" stroke="#000000" stroke-width="0.5" stroke-linecap="round" stroke-linejoin="round" stroke-miterlimit="10" x1="39.777" y1="266.784" x2="53.783" y2="266.889"/>
</g>
<g id="LWPOLYLINE_92_">
	
		<polyline fill="none" stroke="#000000" stroke-width="0.5" stroke-linecap="round" stroke-linejoin="round" stroke-miterlimit="10" points="
		63.783,278.889 63.835,278.888 63.887,278.883 63.939,278.876 63.991,278.867 64.042,278.855 64.092,278.84 64.141,278.822 
		64.19,278.802 64.237,278.78 64.283,278.755 64.328,278.728 64.371,278.698 64.413,278.666 64.452,278.632 64.49,278.596 
		64.526,278.558 64.56,278.518 64.592,278.477 64.622,278.434 64.649,278.389 64.674,278.343 64.697,278.295 64.716,278.247 
		64.734,278.198 64.749,278.148 64.761,278.097 64.771,278.045 64.778,277.994 64.783,277.889 	"/>
</g>
<g id="LWPOLYLINE_93_">
	
		<polyline fill="none" stroke="#000000" stroke-width="0.5" stroke-linecap="round" stroke-linejoin="round" stroke-miterlimit="10" points="
		64.783,267.889 64.782,267.836 64.778,267.784 64.771,267.732 64.761,267.681 64.749,267.63 64.734,267.58 64.716,267.531 
		64.697,267.482 64.674,267.435 64.649,267.389 64.622,267.344 64.592,267.301 64.56,267.26 64.526,267.22 64.49,267.182 
		64.452,267.146 64.413,267.112 64.371,267.08 64.328,267.05 64.283,267.023 64.237,266.998 64.19,266.975 64.141,266.956 
		64.092,266.938 64.042,266.923 63.991,266.911 63.939,266.901 63.887,266.895 63.835,266.89 63.783,266.889 	"/>
</g>
<g id="LWPOLYLINE_94_">
	
		<polyline fill="none" stroke="#000000" stroke-width="0.5" stroke-linecap="round" stroke-linejoin="round" stroke-miterlimit="10" points="
		38.777,277.784 38.779,277.836 38.783,277.889 38.79,277.941 38.799,277.992 38.812,278.043 38.826,278.093 38.844,278.143 
		38.864,278.191 38.886,278.238 38.911,278.284 38.938,278.329 38.968,278.372 39,278.414 39.034,278.454 39.07,278.492 
		39.108,278.527 39.148,278.562 39.189,278.593 39.233,278.623 39.277,278.65 39.323,278.675 39.371,278.698 39.419,278.718 
		39.468,278.735 39.519,278.75 39.569,278.763 39.621,278.772 39.673,278.779 39.725,278.783 39.777,278.784 	"/>
</g>
<g id="LWPOLYLINE_95_">
	
		<polyline fill="none" stroke="#000000" stroke-width="0.5" stroke-linecap="round" stroke-linejoin="round" stroke-miterlimit="10" points="
		39.777,266.784 39.725,266.786 39.673,266.79 39.621,266.797 39.569,266.806 39.519,266.818 39.468,266.833 39.419,266.851 
		39.371,266.871 39.323,266.894 39.277,266.918 39.233,266.946 39.189,266.975 39.148,267.007 39.108,267.041 39.07,267.077 
		39.034,267.115 39,267.155 38.968,267.197 38.938,267.24 38.911,267.284 38.886,267.331 38.864,267.377 38.844,267.426 
		38.826,267.475 38.812,267.525 38.799,267.577 38.79,267.628 38.783,267.68 38.779,267.732 38.777,267.784 	"/>
</g>
<g id="LWPOLYLINE_96_">
	
		<line fill="none" stroke="#000000" stroke-width="0.0728" stroke-linecap="round" stroke-linejoin="round" stroke-miterlimit="10" x1="38.783" y1="277.889" x2="38.783" y2="267.889"/>
</g>
<g id="HATCH_4_">
	
		<polygon fill-rule="evenodd" clip-rule="evenodd" fill="#7F7F7F" stroke="#000000" stroke-width="2" stroke-linecap="round" stroke-linejoin="round" stroke-miterlimit="10" points="
		53.812,278.82 63.783,278.82 63.835,278.888 63.887,278.883 63.94,278.876 63.991,278.867 64.042,278.855 64.092,278.84 
		64.141,278.823 64.19,278.802 64.237,278.78 64.283,278.755 64.328,278.728 64.371,278.698 64.413,278.666 64.453,278.632 
		64.49,278.596 64.526,278.558 64.56,278.518 64.592,278.477 64.622,278.434 64.649,278.389 64.674,278.343 64.697,278.296 
		64.716,278.248 64.734,278.198 64.749,278.148 64.761,278.097 64.771,278.045 64.778,277.994 64.783,277.889 64.783,267.826 
		64.771,267.732 64.761,267.681 64.749,267.63 64.734,267.58 64.716,267.531 64.697,267.482 64.674,267.435 64.649,267.389 
		64.622,267.344 64.592,267.301 64.56,267.26 64.526,267.22 64.49,267.182 64.453,267.146 64.413,267.112 64.371,267.08 
		64.328,267.05 64.283,267.023 64.237,266.998 64.19,266.976 64.141,266.956 64.092,266.938 64.042,266.923 63.991,266.911 
		63.94,266.901 63.887,266.895 63.835,266.89 63.783,266.889 53.783,266.889 39.778,266.785 39.725,266.786 39.673,266.79 
		39.622,266.797 39.57,266.806 39.519,266.818 39.468,266.833 39.419,266.851 39.371,266.871 39.324,266.894 39.278,266.918 
		39.233,266.946 39.19,266.976 39.148,267.007 39.109,267.042 39.071,267.078 39.035,267.115 39,267.155 38.968,267.197 
		38.939,267.24 38.912,267.285 38.886,267.331 38.864,267.377 38.844,267.426 38.827,267.476 38.812,267.526 38.799,267.577 
		38.79,267.628 38.783,267.68 38.779,267.732 38.783,267.575 38.783,277.889 38.79,277.941 38.799,277.993 38.812,278.043 
		38.827,278.093 38.844,278.143 38.864,278.191 38.886,278.238 38.912,278.285 38.939,278.329 38.968,278.372 39,278.414 
		39.035,278.454 39.071,278.492 39.109,278.528 39.148,278.562 39.19,278.593 39.233,278.623 39.278,278.65 39.324,278.675 
		39.371,278.698 39.419,278.718 39.468,278.735 39.519,278.75 39.57,278.763 39.622,278.772 39.673,278.779 39.725,278.783 
		39.778,278.785 53.812,278.82 	"/>
</g>
<g id="LINE">
	
		<line fill="none" stroke="#000000" stroke-width="0.7087" stroke-linecap="round" stroke-linejoin="round" stroke-miterlimit="10" x1="46.189" y1="1635.591" x2="58.19" y2="1635.591"/>
</g>
<g id="LINE_1_">
	
		<line fill="none" stroke="#000000" stroke-width="0.7087" stroke-linecap="round" stroke-linejoin="round" stroke-miterlimit="10" x1="46.19" y1="1" x2="58.19" y2="1"/>
</g>
</svg>
