<?xml version="1.0" encoding="utf-8"?>
<!-- Generator: Adobe Illustrator 15.0.2, SVG Export Plug-In . SVG Version: 6.00 Build 0)  -->
<!DOCTYPE svg PUBLIC "-//W3C//DTD SVG 1.1//EN" "http://www.w3.org/Graphics/SVG/1.1/DTD/svg11.dtd">
<svg version="1.1" id="Layer_1" xmlns="http://www.w3.org/2000/svg" xmlns:xlink="http://www.w3.org/1999/xlink" x="0px" y="0px"
	 width="515.709px" height="1641.709px" viewBox="48.646 -424.355 515.709 1641.709"
	 enable-background="new 48.646 -424.355 515.709 1641.709" xml:space="preserve">
<g>
	<g id="ENSEMBLE">
		<g id="LINE_6_">
			
				<line fill="none" stroke="#000000" stroke-width="0.7087" stroke-linecap="round" stroke-linejoin="round" stroke-miterlimit="10" x1="161.835" y1="1094.438" x2="142.139" y2="1097.911"/>
		</g>
		<g id="ARC_24_">
			<path stroke="#000000" stroke-width="0.7087" stroke-linecap="round" stroke-linejoin="round" stroke-miterlimit="10" d="
				M191.549,1098.264c-2.987-31.164-28.44-55.386-59.713-56.825c-5.146-0.237-10.297-0.259-15.444-0.064
				c-0.019,0.001-0.038,0.001-0.056,0.001c-0.829,0-1.5-0.671-1.5-1.5h-3c0,2.484,2.015,4.5,4.5,4.5
				c0.056,0,0.111-0.001,0.169-0.003c5.063-0.19,10.132-0.17,15.192,0.063c29.674,1.365,53.861,24.272,56.838,53.828"/>
		</g>
		<g id="ARC_28_">
			<path stroke="#000000" stroke-width="0.7087" stroke-linecap="round" stroke-linejoin="round" stroke-miterlimit="10" d="
				M188.534,502.821c-2.977,29.556-27.164,52.463-56.838,53.828c-5.061,0.233-10.13,0.255-15.192,0.064
				c-2.484-0.095-4.573,1.844-4.666,4.327c-0.002,0.057-0.003,0.112-0.003,0.17v478.662h3V561.212c0-0.021,0-0.038,0.001-0.058
				c0.031-0.828,0.728-1.474,1.555-1.441c5.146,0.192,10.299,0.172,15.444-0.065c31.272-1.439,56.727-25.661,59.713-56.825"/>
		</g>
		<g id="ARC_34_">
			<path stroke="#000000" stroke-width="0.7087" stroke-linecap="round" stroke-linejoin="round" stroke-miterlimit="10" d="
				M188.534,282.287c-2.977-29.555-27.164-52.463-56.838-53.829c-5.061-0.232-10.13-0.254-15.192-0.063
				c-0.058,0.002-0.113,0.003-0.169,0.003c-2.485,0-4.5-2.016-4.5-4.5h3c0,0.829,0.671,1.5,1.5,1.5c0.019,0,0.038,0,0.056-0.001
				c5.146-0.193,10.299-0.171,15.444,0.064c31.272,1.439,56.727,25.662,59.713,56.826"/>
		</g>
		<g id="LINE_19_">
			
				<polyline stroke="#000000" stroke-width="0.7087" stroke-linecap="round" stroke-linejoin="round" stroke-miterlimit="10" points="
				418.164,1110.264 418.164,1217 421.164,1217 421.164,1110.264 			"/>
		</g>
		<g id="ARC_47_">
			<path stroke="#000000" stroke-width="0.7087" stroke-linecap="round" stroke-linejoin="round" stroke-miterlimit="10" d="
				M470.34,1100.866c9.72,1.713,16.562,10.509,15.833,20.352l2.991,0.222c0.843-11.378-7.067-21.546-18.304-23.527"/>
		</g>
		<g id="ARC_59_">
			<path stroke="#000000" stroke-width="0.7087" stroke-linecap="round" stroke-linejoin="round" stroke-miterlimit="10" d="
				M188.423,1110.264c-2.19,15.409-12.838,28.289-27.562,33.337c-2.063,0.707-4.207,1.149-6.38,1.316
				c-14.184,1.09-26.564-9.524-27.654-23.708v0.008c-0.729-9.842,6.113-18.638,15.833-20.351l-0.521-2.955
				c-11.236,1.98-19.146,12.148-18.304,23.526c1.217,15.836,15.041,27.688,30.876,26.47c2.427-0.187,4.821-0.681,7.124-1.47
				c15.935-5.464,27.406-19.475,29.616-36.175"/>
		</g>
		<g id="ARC_61_">
			<path stroke="#000000" stroke-width="0.7087" stroke-linecap="round" stroke-linejoin="round" stroke-miterlimit="10" d="
				M198.247,1110.264c2.189,15.409,12.838,28.289,27.561,33.337c13.457,4.613,28.105-2.555,32.719-16.012
				c0.707-2.063,1.149-4.206,1.317-6.38l-0.001,0.008c0.729-9.842-6.114-18.638-15.833-20.351l0.521-2.955
				c11.236,1.98,19.146,12.148,18.305,23.526c-0.188,2.427-0.682,4.82-1.471,7.123c-5.15,15.024-21.506,23.028-36.529,17.877
				c-15.937-5.464-27.406-19.475-29.616-36.175"/>
		</g>
		<g id="ARC_63_">
			<path stroke="#000000" stroke-width="0.7087" stroke-linecap="round" stroke-linejoin="round" stroke-miterlimit="10" d="
				M417.781,1110.264c-2.211,16.7-13.682,30.711-29.616,36.175c-2.303,0.789-4.695,1.283-7.123,1.47
				c-15.837,1.218-29.659-10.634-30.877-26.47c-0.843-11.378,7.067-21.546,18.305-23.527l0.521,2.955
				c-9.719,1.713-16.562,10.51-15.833,20.352v-0.008c1.09,14.184,13.473,24.798,27.655,23.707c2.174-0.166,4.317-0.608,6.38-1.315
				c14.724-5.048,25.371-17.928,27.563-33.337"/>
		</g>
		<g id="ARC_65_">
			<path stroke="#000000" stroke-width="0.7087" stroke-linecap="round" stroke-linejoin="round" stroke-miterlimit="10" d="
				M424.575,1110.264c2.19,15.409,12.838,28.289,27.563,33.337c13.457,4.613,28.104-2.555,32.72-16.012
				c0.707-2.063,1.149-4.206,1.316-6.38l2.99,0.229c-0.187,2.427-0.681,4.82-1.47,7.123c-5.15,15.024-21.507,23.028-36.53,17.877
				c-15.936-5.464-27.405-19.475-29.615-36.175"/>
		</g>
		<g id="LINE_22_">
			
				<line fill="none" stroke="#000000" stroke-width="0.7087" stroke-linecap="round" stroke-linejoin="round" stroke-miterlimit="10" x1="427.164" y1="1098.264" x2="424.466" y2="1098.264"/>
		</g>
		<g id="LINE_23_">
			
				<line fill="none" stroke="#000000" stroke-width="0.7087" stroke-linecap="round" stroke-linejoin="round" stroke-miterlimit="10" x1="427.164" y1="1110.264" x2="424.575" y2="1110.264"/>
		</g>
		<g id="LINE_31_">
			
				<line fill="none" stroke="#000000" stroke-width="0.7087" stroke-linecap="round" stroke-linejoin="round" stroke-miterlimit="10" x1="200.835" y1="1098.264" x2="198.136" y2="1098.264"/>
		</g>
		<g id="LINE_32_">
			
				<line fill="none" stroke="#000000" stroke-width="0.7087" stroke-linecap="round" stroke-linejoin="round" stroke-miterlimit="10" x1="200.835" y1="1110.264" x2="198.247" y2="1110.264"/>
		</g>
		<g id="LINE_33_">
			
				<polyline stroke="#000000" stroke-width="0.7087" stroke-linecap="round" stroke-linejoin="round" stroke-miterlimit="10" points="
				200.835,1098.264 200.835,1110.264 194.835,1110.264 194.835,1217 191.835,1217 191.835,1110.264 185.835,1110.264 
				185.835,1098.264 			"/>
		</g>
		<g id="LINE_35_">
			
				<line fill="none" stroke="#000000" stroke-width="0.7087" stroke-linecap="round" stroke-linejoin="round" stroke-miterlimit="10" x1="224.835" y1="1094.438" x2="244.531" y2="1097.911"/>
		</g>
		<g id="ARC_92_">
			<path stroke="#000000" stroke-width="0.7087" stroke-linecap="round" stroke-linejoin="round" stroke-miterlimit="10" d="
				M198.136,1098.264c2.976-29.556,27.164-52.463,56.837-53.828c5.062-0.233,10.13-0.255,15.193-0.063
				c2.483,0.094,4.572-1.845,4.666-4.328c0.002-0.057,0.003-0.112,0.003-0.169h-3c0,0.02,0,0.038-0.001,0.057
				c-0.031,0.828-0.728,1.474-1.556,1.442c-5.146-0.193-10.299-0.172-15.442,0.064c-31.274,1.439-56.728,25.661-59.713,56.825"/>
		</g>
		<g id="ARC_100_">
			<path stroke="#000000" stroke-width="0.7087" stroke-linecap="round" stroke-linejoin="round" stroke-miterlimit="10" d="
				M417.878,1098.264c-2.986-31.164-28.439-55.386-59.714-56.825c-5.146-0.237-10.298-0.259-15.443-0.064
				c-0.02,0.001-0.037,0.001-0.057,0.001c-0.828,0-1.5-0.671-1.5-1.5h-3c0,2.484,2.016,4.5,4.5,4.5c0.057,0,0.112-0.001,0.17-0.003
				c5.063-0.19,10.132-0.17,15.191,0.063c29.673,1.365,53.861,24.272,56.837,53.828"/>
		</g>
		<g id="ARC_104_">
			<path stroke="#000000" stroke-width="0.7087" stroke-linecap="round" stroke-linejoin="round" stroke-miterlimit="10" d="
				M195.122,502.821c2.985,31.164,28.438,55.386,59.713,56.825c5.145,0.237,10.297,0.259,15.442,0.065
				c0.02-0.001,0.038-0.001,0.058-0.001c0.828,0,1.5,0.671,1.5,1.5v478.662h3V561.212c0-2.485-2.016-4.5-4.5-4.5
				c-0.058,0-0.113,0.001-0.169,0.003c-5.063,0.189-10.132,0.169-15.193-0.064c-29.673-1.365-53.861-24.273-56.837-53.828"/>
		</g>
		<g id="ARC_116_">
			<path stroke="#000000" stroke-width="0.7087" stroke-linecap="round" stroke-linejoin="round" stroke-miterlimit="10" d="
				M194.835,1098.264V882.021c0-0.935,0.218-1.856,0.638-2.691c2.593-5.495,4.07-11.45,4.345-17.521
				c0.111-7.39-1.601-14.694-4.982-21.266c3.009-5.84,4.74-12.251,5.077-18.812c0.009-7.365-1.731-14.628-5.077-21.188
				c3.056-5.902,4.777-12.403,5.046-19.044c0.001-7.286-1.729-14.471-5.046-20.956c3.214-6.097,4.865-12.894,4.805-19.783
				c0.086-6.57-1.34-13.073-4.167-19.005c-0.419-0.835-0.638-1.758-0.638-2.691V502.821h-3v216.242c0,0.935-0.219,1.856-0.639,2.691
				c-2.809,5.792-4.198,12.17-4.054,18.604c-0.263,7.024,1.365,13.991,4.716,20.171c-3.027,5.703-4.7,12.027-4.888,18.482
				c-0.329,7.479,1.365,14.91,4.904,21.508c-3.079,5.81-4.781,12.249-4.975,18.821c-0.218,7.372,1.498,14.674,4.979,21.177
				c-3.082,5.771-4.768,12.187-4.918,18.729c-0.173,6.934,1.277,13.812,4.235,20.083c0.42,0.835,0.639,1.758,0.639,2.691v216.242"/>
		</g>
		<g id="ARC_123_">
			<path stroke="#000000" stroke-width="0.7087" stroke-linecap="round" stroke-linejoin="round" stroke-miterlimit="10" d="
				M418.164,1098.264V882.021c0-0.935-0.219-1.856-0.638-2.691c-2.836-6.294-4.413-13.082-4.643-19.98
				c0.514-6.571,2.328-12.975,5.34-18.838c-3.449-6.507-5.236-13.766-5.202-21.129c0.381-6.584,2.15-13.015,5.192-18.866
				c-3.468-6.5-5.208-13.781-5.06-21.146c0.257-6.583,1.984-13.023,5.058-18.853c-3.32-6.22-5.055-13.164-5.044-20.216
				c0.164-6.415,1.647-12.729,4.357-18.546c0.419-0.836,0.638-1.758,0.638-2.691V502.821h3v216.242c0,0.935,0.219,1.856,0.639,2.691
				c2.831,5.978,4.271,12.519,4.216,19.132c-0.009,6.848-1.674,13.592-4.854,19.656c3.338,6.526,5.069,13.758,5.054,21.09
				c-0.297,6.595-2.021,13.046-5.054,18.91c3.372,6.511,5.064,13.761,4.924,21.092c-0.176,6.596-1.858,13.063-4.924,18.908
				c3.34,6.513,5.063,13.732,5.025,21.053c-0.281,6.143-1.772,12.169-4.388,17.733c-0.42,0.835-0.639,1.758-0.639,2.691v216.242"/>
		</g>
		<g id="ARC_127_">
			<path stroke="#000000" stroke-width="0.7087" stroke-linecap="round" stroke-linejoin="round" stroke-miterlimit="10" d="
				M414.863,502.821c-2.976,29.556-27.164,52.463-56.837,53.828c-5.061,0.233-10.13,0.255-15.191,0.064
				c-2.483-0.095-4.572,1.844-4.666,4.327c-0.002,0.057-0.004,0.112-0.004,0.17v478.662h3V561.212c0-0.021,0-0.038,0.002-0.058
				c0.03-0.828,0.728-1.474,1.555-1.441c5.146,0.192,10.299,0.172,15.443-0.065c31.273-1.439,56.728-25.661,59.714-56.825"/>
		</g>
		<g id="LINE_49_">
			
				<polyline stroke="#000000" stroke-width="0.7087" stroke-linecap="round" stroke-linejoin="round" stroke-miterlimit="10" points="
				427.164,1110.264 427.164,1098.264 412.164,1098.264 412.164,1110.264 			"/>
		</g>
		<g id="ARC_131_">
			<path stroke="#000000" stroke-width="0.7087" stroke-linecap="round" stroke-linejoin="round" stroke-miterlimit="10" d="
				M424.466,1098.264c2.976-29.556,27.164-52.463,56.837-53.828c5.062-0.233,10.13-0.255,15.192-0.063
				c2.483,0.094,4.572-1.845,4.665-4.328c0.003-0.057,0.004-0.112,0.004-0.169h-3c0,0.02-0.001,0.038-0.001,0.057
				c-0.03,0.828-0.728,1.474-1.556,1.442c-5.146-0.193-10.299-0.172-15.443,0.064c-31.272,1.439-56.727,25.661-59.714,56.825"/>
		</g>
		<g id="ARC_135_">
			<path stroke="#000000" stroke-width="0.7087" stroke-linecap="round" stroke-linejoin="round" stroke-miterlimit="10" d="
				M421.45,502.821c2.987,31.164,28.44,55.386,59.714,56.825c5.146,0.237,10.298,0.259,15.443,0.065
				c0.02-0.001,0.037-0.001,0.057-0.001c0.828,0,1.5,0.671,1.5,1.5v478.662h3V561.212c0-2.485-2.015-4.5-4.5-4.5
				c-0.057,0-0.112,0.001-0.169,0.003c-5.063,0.189-10.132,0.169-15.192-0.064c-29.673-1.365-53.861-24.273-56.837-53.828"/>
		</g>
		<g id="LINE_60_">
			
				<line fill="none" stroke="#000000" stroke-width="0.7087" stroke-linecap="round" stroke-linejoin="round" stroke-miterlimit="10" x1="427.164" y1="294.287" x2="424.575" y2="294.287"/>
		</g>
		<g id="LINE_61_">
			
				<line fill="none" stroke="#000000" stroke-width="0.7087" stroke-linecap="round" stroke-linejoin="round" stroke-miterlimit="10" x1="427.164" y1="282.287" x2="424.466" y2="282.287"/>
		</g>
		<g id="LINE_62_">
			
				<line fill="none" stroke="#000000" stroke-width="0.7087" stroke-linecap="round" stroke-linejoin="round" stroke-miterlimit="10" x1="427.164" y1="490.821" x2="424.575" y2="490.821"/>
		</g>
		<g id="LINE_63_">
			
				<line fill="none" stroke="#000000" stroke-width="0.7087" stroke-linecap="round" stroke-linejoin="round" stroke-miterlimit="10" x1="427.164" y1="502.821" x2="424.466" y2="502.821"/>
		</g>
		<g id="ARC_151_">
			<path stroke="#000000" stroke-width="0.7087" stroke-linecap="round" stroke-linejoin="round" stroke-miterlimit="10" d="
				M262.835,305.461c0.842-11.378-7.068-21.545-18.305-23.526l-0.521,2.955c9.719,1.714,16.562,10.509,15.833,20.351"/>
		</g>
		<g id="LINE_73_">
			
				<line fill="none" stroke="#000000" stroke-width="0.7087" stroke-linecap="round" stroke-linejoin="round" stroke-miterlimit="10" x1="200.835" y1="294.287" x2="198.247" y2="294.287"/>
		</g>
		<g id="LINE_75_">
			
				<line fill="none" stroke="#000000" stroke-width="0.7087" stroke-linecap="round" stroke-linejoin="round" stroke-miterlimit="10" x1="185.835" y1="282.287" x2="185.835" y2="294.287"/>
		</g>
		<g id="ARC_155_">
			<path stroke="#000000" stroke-width="0.7087" stroke-linecap="round" stroke-linejoin="round" stroke-miterlimit="10" d="
				M161.835,278.461l0.521,2.955l-19.695,3.474c-9.72,1.714-16.563,10.509-15.833,20.351v-0.008
				c1.09,14.184,13.471,24.798,27.654,23.708c2.174-0.167,4.318-0.609,6.38-1.316c14.724-5.048,25.371-17.927,27.562-33.337h3.028
				c-2.21,16.7-13.682,30.711-29.616,36.174c-2.303,0.79-4.697,1.284-7.124,1.471c-15.835,1.217-29.659-10.635-30.876-26.471
				c-0.843-11.378,7.067-21.545,18.304-23.526L161.835,278.461l-19.696,3.474"/>
		</g>
		<g id="ARC_157_">
			<path stroke="#000000" stroke-width="0.7087" stroke-linecap="round" stroke-linejoin="round" stroke-miterlimit="10" d="
				M262.835,305.461c-0.188,2.428-0.682,4.821-1.471,7.124c-5.15,15.024-21.506,23.027-36.529,17.876l0.973-2.837
				c13.457,4.613,28.105-2.555,32.719-16.012c0.707-2.063,1.149-4.207,1.317-6.38"/>
		</g>
		<g id="ARC_159_">
			<path stroke="#000000" stroke-width="0.7087" stroke-linecap="round" stroke-linejoin="round" stroke-miterlimit="10" d="
				M244.531,503.175c11.236-1.981,19.146-12.149,18.305-23.527l-2.992,0.222c0.729,9.843-6.114,18.639-15.833,20.352"/>
		</g>
		<g id="LINE_84_">
			
				<line fill="none" stroke="#000000" stroke-width="0.7087" stroke-linecap="round" stroke-linejoin="round" stroke-miterlimit="10" x1="200.835" y1="490.821" x2="198.247" y2="490.821"/>
		</g>
		<g id="LINE_85_">
			
				<line fill="none" stroke="#000000" stroke-width="0.7087" stroke-linecap="round" stroke-linejoin="round" stroke-miterlimit="10" x1="200.835" y1="502.821" x2="198.136" y2="502.821"/>
		</g>
		<g id="LINE_88_">
			
				<polyline stroke="#000000" stroke-width="0.7087" stroke-linecap="round" stroke-linejoin="round" stroke-miterlimit="10" points="
				185.835,490.821 185.835,502.821 200.835,502.821 200.835,490.821 			"/>
		</g>
		<g id="ARC_161_">
			<path stroke="#000000" stroke-width="0.7087" stroke-linecap="round" stroke-linejoin="round" stroke-miterlimit="10" d="
				M262.835,479.646c-1.217-15.836-15.041-27.688-30.876-26.47c-2.428,0.187-4.821,0.681-7.124,1.47l0.973,2.838
				c2.063-0.707,4.207-1.148,6.38-1.315c14.185-1.091,26.566,9.523,27.656,23.709"/>
		</g>
		<g id="ARC_163_">
			<path stroke="#000000" stroke-width="0.7087" stroke-linecap="round" stroke-linejoin="round" stroke-miterlimit="10" d="
				M195.219,490.821c2.21-16.7,13.681-30.711,29.616-36.175l0.973,2.838c-14.723,5.048-25.371,17.928-27.561,33.337"/>
		</g>
		<g id="ARC_165_">
			<path stroke="#000000" stroke-width="0.7087" stroke-linecap="round" stroke-linejoin="round" stroke-miterlimit="10" d="
				M161.835,506.646l0.521-2.954l-19.695-3.474c-9.72-1.713-16.563-10.51-15.833-20.352v0.01c0.167-2.176,0.608-4.318,1.315-6.382
				c4.614-13.457,19.263-20.625,32.719-16.012c14.724,5.048,25.371,17.928,27.562,33.337h3.028
				c-2.21-16.7-13.682-30.711-29.616-36.175c-15.024-5.151-31.379,2.853-36.53,17.877c-0.79,2.303-1.283,4.696-1.47,7.123
				c-0.843,11.378,7.067,21.546,18.304,23.527L161.835,506.646l-19.696-3.473"/>
		</g>
		<g id="ARC_171_">
			<path stroke="#000000" stroke-width="0.7087" stroke-linecap="round" stroke-linejoin="round" stroke-miterlimit="10" d="
				M414.753,294.287c-2.19,15.41-12.839,28.289-27.563,33.337c-2.063,0.707-4.206,1.149-6.38,1.316
				c-14.184,1.09-26.565-9.525-27.655-23.708v0.008c-0.729-9.842,6.114-18.637,15.833-20.351l-0.521-2.955
				c-11.236,1.98-19.146,12.148-18.305,23.526c1.218,15.836,15.04,27.688,30.876,26.471c2.429-0.188,4.821-0.682,7.124-1.471
				c15.936-5.463,27.405-19.474,29.616-36.174"/>
		</g>
		<g id="LINE_100_">
			
				<polyline stroke="#000000" stroke-width="0.7087" stroke-linecap="round" stroke-linejoin="round" stroke-miterlimit="10" points="
				368.469,281.934 388.164,278.461 368.469,281.934 368.989,284.889 388.686,281.416 388.164,278.461 			"/>
		</g>
		<g id="LINE_103_">
			
				<line fill="none" stroke="#000000" stroke-width="0.7087" stroke-linecap="round" stroke-linejoin="round" stroke-miterlimit="10" x1="388.164" y1="506.646" x2="368.469" y2="503.175"/>
		</g>
		<g id="ARC_177_">
			<path stroke="#000000" stroke-width="0.7087" stroke-linecap="round" stroke-linejoin="round" stroke-miterlimit="10" d="
				M414.753,490.821c-2.19-15.409-12.839-28.289-27.563-33.337c-13.456-4.613-28.104,2.555-32.719,16.012
				c-0.707,2.063-1.149,4.206-1.316,6.382l-2.991-0.23c0.188-2.427,0.681-4.82,1.471-7.123c5.15-15.023,21.506-23.028,36.529-17.877
				c15.936,5.464,27.405,19.475,29.616,36.175"/>
		</g>
		<g id="ARC_187_">
			<path stroke="#000000" stroke-width="0.7087" stroke-linecap="round" stroke-linejoin="round" stroke-miterlimit="10" d="
				M195.122,282.287c2.985-31.164,28.438-55.386,59.713-56.826c5.145-0.235,10.297-0.258,15.442-0.064
				c0.828,0.031,1.524-0.615,1.556-1.442c0.001-0.019,0.001-0.038,0.001-0.057h3c0,0.057-0.001,0.113-0.003,0.169
				c-0.094,2.482-2.183,4.421-4.666,4.328c-5.063-0.19-10.132-0.169-15.193,0.063c-29.673,1.366-53.861,24.274-56.837,53.829"/>
		</g>
		<g id="LINE_108_">
			
				<polyline stroke="#000000" stroke-width="0.7087" stroke-linecap="round" stroke-linejoin="round" stroke-miterlimit="10" points="
				427.164,294.287 427.164,282.287 412.164,282.287 412.164,294.287 			"/>
		</g>
		<g id="ARC_199_">
			<path stroke="#000000" stroke-width="0.7087" stroke-linecap="round" stroke-linejoin="round" stroke-miterlimit="10" d="
				M421.549,294.287c2.21,16.7,13.681,30.711,29.615,36.174c15.023,5.151,31.38-2.852,36.53-17.876
				c0.789-2.303,1.283-4.696,1.47-7.124c0.843-11.378-7.067-21.545-18.304-23.526l-0.521,2.955
				c9.72,1.714,16.562,10.509,15.833,20.351l0.001-0.008c-0.167,2.174-0.609,4.317-1.316,6.38
				c-4.614,13.457-19.263,20.625-32.72,16.012c-14.725-5.048-25.371-17.927-27.563-33.337"/>
		</g>
		<g id="LINE_118_">
			
				<polyline stroke="#000000" stroke-width="0.7087" stroke-linecap="round" stroke-linejoin="round" stroke-miterlimit="10" points="
				427.164,490.821 427.164,502.821 412.164,502.821 412.164,490.821 			"/>
		</g>
		<g id="ARC_201_">
			<path stroke="#000000" stroke-width="0.7087" stroke-linecap="round" stroke-linejoin="round" stroke-miterlimit="10" d="
				M470.861,503.175l-19.696,3.473L470.861,503.175c11.235-1.981,19.146-12.149,18.304-23.527l-2.991,0.222
				c0.729,9.843-6.113,18.639-15.833,20.352l-19.696,3.474l0.521,2.954"/>
		</g>
		<g id="ARC_203_">
			<path stroke="#000000" stroke-width="0.7087" stroke-linecap="round" stroke-linejoin="round" stroke-miterlimit="10" d="
				M421.549,490.821c2.21-16.7,13.681-30.711,29.615-36.175c2.304-0.789,4.696-1.283,7.123-1.47
				c15.836-1.217,29.66,10.634,30.877,26.47l-2.99,0.23c-1.09-14.186-13.473-24.8-27.655-23.709
				c-2.175,0.167-4.318,0.608-6.381,1.315c-14.725,5.048-25.371,17.928-27.563,33.337"/>
		</g>
		<g id="LINE_120_">
			
				<line fill="none" stroke="#000000" stroke-width="0.7087" stroke-linecap="round" stroke-linejoin="round" stroke-miterlimit="10" x1="427.164" y1="-313.156" x2="424.466" y2="-313.156"/>
		</g>
		<g id="LINE_121_">
			
				<line fill="none" stroke="#000000" stroke-width="0.7087" stroke-linecap="round" stroke-linejoin="round" stroke-miterlimit="10" x1="427.164" y1="-325.156" x2="424.575" y2="-325.156"/>
		</g>
		<g id="LINE_131_">
			
				<line fill="none" stroke="#000000" stroke-width="0.7087" stroke-linecap="round" stroke-linejoin="round" stroke-miterlimit="10" x1="200.835" y1="-313.156" x2="200.835" y2="-325.156"/>
		</g>
		<g id="LINE_133_">
			
				<line fill="none" stroke="#000000" stroke-width="0.7087" stroke-linecap="round" stroke-linejoin="round" stroke-miterlimit="10" x1="224.835" y1="-309.331" x2="244.531" y2="-312.804"/>
		</g>
		<g id="ARC_230_">
			<path stroke="#000000" stroke-width="0.7087" stroke-linecap="round" stroke-linejoin="round" stroke-miterlimit="10" d="
				M198.136-313.156c2.976,29.555,27.164,52.463,56.837,53.828c5.062,0.232,10.13,0.255,15.193,0.063
				c0.057-0.002,0.112-0.003,0.169-0.003c2.484,0,4.5,2.015,4.5,4.5v478.664h-3v-478.664c0-0.828-0.672-1.5-1.5-1.5
				c-0.02,0-0.038,0-0.058,0.001c-5.146,0.193-10.299,0.172-15.442-0.065c-31.274-1.438-56.728-25.661-59.713-56.824"/>
		</g>
		<g id="ARC_232_">
			
				<path fill="none" stroke="#000000" stroke-width="0.7087" stroke-linecap="round" stroke-linejoin="round" stroke-miterlimit="10" d="
				M194.835-96.914c0,0.936,0.218,1.857,0.638,2.692"/>
		</g>
		<g id="ARC_233_">
			
				<path fill="none" stroke="#000000" stroke-width="0.7087" stroke-linecap="round" stroke-linejoin="round" stroke-miterlimit="10" d="
				M191.197-94.222c0.42-0.835,0.639-1.757,0.639-2.692"/>
		</g>
		<g id="ARC_247_">
			<path stroke="#000000" stroke-width="0.7087" stroke-linecap="round" stroke-linejoin="round" stroke-miterlimit="10" d="
				M417.781-325.156c-2.211-16.7-13.682-30.711-29.616-36.176c-15.023-5.15-31.379,2.854-36.529,17.876
				c-0.79,2.304-1.283,4.696-1.471,7.124c-0.843,11.378,7.067,21.546,18.305,23.527l0.521-2.954
				c-9.719-1.714-16.562-10.509-15.833-20.351v0.008c0.167-2.174,0.609-4.318,1.316-6.381c4.613-13.456,19.263-20.625,32.719-16.012
				c14.724,5.049,25.371,17.928,27.563,33.338"/>
		</g>
		<g id="LINE_145_">
			
				<polyline stroke="#000000" stroke-width="0.7087" stroke-linecap="round" stroke-linejoin="round" stroke-miterlimit="10" points="
				427.164,-313.156 427.164,-325.156 421.164,-325.156 421.164,-424 418.164,-424 418.164,-325.156 412.164,-325.156 
				412.164,-313.156 			"/>
		</g>
		<g id="LINE_146_">
			
				<line fill="none" stroke="#000000" stroke-width="0.7087" stroke-linecap="round" stroke-linejoin="round" stroke-miterlimit="10" x1="451.164" y1="-309.331" x2="470.861" y2="-312.804"/>
		</g>
		<g id="LINE_149_">
			<path stroke="#000000" stroke-width="0.7087" stroke-linecap="round" stroke-linejoin="round" stroke-miterlimit="10" d="
				M489.164-336.331c0.843,11.378-7.067,21.546-18.304,23.527l-19.696,3.473l-0.521-2.955l19.696-3.473
				c9.72-1.714,16.562-10.509,15.833-20.351"/>
		</g>
		<g id="ARC_255_">
			<path stroke="#000000" stroke-width="0.7087" stroke-linecap="round" stroke-linejoin="round" stroke-miterlimit="10" d="
				M424.575-325.156c2.19-15.41,12.838-28.289,27.563-33.338c2.063-0.706,4.206-1.148,6.381-1.316
				c14.184-1.09,26.565,9.524,27.655,23.709l2.99-0.23c-1.217-15.835-15.041-27.687-30.877-26.47
				c-2.427,0.188-4.819,0.681-7.123,1.47c-15.936,5.463-27.405,19.476-29.615,36.176"/>
		</g>
		<g id="LINE_157_">
			
				<line fill="none" stroke="#000000" stroke-width="0.7087" stroke-linecap="round" stroke-linejoin="round" stroke-miterlimit="10" x1="191.835" y1="-325.156" x2="191.452" y2="-325.156"/>
		</g>
		<g id="LINE_158_">
			
				<line fill="none" stroke="#000000" stroke-width="0.7087" stroke-linecap="round" stroke-linejoin="round" stroke-miterlimit="10" x1="195.219" y1="-325.156" x2="194.835" y2="-325.156"/>
		</g>
		<g id="LINE_159_">
			
				<line fill="none" stroke="#000000" stroke-width="0.7087" stroke-linecap="round" stroke-linejoin="round" stroke-miterlimit="10" x1="195.122" y1="-313.156" x2="194.835" y2="-313.156"/>
		</g>
		<g id="LINE_160_">
			
				<line fill="none" stroke="#000000" stroke-width="0.7087" stroke-linecap="round" stroke-linejoin="round" stroke-miterlimit="10" x1="191.835" y1="-313.156" x2="191.549" y2="-313.156"/>
		</g>
		<g id="LINE_161_">
			<path stroke="#000000" stroke-width="0.7087" stroke-linecap="round" stroke-linejoin="round" stroke-miterlimit="10" d="
				M161.835-309.331l-19.696-3.473L161.835-309.331l0.521-2.955l-19.695-3.473c-9.72-1.714-16.563-10.509-15.833-20.351v0.008
				c0.167-2.174,0.608-4.318,1.315-6.381c4.614-13.456,19.263-20.625,32.719-16.012c14.724,5.049,25.371,17.928,27.562,33.338
				h-2.588v12h2.699c-2.977,29.555-27.164,52.463-56.838,53.828c-5.061,0.232-10.13,0.255-15.192,0.063
				c-2.484-0.093-4.573,1.845-4.666,4.328c-0.002,0.056-0.003,0.113-0.003,0.169v478.664h3v-478.664c0-0.02,0-0.038,0.001-0.056
				c0.031-0.828,0.728-1.475,1.555-1.443c5.146,0.193,10.299,0.172,15.444-0.065c31.272-1.438,56.727-25.661,59.713-56.824
				l-0.097-12c-2.21-16.7-13.682-30.711-29.616-36.176c-15.024-5.15-31.379,2.854-36.53,17.876c-0.79,2.304-1.283,4.696-1.47,7.124
				c-0.843,11.378,7.067,21.546,18.304,23.527"/>
		</g>
		<g id="LINE_163_">
			
				<line fill="none" stroke="#000000" stroke-width="0.7087" stroke-linecap="round" stroke-linejoin="round" stroke-miterlimit="10" x1="191.835" y1="282.287" x2="191.549" y2="282.287"/>
		</g>
		<g id="LINE_164_">
			
				<line fill="none" stroke="#000000" stroke-width="0.7087" stroke-linecap="round" stroke-linejoin="round" stroke-miterlimit="10" x1="195.122" y1="282.287" x2="194.835" y2="282.287"/>
		</g>
		<g id="LINE_165_">
			
				<line fill="none" stroke="#000000" stroke-width="0.7087" stroke-linecap="round" stroke-linejoin="round" stroke-miterlimit="10" x1="195.219" y1="294.287" x2="194.835" y2="294.287"/>
		</g>
		<g id="LINE_166_">
			
				<line fill="none" stroke="#000000" stroke-width="0.7087" stroke-linecap="round" stroke-linejoin="round" stroke-miterlimit="10" x1="191.835" y1="294.287" x2="191.452" y2="294.287"/>
		</g>
		<g id="LINE_167_">
			
				<polyline stroke="#000000" stroke-width="0.7087" stroke-linecap="round" stroke-linejoin="round" stroke-miterlimit="10" points="
				188.423,294.287 185.835,294.287 185.835,282.287 188.534,282.287 198.136,282.287 200.835,282.287 200.835,294.287 			"/>
		</g>
		<g id="LINE_168_">
			
				<line fill="none" stroke="#000000" stroke-width="0.7087" stroke-linecap="round" stroke-linejoin="round" stroke-miterlimit="10" x1="188.423" y1="490.821" x2="185.835" y2="490.821"/>
		</g>
		<g id="LINE_169_">
			
				<line fill="none" stroke="#000000" stroke-width="0.7087" stroke-linecap="round" stroke-linejoin="round" stroke-miterlimit="10" x1="191.835" y1="490.821" x2="191.452" y2="490.821"/>
		</g>
		<g id="LINE_170_">
			
				<line fill="none" stroke="#000000" stroke-width="0.7087" stroke-linecap="round" stroke-linejoin="round" stroke-miterlimit="10" x1="195.219" y1="490.821" x2="194.835" y2="490.821"/>
		</g>
		<g id="LINE_171_">
			
				<line fill="none" stroke="#000000" stroke-width="0.7087" stroke-linecap="round" stroke-linejoin="round" stroke-miterlimit="10" x1="195.122" y1="502.821" x2="194.835" y2="502.821"/>
		</g>
		<g id="LINE_172_">
			
				<line fill="none" stroke="#000000" stroke-width="0.7087" stroke-linecap="round" stroke-linejoin="round" stroke-miterlimit="10" x1="191.835" y1="502.821" x2="191.549" y2="502.821"/>
		</g>
		<g id="LINE_173_">
			
				<line fill="none" stroke="#000000" stroke-width="0.7087" stroke-linecap="round" stroke-linejoin="round" stroke-miterlimit="10" x1="188.534" y1="502.821" x2="185.835" y2="502.821"/>
		</g>
		<g id="LINE_174_">
			
				<line fill="none" stroke="#000000" stroke-width="0.7087" stroke-linecap="round" stroke-linejoin="round" stroke-miterlimit="10" x1="188.534" y1="1098.264" x2="185.835" y2="1098.264"/>
		</g>
		<g id="LINE_175_">
			
				<line fill="none" stroke="#000000" stroke-width="0.7087" stroke-linecap="round" stroke-linejoin="round" stroke-miterlimit="10" x1="191.835" y1="1098.264" x2="191.549" y2="1098.264"/>
		</g>
		<g id="LINE_176_">
			
				<line fill="none" stroke="#000000" stroke-width="0.7087" stroke-linecap="round" stroke-linejoin="round" stroke-miterlimit="10" x1="195.122" y1="1098.264" x2="194.835" y2="1098.264"/>
		</g>
		<g id="LINE_177_">
			
				<line fill="none" stroke="#000000" stroke-width="0.7087" stroke-linecap="round" stroke-linejoin="round" stroke-miterlimit="10" x1="195.219" y1="1110.264" x2="194.835" y2="1110.264"/>
		</g>
		<g id="LINE_178_">
			
				<line fill="none" stroke="#000000" stroke-width="0.7087" stroke-linecap="round" stroke-linejoin="round" stroke-miterlimit="10" x1="191.835" y1="1110.264" x2="191.452" y2="1110.264"/>
		</g>
		<g id="LINE_179_">
			
				<line fill="none" stroke="#000000" stroke-width="0.7087" stroke-linecap="round" stroke-linejoin="round" stroke-miterlimit="10" x1="188.423" y1="1110.264" x2="185.835" y2="1110.264"/>
		</g>
		<g id="LINE_180_">
			
				<line fill="none" stroke="#000000" stroke-width="0.7087" stroke-linecap="round" stroke-linejoin="round" stroke-miterlimit="10" x1="414.863" y1="1098.264" x2="412.164" y2="1098.264"/>
		</g>
		<g id="LINE_181_">
			
				<line fill="none" stroke="#000000" stroke-width="0.7087" stroke-linecap="round" stroke-linejoin="round" stroke-miterlimit="10" x1="418.164" y1="1098.264" x2="417.878" y2="1098.264"/>
		</g>
		<g id="LINE_182_">
			
				<line fill="none" stroke="#000000" stroke-width="0.7087" stroke-linecap="round" stroke-linejoin="round" stroke-miterlimit="10" x1="421.45" y1="1098.264" x2="421.164" y2="1098.264"/>
		</g>
		<g id="LINE_183_">
			
				<line fill="none" stroke="#000000" stroke-width="0.7087" stroke-linecap="round" stroke-linejoin="round" stroke-miterlimit="10" x1="421.549" y1="1110.264" x2="421.164" y2="1110.264"/>
		</g>
		<g id="LINE_184_">
			
				<line fill="none" stroke="#000000" stroke-width="0.7087" stroke-linecap="round" stroke-linejoin="round" stroke-miterlimit="10" x1="418.164" y1="1110.264" x2="417.781" y2="1110.264"/>
		</g>
		<g id="LINE_185_">
			
				<line fill="none" stroke="#000000" stroke-width="0.7087" stroke-linecap="round" stroke-linejoin="round" stroke-miterlimit="10" x1="414.753" y1="1110.264" x2="412.164" y2="1110.264"/>
		</g>
		<g id="LINE_186_">
			
				<line fill="none" stroke="#000000" stroke-width="0.7087" stroke-linecap="round" stroke-linejoin="round" stroke-miterlimit="10" x1="414.753" y1="490.821" x2="412.164" y2="490.821"/>
		</g>
		<g id="LINE_187_">
			
				<line fill="none" stroke="#000000" stroke-width="0.7087" stroke-linecap="round" stroke-linejoin="round" stroke-miterlimit="10" x1="418.164" y1="490.821" x2="417.781" y2="490.821"/>
		</g>
		<g id="LINE_188_">
			
				<line fill="none" stroke="#000000" stroke-width="0.7087" stroke-linecap="round" stroke-linejoin="round" stroke-miterlimit="10" x1="421.549" y1="490.821" x2="421.164" y2="490.821"/>
		</g>
		<g id="LINE_189_">
			
				<line fill="none" stroke="#000000" stroke-width="0.7087" stroke-linecap="round" stroke-linejoin="round" stroke-miterlimit="10" x1="421.45" y1="502.821" x2="421.164" y2="502.821"/>
		</g>
		<g id="LINE_190_">
			
				<line fill="none" stroke="#000000" stroke-width="0.7087" stroke-linecap="round" stroke-linejoin="round" stroke-miterlimit="10" x1="418.164" y1="502.821" x2="417.878" y2="502.821"/>
		</g>
		<g id="LINE_191_">
			
				<line fill="none" stroke="#000000" stroke-width="0.7087" stroke-linecap="round" stroke-linejoin="round" stroke-miterlimit="10" x1="414.863" y1="502.821" x2="412.164" y2="502.821"/>
		</g>
		<g id="LINE_192_">
			
				<line fill="none" stroke="#000000" stroke-width="0.7087" stroke-linecap="round" stroke-linejoin="round" stroke-miterlimit="10" x1="414.863" y1="282.287" x2="412.164" y2="282.287"/>
		</g>
		<g id="LINE_193_">
			
				<line fill="none" stroke="#000000" stroke-width="0.7087" stroke-linecap="round" stroke-linejoin="round" stroke-miterlimit="10" x1="418.164" y1="282.287" x2="417.878" y2="282.287"/>
		</g>
		<g id="LINE_194_">
			
				<line fill="none" stroke="#000000" stroke-width="0.7087" stroke-linecap="round" stroke-linejoin="round" stroke-miterlimit="10" x1="421.45" y1="282.287" x2="421.164" y2="282.287"/>
		</g>
		<g id="LINE_195_">
			
				<line fill="none" stroke="#000000" stroke-width="0.7087" stroke-linecap="round" stroke-linejoin="round" stroke-miterlimit="10" x1="421.549" y1="294.287" x2="421.164" y2="294.287"/>
		</g>
		<g id="LINE_196_">
			
				<line fill="none" stroke="#000000" stroke-width="0.7087" stroke-linecap="round" stroke-linejoin="round" stroke-miterlimit="10" x1="418.164" y1="294.287" x2="417.781" y2="294.287"/>
		</g>
		<g id="LINE_197_">
			
				<line fill="none" stroke="#000000" stroke-width="0.7087" stroke-linecap="round" stroke-linejoin="round" stroke-miterlimit="10" x1="414.753" y1="294.287" x2="412.164" y2="294.287"/>
		</g>
		<g id="LINE_198_">
			
				<line fill="none" stroke="#000000" stroke-width="0.7087" stroke-linecap="round" stroke-linejoin="round" stroke-miterlimit="10" x1="414.753" y1="-325.156" x2="412.164" y2="-325.156"/>
		</g>
		<g id="LINE_199_">
			
				<line fill="none" stroke="#000000" stroke-width="0.7087" stroke-linecap="round" stroke-linejoin="round" stroke-miterlimit="10" x1="418.164" y1="-325.156" x2="417.781" y2="-325.156"/>
		</g>
		<g id="LINE_200_">
			
				<line fill="none" stroke="#000000" stroke-width="0.7087" stroke-linecap="round" stroke-linejoin="round" stroke-miterlimit="10" x1="421.549" y1="-325.156" x2="421.164" y2="-325.156"/>
		</g>
		<g id="LINE_201_">
			
				<line fill="none" stroke="#000000" stroke-width="0.7087" stroke-linecap="round" stroke-linejoin="round" stroke-miterlimit="10" x1="421.45" y1="-313.156" x2="421.164" y2="-313.156"/>
		</g>
		<g id="LINE_202_">
			
				<line fill="none" stroke="#000000" stroke-width="0.7087" stroke-linecap="round" stroke-linejoin="round" stroke-miterlimit="10" x1="418.164" y1="-313.156" x2="417.878" y2="-313.156"/>
		</g>
		<g id="LINE_203_">
			
				<line fill="none" stroke="#000000" stroke-width="0.7087" stroke-linecap="round" stroke-linejoin="round" stroke-miterlimit="10" x1="414.863" y1="-313.156" x2="412.164" y2="-313.156"/>
		</g>
		<g id="ARC_271_">
			<path stroke="#000000" stroke-width="0.7087" stroke-linecap="round" stroke-linejoin="round" stroke-miterlimit="10" d="
				M421.164,282.287V66.044c0-0.935,0.219-1.855,0.639-2.691c2.888-5.954,4.271-12.525,4.027-19.139
				c0.187-6.857-1.438-13.643-4.711-19.673c3.518-6.574,5.232-13.96,4.976-21.412c-0.241-6.475-1.923-12.814-4.921-18.56
				c3.542-6.588,5.237-14.011,4.91-21.483c-0.143-6.498-1.854-12.863-4.986-18.557c3.451-6.547,5.278-13.828,5.325-21.229
				c-0.534-6.061-2.098-11.985-4.62-17.521c-0.42-0.835-0.639-1.757-0.639-2.692v-216.241h0.286
				c2.987,31.164,28.44,55.386,59.714,56.824c5.146,0.237,10.298,0.259,15.443,0.065c0.02,0,0.037-0.001,0.057-0.001
				c0.828,0,1.5,0.672,1.5,1.5v478.664c0,0.019-0.001,0.038-0.001,0.057c-0.03,0.828-0.728,1.475-1.556,1.442
				c-5.146-0.193-10.299-0.171-15.443,0.064c-31.272,1.439-56.727,25.662-59.714,56.826h3.016
				c2.976-29.555,27.164-52.463,56.837-53.829c5.062-0.232,10.13-0.254,15.192-0.063c2.483,0.093,4.572-1.844,4.665-4.328
				c0.004-0.057,0.005-0.113,0.005-0.169v-478.664c0-2.485-2.016-4.5-4.5-4.5c-0.058,0-0.113,0.001-0.17,0.003
				c-5.063,0.19-10.132,0.169-15.192-0.063c-29.673-1.366-53.861-24.274-56.837-53.829h-6.301v216.241
				c0,0.936-0.22,1.857-0.639,2.692c-2.918,6.229-4.389,13.038-4.304,19.916c0.198,6.583,1.887,13.036,4.941,18.871
				c-3.361,6.519-5.067,13.765-4.97,21.099c0.22,6.593,1.917,13.054,4.97,18.901c-3.39,6.612-5.114,13.951-5.025,21.381
				c0.32,6.495,2.034,12.845,5.025,18.619c-3.258,6.18-4.902,13.08-4.785,20.063c-0.07,6.477,1.349,12.883,4.146,18.724
				c0.419,0.835,0.639,1.757,0.639,2.691v216.242h-0.287c-2.986-31.164-28.439-55.386-59.713-56.826
				c-5.146-0.235-10.299-0.258-15.444-0.064c-0.02,0.001-0.037,0.001-0.056,0.001c-0.829,0-1.5-0.671-1.5-1.5v-478.664
				c0-0.02,0-0.038,0.001-0.056c0.03-0.828,0.728-1.475,1.555-1.443c5.146,0.193,10.299,0.172,15.444-0.065
				c31.272-1.438,56.727-25.661,59.713-56.824h-3.016c-2.976,29.555-27.164,52.463-56.837,53.828
				c-5.061,0.232-10.13,0.255-15.191,0.063c-2.483-0.093-4.572,1.845-4.666,4.328c-0.002,0.056-0.003,0.113-0.003,0.169v478.664
				c0,2.484,2.015,4.5,4.5,4.5c0.056,0,0.111-0.001,0.169-0.003c5.063-0.19,10.132-0.169,15.191,0.063
				c29.673,1.366,53.861,24.274,56.837,53.829"/>
		</g>
		<g id="ARC_275_">
			<path stroke="#000000" stroke-width="0.7087" stroke-linecap="round" stroke-linejoin="round" stroke-miterlimit="10" d="
				M407.897,391.054H205.103c-0.684-5.362-4.905-9.583-10.267-10.268v-86.5h-3v86.5c-5.362,0.685-9.584,4.905-10.269,10.268H49v3
				h132.567c0.685,5.361,4.905,9.584,10.269,10.268v86.5h3v-86.5c5.361-0.684,9.583-4.905,10.267-10.268h202.795"/>
		</g>
		<g id="ARC_279_">
			<path stroke="#000000" stroke-width="0.7087" stroke-linecap="round" stroke-linejoin="round" stroke-miterlimit="10" d="
				M564,391.054H431.432c-0.685-5.362-4.905-9.583-10.268-10.268v-86.5h-3v86.5c-5.361,0.685-9.584,4.905-10.268,10.268v3
				c0.684,5.361,4.905,9.584,10.268,10.268v86.5h3v-86.5c5.361-0.684,9.583-4.905,10.268-10.268H564"/>
		</g>
		<path stroke="#000000" stroke-width="0.7087" stroke-linecap="round" stroke-linejoin="round" stroke-miterlimit="10" d="
			M200.835-313.156h-2.699h-3.014l0.097-12c2.21-16.7,13.681-30.711,29.616-36.176c2.303-0.79,4.695-1.283,7.124-1.47
			c15.835-1.217,29.66,10.635,30.876,26.47c0.842,11.378-7.068,21.546-18.305,23.527l-19.695,3.473l-0.521-2.955l19.696-3.473
			c9.719-1.714,16.562-10.509,15.833-20.351l0.001,0.008c-1.09-14.185-13.472-24.799-27.656-23.709
			c-2.174,0.167-4.317,0.61-6.38,1.316c-14.723,5.049-25.371,17.928-27.561,33.338h2.588"/>
		<path stroke="#000000" stroke-width="0.7087" stroke-linecap="round" stroke-linejoin="round" stroke-miterlimit="10" d="
			M225.808,327.624c-14.723-5.048-25.371-17.927-27.561-33.337h-3.028c2.21,16.7,13.681,30.711,29.616,36.174"/>
		
			<polyline stroke="#000000" stroke-width="0.7087" stroke-linecap="round" stroke-linejoin="round" stroke-miterlimit="10" points="
			244.531,281.934 244.01,284.889 224.314,281.416 224.835,278.461 244.531,281.934 224.835,278.461 		"/>
		
			<polyline stroke="#000000" stroke-width="0.7087" stroke-linecap="round" stroke-linejoin="round" stroke-miterlimit="10" points="
			244.531,503.175 244.01,500.219 224.314,503.692 224.835,506.646 244.531,503.175 224.835,506.646 		"/>
		<path stroke="#000000" stroke-width="0.7087" stroke-linecap="round" stroke-linejoin="round" stroke-miterlimit="10" d="
			M388.686,503.692l-0.521,2.954l-19.695-3.473c-11.236-1.981-19.146-12.149-18.305-23.527l2.991,0.222
			c-0.729,9.843,6.114,18.639,15.833,20.352L388.686,503.692z"/>
		
			<polyline stroke="#000000" stroke-width="0.7087" stroke-linecap="round" stroke-linejoin="round" stroke-miterlimit="10" points="
			368.469,1097.911 368.989,1100.866 388.686,1097.393 388.164,1094.438 368.469,1097.911 388.164,1094.438 		"/>
		
			<polyline stroke="#000000" stroke-width="0.7087" stroke-linecap="round" stroke-linejoin="round" stroke-miterlimit="10" points="
			470.861,1097.911 470.34,1100.866 450.644,1097.393 451.164,1094.438 470.861,1097.911 451.164,1094.438 		"/>
		
			<rect x="142.265" y="1096.147" transform="matrix(-0.9848 0.1737 -0.1737 -0.9848 492.8556 2152.1682)" stroke="#000000" stroke-width="0.7087" stroke-linecap="round" stroke-linejoin="round" stroke-miterlimit="10" width="20" height="3.001"/>
		
			<rect x="232.92" y="1087.633" transform="matrix(0.1735 -0.9848 0.9848 0.1735 -887.2395 1138.0303)" stroke="#000000" stroke-width="0.7087" stroke-linecap="round" stroke-linejoin="round" stroke-miterlimit="10" width="3" height="20"/>
		
			<polyline stroke="#000000" stroke-width="0.7087" stroke-linecap="round" stroke-linejoin="round" stroke-miterlimit="10" points="
			388.164,-309.331 368.469,-312.804 368.989,-315.758 388.686,-312.285 388.164,-309.331 368.469,-312.804 		"/>
		
			<line fill="none" stroke="#000000" stroke-width="0.7087" stroke-linecap="round" stroke-linejoin="round" stroke-miterlimit="10" x1="368.469" y1="281.934" x2="368.989" y2="284.5"/>
		
			<polyline stroke="#000000" stroke-width="0.7087" stroke-linecap="round" stroke-linejoin="round" stroke-miterlimit="10" points="
			451.164,278.461 470.861,281.934 470.34,284.889 450.644,281.416 451.164,278.461 470.861,281.934 		"/>
	</g>
	<g id="ELEVATION">
		<g id="LINE_150_">
			<path stroke="#000000" stroke-width="0.7087" stroke-linecap="round" stroke-linejoin="round" stroke-miterlimit="10" d="
				M191.835-325.156V-424h3v98.845v12v216.241l0.638,2.692c2.63,5.456,4.053,11.415,4.17,17.471
				c0.343,7.407-1.332,14.769-4.844,21.297c3.063,5.757,4.747,12.146,4.917,18.665c0.287,7.422-1.413,14.787-4.923,21.333
				c3.123,5.8,4.781,12.273,4.831,18.859c0.334,7.354-1.333,14.662-4.823,21.144c3.175,6.056,4.868,12.777,4.938,19.613
				c0.016,6.635-1.441,13.189-4.267,19.192c-0.419,0.835-0.638,1.757-0.638,2.691v216.242h-3V66.044
				c0-0.935-0.219-1.855-0.639-2.691c-2.761-5.856-4.218-12.242-4.271-18.716c0.005-6.987,1.688-13.871,4.909-20.071
				c-3.14-5.827-4.747-12.355-4.673-18.974c-0.374-7.303,1.24-14.569,4.673-21.026c-3.09-5.906-4.784-12.442-4.952-19.106
				c-0.083-7.265,1.617-14.438,4.952-20.894c-3.09-5.841-4.75-12.331-4.843-18.938c-0.171-6.854,1.271-13.652,4.204-19.849
				l0.639-2.692v-216.241"/>
		</g>
		<g id="LINE_151_">
			
				<line fill="none" stroke="#000000" stroke-width="0.7087" stroke-linecap="round" stroke-linejoin="round" stroke-miterlimit="10" x1="418.164" y1="-424" x2="421.164" y2="-424"/>
		</g>
		<g id="LINE_152_">
			
				<line fill="none" stroke="#000000" stroke-width="0.7087" stroke-linecap="round" stroke-linejoin="round" stroke-miterlimit="10" x1="564" y1="391.054" x2="564" y2="394.054"/>
		</g>
		<g id="LINE_153_">
			
				<line fill="none" stroke="#000000" stroke-width="0.7087" stroke-linecap="round" stroke-linejoin="round" stroke-miterlimit="10" x1="49" y1="391.054" x2="49" y2="394.054"/>
		</g>
		<g id="LINE_154_">
			
				<line fill="none" stroke="#000000" stroke-width="0.7087" stroke-linecap="round" stroke-linejoin="round" stroke-miterlimit="10" x1="191.835" y1="1217" x2="194.835" y2="1217"/>
		</g>
		<g id="LINE_155_">
			
				<line fill="none" stroke="#000000" stroke-width="0.7087" stroke-linecap="round" stroke-linejoin="round" stroke-miterlimit="10" x1="418.164" y1="1217" x2="421.164" y2="1217"/>
		</g>
	</g>
</g>
</svg>
