<?xml version="1.0" encoding="utf-8"?>
<!-- Generator: Adobe Illustrator 15.0.2, SVG Export Plug-In . SVG Version: 6.00 Build 0)  -->
<!DOCTYPE svg PUBLIC "-//W3C//DTD SVG 1.1//EN" "http://www.w3.org/Graphics/SVG/1.1/DTD/svg11.dtd">
<svg version="1.1" xmlns="http://www.w3.org/2000/svg" xmlns:xlink="http://www.w3.org/1999/xlink" x="0px" y="0px"
	 width="276.21px" height="888.71px" viewBox="0 0 276.21 888.71" enable-background="new 0 0 276.21 888.71" xml:space="preserve">
<g id="JAUNE">
	<g id="ARC_23_">
		
			<path fill="#7F7F7F" stroke="#000000" stroke-width="0.7087" stroke-linecap="round" stroke-linejoin="round" stroke-miterlimit="10" d="
			M80.982,854.147c-3.048-2.73-7.173-3.926-11.209-3.247c-4.023,0.676-7.286,3.628-8.36,7.563l-0.78,0.072
			c-0.493-4.226,1.779-8.291,5.636-10.086c5.986-2.786,13.041-1.883,18.131,2.323c0.895,0.739,1.718,1.563,2.458,2.458
			c6.453,7.811,5.353,19.373-2.458,25.826c-10.089,8.336-23.579,11.295-36.231,7.946C25.7,881.058,8.152,863.51,2.206,841.042
			c-3.348-12.651-0.389-26.142,7.946-36.23c0.74-0.896,1.563-1.718,2.458-2.458c7.811-6.453,19.374-5.353,25.826,2.458
			c4.206,5.09,5.11,12.145,2.324,18.131c-1.795,3.857-5.861,6.129-10.086,5.636l0.072-0.78c3.936-1.074,6.888-4.337,7.564-8.36
			c0.678-4.036-0.517-8.161-3.247-11.209c-4.931-5.506-13.392-5.971-18.897-1.04c-0.498,0.446-0.962,0.929-1.388,1.444
			c-7.103,8.598-9.625,20.093-6.771,30.874C13.4,859.89,29.32,875.81,49.703,881.204c10.781,2.853,22.276,0.331,30.874-6.771
			c5.698-4.708,6.5-13.144,1.793-18.841C81.944,855.076,81.48,854.594,80.982,854.147z"/>
	</g>
	<g id="LINE_5_">
		
			<path fill="#7F7F7F" stroke="#000000" stroke-width="0.7087" stroke-linecap="round" stroke-linejoin="round" stroke-miterlimit="10" d="
			M274.504,841.042c-5.946,22.468-23.494,40.016-45.962,45.962c-12.651,3.349-26.142,0.39-36.23-7.946
			c-0.896-0.739-1.718-1.563-2.458-2.458c-6.453-7.811-5.353-19.373,2.458-25.826c5.09-4.206,12.145-5.109,18.131-2.323
			c3.857,1.795,6.129,5.86,5.636,10.086l-0.78-0.072c-1.074-3.936-4.337-6.888-8.36-7.563c-4.036-0.679-8.161,0.517-11.209,3.247
			c-5.506,4.931-5.971,13.392-1.04,18.896c0.446,0.498,0.929,0.962,1.444,1.389c8.598,7.103,20.093,9.624,30.874,6.771
			c20.383-5.395,36.303-21.314,41.697-41.697c2.853-10.781,0.331-22.276-6.771-30.874c-4.708-5.697-13.144-6.5-18.841-1.793
			c-0.516,0.426-0.998,0.891-1.444,1.389c-2.73,3.048-3.926,7.173-3.247,11.209c0.676,4.023,3.628,7.286,7.563,8.36l0.072,0.78
			c-4.226,0.493-8.291-1.778-10.086-5.636c-2.786-5.986-1.883-13.041,2.323-18.131c0.739-0.896,1.563-1.718,2.458-2.458
			c7.811-6.453,19.373-5.353,25.826,2.458C274.894,814.9,277.853,828.391,274.504,841.042z"/>
	</g>
	<g id="LINE_7_">
		
			<polyline fill="#7F7F7F" stroke="#000000" stroke-width="0.7087" stroke-linecap="round" stroke-linejoin="round" stroke-miterlimit="10" points="
			134.356,324.179 134.356,565.318 146.355,565.318 146.355,324.179 		"/>
	</g>
	<g id="LINE_8_">
		
			<line fill="none" stroke="#000000" stroke-width="0.7087" stroke-linecap="round" stroke-linejoin="round" stroke-miterlimit="10" x1="155.318" y1="565.318" x2="152.825" y2="565.318"/>
	</g>
	<g id="LINE_9_">
		
			<line fill="none" stroke="#000000" stroke-width="0.7087" stroke-linecap="round" stroke-linejoin="round" stroke-miterlimit="10" x1="155.318" y1="581.318" x2="152.825" y2="581.318"/>
	</g>
	<g id="LINE_14_">
		
			<line fill="none" stroke="#000000" stroke-width="0.7087" stroke-linecap="round" stroke-linejoin="round" stroke-miterlimit="10" x1="68.889" y1="545.623" x2="67.983" y2="544.367"/>
	</g>
	<g id="ARC_108_">
		
			<path fill="#7F7F7F" stroke="#000000" stroke-width="0.7087" stroke-linecap="round" stroke-linejoin="round" stroke-miterlimit="10" d="
			M155.318,581.318c2.657-5.003,2.657-10.997,0-16h-2.493c2.808-22.523,17.215-41.928,37.963-51.13
			c12.345-5.476,26.522-4.964,38.44,1.386c7.884,4.2,10.948,13.943,6.887,21.9c-2.796,5.479-8.375,8.978-14.524,9.108
			c-3.099,0.066-6.159-0.698-8.862-2.216l-0.906,1.256c3.731,4.038,9.315,5.808,14.691,4.655
			c10.627-2.277,17.872-12.142,16.867-22.963c-0.671-7.224-4.929-13.626-11.331-17.037c-13.547-7.217-29.662-7.798-43.694-1.575
			c-22.917,10.164-38.735,31.706-41.572,56.615h-12.854c-2.837-24.909-18.656-46.451-41.573-56.615
			c-14.032-6.223-30.147-5.642-43.694,1.575c-6.403,3.411-10.661,9.813-11.332,17.037c-1.005,10.821,6.241,20.686,16.868,22.963
			c5.375,1.152,10.96-0.617,14.691-4.655l-0.906-1.256c-2.703,1.518-5.763,2.282-8.862,2.216c-6.149-0.131-11.729-3.63-14.524-9.108
			c-4.061-7.957-0.997-17.7,6.887-21.9c11.918-6.35,26.095-6.861,38.44-1.386c20.749,9.202,35.156,28.606,37.963,51.13h-2.494
			c-2.656,5.003-2.656,10.997,0,16"/>
	</g>
	<g id="LINE_19_">
		
			<line fill="none" stroke="#000000" stroke-width="0.7087" stroke-linecap="round" stroke-linejoin="round" stroke-miterlimit="10" x1="155.318" y1="308.179" x2="152.825" y2="308.179"/>
	</g>
	<g id="LINE_20_">
		
			<line fill="none" stroke="#000000" stroke-width="0.7087" stroke-linecap="round" stroke-linejoin="round" stroke-miterlimit="10" x1="155.318" y1="324.179" x2="152.825" y2="324.179"/>
	</g>
	<g id="ARC_119_">
		
			<path fill="none" stroke="#000000" stroke-width="0.7087" stroke-linecap="round" stroke-linejoin="round" stroke-miterlimit="10" d="
			M117.54,423.831c6.57-3.12,10.773-9.726,10.816-16.999"/>
	</g>
	<g id="ARC_127_">
		
			<path fill="#7F7F7F" stroke="#000000" stroke-width="0.7087" stroke-linecap="round" stroke-linejoin="round" stroke-miterlimit="10" d="
			M117.54,423.831c-4.762,2.262-10.38,1.724-14.627-1.399l-0.557,0.59c3.173,3.258,7.603,4.982,12.144,4.727
			c11.094-0.625,19.79-9.769,19.856-20.881c0.088-14.889-11.91-27.03-26.799-27.119c-0.067,0-0.134,0-0.201,0
			c-35.898,0-65,29.102-65,65c0,35.898,29.102,65,65,65c14.889,0.022,26.978-12.029,27-26.918c0-0.067,0-0.134,0-0.201
			c-0.066-11.111-8.762-20.257-19.856-20.881c-4.542-0.256-8.971,1.468-12.144,4.727l0.557,0.59
			c4.247-3.123,9.865-3.66,14.627-1.399c6.57,3.12,10.773,9.727,10.816,16.999c0,0.053,0,0.104,0,0.157
			c-0.018,11.575-9.416,20.944-20.991,20.927c-0.006,0-0.013,0-0.019,0c-32.584-0.006-58.996-26.425-58.991-59.01
			c0.005-32.585,26.425-58.996,59.01-58.991c0.052,0,0.104,0,0.156,0c11.575,0.069,20.903,9.508,20.834,21.083"/>
	</g>
	<g id="LINE_25_">
		
			<line fill="none" stroke="#000000" stroke-width="0.7087" stroke-linecap="round" stroke-linejoin="round" stroke-miterlimit="10" x1="177.799" y1="422.432" x2="178.355" y2="423.022"/>
	</g>
	<g id="ARC_147_">
		
			<path fill="#7F7F7F" stroke="#000000" stroke-width="0.7087" stroke-linecap="round" stroke-linejoin="round" stroke-miterlimit="10" d="
			M177.799,422.432c-4.246,3.123-9.865,3.661-14.627,1.399c-6.569-3.12-10.773-9.726-10.816-16.999c0-0.052,0-0.104,0-0.156
			c0.018-11.576,9.416-20.945,20.991-20.927c0.006,0,0.013,0,0.019,0c32.585,0.005,58.996,26.425,58.991,59.009
			c-0.006,32.585-26.425,58.996-59.01,58.991c-0.053,0-0.104,0-0.156-0.001c-11.575-0.068-20.903-9.508-20.835-21.083
			c0.043-7.272,4.247-13.879,10.816-16.999c4.762-2.261,10.381-1.724,14.627,1.399l0.557-0.59
			c-3.173-3.259-7.603-4.982-12.144-4.727c-11.095,0.624-19.79,9.77-19.856,20.881c-0.088,14.889,11.91,27.03,26.799,27.118
			c0.067,0.001,0.135,0.001,0.201,0.001c35.898,0,65-29.102,65.001-65c0-35.898-29.102-65-65.001-65
			c-14.889-0.023-26.978,12.029-27,26.918c0,0.067,0,0.134,0,0.201c0.066,11.112,8.762,20.256,19.856,20.881
			c4.541,0.256,8.971-1.468,12.144-4.727"/>
	</g>
	<g id="LINE_28_">
		
			<path fill="#7F7F7F" stroke="#000000" stroke-width="0.7087" stroke-linecap="round" stroke-linejoin="round" stroke-miterlimit="10" d="
			M155.318,308.179c2.657,5.002,2.657,10.998,0,16h-2.493c2.808,22.523,17.215,41.928,37.963,51.13
			c12.345,5.475,26.522,4.964,38.44-1.386c7.884-4.2,10.948-13.944,6.887-21.9c-2.796-5.479-8.375-8.978-14.524-9.109
			c-3.099-0.066-6.159,0.699-8.862,2.216l-0.906-1.256c3.731-4.038,9.315-5.808,14.691-4.655
			c10.627,2.278,17.872,12.142,16.867,22.963c-0.671,7.224-4.929,13.625-11.331,17.037c-13.547,7.218-29.662,7.799-43.694,1.575
			c-22.917-10.164-38.735-31.706-41.572-56.615h-12.854c-2.837,24.909-18.656,46.451-41.573,56.615
			c-14.032,6.224-30.147,5.643-43.694-1.575c-6.403-3.411-10.661-9.813-11.332-17.037c-1.005-10.822,6.241-20.686,16.868-22.963
			c5.375-1.152,10.96,0.617,14.691,4.655l-0.906,1.256c-2.703-1.517-5.763-2.282-8.862-2.216c-6.149,0.131-11.729,3.63-14.524,9.109
			c-4.061,7.957-0.997,17.7,6.887,21.9c11.918,6.35,26.095,6.861,38.44,1.386c20.749-9.202,35.156-28.606,37.963-51.13h-2.494
			c-2.656-5.002-2.656-10.998,0-16"/>
	</g>
	<g id="ARC_181_">
		
			<path fill="#7F7F7F" stroke="#000000" stroke-width="0.7087" stroke-linecap="round" stroke-linejoin="round" stroke-miterlimit="10" d="
			M81.483,35.062c-3.048,2.73-7.173,3.926-11.209,3.247c-4.023-0.676-7.286-3.628-8.36-7.563l-0.78-0.072
			c-0.493,4.226,1.779,8.291,5.636,10.086c5.986,2.786,13.041,1.882,18.131-2.323c7.811-6.453,8.911-18.016,2.458-25.827
			c-0.74-0.895-1.563-1.718-2.458-2.458C74.811,1.815,61.321-1.143,48.669,2.205C26.201,8.151,8.653,25.699,2.708,48.167
			c-3.348,12.651-0.389,26.142,7.946,36.23c6.453,7.811,18.016,8.911,25.827,2.458c0.895-0.74,1.718-1.563,2.458-2.458
			c4.206-5.09,5.11-12.145,2.324-18.131c-1.795-3.857-5.861-6.129-10.086-5.636l0.072,0.78c3.936,1.075,6.888,4.338,7.564,8.361
			c0.678,4.036-0.517,8.161-3.247,11.209c-0.446,0.498-0.929,0.962-1.444,1.388c-5.698,4.708-14.133,3.905-18.841-1.793
			c-7.103-8.597-9.625-20.093-6.771-30.874c5.394-20.383,21.313-36.303,41.697-41.697c10.781-2.853,22.276-0.332,30.874,6.771
			c0.515,0.426,0.998,0.89,1.444,1.388C87.454,21.67,86.989,30.13,81.483,35.062z"/>
	</g>
	<g id="LINE_37_">
		
			<path fill="#7F7F7F" stroke="#000000" stroke-width="0.7087" stroke-linecap="round" stroke-linejoin="round" stroke-miterlimit="10" d="
			M274.504,48.167c-5.946-22.468-23.494-40.016-45.962-45.962c-12.651-3.348-26.142-0.39-36.23,7.946
			c-7.811,6.453-8.911,18.016-2.458,25.826c0.74,0.896,1.563,1.718,2.458,2.458c5.09,4.206,12.145,5.109,18.131,2.323
			c3.857-1.795,6.129-5.86,5.636-10.086l-0.78,0.072c-1.074,3.935-4.337,6.888-8.36,7.563c-4.036,0.679-8.161-0.517-11.209-3.247
			c-0.498-0.446-0.963-0.929-1.389-1.444c-4.707-5.698-3.904-14.133,1.793-18.84c8.598-7.104,20.093-9.625,30.874-6.771
			c20.383,5.394,36.303,21.313,41.697,41.697c2.853,10.781,0.331,22.276-6.771,30.874c-0.427,0.516-0.891,0.999-1.389,1.445
			c-5.505,4.931-13.966,4.466-18.896-1.04c-2.73-3.048-3.926-7.174-3.247-11.209c0.676-4.023,3.628-7.286,7.563-8.361l0.072-0.78
			c-4.226-0.493-8.291,1.779-10.086,5.636c-2.786,5.986-1.883,13.041,2.323,18.131c6.453,7.811,18.016,8.911,25.826,2.458
			c0.896-0.74,1.719-1.563,2.458-2.458C274.894,74.309,277.853,60.818,274.504,48.167z"/>
	</g>
	<g id="LINE_49_">
		
			<path fill="#7F7F7F" stroke="#000000" stroke-width="0.7087" stroke-linecap="round" stroke-linejoin="round" stroke-miterlimit="10" d="
			M146.355,0.354v197.437h0.115c0.138-1.424,0.423-2.831,0.851-4.196c3.426-10.935,15.066-17.022,26-13.598
			c8.146,2.552,13.765,10.006,13.973,18.54c0.083,3.402-1.527,6.623-4.299,8.598l-0.646-0.88c2.525-3.88,2.453-8.902-0.184-12.708
			c-2.576-3.718-6.319-6.472-10.637-7.824c-7.772-2.435-16.047,1.893-18.48,9.665c-0.246,0.785-0.426,1.588-0.538,2.403h2.854
			c2.656,5.002,2.656,10.998,0,16h-1.188c5.035,15.444,12.163,30.126,21.185,43.635c2.217,3.32,1.646,7.767-1.336,10.42
			c-11.725,10.428-19.259,24.762-21.199,40.333h-6.042c1.97-17.292,10.249-33.25,23.253-44.816c0.746-0.663,0.889-1.775,0.334-2.605
			c-9.688-14.509-17.263-30.323-22.494-46.967h-1.521v94.388h-12v-94.388h-1.521c-5.231,16.644-12.806,32.458-22.494,46.967
			c-0.554,0.83-0.412,1.942,0.334,2.605c13.004,11.566,21.284,27.524,23.253,44.816h-6.042c-1.94-15.57-9.475-29.905-21.199-40.333
			c-2.983-2.653-3.553-7.1-1.336-10.42c9.021-13.509,16.149-28.191,21.184-43.635h-1.188c-2.656-5.002-2.656-10.998,0-16h2.853
			c-1.107-8.069-8.546-13.712-16.615-12.605c-0.814,0.112-1.619,0.292-2.403,0.538c-4.317,1.352-8.06,4.105-10.637,7.824
			c-2.637,3.806-2.709,8.828-0.183,12.708l-0.646,0.88c-2.771-1.975-4.382-5.196-4.299-8.598c0.208-8.534,5.827-15.988,13.972-18.54
			c1.366-0.428,2.772-0.713,4.197-0.851c11.405-1.107,21.547,7.24,22.655,18.645h0.115V0.354"/>
	</g>
	<g id="LINE_50_">
		
			<line fill="none" stroke="#000000" stroke-width="0.7087" stroke-linecap="round" stroke-linejoin="round" stroke-miterlimit="10" x1="146.783" y1="308.179" x2="146.355" y2="308.179"/>
	</g>
	<g id="LINE_51_">
		
			<line fill="none" stroke="#000000" stroke-width="0.7087" stroke-linecap="round" stroke-linejoin="round" stroke-miterlimit="10" x1="134.356" y1="308.179" x2="133.929" y2="308.179"/>
	</g>
	<g id="LINE_52_">
		
			<line fill="none" stroke="#000000" stroke-width="0.7087" stroke-linecap="round" stroke-linejoin="round" stroke-miterlimit="10" x1="127.886" y1="308.179" x2="125.393" y2="308.179"/>
	</g>
	<g id="LINE_53_">
		
			<line fill="none" stroke="#000000" stroke-width="0.7087" stroke-linecap="round" stroke-linejoin="round" stroke-miterlimit="10" x1="127.886" y1="324.179" x2="125.393" y2="324.179"/>
	</g>
	<g id="LINE_54_">
		
			<line fill="none" stroke="#000000" stroke-width="0.7087" stroke-linecap="round" stroke-linejoin="round" stroke-miterlimit="10" x1="134.356" y1="324.179" x2="133.929" y2="324.179"/>
	</g>
	<g id="LINE_55_">
		
			<line fill="none" stroke="#000000" stroke-width="0.7087" stroke-linecap="round" stroke-linejoin="round" stroke-miterlimit="10" x1="146.783" y1="324.179" x2="146.355" y2="324.179"/>
	</g>
	<g id="LINE_56_">
		
			<line fill="none" stroke="#000000" stroke-width="0.7087" stroke-linecap="round" stroke-linejoin="round" stroke-miterlimit="10" x1="127.886" y1="565.318" x2="125.393" y2="565.318"/>
	</g>
	<g id="LINE_57_">
		
			<line fill="none" stroke="#000000" stroke-width="0.7087" stroke-linecap="round" stroke-linejoin="round" stroke-miterlimit="10" x1="134.356" y1="565.318" x2="133.929" y2="565.318"/>
	</g>
	<g id="LINE_58_">
		
			<line fill="none" stroke="#000000" stroke-width="0.7087" stroke-linecap="round" stroke-linejoin="round" stroke-miterlimit="10" x1="146.783" y1="565.318" x2="146.355" y2="565.318"/>
	</g>
	<g id="LINE_59_">
		
			<line fill="none" stroke="#000000" stroke-width="0.7087" stroke-linecap="round" stroke-linejoin="round" stroke-miterlimit="10" x1="146.783" y1="581.318" x2="146.355" y2="581.318"/>
	</g>
	<g id="LINE_60_">
		
			<line fill="none" stroke="#000000" stroke-width="0.7087" stroke-linecap="round" stroke-linejoin="round" stroke-miterlimit="10" x1="134.356" y1="581.318" x2="133.929" y2="581.318"/>
	</g>
	<g id="LINE_61_">
		
			<line fill="none" stroke="#000000" stroke-width="0.7087" stroke-linecap="round" stroke-linejoin="round" stroke-miterlimit="10" x1="127.886" y1="581.318" x2="125.393" y2="581.318"/>
	</g>
	<g id="LINE_67_">
		
			<path fill="#7F7F7F" stroke="#000000" stroke-width="0.7087" stroke-linecap="round" stroke-linejoin="round" stroke-miterlimit="10" d="
			M134.356,581.318v94.388h-1.521c-5.231-16.644-12.806-32.458-22.494-46.967c-0.554-0.83-0.412-1.941,0.334-2.605
			c13.004-11.566,21.284-27.523,23.253-44.815h-6.042c-1.94,15.57-9.475,29.904-21.199,40.332
			c-2.983,2.654-3.553,7.101-1.336,10.421c9.021,13.509,16.149,28.19,21.184,43.635h-1.188c-2.656,5.003-2.656,10.998,0,16h2.853
			c-0.111,0.814-0.291,1.619-0.537,2.403c-2.435,7.772-10.708,12.1-18.481,9.665c-4.317-1.353-8.06-4.105-10.637-7.824
			c-2.637-3.806-2.709-8.827-0.183-12.707l-0.646-0.88c-2.771,1.975-4.382,5.195-4.299,8.598
			c0.208,8.533,5.827,15.987,13.972,18.539c10.935,3.425,22.575-2.663,26-13.597c0.428-1.366,0.713-2.772,0.852-4.197h0.115v196.648
			h12V691.706h0.115c1.106,11.405,11.25,19.753,22.654,18.646c1.425-0.139,2.831-0.424,4.196-0.852
			c8.146-2.552,13.765-10.006,13.973-18.539c0.083-3.402-1.527-6.623-4.299-8.598l-0.646,0.88c2.525,3.88,2.453,8.901-0.184,12.707
			c-2.576,3.719-6.319,6.472-10.637,7.824c-0.784,0.246-1.589,0.426-2.403,0.537c-8.068,1.107-15.508-4.536-16.615-12.605h2.854
			c2.656-5.002,2.656-10.997,0-16h-1.188c5.035-15.444,12.163-30.126,21.185-43.635c2.217-3.32,1.646-7.767-1.336-10.421
			c-11.725-10.428-19.259-24.762-21.199-40.332h-6.042c1.97,17.292,10.249,33.249,23.253,44.815
			c0.746,0.664,0.889,1.775,0.334,2.605c-9.688,14.509-17.263,30.323-22.494,46.967h-1.521v-94.388"/>
	</g>
</g>
<g id="ELEVATION">
	<g id="LINE_38_">
		
			<line fill="none" stroke="#000000" stroke-width="0.7087" stroke-linecap="round" stroke-linejoin="round" stroke-miterlimit="10" x1="134.356" y1="0.354" x2="146.355" y2="0.354"/>
	</g>
	<g id="LINE_40_">
		
			<path fill="#7F7F7F" stroke="#000000" stroke-width="0.7087" stroke-linecap="round" stroke-linejoin="round" stroke-miterlimit="10" d="
			M275.854,415.866c-16.007-1.334-30.064,10.561-31.398,26.567c-1.334,16.007,10.561,30.064,26.567,31.398
			c1.607,0.135,3.224,0.135,4.831,0v6.018c-1.608,0.111-3.223,0.111-4.831,0c-19.33-1.334-33.918-18.085-32.584-37.416
			c1.334-19.33,18.085-33.918,37.415-32.584V415.866z"/>
	</g>
	<g id="LINE_42_">
		
			<path fill="#7F7F7F" stroke="#000000" stroke-width="0.7087" stroke-linecap="round" stroke-linejoin="round" stroke-miterlimit="10" d="
			M0.354,409.849c4.243-0.778,8.592-0.778,12.835,0c19.33,3.544,32.126,22.088,28.582,41.418
			c-3.544,19.33-22.087,32.127-41.417,28.582v-6.121c15.949,3.545,31.752-6.512,35.297-22.461
			c3.544-15.95-6.512-31.752-22.461-35.297c-4.227-0.939-8.608-0.939-12.835,0V409.849z"/>
	</g>
	<g id="LINE_43_">
		
			<line fill="none" stroke="#000000" stroke-width="0.7087" stroke-linecap="round" stroke-linejoin="round" stroke-miterlimit="10" x1="146.355" y1="888.354" x2="134.356" y2="888.354"/>
	</g>
</g>
</svg>
