<?xml version="1.0" encoding="utf-8"?>
<!-- Generator: Adobe Illustrator 15.0.2, SVG Export Plug-In . SVG Version: 6.00 Build 0)  -->
<!DOCTYPE svg PUBLIC "-//W3C//DTD SVG 1.1//EN" "http://www.w3.org/Graphics/SVG/1.1/DTD/svg11.dtd">
<svg version="1.1" id="ELEVATION" xmlns="http://www.w3.org/2000/svg" xmlns:xlink="http://www.w3.org/1999/xlink" x="0px" y="0px"
	 width="275.708px" height="881.016px" viewBox="0 0 275.708 881.016" enable-background="new 0 0 275.708 881.016"
	 xml:space="preserve">
<g id="LINE_6_">
	
		<line fill="none" stroke="#000000" stroke-width="0.7087" stroke-linecap="round" stroke-linejoin="round" stroke-miterlimit="10" x1="154.818" y1="570.42" x2="152.324" y2="570.42"/>
</g>
<g id="LINE_7_">
	
		<line fill="none" stroke="#000000" stroke-width="0.7087" stroke-linecap="round" stroke-linejoin="round" stroke-miterlimit="10" x1="154.818" y1="586.42" x2="152.324" y2="586.42"/>
</g>
<g id="LINE_10_">
	
		<line fill="none" stroke="#000000" stroke-width="0.7087" stroke-linecap="round" stroke-linejoin="round" stroke-miterlimit="10" x1="154.863" y1="680.808" x2="153.675" y2="680.808"/>
</g>
<g id="LINE_16_">
	
		<line fill="none" stroke="#000000" stroke-width="0.7087" stroke-linecap="round" stroke-linejoin="round" stroke-miterlimit="10" x1="154.818" y1="329.28" x2="152.324" y2="329.28"/>
</g>
<g id="LINE_19_">
	
		<line fill="none" stroke="#000000" stroke-width="0.7087" stroke-linecap="round" stroke-linejoin="round" stroke-miterlimit="10" x1="154.863" y1="218.893" x2="153.675" y2="218.893"/>
</g>
<g id="LINE_22_">
	
		<path fill="#7F7F7F" stroke="#000000" stroke-width="0.7087" stroke-linecap="round" stroke-linejoin="round" stroke-miterlimit="10" d="
		M117.039,428.933c6.57-3.12,10.773-9.726,10.816-17c0.068-11.575-9.259-21.014-20.834-21.083c-0.052,0-0.104,0-0.157,0
		c-32.584-0.005-59.004,26.406-59.009,58.991c-0.005,32.585,26.406,59.004,58.991,59.009c0.006,0,0.013,0,0.019,0
		c11.576,0.019,20.974-9.352,20.991-20.927c0-0.052,0-0.104,0-0.156c-0.043-7.272-4.247-13.879-10.816-16.999
		c-4.762-2.262-10.381-1.724-14.627,1.399l-0.557-0.591c3.174-3.258,7.603-4.981,12.144-4.727
		c11.095,0.625,19.79,9.77,19.856,20.882c0,0.066,0.001,0.134,0,0.201c-0.022,14.889-12.111,26.94-27,26.917
		c-35.898,0-65-29.102-65-65s29.102-65,65-65c0.067,0,0.134,0,0.202,0c14.889,0.088,26.887,12.229,26.798,27.118
		c-0.066,11.112-8.761,20.256-19.856,20.881c-4.541,0.256-8.97-1.468-12.144-4.727l0.557-0.59
		C106.658,430.656,112.277,431.194,117.039,428.933z"/>
</g>
<g id="ARC_124_">
	
		<path fill="#7F7F7F" stroke="#000000" stroke-width="0.7087" stroke-linecap="round" stroke-linejoin="round" stroke-miterlimit="10" d="
		M83.897,76.133c-5.09,4.206-12.145,5.11-18.131,2.324c-3.857-1.795-6.128-5.861-5.636-10.086l0.78,0.072
		c1.075,3.935,4.338,6.888,8.361,7.564c4.036,0.678,8.161-0.517,11.209-3.247c5.505-4.932,5.971-13.392,1.04-18.897
		c-0.446-0.498-0.929-0.962-1.444-1.388c-8.598-7.104-20.093-9.625-30.874-6.771C28.819,51.097,12.899,67.017,7.505,87.4
		c-2.853,10.781-0.332,22.276,6.771,30.874c4.708,5.698,13.143,6.5,18.84,1.793c0.516-0.426,0.999-0.89,1.445-1.388
		c2.73-3.048,3.925-7.173,3.247-11.209c-0.676-4.023-3.629-7.286-7.564-8.361l-0.072-0.78c4.226-0.493,8.291,1.779,10.086,5.636
		c2.786,5.986,1.882,13.041-2.324,18.131c-0.739,0.896-1.563,1.718-2.458,2.458c-7.811,6.453-19.374,5.353-25.827-2.458
		c-8.335-10.089-11.294-23.579-7.946-36.23c5.946-22.468,23.494-40.016,45.962-45.962c12.652-3.348,26.142-0.389,36.23,7.946
		c0.896,0.74,1.718,1.563,2.458,2.458C92.809,58.117,91.708,69.68,83.897,76.133z"/>
</g>
<g id="ARC_146_">
	
		<path fill="#7F7F7F" stroke="#000000" stroke-width="0.7087" stroke-linecap="round" stroke-linejoin="round" stroke-miterlimit="10" d="
		M152.324,586.42c1.941,15.57,9.475,29.904,21.199,40.332c2.983,2.653,3.554,7.101,1.336,10.421
		c-9.021,13.509-16.148,28.19-21.184,43.635h-6.301c5.231-16.644,12.806-32.458,22.495-46.967c0.554-0.83,0.411-1.942-0.334-2.605
		c-13.004-11.566-21.284-27.523-23.254-44.815h-0.427v94.388h-12V586.42h-0.427c-1.97,17.292-10.25,33.249-23.253,44.815
		c-0.746,0.663-0.889,1.775-0.334,2.605c9.688,14.509,17.263,30.323,22.494,46.967h-6.3c-5.036-15.444-12.163-30.126-21.185-43.635
		c-2.217-3.32-1.646-7.768,1.336-10.421c11.724-10.428,19.258-24.762,21.199-40.332"/>
</g>
<g id="ARC_169_">
	
		<path fill="#7F7F7F" stroke="#000000" stroke-width="0.7087" stroke-linecap="round" stroke-linejoin="round" stroke-miterlimit="10" d="
		M172.845,390.85c-11.575-0.018-20.974,9.352-20.991,20.927c0,0.052,0,0.104,0.001,0.156c0.043,7.273,4.246,13.879,10.816,17
		c4.761,2.261,10.38,1.724,14.627-1.399l0.557,0.59c-3.174,3.258-7.604,4.982-12.145,4.727c-11.094-0.625-19.79-9.77-19.855-20.881
		c-0.001-0.067-0.001-0.134-0.001-0.201c0.023-14.889,12.111-26.94,27.001-26.917c35.898,0,65,29.102,65,65
		c0,35.898-29.102,64.999-65,64.999c-0.067,0.001-0.135,0-0.201,0c-14.89-0.088-26.888-12.229-26.799-27.118
		c0.065-11.112,8.762-20.257,19.855-20.882c4.541-0.255,8.971,1.469,12.145,4.727l-0.557,0.591
		c-4.247-3.123-9.866-3.661-14.627-1.399c-6.57,3.12-10.773,9.727-10.816,16.999c0.009,11.641,9.36,21.119,21,21.283
		c32.64-0.055,59.055-26.56,59-59.2C231.799,417.285,205.411,390.9,172.845,390.85z"/>
</g>
<g id="ARC_173_">
	
		<path fill="#7F7F7F" stroke="#000000" stroke-width="0.7087" stroke-linecap="round" stroke-linejoin="round" stroke-miterlimit="10" d="
		M154.818,586.42c2.656-5.003,2.656-10.998,0-16h-2.494c2.808-22.523,17.215-41.928,37.964-51.131
		c12.344-5.475,26.521-4.964,38.439,1.387c7.885,4.2,10.948,13.943,6.888,21.9c-2.796,5.478-8.376,8.977-14.524,9.108
		c-3.1,0.066-6.159-0.699-8.863-2.216l-0.906,1.256c3.731,4.038,9.316,5.808,14.691,4.655c10.627-2.277,17.873-12.142,16.868-22.964
		c-0.671-7.223-4.93-13.625-11.332-17.036c-13.547-7.218-29.662-7.799-43.693-1.575c-22.917,10.164-38.736,31.706-41.573,56.615
		h-0.427V329.28h0.427c2.837,24.909,18.656,46.451,41.573,56.615c14.031,6.223,30.146,5.642,43.693-1.576
		c6.402-3.411,10.661-9.813,11.332-17.036c1.005-10.822-6.241-20.686-16.868-22.964c-5.375-1.152-10.96,0.618-14.691,4.656
		l0.906,1.255c2.704-1.517,5.764-2.282,8.863-2.215c6.148,0.131,11.729,3.63,14.524,9.108c4.061,7.957,0.997,17.7-6.888,21.901
		c-11.918,6.35-26.096,6.861-38.439,1.386c-20.749-9.202-35.156-28.606-37.964-51.13h-24.938
		c-2.807,22.524-17.214,41.928-37.963,51.13c-12.345,5.475-26.522,4.964-38.44-1.386c-7.884-4.201-10.948-13.944-6.887-21.901
		c2.796-5.478,8.376-8.977,14.525-9.108c3.099-0.066,6.159,0.699,8.862,2.215l0.906-1.255c-3.731-4.038-9.315-5.808-14.691-4.656
		c-10.627,2.278-17.872,12.142-16.867,22.964c0.671,7.223,4.929,13.625,11.331,17.036c13.547,7.218,29.663,7.799,43.694,1.576
		c22.917-10.164,38.736-31.707,41.573-56.615h0.427v241.14h-0.427c-2.837-24.909-18.656-46.451-41.573-56.615
		c-14.031-6.224-30.146-5.643-43.694,1.575c-6.402,3.411-10.66,9.813-11.331,17.036c-1.005,10.822,6.24,20.687,16.867,22.964
		c5.376,1.152,10.96-0.617,14.691-4.655l-0.906-1.256c-2.703,1.517-5.763,2.282-8.862,2.216c-6.149-0.132-11.729-3.631-14.525-9.108
		c-4.061-7.957-0.997-17.7,6.887-21.9c11.918-6.351,26.096-6.861,38.44-1.387c20.749,9.203,35.156,28.607,37.963,51.131h-2.494
		c-2.656,5.002-2.656,10.997,0,16"/>
</g>
<g id="ARC_193_">
	
		<path fill="#7F7F7F" stroke="#000000" stroke-width="0.7087" stroke-linecap="round" stroke-linejoin="round" stroke-miterlimit="10" d="
		M235.449,65.767c-2.786,5.986-1.882,13.041,2.323,18.131c6.453,7.811,18.017,8.911,25.827,2.458
		c0.895-0.739,1.718-1.563,2.457-2.458c8.336-10.089,11.295-23.579,7.946-36.231c-5.945-22.468-23.493-40.016-45.962-45.962
		c-12.651-3.348-26.141-0.389-36.23,7.946c-7.811,6.453-8.91,18.016-2.457,25.827c0.739,0.895,1.563,1.718,2.457,2.458
		c5.091,4.206,12.146,5.109,18.132,2.323c3.856-1.795,6.128-5.861,5.636-10.086l-0.78,0.072c-1.074,3.936-4.338,6.888-8.361,7.564
		c-4.035,0.678-8.161-0.517-11.209-3.247c-0.498-0.446-0.962-0.929-1.388-1.444c-4.708-5.698-3.905-14.133,1.793-18.84
		c8.597-7.104,20.093-9.625,30.874-6.771c20.383,5.394,36.302,21.313,41.696,41.696c2.853,10.781,0.332,22.276-6.771,30.874
		c-0.426,0.516-0.89,0.999-1.388,1.444c-5.506,4.932-13.966,4.466-18.897-1.039c-2.73-3.049-3.926-7.174-3.247-11.209
		c0.677-4.023,3.629-7.287,7.564-8.361l0.071-0.78C241.309,59.638,237.244,61.91,235.449,65.767z"/>
</g>
<g id="ARC_194_">
	
		<path fill="#7F7F7F" stroke="#000000" stroke-width="0.7087" stroke-linecap="round" stroke-linejoin="round" stroke-miterlimit="10" d="
		M237.772,797.118c-4.205,5.09-5.109,12.145-2.323,18.131c1.795,3.856,5.86,6.128,10.086,5.636l-0.071-0.78
		c-3.936-1.074-6.888-4.338-7.564-8.36c-0.679-4.036,0.517-8.161,3.247-11.21c0.446-0.498,0.929-0.962,1.444-1.388
		c5.698-4.708,14.133-3.905,18.841,1.793c7.104,8.598,9.624,20.093,6.771,30.874c-5.395,20.383-21.313,36.303-41.696,41.696
		c-10.781,2.854-22.277,0.332-30.874-6.771c-0.516-0.426-0.999-0.89-1.444-1.388c-4.932-5.505-4.467-13.966,1.039-18.897
		c3.048-2.73,7.174-3.925,11.209-3.247c4.023,0.677,7.287,3.629,8.361,7.564l0.78,0.072c0.492-4.226-1.779-8.291-5.636-10.086
		c-5.986-2.787-13.041-1.883-18.132,2.323c-7.811,6.453-8.91,18.016-2.457,25.826c0.739,0.896,1.563,1.718,2.457,2.458
		c10.09,8.336,23.579,11.294,36.23,7.946c22.469-5.946,40.017-23.494,45.962-45.962c3.349-12.652,0.39-26.142-7.946-36.23
		c-6.453-7.811-18.016-8.911-25.826-2.458C239.334,795.399,238.512,796.223,237.772,797.118z"/>
</g>
<g id="ARC_195_">
	
		<path fill="#7F7F7F" stroke="#000000" stroke-width="0.7087" stroke-linecap="round" stroke-linejoin="round" stroke-miterlimit="10" d="
		M30.245,820.104c3.935-1.074,6.888-4.338,7.564-8.36c0.678-4.036-0.517-8.161-3.247-11.21c-4.932-5.505-13.392-5.971-18.897-1.039
		c-0.498,0.446-0.962,0.929-1.388,1.444c-7.104,8.598-9.625,20.093-6.771,30.874c5.394,20.383,21.313,36.303,41.697,41.696
		c10.781,2.854,22.276,0.332,30.874-6.771c5.698-4.707,6.5-13.143,1.793-18.84c-0.426-0.516-0.89-0.999-1.388-1.445
		c-3.048-2.73-7.173-3.925-11.209-3.247c-4.023,0.677-7.286,3.629-8.361,7.564l-0.78,0.072c-0.493-4.226,1.779-8.291,5.636-10.086
		c5.986-2.787,13.041-1.883,18.131,2.323c0.896,0.739,1.718,1.563,2.458,2.457c6.453,7.811,5.353,19.374-2.458,25.827
		c-10.089,8.336-23.579,11.294-36.23,7.946c-22.468-5.946-40.016-23.494-45.962-45.962c-3.348-12.652-0.389-26.142,7.946-36.23
		c0.74-0.896,1.563-1.719,2.458-2.458c7.81-6.453,19.373-5.353,25.826,2.458c4.206,5.09,5.11,12.145,2.324,18.131
		c-1.795,3.856-5.861,6.128-10.086,5.636L30.245,820.104z"/>
</g>
<g id="LINE_39_">
	
		<line fill="none" stroke="#000000" stroke-width="0.7087" stroke-linecap="round" stroke-linejoin="round" stroke-miterlimit="10" x1="133.854" y1="880.661" x2="145.855" y2="880.661"/>
</g>
<g id="LINE_42_">
	
		<path fill="#7F7F7F" stroke="#000000" stroke-width="0.7087" stroke-linecap="round" stroke-linejoin="round" stroke-miterlimit="10" d="
		M154.863,218.893c2.656-5.003,2.656-10.998,0-16h-2.854c0.111-0.815,0.291-1.619,0.537-2.403c2.435-7.772,10.709-12.1,18.48-9.665
		c4.317,1.353,8.061,4.105,10.638,7.824c2.637,3.805,2.709,8.828,0.183,12.707l0.646,0.88c2.771-1.975,4.382-5.196,4.299-8.598
		c-0.208-8.534-5.826-15.988-13.972-18.539c-10.935-3.425-22.575,2.663-26,13.597c-0.428,1.366-0.713,2.772-0.852,4.197h-0.114
		V18.554l-12,3.479v180.86h-0.114c-1.107-11.405-11.25-19.752-22.655-18.646c-1.425,0.139-2.831,0.424-4.197,0.852
		c-8.146,2.551-13.764,10.005-13.972,18.539c-0.083,3.402,1.528,6.624,4.299,8.598l0.646-0.88
		c-2.526-3.879-2.454-8.902,0.183-12.707c2.576-3.719,6.319-6.472,10.637-7.824c0.785-0.246,1.588-0.425,2.403-0.537
		c8.069-1.107,15.508,4.536,16.615,12.605h-2.853c-2.657,5.002-2.657,10.997,0,16"/>
</g>
<g id="LINE_43_">
	
		<line fill="none" stroke="#000000" stroke-width="0.7087" stroke-linecap="round" stroke-linejoin="round" stroke-miterlimit="10" x1="147.375" y1="218.893" x2="145.855" y2="218.893"/>
</g>
<g id="LINE_44_">
	
		<line fill="none" stroke="#000000" stroke-width="0.7087" stroke-linecap="round" stroke-linejoin="round" stroke-miterlimit="10" x1="133.854" y1="218.893" x2="132.334" y2="218.893"/>
</g>
<g id="LINE_45_">
	
		<line fill="none" stroke="#000000" stroke-width="0.7087" stroke-linecap="round" stroke-linejoin="round" stroke-miterlimit="10" x1="126.035" y1="218.893" x2="124.847" y2="218.893"/>
</g>
<g id="LINE_48_">
	
		<path fill="#7F7F7F" stroke="#000000" stroke-width="0.7087" stroke-linecap="round" stroke-linejoin="round" stroke-miterlimit="10" d="
		M154.818,329.28c2.656-5.002,2.656-10.997,0-16h-2.494c1.941-15.57,9.475-29.904,21.199-40.333c2.983-2.653,3.554-7.1,1.336-10.42
		c-9.021-13.509-16.148-28.19-21.184-43.635h-6.301c5.231,16.644,12.806,32.458,22.495,46.967c0.554,0.83,0.411,1.942-0.334,2.605
		c-13.004,11.566-21.284,27.524-23.254,44.815h-0.427v-94.388h-12v94.388h-0.427c-1.97-17.292-10.25-33.249-23.253-44.815
		c-0.746-0.664-0.889-1.775-0.334-2.605c9.688-14.509,17.263-30.323,22.494-46.967h-6.3c-5.036,15.444-12.163,30.126-21.185,43.635
		c-2.217,3.32-1.646,7.767,1.336,10.42c11.724,10.428,19.258,24.762,21.199,40.333h-2.494c-2.656,5.003-2.656,10.998,0,16"/>
</g>
<g id="LINE_49_">
	
		<line fill="none" stroke="#000000" stroke-width="0.7087" stroke-linecap="round" stroke-linejoin="round" stroke-miterlimit="10" x1="146.282" y1="329.28" x2="145.855" y2="329.28"/>
</g>
<g id="LINE_50_">
	
		<line fill="none" stroke="#000000" stroke-width="0.7087" stroke-linecap="round" stroke-linejoin="round" stroke-miterlimit="10" x1="133.854" y1="329.28" x2="133.428" y2="329.28"/>
</g>
<g id="LINE_51_">
	
		<line fill="none" stroke="#000000" stroke-width="0.7087" stroke-linecap="round" stroke-linejoin="round" stroke-miterlimit="10" x1="127.385" y1="329.28" x2="124.892" y2="329.28"/>
</g>
<g id="LINE_52_">
	
		<line fill="none" stroke="#000000" stroke-width="0.7087" stroke-linecap="round" stroke-linejoin="round" stroke-miterlimit="10" x1="127.385" y1="570.42" x2="124.892" y2="570.42"/>
</g>
<g id="LINE_53_">
	
		<line fill="none" stroke="#000000" stroke-width="0.7087" stroke-linecap="round" stroke-linejoin="round" stroke-miterlimit="10" x1="133.854" y1="570.42" x2="133.428" y2="570.42"/>
</g>
<g id="LINE_54_">
	
		<line fill="none" stroke="#000000" stroke-width="0.7087" stroke-linecap="round" stroke-linejoin="round" stroke-miterlimit="10" x1="146.282" y1="570.42" x2="145.855" y2="570.42"/>
</g>
<g id="LINE_55_">
	
		<line fill="none" stroke="#000000" stroke-width="0.7087" stroke-linecap="round" stroke-linejoin="round" stroke-miterlimit="10" x1="146.282" y1="586.42" x2="145.855" y2="586.42"/>
</g>
<g id="LINE_56_">
	
		<line fill="none" stroke="#000000" stroke-width="0.7087" stroke-linecap="round" stroke-linejoin="round" stroke-miterlimit="10" x1="133.854" y1="586.42" x2="133.428" y2="586.42"/>
</g>
<g id="LINE_57_">
	
		<line fill="none" stroke="#000000" stroke-width="0.7087" stroke-linecap="round" stroke-linejoin="round" stroke-miterlimit="10" x1="127.385" y1="586.42" x2="124.892" y2="586.42"/>
</g>
<g id="LINE_58_">
	
		<line fill="none" stroke="#000000" stroke-width="0.7087" stroke-linecap="round" stroke-linejoin="round" stroke-miterlimit="10" x1="126.035" y1="680.808" x2="124.847" y2="680.808"/>
</g>
<g id="LINE_59_">
	
		<line fill="none" stroke="#000000" stroke-width="0.7087" stroke-linecap="round" stroke-linejoin="round" stroke-miterlimit="10" x1="133.854" y1="680.808" x2="132.334" y2="680.808"/>
</g>
<g id="LINE_60_">
	
		<line fill="none" stroke="#000000" stroke-width="0.7087" stroke-linecap="round" stroke-linejoin="round" stroke-miterlimit="10" x1="147.375" y1="680.808" x2="145.855" y2="680.808"/>
</g>
<g id="LINE_63_">
	
		<path fill="#7F7F7F" stroke="#000000" stroke-width="0.7087" stroke-linecap="round" stroke-linejoin="round" stroke-miterlimit="10" d="
		M124.847,680.808c-2.657,5.003-2.657,10.997,0,16h2.853c-0.112,0.814-0.292,1.618-0.537,2.403
		c-2.435,7.772-10.708,12.1-18.481,9.665c-4.317-1.353-8.061-4.105-10.637-7.824c-2.637-3.806-2.709-8.828-0.183-12.707l-0.646-0.88
		c-2.771,1.975-4.382,5.195-4.299,8.598c0.208,8.533,5.826,15.987,13.972,18.539c10.935,3.425,22.575-2.663,26-13.598
		c0.428-1.365,0.713-2.771,0.852-4.196h0.114v183.854h12V696.808h0.114c1.107,11.404,11.25,19.753,22.655,18.646
		c1.424-0.139,2.83-0.424,4.196-0.852c8.146-2.552,13.764-10.006,13.972-18.539c0.083-3.402-1.527-6.623-4.299-8.598l-0.646,0.88
		c2.526,3.879,2.454,8.901-0.183,12.707c-2.577,3.719-6.32,6.472-10.638,7.824c-0.784,0.245-1.588,0.425-2.402,0.537
		c-8.069,1.107-15.508-4.536-16.615-12.605h2.854c2.656-5.003,2.656-10.997,0-16"/>
</g>
</svg>
