<?xml version="1.0" encoding="utf-8"?>
<!-- Generator: Adobe Illustrator 15.0.2, SVG Export Plug-In . SVG Version: 6.00 Build 0)  -->
<!DOCTYPE svg PUBLIC "-//W3C//DTD SVG 1.1//EN" "http://www.w3.org/Graphics/SVG/1.1/DTD/svg11.dtd">
<svg version="1.1" id="ELEVATION" xmlns="http://www.w3.org/2000/svg" xmlns:xlink="http://www.w3.org/1999/xlink" x="0px" y="0px"
	 width="206.945px" height="1183.709px" viewBox="0 0 206.945 1183.709" enable-background="new 0 0 206.945 1183.709"
	 xml:space="preserve">
<g id="LINE_22_">
	
		<line fill="none" stroke="#000000" stroke-width="0.7087" stroke-linecap="round" stroke-linejoin="round" stroke-miterlimit="10" x1="140.916" y1="616.065" x2="141.473" y2="615.476"/>
</g>
<g id="LINE_23_">
	
		<line fill="none" stroke="#000000" stroke-width="0.7087" stroke-linecap="round" stroke-linejoin="round" stroke-miterlimit="10" x1="118.436" y1="730.318" x2="115.942" y2="730.318"/>
</g>
<g id="LINE_24_">
	
		<line fill="none" stroke="#000000" stroke-width="0.7087" stroke-linecap="round" stroke-linejoin="round" stroke-miterlimit="10" x1="118.436" y1="714.318" x2="115.942" y2="714.318"/>
</g>
<g id="LINE_25_">
	
		<line fill="none" stroke="#000000" stroke-width="0.7087" stroke-linecap="round" stroke-linejoin="round" stroke-miterlimit="10" x1="66.029" y1="616.065" x2="65.473" y2="615.476"/>
</g>
<g id="ARC_103_">
	
		<path fill="#7F7F7F" stroke="#000000" stroke-width="0.7087" stroke-linecap="round" stroke-linejoin="round" stroke-miterlimit="10" d="
		M118.436,714.318c2.656,5.003,2.656,10.997,0,16H88.51c-2.657-5.003-2.657-10.997,0-16"/>
</g>
<g id="LINE_27_">
	
		<line fill="none" stroke="#000000" stroke-width="0.7087" stroke-linecap="round" stroke-linejoin="round" stroke-miterlimit="10" x1="140.916" y1="571.432" x2="141.473" y2="572.022"/>
</g>
<g id="LINE_29_">
	
		<line fill="none" stroke="#000000" stroke-width="0.7087" stroke-linecap="round" stroke-linejoin="round" stroke-miterlimit="10" x1="118.436" y1="457.179" x2="115.942" y2="457.179"/>
</g>
<g id="LINE_31_">
	
		<line fill="none" stroke="#000000" stroke-width="0.7087" stroke-linecap="round" stroke-linejoin="round" stroke-miterlimit="10" x1="66.029" y1="571.432" x2="65.473" y2="572.022"/>
</g>
<g id="ARC_124_">
	
		<path fill="#7F7F7F" stroke="#000000" stroke-width="0.7087" stroke-linecap="round" stroke-linejoin="round" stroke-miterlimit="10" d="
		M66.029,571.432c4.247,3.123,9.865,3.661,14.627,1.399c6.57-3.12,10.773-9.726,10.816-16.999
		c0.069-11.575-9.259-21.014-20.834-21.083c-0.052,0-0.104,0-0.156,0c-32.64,0.05-59.06,26.551-59.009,59.191
		c0.05,32.565,26.435,58.954,59,59.009c11.64-0.164,20.991-9.643,21-21.283c-0.043-7.272-4.247-13.879-10.816-16.999
		c-4.762-2.261-10.38-1.724-14.627,1.399l-0.557-0.59c3.173-3.259,7.603-4.982,12.144-4.727c11.094,0.624,19.79,9.77,19.856,20.881
		c0.011,14.968-12.033,27.154-27,27.318c-35.875-0.055-64.945-29.124-65-65c-0.055-35.953,29.046-65.145,65-65.2
		c0.067,0,0.134,0,0.201,0c14.889,0.088,26.887,12.229,26.799,27.119c-0.066,11.112-8.762,20.256-19.856,20.881
		c-4.541,0.256-8.971-1.468-12.144-4.727"/>
</g>
<g id="ARC_137_">
	
		<path fill="#7F7F7F" stroke="#000000" stroke-width="0.7087" stroke-linecap="round" stroke-linejoin="round" stroke-miterlimit="10" d="
		M140.916,616.065c-4.246-3.123-9.865-3.66-14.627-1.399c-6.57,3.12-10.773,9.727-10.816,16.999
		c-0.068,11.575,9.259,21.015,20.834,21.083c0.053,0.001,0.104,0.001,0.157,0.001c32.584,0.005,59.004-26.406,59.009-58.991
		c0.005-32.584-26.405-59.004-58.99-59.009c-0.007,0-0.013,0-0.019,0c-11.576-0.018-20.974,9.352-20.991,20.927
		c-0.001,0.052,0,0.104,0,0.156c0.043,7.273,4.246,13.879,10.816,16.999c4.762,2.262,10.381,1.724,14.627-1.399l0.557,0.59
		c-3.174,3.258-7.603,4.982-12.145,4.727c-11.094-0.625-19.79-9.769-19.855-20.881c0-0.067-0.001-0.134,0-0.201
		c0.022-14.889,12.111-26.941,27.001-26.918c35.898,0,64.999,29.102,64.999,65s-29.102,65-65,65c-0.067,0-0.134,0-0.201-0.001
		c-14.889-0.088-26.887-12.229-26.799-27.118c0.065-11.111,8.762-20.257,19.855-20.881c4.542-0.256,8.971,1.468,12.145,4.727"/>
</g>
<g id="ARC_144_">
	
		<path fill="#7F7F7F" stroke="#000000" stroke-width="0.7087" stroke-linecap="round" stroke-linejoin="round" stroke-miterlimit="10" d="
		M115.942,714.318c2.807-22.523,17.214-41.928,37.963-51.13c12.345-5.476,26.521-4.964,38.44,1.386
		c7.884,4.2,10.947,13.943,6.887,21.9c-2.796,5.479-8.376,8.978-14.524,9.108c-3.1,0.066-6.159-0.698-8.862-2.216l-0.906,1.256
		c3.73,4.038,9.315,5.808,14.691,4.655c10.627-2.277,17.872-12.142,16.867-22.963c-0.671-7.224-4.929-13.626-11.331-17.037
		c-13.548-7.217-29.663-7.798-43.694-1.575c-22.917,10.164-38.735,31.706-41.573,56.615H97.046
		c-2.837-24.909-18.656-46.451-41.573-56.615c-14.032-6.223-30.147-5.642-43.694,1.575c-6.402,3.411-10.661,9.813-11.332,17.037
		c-1.005,10.821,6.241,20.686,16.868,22.963c5.375,1.152,10.96-0.617,14.691-4.655l-0.906-1.256
		c-2.704,1.518-5.764,2.282-8.863,2.216c-6.149-0.131-11.729-3.63-14.524-9.108c-4.061-7.957-0.997-17.7,6.887-21.9
		c11.918-6.35,26.096-6.861,38.44-1.386c20.749,9.202,35.156,28.606,37.963,51.13"/>
</g>
<g id="LINE_37_">
	
		<line fill="none" stroke="#000000" stroke-width="0.7087" stroke-linecap="round" stroke-linejoin="round" stroke-miterlimit="10" x1="118.48" y1="362.791" x2="117.293" y2="362.791"/>
</g>
<g id="LINE_38_">
	
		<line fill="none" stroke="#000000" stroke-width="0.7087" stroke-linecap="round" stroke-linejoin="round" stroke-miterlimit="10" x1="118.48" y1="346.791" x2="115.627" y2="346.791"/>
</g>
<g id="ARC_171_">
	
		<path fill="#7F7F7F" stroke="#000000" stroke-width="0.7087" stroke-linecap="round" stroke-linejoin="round" stroke-miterlimit="10" d="
		M118.48,346.791c2.656,5.002,2.656,10.998,0,16H88.465c-2.656-5.002-2.656-10.998,0-16"/>
</g>
<g id="LINE_47_">
	
		<line fill="none" stroke="#000000" stroke-width="0.7087" stroke-linecap="round" stroke-linejoin="round" stroke-miterlimit="10" x1="97.473" y1="1183.354" x2="109.473" y2="1183.354"/>
</g>
<g id="LINE_53_">
	
		<path fill="#7F7F7F" stroke="#000000" stroke-width="0.7087" stroke-linecap="round" stroke-linejoin="round" stroke-miterlimit="10" d="
		M109.473,346.791v-194h0.497c1.077,8.64,3.889,16.973,8.266,24.5c6.578,11.313,18.209,18.76,31.237,20
		c10.086,0.96,19.04-6.438,20-16.524c0.11-1.156,0.11-2.32,0-3.476c-0.626-6.573-4.975-12.201-11.178-14.463
		c-3.996-1.458-8.478-0.189-11.117,3.147l0.603,0.5c3.543-2.023,7.938-1.803,11.261,0.563c3.333,2.374,5.405,6.136,5.63,10.222
		c0.037,0.668,0.023,1.337-0.04,2.003c-0.7,7.357-7.232,12.754-14.59,12.055c-11.102-1.057-21.014-7.402-26.619-17.043
		c-3.844-6.61-6.358-13.909-7.401-21.484h2.46c2.656-5.002,2.656-10.998,0-16h-2.46c1.043-7.575,3.558-14.874,7.401-21.484
		c5.605-9.641,15.518-15.986,26.619-17.043c0.666-0.063,1.335-0.077,2.003-0.04c7.38,0.406,13.033,6.717,12.627,14.097
		c-0.225,4.086-2.297,7.848-5.63,10.222c-3.323,2.367-7.718,2.586-11.261,0.563l-0.603,0.5c2.64,3.336,7.121,4.605,11.117,3.147
		c6.203-2.263,10.552-7.89,11.178-14.463c0.96-10.086-6.438-19.04-16.524-20c-1.156-0.11-2.319-0.11-3.476,0
		c-13.028,1.24-24.659,8.687-31.237,20c-4.377,7.527-7.188,15.86-8.266,24.5h-0.497V0.354h-12v136.437h-0.497
		c-1.077-8.64-3.889-16.973-8.265-24.5c-6.579-11.313-18.209-18.76-31.238-20c-10.086-0.96-19.04,6.438-20,16.524
		c-0.11,1.156-0.11,2.32,0,3.476c0.625,6.573,4.975,12.201,11.178,14.463c3.997,1.458,8.478,0.189,11.117-3.147l-0.603-0.5
		c-3.542,2.023-7.938,1.803-11.261-0.563c-3.333-2.374-5.405-6.136-5.63-10.222c-0.037-0.667-0.023-1.337,0.04-2.003
		c0.7-7.357,7.232-12.754,14.59-12.054c11.102,1.057,21.013,7.402,26.619,17.043c3.844,6.61,6.358,13.909,7.401,21.484h-2.459
		c-2.656,5.002-2.656,10.998,0,16h2.459c-1.043,7.575-3.557,14.874-7.401,21.484c-5.606,9.641-15.517,15.987-26.619,17.043
		c-0.666,0.063-1.335,0.076-2.003,0.04c-7.379-0.406-13.033-6.717-12.627-14.097c0.225-4.086,2.296-7.848,5.63-10.222
		c3.323-2.367,7.718-2.586,11.261-0.563l0.603-0.5c-2.64-3.336-7.121-4.605-11.117-3.147c-6.203,2.263-10.552,7.89-11.178,14.463
		c-0.96,10.086,6.438,19.04,16.524,20c1.156,0.11,2.32,0.11,3.476,0c13.028-1.24,24.659-8.687,31.238-20
		c4.376-7.527,7.188-15.86,8.265-24.5h0.497v194"/>
</g>
<g id="LINE_54_">
	
		<line fill="none" stroke="#000000" stroke-width="0.7087" stroke-linecap="round" stroke-linejoin="round" stroke-miterlimit="10" x1="91.318" y1="346.791" x2="88.465" y2="346.791"/>
</g>
<g id="LINE_55_">
	
		<line fill="none" stroke="#000000" stroke-width="0.7087" stroke-linecap="round" stroke-linejoin="round" stroke-miterlimit="10" x1="97.473" y1="346.791" x2="97.358" y2="346.791"/>
</g>
<g id="LINE_56_">
	
		<line fill="none" stroke="#000000" stroke-width="0.7087" stroke-linecap="round" stroke-linejoin="round" stroke-miterlimit="10" x1="109.587" y1="346.791" x2="109.473" y2="346.791"/>
</g>
<g id="LINE_57_">
	
		<line fill="none" stroke="#000000" stroke-width="0.7087" stroke-linecap="round" stroke-linejoin="round" stroke-miterlimit="10" x1="110.993" y1="362.791" x2="109.473" y2="362.791"/>
</g>
<g id="LINE_58_">
	
		<line fill="none" stroke="#000000" stroke-width="0.7087" stroke-linecap="round" stroke-linejoin="round" stroke-miterlimit="10" x1="97.473" y1="362.791" x2="95.953" y2="362.791"/>
</g>
<g id="LINE_59_">
	
		<line fill="none" stroke="#000000" stroke-width="0.7087" stroke-linecap="round" stroke-linejoin="round" stroke-miterlimit="10" x1="89.652" y1="362.791" x2="88.465" y2="362.791"/>
</g>
<g id="LINE_60_">
	
		<line fill="none" stroke="#000000" stroke-width="0.7087" stroke-linecap="round" stroke-linejoin="round" stroke-miterlimit="10" x1="91.003" y1="457.179" x2="88.51" y2="457.179"/>
</g>
<g id="LINE_61_">
	
		<line fill="none" stroke="#000000" stroke-width="0.7087" stroke-linecap="round" stroke-linejoin="round" stroke-miterlimit="10" x1="97.473" y1="457.179" x2="97.046" y2="457.179"/>
</g>
<g id="LINE_62_">
	
		<line fill="none" stroke="#000000" stroke-width="0.7087" stroke-linecap="round" stroke-linejoin="round" stroke-miterlimit="10" x1="109.899" y1="457.179" x2="109.473" y2="457.179"/>
</g>
<g id="LINE_65_">
	
		<path fill="#7F7F7F" stroke="#000000" stroke-width="0.7087" stroke-linecap="round" stroke-linejoin="round" stroke-miterlimit="10" d="
		M109.473,362.791v94.388h0.427c1.97-17.292,10.25-33.25,23.254-44.816c0.746-0.663,0.889-1.775,0.334-2.605
		c-9.688-14.509-17.263-30.323-22.494-46.967h6.3c5.035,15.444,12.163,30.126,21.184,43.635c2.218,3.32,1.647,7.767-1.336,10.42
		c-11.724,10.428-19.258,24.762-21.198,40.333h2.493c2.656,5.002,2.656,10.998,0,16h-2.493c2.807,22.523,17.214,41.928,37.963,51.13
		c12.345,5.475,26.521,4.964,38.44-1.386c7.884-4.2,10.947-13.944,6.887-21.9c-2.796-5.479-8.376-8.978-14.524-9.109
		c-3.1-0.066-6.159,0.699-8.862,2.216l-0.906-1.256c3.73-4.038,9.315-5.808,14.691-4.655c10.627,2.278,17.872,12.142,16.867,22.963
		c-0.671,7.224-4.929,13.625-11.331,17.037c-13.548,7.218-29.663,7.799-43.694,1.575c-22.917-10.164-38.735-31.706-41.573-56.615
		h-0.427v241.139h-12V473.179h-0.427c-2.837,24.909-18.656,46.451-41.573,56.615c-14.032,6.224-30.147,5.643-43.694-1.575
		c-6.402-3.411-10.661-9.813-11.332-17.037c-1.005-10.822,6.241-20.686,16.868-22.963c5.375-1.152,10.96,0.617,14.691,4.655
		L31.1,494.13c-2.704-1.517-5.764-2.282-8.863-2.216c-6.149,0.131-11.729,3.63-14.524,9.109c-4.061,7.957-0.997,17.7,6.887,21.9
		c11.918,6.35,26.096,6.861,38.44,1.386c20.749-9.202,35.156-28.606,37.963-51.13H88.51c-2.657-5.002-2.657-10.998,0-16h2.494
		c-1.941-15.57-9.475-29.905-21.199-40.333c-2.983-2.653-3.554-7.1-1.336-10.42c9.021-13.509,16.149-28.191,21.184-43.635h6.3
		c-5.232,16.644-12.806,32.458-22.495,46.967c-0.554,0.83-0.412,1.942,0.334,2.605c13.004,11.566,21.284,27.524,23.254,44.816h0.427
		v-94.388l-6.154-16c-1.107-8.069-8.546-13.712-16.615-12.605c-0.814,0.112-1.618,0.292-2.403,0.538
		c-4.317,1.352-8.061,4.105-10.637,7.824c-2.637,3.806-2.709,8.828-0.183,12.708l-0.647,0.88c-2.771-1.975-4.382-5.196-4.299-8.598
		c0.208-8.534,5.826-15.988,13.972-18.54c1.366-0.428,2.772-0.713,4.196-0.851c11.405-1.107,21.548,7.24,22.655,18.645h12.229
		c0.139-1.424,0.424-2.831,0.852-4.196c3.425-10.935,15.065-17.022,26-13.598c8.146,2.552,13.764,10.006,13.973,18.54
		c0.083,3.402-1.528,6.623-4.3,8.598l-0.646-0.88c2.526-3.88,2.454-8.902-0.183-12.708c-2.577-3.718-6.319-6.472-10.637-7.824
		c-7.772-2.435-16.047,1.893-18.481,9.665c-0.245,0.785-0.425,1.588-0.537,2.403"/>
</g>
<g id="LINE_66_">
	
		<line fill="none" stroke="#000000" stroke-width="0.7087" stroke-linecap="round" stroke-linejoin="round" stroke-miterlimit="10" x1="91.003" y1="714.318" x2="88.51" y2="714.318"/>
</g>
<g id="LINE_67_">
	
		<line fill="none" stroke="#000000" stroke-width="0.7087" stroke-linecap="round" stroke-linejoin="round" stroke-miterlimit="10" x1="97.473" y1="714.318" x2="97.046" y2="714.318"/>
</g>
<g id="LINE_68_">
	
		<line fill="none" stroke="#000000" stroke-width="0.7087" stroke-linecap="round" stroke-linejoin="round" stroke-miterlimit="10" x1="109.899" y1="714.318" x2="109.473" y2="714.318"/>
</g>
<g id="LINE_69_">
	
		<line fill="none" stroke="#000000" stroke-width="0.7087" stroke-linecap="round" stroke-linejoin="round" stroke-miterlimit="10" x1="109.899" y1="730.318" x2="109.473" y2="730.318"/>
</g>
<g id="LINE_70_">
	
		<line fill="none" stroke="#000000" stroke-width="0.7087" stroke-linecap="round" stroke-linejoin="round" stroke-miterlimit="10" x1="97.473" y1="730.318" x2="97.046" y2="730.318"/>
</g>
<g id="LINE_71_">
	
		<line fill="none" stroke="#000000" stroke-width="0.7087" stroke-linecap="round" stroke-linejoin="round" stroke-miterlimit="10" x1="91.003" y1="730.318" x2="88.51" y2="730.318"/>
</g>
<g id="LINE_77_">
	
		<path fill="#7F7F7F" stroke="#000000" stroke-width="0.7087" stroke-linecap="round" stroke-linejoin="round" stroke-miterlimit="10" d="
		M109.473,730.318v94.388h1.521c5.231-16.644,12.806-32.458,22.494-46.967c0.555-0.83,0.412-1.941-0.334-2.605
		c-13.004-11.566-21.284-27.523-23.254-44.815h6.043c1.94,15.57,9.475,29.904,21.198,40.332c2.983,2.654,3.554,7.101,1.336,10.421
		c-9.021,13.509-16.148,28.19-21.184,43.635h1.188c2.656,5.003,2.656,10.998,0,16h-2.854c1.107,8.069,8.546,13.713,16.615,12.605
		c0.814-0.111,1.618-0.291,2.403-0.537c4.317-1.353,8.06-4.105,10.637-7.824c2.637-3.806,2.709-8.827,0.183-12.707l0.646-0.88
		c2.771,1.975,4.383,5.195,4.3,8.598c-0.209,8.533-5.826,15.987-13.973,18.539c-1.365,0.428-2.771,0.713-4.196,0.852
		c-11.405,1.107-21.548-7.24-22.655-18.646h-0.114v194h-12v-194h-0.115c-0.138,1.425-0.423,2.831-0.851,4.197
		c-3.425,10.934-15.065,17.021-26,13.597c-8.146-2.552-13.764-10.006-13.972-18.539c-0.083-3.402,1.527-6.623,4.299-8.598
		l0.647,0.88c-2.526,3.88-2.454,8.901,0.183,12.707c2.577,3.719,6.32,6.472,10.637,7.824c7.772,2.435,16.046-1.893,18.481-9.665
		c0.246-0.784,0.425-1.589,0.537-2.403h-2.854c-2.656-5.002-2.656-10.997,0-16h1.188c-5.035-15.444-12.163-30.126-21.184-43.635
		c-2.217-3.32-1.647-7.767,1.336-10.421c11.724-10.428,19.258-24.762,21.199-40.332h6.042c-1.97,17.292-10.25,33.249-23.254,44.815
		c-0.746,0.664-0.888,1.775-0.334,2.605c9.689,14.509,17.263,30.323,22.495,46.967h1.52v-94.388"/>
</g>
<g id="LINE_79_">
	
		<line fill="none" stroke="#000000" stroke-width="0.7087" stroke-linecap="round" stroke-linejoin="round" stroke-miterlimit="10" x1="97.473" y1="1034.706" x2="96.976" y2="1034.706"/>
</g>
<g id="LINE_80_">
	
		<line fill="none" stroke="#000000" stroke-width="0.7087" stroke-linecap="round" stroke-linejoin="round" stroke-miterlimit="10" x1="109.97" y1="1034.706" x2="109.473" y2="1034.706"/>
</g>
<g id="LINE_81_">
	
		<line fill="none" stroke="#000000" stroke-width="0.7087" stroke-linecap="round" stroke-linejoin="round" stroke-miterlimit="10" x1="109.97" y1="1050.706" x2="109.473" y2="1050.706"/>
</g>
<g id="LINE_82_">
	
		<line fill="none" stroke="#000000" stroke-width="0.7087" stroke-linecap="round" stroke-linejoin="round" stroke-miterlimit="10" x1="97.473" y1="1050.706" x2="96.976" y2="1050.706"/>
</g>
<g id="LINE_83_">
	
		<path fill="#7F7F7F" stroke="#000000" stroke-width="0.7087" stroke-linecap="round" stroke-linejoin="round" stroke-miterlimit="10" d="
		M96.976,1034.706c-1.077-8.64-3.889-16.973-8.265-24.5c-6.579-11.313-18.209-18.76-31.238-20c-10.086-0.96-19.04,6.438-20,16.524
		c-0.11,1.156-0.11,2.32,0,3.476c0.625,6.573,4.975,12.201,11.178,14.464c3.997,1.458,8.478,0.189,11.117-3.147l-0.603-0.5
		c-3.542,2.022-7.938,1.803-11.261-0.563c-3.333-2.374-5.405-6.136-5.63-10.223c-0.037-0.667-0.023-1.337,0.04-2.003
		c0.7-7.357,7.232-12.754,14.59-12.054c11.102,1.056,21.013,7.401,26.619,17.043c3.844,6.61,6.358,13.908,7.401,21.483h-2.459
		c-2.656,5.003-2.656,10.998,0,16h2.459c-1.043,7.575-3.557,14.874-7.401,21.484c-5.606,9.641-15.517,15.986-26.619,17.043
		c-0.666,0.063-1.335,0.076-2.003,0.04c-7.379-0.406-13.033-6.718-12.627-14.098c0.225-4.086,2.296-7.848,5.63-10.222
		c3.323-2.367,7.718-2.587,11.261-0.563l0.603-0.501c-2.64-3.336-7.121-4.604-11.117-3.146c-6.203,2.263-10.552,7.89-11.178,14.463
		c-0.96,10.086,6.438,19.04,16.524,20c1.156,0.11,2.32,0.11,3.476,0c13.028-1.239,24.659-8.687,31.238-20
		c4.376-7.526,7.188-15.859,8.265-24.5h0.497v132.648h12v-132.648h0.497c1.077,8.641,3.889,16.974,8.266,24.5
		c6.578,11.313,18.209,18.761,31.237,20c10.086,0.96,19.04-6.438,20-16.524c0.11-1.155,0.11-2.319,0-3.476
		c-0.626-6.573-4.975-12.2-11.178-14.463c-3.996-1.458-8.478-0.189-11.117,3.146l0.603,0.501c3.543-2.023,7.938-1.804,11.261,0.563
		c3.333,2.374,5.405,6.136,5.63,10.222c0.037,0.668,0.023,1.338-0.04,2.003c-0.7,7.357-7.232,12.755-14.59,12.055
		c-11.102-1.057-21.014-7.402-26.619-17.043c-3.844-6.61-6.358-13.909-7.401-21.484h2.46c2.656-5.002,2.656-10.997,0-16h-2.46
		c1.043-7.575,3.558-14.873,7.401-21.483c5.605-9.642,15.518-15.987,26.619-17.043c0.666-0.063,1.335-0.077,2.003-0.04
		c7.38,0.405,13.033,6.717,12.627,14.097c-0.225,4.087-2.297,7.849-5.63,10.223c-3.323,2.366-7.718,2.586-11.261,0.563l-0.603,0.5
		c2.64,3.337,7.121,4.605,11.117,3.147c6.203-2.263,10.552-7.891,11.178-14.464c0.96-10.086-6.438-19.04-16.524-20
		c-1.156-0.109-2.319-0.109-3.476,0c-13.028,1.24-24.659,8.687-31.237,20c-4.377,7.527-7.188,15.86-8.266,24.5"/>
</g>
</svg>
