<?xml version="1.0" encoding="utf-8"?>
<!-- Generator: Adobe Illustrator 15.0.2, SVG Export Plug-In . SVG Version: 6.00 Build 0)  -->
<!DOCTYPE svg PUBLIC "-//W3C//DTD SVG 1.1//EN" "http://www.w3.org/Graphics/SVG/1.1/DTD/svg11.dtd">
<svg version="1.1" id="ELEVATION" xmlns="http://www.w3.org/2000/svg" xmlns:xlink="http://www.w3.org/1999/xlink" x="0px" y="0px"
	 width="214.709px" height="1156.5px" viewBox="0 0 214.709 1156.5" enable-background="new 0 0 214.709 1156.5"
	 xml:space="preserve">
<g id="ARC_7_">
	<path stroke="#000000" stroke-width="0.7087" stroke-linecap="round" stroke-linejoin="round" stroke-miterlimit="10" d="
		M112.398,570.75c1.255-107.129,29.363-212.232,81.754-305.686l-5.886,0.29c-51.838,93.528-79.626,198.47-80.868,305.396h-0.087
		c-1.243-106.926-29.031-211.868-80.868-305.396l-5.886-0.29c52.39,93.454,80.499,198.557,81.753,305.686"/>
</g>
<g id="ARC_11_">
	<path stroke="#000000" stroke-width="0.7087" stroke-linecap="round" stroke-linejoin="round" stroke-miterlimit="10" d="
		M20.557,891.436c53.242,76.139,81.797,166.802,81.797,259.71h5c0-92.863-28.217-183.535-80.912-260"/>
</g>
<g id="ARC_13_">
	<path stroke="#000000" stroke-width="0.7087" stroke-linecap="round" stroke-linejoin="round" stroke-miterlimit="10" d="
		M20.557,891.436c52.39-93.453,80.499-198.557,81.753-305.686h5c-1.243,106.926-29.031,211.867-80.868,305.396"/>
</g>
<g id="ARC_15_">
	<path stroke="#000000" stroke-width="0.7087" stroke-linecap="round" stroke-linejoin="round" stroke-miterlimit="10" d="
		M107.354,1151.146c0-92.863,28.217-183.535,80.912-260c-51.838-93.528-79.626-198.47-80.868-305.396h5
		c1.255,107.129,29.363,212.232,81.754,305.686c-53.243,76.139-81.798,166.802-81.798,259.71"/>
</g>
<g id="LINE_14_">
	
		<line fill="none" stroke="#000000" stroke-width="0.7087" stroke-linecap="round" stroke-linejoin="round" stroke-miterlimit="10" x1="118.854" y1="585.75" x2="117.552" y2="585.75"/>
</g>
<g id="LINE_15_">
	
		<line fill="none" stroke="#000000" stroke-width="0.7087" stroke-linecap="round" stroke-linejoin="round" stroke-miterlimit="10" x1="118.854" y1="570.75" x2="117.552" y2="570.75"/>
</g>
<g id="ARC_31_">
	<path stroke="#000000" stroke-width="0.7087" stroke-linecap="round" stroke-linejoin="round" stroke-miterlimit="10" d="
		M112.354,5.354c0,92.908,28.555,183.572,81.798,259.71l-5.886,0.29c-52.695-76.465-80.912-167.136-80.912-260
		c0,92.864-28.217,183.535-80.912,260l-5.886-0.29c53.242-76.139,81.797-166.802,81.797-259.71"/>
</g>
<g id="LINE_23_">
	<path stroke="#000000" stroke-width="0.7087" stroke-linecap="round" stroke-linejoin="round" stroke-miterlimit="10" d="
		M112.55,570.75c0.917-31.791,7.66-63.143,19.892-92.5c4.192-10.061,13.148-17.351,23.851-19.413
		c17.625-3.396,34.666,8.138,38.063,25.763v12.3c-2.947,15.296-16.335,26.35-31.913,26.35h-8v-5h8c15.188,0,27.5-12.312,27.5-27.5
		s-12.312-27.5-27.5-27.5c-11.102,0-21.114,6.675-25.385,16.923c-11.978,28.748-18.589,59.447-19.505,90.577h1.303
		c1.488,0.793,2.706,2.012,3.5,3.5c2.209,4.143,0.643,9.291-3.5,11.5h-1.303c0.916,31.13,7.527,61.829,19.505,90.577
		c5.842,14.02,21.942,20.649,35.962,14.808s20.649-21.942,14.808-35.962c-4.27-10.247-14.283-16.923-25.385-16.923h-8v-5h8
		c15.578,0,28.966,11.054,31.913,26.351V671.9c-2.063,10.703-9.353,19.658-19.413,23.851c-16.568,6.903-35.597-0.932-42.5-17.5
		c-12.231-29.357-18.975-60.71-19.892-92.5H95.854c-1.488-0.794-2.707-2.012-3.5-3.5c-2.209-4.142-0.642-9.291,3.5-11.5"/>
</g>
<g id="LINE_26_">
	<path stroke="#000000" stroke-width="0.7087" stroke-linecap="round" stroke-linejoin="round" stroke-miterlimit="10" d="
		M20.354,485.072c1.934-10.899,9.282-20.064,19.5-24.321c16.568-6.903,35.597,0.932,42.5,17.5
		c12.232,29.357,18.975,60.709,19.892,92.5h-5.002c-0.916-31.13-7.527-61.829-19.505-90.577
		c-5.842-14.02-21.942-20.649-35.962-14.808c-14.02,5.842-20.649,21.942-14.808,35.962c4.27,10.248,14.283,16.923,25.385,16.923h8v5
		h-8c-15.758,0-29.247-11.305-32-26.821v163.643c2.753-15.517,16.242-26.821,32-26.821h8v5h-8c-15.188,0-27.5,12.313-27.5,27.5
		s12.312,27.5,27.5,27.5c11.102,0,21.115-6.676,25.385-16.923c11.978-28.748,18.589-59.447,19.505-90.577h5.002
		c-0.917,31.79-7.659,63.143-19.892,92.5c-4.257,10.218-13.422,17.565-24.321,19.5c-17.673,3.137-34.542-8.648-37.679-26.321"/>
</g>
<g id="LINE_32_">
	<polyline stroke="#000000" stroke-width="0.7087" stroke-linecap="round" stroke-linejoin="round" stroke-miterlimit="10" points="
		194.354,484.601 194.354,5.354 112.354,5.354 102.354,5.354 20.354,5.354 15.354,5.354 0.354,5.354 0.354,0.354 214.354,0.354 
		214.354,5.354 199.354,5.354 199.354,1151.146 194.354,1151.146 194.354,671.9 194.354,659.601 194.354,496.9 	"/>
</g>
<g id="LINE_33_">
	
		<line fill="none" stroke="#000000" stroke-width="0.7087" stroke-linecap="round" stroke-linejoin="round" stroke-miterlimit="10" x1="0.354" y1="0.354" x2="0.354" y2="5.354"/>
</g>
<g id="LINE_35_">
	<polyline stroke="#000000" stroke-width="0.7087" stroke-linecap="round" stroke-linejoin="round" stroke-miterlimit="10" points="
		20.354,671.429 20.354,1151.146 102.354,1151.146 112.354,1151.146 194.354,1151.146 199.354,1151.146 214.354,1151.146 
		214.354,1156.146 0.354,1156.146 0.354,1151.146 15.354,1151.146 15.354,5.354 20.354,5.354 20.354,485.072 20.354,496.429 
		20.354,660.072 	"/>
</g>
<g id="LINE_36_">
	
		<line fill="none" stroke="#000000" stroke-width="0.7087" stroke-linecap="round" stroke-linejoin="round" stroke-miterlimit="10" x1="97.244" y1="570.75" x2="95.854" y2="570.75"/>
</g>
<g id="LINE_37_">
	
		<line fill="none" stroke="#000000" stroke-width="0.7087" stroke-linecap="round" stroke-linejoin="round" stroke-miterlimit="10" x1="102.311" y1="570.75" x2="102.246" y2="570.75"/>
</g>
<g id="LINE_38_">
	
		<line fill="none" stroke="#000000" stroke-width="0.7087" stroke-linecap="round" stroke-linejoin="round" stroke-miterlimit="10" x1="107.398" y1="570.75" x2="107.311" y2="570.75"/>
</g>
<g id="LINE_39_">
	
		<line fill="none" stroke="#000000" stroke-width="0.7087" stroke-linecap="round" stroke-linejoin="round" stroke-miterlimit="10" x1="112.55" y1="570.75" x2="112.398" y2="570.75"/>
</g>
<g id="LINE_40_">
	
		<line fill="none" stroke="#000000" stroke-width="0.7087" stroke-linecap="round" stroke-linejoin="round" stroke-miterlimit="10" x1="112.55" y1="585.75" x2="112.398" y2="585.75"/>
</g>
<g id="LINE_41_">
	
		<line fill="none" stroke="#000000" stroke-width="0.7087" stroke-linecap="round" stroke-linejoin="round" stroke-miterlimit="10" x1="107.398" y1="585.75" x2="107.311" y2="585.75"/>
</g>
<g id="LINE_42_">
	
		<line fill="none" stroke="#000000" stroke-width="0.7087" stroke-linecap="round" stroke-linejoin="round" stroke-miterlimit="10" x1="102.311" y1="585.75" x2="102.246" y2="585.75"/>
</g>
<g id="LINE_43_">
	
		<line fill="none" stroke="#000000" stroke-width="0.7087" stroke-linecap="round" stroke-linejoin="round" stroke-miterlimit="10" x1="97.244" y1="585.75" x2="95.854" y2="585.75"/>
</g>
</svg>
