<?xml version="1.0" encoding="utf-8"?>
<!-- Generator: Adobe Illustrator 15.0.2, SVG Export Plug-In . SVG Version: 6.00 Build 0)  -->
<!DOCTYPE svg PUBLIC "-//W3C//DTD SVG 1.1//EN" "http://www.w3.org/Graphics/SVG/1.1/DTD/svg11.dtd">
<svg version="1.1" id="ELEVATION" xmlns="http://www.w3.org/2000/svg" xmlns:xlink="http://www.w3.org/1999/xlink" x="0px" y="0px"
	 width="276.209px" height="887.415px" viewBox="0 0 276.209 887.415" enable-background="new 0 0 276.209 887.415"
	 xml:space="preserve">
<g id="LINE_5_">
	
		<polyline fill="#333333" stroke="#231F20" stroke-width="0.7087" stroke-linecap="round" stroke-linejoin="round" stroke-miterlimit="10" points="
		143.104,51.648 143.104,288.394 133.104,288.394 133.104,45.127 	"/>
</g>
<g id="LINE_6_">
	
		<line fill="none" stroke="#231F20" stroke-width="0.7087" stroke-linecap="round" stroke-linejoin="round" stroke-miterlimit="10" x1="143.104" y1="288.394" x2="133.104" y2="298.394"/>
</g>
<g id="LINE_7_">
	
		<line fill="none" stroke="#231F20" stroke-width="0.7087" stroke-linecap="round" stroke-linejoin="round" stroke-miterlimit="10" x1="143.104" y1="298.394" x2="133.104" y2="288.394"/>
</g>
<g id="LINE_9_">
	
		<polyline fill="#333333" stroke="#231F20" stroke-width="0.7087" stroke-linecap="round" stroke-linejoin="round" stroke-miterlimit="10" points="
		143.104,298.394 143.104,587.727 133.104,587.727 133.104,298.394 	"/>
</g>
<g id="LINE_10_">
	
		<line fill="none" stroke="#231F20" stroke-width="0.7087" stroke-linecap="round" stroke-linejoin="round" stroke-miterlimit="10" x1="143.104" y1="587.727" x2="133.104" y2="597.727"/>
</g>
<g id="LINE_11_">
	
		<line fill="none" stroke="#231F20" stroke-width="0.7087" stroke-linecap="round" stroke-linejoin="round" stroke-miterlimit="10" x1="143.104" y1="597.727" x2="133.104" y2="587.727"/>
</g>
<g id="LINE_13_">
	
		<polyline fill="#333333" stroke="#333333" stroke-width="0.7087" stroke-linecap="round" stroke-linejoin="round" stroke-miterlimit="10" points="
		133.104,597.727 133.104,887.06 143.104,887.06 143.104,597.727 	"/>
</g>
<g id="LINE_15_">
	
		<polyline fill="#333333" stroke="#231F20" stroke-width="0.7087" stroke-linecap="round" stroke-linejoin="round" stroke-miterlimit="10" points="
		133.104,288.394 0.354,288.394 0.354,298.394 133.104,298.394 143.104,298.394 275.854,298.394 275.854,288.394 143.104,288.394 	
		"/>
</g>
<g id="LINE_17_">
	
		<polyline fill="#333333" stroke="#231F20" stroke-width="0.7087" stroke-linecap="round" stroke-linejoin="round" stroke-miterlimit="10" points="
		143.104,587.727 275.854,587.727 275.854,597.727 143.104,597.727 133.104,597.727 0.354,597.727 0.354,587.727 133.104,587.727 	
		"/>
</g>
</svg>
