<?xml version="1.0" encoding="utf-8"?>
<!-- Generator: Adobe Illustrator 15.0.2, SVG Export Plug-In . SVG Version: 6.00 Build 0)  -->
<!DOCTYPE svg PUBLIC "-//W3C//DTD SVG 1.1//EN" "http://www.w3.org/Graphics/SVG/1.1/DTD/svg11.dtd">
<svg version="1.1" xmlns="http://www.w3.org/2000/svg" xmlns:xlink="http://www.w3.org/1999/xlink" x="0px" y="0px" width="400px"
	 height="2210.47px" viewBox="0 0 400 2210.47" enable-background="new 0 0 400 2210.47" xml:space="preserve">
<g id="_x30_">
	<g id="LINE_11_">
		<linearGradient id="SVGID_1_" gradientUnits="userSpaceOnUse" x1="-438.1738" y1="1498.7754" x2="838.1738" y2="701.2249">
			<stop  offset="0" style="stop-color:#FFFFFF"/>
			<stop  offset="0.3609" style="stop-color:#F8F8F8"/>
			<stop  offset="1" style="stop-color:#F0F0F0"/>
		</linearGradient>
		<rect fill="url(#SVGID_1_)" width="400" height="2200"/>
	</g>
	<g id="LWPOLYLINE">
		
			<rect x="277.146" y="153.615" fill="#D4D4D4" stroke="#D4D4D4" stroke-width="0.7087" stroke-linecap="round" stroke-linejoin="round" stroke-miterlimit="10" width="40" height="40"/>
	</g>
	<g id="LWPOLYLINE_1_">
		
			<rect x="82.144" y="153.272" fill="#D4D4D4" stroke="#D4D4D4" stroke-width="0.7087" stroke-linecap="round" stroke-linejoin="round" stroke-miterlimit="10" width="40" height="40"/>
	</g>
	<g id="LWPOLYLINE_2_">
		
			<rect x="147.146" y="153.615" fill="#D4D4D4" stroke="#D4D4D4" stroke-width="0.7087" stroke-linecap="round" stroke-linejoin="round" stroke-miterlimit="10" width="40" height="40"/>
	</g>
	<g id="LWPOLYLINE_3_">
		
			<rect x="212.146" y="153.615" fill="#D4D4D4" stroke="#D4D4D4" stroke-width="0.7087" stroke-linecap="round" stroke-linejoin="round" stroke-miterlimit="10" width="40" height="40"/>
	</g>
</g>
<g id="Bleu">
	<g id="LINE_15_">
		
			<line fill="#0000FF" stroke="#0000FF" stroke-width="0.7087" stroke-linecap="round" stroke-linejoin="round" stroke-miterlimit="10" x1="89.646" y1="2210.115" x2="114.646" y2="2210.115"/>
	</g>
	<g>
		<g id="LINE_7_">
			
				<polyline fill="#0000FF" stroke="#0000FF" stroke-width="0.7087" stroke-linecap="round" stroke-linejoin="round" stroke-miterlimit="10" points="
				89.646,823.115 89.646,2210.115 114.646,2210.115 114.646,798.115 			"/>
		</g>
		<g id="LINE_16_">
			
				<polygon fill="#0000FF" stroke="#0000FF" stroke-width="0.7087" stroke-linecap="round" stroke-linejoin="round" stroke-miterlimit="10" points="
				219.646,2210.115 219.646,1378.115 244.646,1403.115 244.646,2210.115 			"/>
		</g>
		<g id="LINE_17_">
			
				<polygon fill="#0000FF" stroke="#0000FF" stroke-width="0.7087" stroke-linecap="round" stroke-linejoin="round" stroke-miterlimit="10" points="
				284.646,2210.115 284.646,1728.115 309.646,1753.115 309.646,2210.115 			"/>
		</g>
		<g id="LINE_18_">
			
				<polygon fill="#0000FF" stroke="#0000FF" stroke-width="0.7087" stroke-linecap="round" stroke-linejoin="round" stroke-miterlimit="10" points="
				154.646,2210.115 154.646,753.115 179.646,728.115 179.646,2210.115 			"/>
		</g>
	</g>
</g>
</svg>
