<?xml version="1.0" encoding="utf-8"?>
<!-- Generator: Adobe Illustrator 15.0.2, SVG Export Plug-In . SVG Version: 6.00 Build 0)  -->
<!DOCTYPE svg PUBLIC "-//W3C//DTD SVG 1.1//EN" "http://www.w3.org/Graphics/SVG/1.1/DTD/svg11.dtd">
<svg version="1.1" id="ELEVATION" xmlns="http://www.w3.org/2000/svg" xmlns:xlink="http://www.w3.org/1999/xlink" x="0px" y="0px"
	 width="207.96px" height="334.009px" viewBox="202.021 228.995 207.96 334.009"
	 enable-background="new 202.021 228.995 207.96 334.009" xml:space="preserve">
<path stroke="#000000" stroke-width="0.7087" stroke-linecap="round" stroke-linejoin="round" stroke-miterlimit="10" d="
	M409.508,411.92c-0.477-0.988-2.453-0.053-4.182,0.461c-3.137,0.938-5.432,0.475-7.518,1.414c-1.688,0.761-3.236,2.436-5.049,3.563
	c-1.293,0.803-2.719,1.328-3.916,2.01c-0.482,0.275-0.932,0.575-1.438,1.045c-0.809,0.748-1.771,1.928-2.34,1.599
	c-0.344-0.199-0.543-0.95-0.625-1.599c-0.102-0.797-0.025-1.436,0.053-2.108c0.086-0.729,0.178-1.502,0.26-2.271
	c0.396-3.697,0.604-7.308,0.77-10.972c0.078-1.713,0.148-3.438,0.236-5.14c0.16-3.078,0.381-6.075,2.533-8.965
	c1.813-2.433,4.996-4.789,3.977-6.766c-0.43-0.829-1.596-1.591-2.084-2.542c-0.898-1.748,0.49-4.134,2.162-5.635
	c1.926-1.729,4.229-2.282,5.988-3.537c0.563-0.401,1.068-0.876,1.643-1.505c2.176-2.387,5.313-7.001,3.543-7.678
	c-0.607-0.231-1.797,0-2.871,0.457c-1.648,0.697-3.031,1.918-3.834,2.283c-3.146,1.435,2.646-10.317,7.855-15.662
	c0.871-0.893,1.727-1.605,1.561-2.479c-0.111-0.582-0.676-1.234-1.256-1.499c-1.271-0.58-2.604,0.712-3.99,1.584
	c-2.465,1.554-5.098,1.776-6.893,3.292c-1.539,1.298-2.465,3.543-3.943,5.227c-1.148,1.313-2.639,2.283-3.623,3.588
	c-0.334,0.442-0.609,0.922-1.043,1.375c-0.355,0.373-0.822,0.729-1.197,0.771c-0.914,0.104-1.293-1.648-1.58-3.094
	c-0.473-2.372-0.695-3.913-0.996-5.614c-0.525-2.95-1.285-6.381-2.105-9.667c-0.969-3.9-2.018-7.597-3.08-11.329
	c-0.695-2.44-1.396-4.896-2.338-7.312c-0.701-1.801-1.535-3.579-1.912-5.391c-0.311-1.484-0.313-2.992,0.18-4.688
	c0.822-2.83,3.021-6.186,1.398-7.704c-0.686-0.642-2.047-0.955-2.836-1.685c-1.443-1.332-0.969-4.049,0.084-6.026
	c1.211-2.275,3.188-3.575,4.406-5.353c0.391-0.568,0.703-1.188,1.021-1.971c1.225-2.979,2.57-8.342,0.68-8.414
	c-0.65-0.023-1.688,0.576-2.541,1.401c-1.314,1.264-2.209,3.055-2.814,3.442c-1.471,0.948-1.203-6.42-0.078-10.834
	c0.711-2.791,1.768-4.399,2.051-6.541c0.104-0.771,0.105-1.608-0.219-2.457c-0.209-0.545-0.555-1.095-0.918-1.295
	c-0.955-0.531-2.037,1.354-3.154,2.75c-2.029,2.538-4.18,3.45-5.34,5.428c-0.938,1.597-1.229,3.886-2.07,5.785
	c-0.604,1.354-1.48,2.511-2.045,3.869c-0.389,0.939-0.627,1.978-0.584,2.965c0.029,0.709,0.203,1.395,0.102,2.162
	c-0.088,0.643-0.367,1.34-0.738,1.648c-1.01,0.835-2.695-1.213-4.096-2.691c-1.512-1.6-2.691-2.531-4.047-3.418
	c-2.621-1.715-5.908-3.258-9.342-4.203c-3.123-0.859-6.369-1.228-9.256-1.05c-1.049,0.064-2.051,0.201-3.375,0.271
	c-0.832,0.044-1.791,0.061-2.078-0.441c-0.207-0.364-0.064-1,0.146-1.53c0.34-0.854,0.859-1.438,1.385-2.056
	c0.48-0.565,0.965-1.159,1.422-1.771c1.117-1.491,2.064-3.086,2.861-4.754c0.578-1.209,1.078-2.457,1.479-3.744
	c0.311-1.002,0.561-2.027,0.777-3.034c0.094-0.435,0.182-0.863,0.408-1.286c0.227-0.425,0.596-0.842,0.988-0.927
	c0.543-0.118,1.131,0.407,1.715,0.771c0.631,0.395,1.256,0.6,1.922,0.652c1.633,0.131,3.521-0.65,4.52-2.061
	c1.018-1.438,1.105-3.528,0.258-5.06c-0.721-1.291-2.105-2.183-3.514-2.438c-0.977-0.179-1.961-0.052-2.93,0.448
	c-0.744,0.384-1.477,0.989-2.021,1.043c-1.289,0.128-1.533-2.815-2.008-4.987c-0.484-2.233-1.215-3.65-2.092-5.118
	c-1.889-3.156-4.469-6.552-7.576-9.162c-2.758-2.317-5.93-4.021-9.293-4.989c-2.92-0.843-5.982-1.135-9.047-1.427
	c-3.105,0.286-6.215,0.573-9.176,1.427c-3.36,0.971-6.533,2.672-9.291,4.989c-3.107,2.61-5.688,6.005-7.576,9.162
	c-0.879,1.468-1.605,2.884-2.092,5.118c-0.474,2.172-0.717,5.115-2.006,4.987c-0.547-0.054-1.281-0.659-2.025-1.043
	c-0.967-0.5-1.952-0.626-2.928-0.448c-1.408,0.258-2.795,1.147-3.513,2.438c-0.85,1.528-0.761,3.621,0.257,5.06
	c0.996,1.409,2.885,2.19,4.519,2.061c0.667-0.053,1.292-0.26,1.922-0.652c0.584-0.363,1.172-0.89,1.716-0.771
	c0.393,0.084,0.76,0.502,0.988,0.927c0.227,0.422,0.314,0.852,0.408,1.286c0.219,1.006,0.468,2.032,0.777,3.034
	c0.399,1.289,0.898,2.535,1.477,3.744c0.799,1.668,1.746,3.263,2.863,4.754c0.457,0.61,0.941,1.205,1.422,1.771
	c0.523,0.617,1.043,1.199,1.386,2.056c0.211,0.53,0.354,1.166,0.146,1.53c-0.289,0.502-1.248,0.485-2.08,0.441
	c-1.324-0.069-2.326-0.206-3.375-0.271c-2.885-0.178-6.131,0.189-9.254,1.05c-3.435,0.945-6.721,2.487-9.342,4.203
	c-1.355,0.887-2.533,1.818-4.047,3.418c-1.4,1.479-3.086,3.526-4.096,2.691c-0.373-0.309-0.65-1.007-0.737-1.648
	c-0.104-0.769,0.067-1.453,0.099-2.162c0.043-0.988-0.195-2.024-0.584-2.965c-0.563-1.358-1.441-2.516-2.041-3.869
	c-0.844-1.899-1.137-4.188-2.072-5.785c-1.16-1.978-3.31-2.89-5.34-5.428c-1.117-1.396-2.199-3.281-3.156-2.75
	c-0.362,0.201-0.709,0.75-0.918,1.295c-0.323,0.849-0.319,1.688-0.219,2.457c0.287,2.142,1.34,3.75,2.051,6.541
	c1.125,4.413,1.394,11.782-0.078,10.834c-0.604-0.389-1.502-2.18-2.813-3.442c-0.856-0.825-1.891-1.427-2.541-1.401
	c-1.893,0.072-0.544,5.438,0.677,8.414c0.321,0.783,0.635,1.4,1.024,1.971c1.22,1.776,3.194,3.076,4.406,5.353
	c1.053,1.979,1.526,4.694,0.085,6.026c-0.79,0.729-2.152,1.043-2.836,1.685c-1.624,1.521,0.576,4.874,1.396,7.704
	c0.492,1.693,0.49,3.201,0.18,4.688c-0.377,1.812-1.211,3.588-1.912,5.389c-0.94,2.416-1.643,4.873-2.338,7.313
	c-1.063,3.731-2.109,7.429-3.08,11.329c-0.816,3.286-1.577,6.716-2.103,9.667c-0.302,1.701-0.524,3.242-0.997,5.614
	c-0.289,1.443-0.668,3.197-1.582,3.094c-0.375-0.043-0.84-0.398-1.197-0.771c-0.433-0.453-0.709-0.933-1.041-1.375
	c-0.985-1.305-2.474-2.274-3.625-3.588c-1.479-1.684-2.402-3.929-3.942-5.227c-1.795-1.516-4.429-1.739-6.894-3.292
	c-1.387-0.873-2.721-2.165-3.992-1.584c-0.577,0.265-1.145,0.917-1.256,1.499c-0.166,0.872,0.689,1.586,1.563,2.479
	c5.211,5.344,11.005,17.096,7.855,15.662c-0.803-0.365-2.185-1.586-3.834-2.283c-1.073-0.457-2.264-0.688-2.871-0.457
	c-1.77,0.676,1.367,5.291,3.543,7.678c0.572,0.629,1.08,1.104,1.644,1.505c1.757,1.255,4.063,1.808,5.989,3.537
	c1.672,1.501,3.059,3.887,2.162,5.635c-0.489,0.952-1.655,1.714-2.083,2.542c-1.022,1.979,2.161,4.333,3.975,6.766
	c2.153,2.89,2.373,5.887,2.533,8.965c0.088,1.699,0.159,3.427,0.235,5.14c0.168,3.664,0.373,7.272,0.771,10.972
	c0.083,0.77,0.174,1.539,0.26,2.271c0.078,0.675,0.152,1.313,0.051,2.108c-0.082,0.646-0.279,1.397-0.623,1.599
	c-0.566,0.329-1.53-0.851-2.34-1.599c-0.508-0.47-0.955-0.77-1.438-1.045c-1.196-0.682-2.623-1.207-3.915-2.01
	c-1.814-1.128-3.365-2.803-5.05-3.563c-2.086-0.939-4.382-0.479-7.521-1.414c-1.725-0.514-3.705-1.449-4.179-0.461
	c-0.178,0.373-0.146,1.02,0,1.582c0.226,0.881,0.714,1.564,1.244,2.138c1.478,1.592,3.271,2.309,5.47,4.192
	c3.471,2.976,7.957,8.857,6.213,8.922c-0.718,0.023-2.488-0.936-4.3-1.226c-1.179-0.188-2.374-0.094-2.896,0.295
	c-1.514,1.133,2.707,4.766,5.432,6.508c0.717,0.459,1.331,0.788,1.979,1.032c2.025,0.764,4.397,0.704,6.711,1.882
	c2.008,1.022,3.971,2.978,3.562,4.891c-0.224,1.038-1.142,2.063-1.349,2.988c-0.496,2.223,3.102,3.865,5.609,5.519
	c1.469,0.968,2.565,1.938,3.338,3.181c0.965,1.555,1.424,3.53,1.945,5.43c0.693,2.521,1.498,4.901,2.329,7.299
	c0.987,2.85,2.013,5.72,3.126,8.559c1.958,4.995,4.189,9.896,6.922,14.456c0.646,1.081,1.323,2.145,1.995,3.233
	c0.36,0.589,0.724,1.186,1.13,1.708c0.271,0.348,0.563,0.663,0.797,1.104c0.26,0.497,0.448,1.156,0.196,1.517
	c-0.254,0.359-0.955,0.416-1.509,0.311c-0.504-0.097-0.887-0.325-1.311-0.487c-0.58-0.221-1.234-0.313-1.879-0.342
	c-1.488-0.063-2.917,0.229-4.404,0.197c-2.094-0.045-4.303-0.729-6.174-0.586c-2.307,0.177-4.1,1.614-7.225,2.498
	c-2.046,0.578-4.662,0.919-4.688,1.755c-0.021,0.76,2.101,1.928,3.789,2.519c2.571,0.897,4.147,0.461,6.855,0.925
	c4.275,0.731,11.375,3.709,9.885,4.649c-0.609,0.385-2.658,0.43-4.342,1.068c-1.092,0.414-2.029,1.078-2.357,1.688
	c-1.199,2.234,5.797,3.746,10.228,2.862c2.905-0.58,4.708-2.193,6.761-1.691c1.791,0.438,3.771,2.484,5.553,2.473
	c1.707-0.014,3.231-1.914,4.92-3.114c1.121-0.796,2.313-1.282,3.569-1.473c1.207-0.185,2.474-0.092,3.711,0.034
	c1.537,0.157,3.032,0.368,4.58,0.471c1.218,0.079,2.468,0.089,3.622-0.043c0.648-0.073,1.27-0.192,2.032-0.172
	c0.903,0.023,2.009,0.247,2.235,0.928c0.131,0.393-0.031,0.938-0.283,1.368c-0.396,0.678-1.021,1.069-1.571,1.538
	c-1.397,1.181-2.351,2.825-3.267,4.502c-0.871,1.591-1.709,3.207-2.25,4.782c-0.434,1.263-0.678,2.497-1.145,4.071
	c-0.271,0.917-0.621,1.949-1.264,2.117c-0.524,0.137-1.247-0.305-1.916-0.63c-0.74-0.358-1.418-0.574-2.145-0.611
	c-1.299-0.064-2.757,0.438-3.717,1.439c-1.372,1.431-1.727,3.877-0.826,5.635c0.611,1.192,1.801,2.068,3.033,2.396
	c0.949,0.252,1.924,0.18,2.971-0.197c1.006-0.362,2.077-1.007,2.756-0.772c0.807,0.279,1.057,1.8,1.353,3.124
	c0.629,2.82,1.463,4.75,2.593,6.771c0.922,1.646,2.04,3.354,3.314,4.898c2.121,2.573,4.675,4.696,7.514,6.377
	c2.305,1.365,4.796,2.438,7.377,3.101c2.5,0.64,5.084,0.89,7.668,1.141c2.584-0.251,5.168-0.501,7.67-1.141
	c2.58-0.66,5.07-1.733,7.377-3.101c2.838-1.681,5.391-3.804,7.512-6.377c1.275-1.545,2.395-3.253,3.314-4.898
	c1.129-2.021,1.965-3.949,2.594-6.771c0.295-1.324,0.545-2.845,1.352-3.124c0.68-0.232,1.75,0.41,2.758,0.772
	c1.047,0.377,2.021,0.449,2.971,0.197c1.23-0.327,2.422-1.203,3.031-2.396c0.9-1.758,0.547-4.204-0.824-5.635
	c-0.961-1.002-2.418-1.506-3.719-1.439c-0.727,0.037-1.402,0.253-2.143,0.611c-0.672,0.325-1.393,0.767-1.918,0.63
	c-0.643-0.168-0.99-1.2-1.264-2.117c-0.467-1.574-0.711-2.811-1.145-4.071c-0.543-1.575-1.379-3.191-2.25-4.782
	c-0.916-1.677-1.869-3.321-3.268-4.502c-0.551-0.469-1.174-0.86-1.57-1.538c-0.252-0.433-0.414-0.978-0.283-1.368
	c0.229-0.68,1.332-0.902,2.236-0.928c0.762-0.021,1.381,0.099,2.031,0.172c1.154,0.132,2.404,0.122,3.621,0.043
	c1.549-0.103,3.045-0.313,4.58-0.471c1.238-0.126,2.504-0.219,3.713-0.034c1.254,0.188,2.445,0.677,3.566,1.473
	c1.689,1.2,3.213,3.103,4.92,3.114c1.781,0.014,3.766-2.033,5.555-2.473c2.053-0.502,3.854,1.111,6.762,1.691
	c4.43,0.884,11.424-0.628,10.225-2.862c-0.326-0.607-1.266-1.271-2.354-1.688c-1.686-0.641-3.732-0.686-4.342-1.068
	c-1.49-0.94,5.605-3.918,9.885-4.648c2.707-0.465,4.285-0.026,6.854-0.926c1.691-0.591,3.813-1.759,3.789-2.519
	c-0.021-0.836-2.641-1.177-4.686-1.755c-3.125-0.884-4.918-2.321-7.227-2.498c-1.871-0.146-4.08,0.541-6.174,0.586
	c-1.486,0.031-2.916-0.262-4.404-0.197c-0.645,0.027-1.301,0.121-1.879,0.342c-0.424,0.162-0.807,0.393-1.309,0.487
	c-0.555,0.105-1.256,0.051-1.51-0.311c-0.252-0.358-0.064-1.02,0.195-1.517c0.232-0.441,0.525-0.759,0.799-1.104
	c0.406-0.522,0.768-1.119,1.131-1.708c0.67-1.092,1.346-2.152,1.994-3.233c2.729-4.56,4.963-9.461,6.922-14.456
	c1.113-2.839,2.139-5.709,3.127-8.559c0.83-2.396,1.635-4.777,2.328-7.299c0.52-1.897,0.979-3.875,1.945-5.43
	c0.771-1.242,1.867-2.213,3.338-3.181c2.51-1.651,6.105-3.296,5.607-5.517c-0.207-0.928-1.125-1.952-1.348-2.99
	c-0.408-1.913,1.555-3.866,3.561-4.891c2.314-1.178,4.688-1.118,6.711-1.882c0.648-0.244,1.264-0.571,1.98-1.032
	c2.723-1.742,6.943-5.375,5.43-6.508c-0.52-0.389-1.717-0.481-2.895-0.295c-1.813,0.29-3.582,1.249-4.301,1.226
	c-1.742-0.063,2.742-5.946,6.213-8.922c2.201-1.885,3.992-2.603,5.471-4.192c0.529-0.571,1.021-1.256,1.244-2.138
	C409.65,412.938,409.686,412.293,409.508,411.92z M371.006,341.079c-0.451,0.957-1.492,1.951-1.605,2.862
	c-0.17,1.363,1.732,2.539,3.027,3.863c1.803,1.843,2.432,3.973,2.92,6.175c0.373,1.688,0.664,3.416,0.938,5.146
	c0.402,2.539,0.771,5.08,1.105,7.623c-12.502-25.84-38.033-42.867-66.691-44.475c0.361-0.746,0.541-1.503,0.398-2.256
	c-0.271-1.436-1.713-2.854-1.416-4.241c0.066-0.315,0.225-0.629,0.518-0.875c0.26-0.218,0.621-0.381,0.865-0.246
	c0.094,0.052,0.17,0.149,0.248,0.244c1.24,1.513,2.855,2.433,4.566,3.173c2.789,1.209,5.834,1.949,8.869,1.895
	c1.109-0.02,2.221-0.145,3.291-0.385c1.773-0.396,3.447-1.104,5.076-2.062c2.197-1.292,4.309-3.04,4.82-5.606
	c0.076-0.389,0.117-0.793,0.338-1.063c0.205-0.254,0.568-0.39,0.938-0.472c0.305-0.067,0.609-0.103,0.863,0
	c0.195,0.078,0.359,0.24,0.531,0.408c4.467,4.44,13.672,14.957,10.482,14.072c-0.813-0.227-2.43-1.189-4.178-1.59
	c-1.139-0.262-2.332-0.283-2.906,0.044c-1.678,0.953,1.895,4.869,4.836,6.952c4.488,3.178,7.516,2.087,12.525,3.18
	C366.137,334.487,372.697,337.502,371.006,341.079z M307.4,296.221c-0.051,0.256-0.094,0.517-0.229,0.677
	c-0.217,0.254-0.66,0.252-1.107,0.251h-0.127c-0.445,0.001-0.891,0.002-1.107-0.251c-0.135-0.16-0.18-0.421-0.229-0.677
	c-0.564-2.87-1.906-5.109-4.014-6.938c-0.258-0.223-0.523-0.438-0.654-0.72c-0.162-0.344-0.121-0.786,0.059-1.187
	c0.131-0.289,0.336-0.558,0.588-0.625c0.24-0.063,0.521,0.051,0.801,0.141c1.186,0.384,2.297,0.324,3.441,0.332
	c0.369,0.002,0.742,0.012,1.115,0.021h0.127c0.375-0.011,0.748-0.021,1.117-0.021c1.146-0.008,2.258,0.052,3.441-0.332
	c0.277-0.09,0.561-0.204,0.799-0.141c0.254,0.067,0.459,0.334,0.59,0.625c0.182,0.399,0.221,0.843,0.061,1.187
	c-0.133,0.281-0.398,0.497-0.654,0.72C309.309,291.112,307.967,293.351,307.4,296.221z M332.547,287.491
	c4.881-0.057,9.701,1.047,13.719,3.491c3.803,2.313,6.883,5.831,9.371,9.583c3.152,4.754,5.357,9.889,8.172,14.885
	c0.098,0.176,0.197,0.35,0.232,0.547c0.08,0.439-0.15,0.988-0.508,1.229c-0.531,0.355-1.338,0.02-1.949-0.378
	c-0.568-0.369-0.977-0.788-1.402-1.197c-2.457-2.354-5.656-4.38-8.875-5.795c-2.322-1.021-4.658-1.726-7.365-2.058
	c-1.697-0.209-3.543-0.271-4.604-1.33c-0.521-0.514-0.854-1.266-1.242-1.979c-1.424-2.61-3.605-4.723-6.295-5.774
	c-1.6-0.625-3.375-0.875-5.057-0.457c-1.779,0.441-3.449,1.637-4.303,3.229c-0.455,0.85-0.676,1.813-0.691,2.785
	c-0.016,0.97,0.176,1.947,0.607,2.799c0.701,1.377,1.721,2.568,3.404,3.146c0.604,0.207,1.297,0.336,1.475,0.775
	c0.152,0.375-0.064,0.975-0.387,1.365c-0.764,0.925-2.105,0.668-3.33,0.477c-1.57-0.244-2.945-0.381-4.211-0.922
	c-3.393-1.451-5.98-5.808-6.074-9.834c-0.082-3.562,1.785-6.867,4.318-9.263C321.498,289.084,327.061,287.555,332.547,287.491z
	 M283.118,260.239c-0.324-3.787,0.335-7.67,1.88-11.125c1.229-2.752,3.023-5.232,5.227-7.313c2.018-1.907,4.375-3.479,6.928-4.448
	c2.777-1.056,5.781-1.397,8.783-1.74c3.049,0.335,6.098,0.671,8.912,1.74c2.553,0.969,4.912,2.542,6.93,4.448
	c2.201,2.08,3.994,4.562,5.229,7.313c1.545,3.454,2.201,7.336,1.879,11.125c-0.283,3.307-1.316,6.542-2.979,9.391
	c-1.348,2.313-3.107,4.369-5.174,6.095c-2.049,1.712-4.396,3.097-6.9,3.921c-2.486,0.816-5.127,1.083-7.768,1.35h-0.127
	c-2.641-0.267-5.281-0.531-7.768-1.35c-2.504-0.824-4.854-2.208-6.9-3.921c-2.063-1.726-3.826-3.782-5.174-6.095
	C284.434,266.781,283.4,263.545,283.118,260.239z M248.08,315.999c0.037-0.197,0.136-0.373,0.232-0.547
	c2.813-4.996,5.02-10.131,8.172-14.885c2.488-3.753,5.568-7.27,9.371-9.583c4.018-2.444,8.838-3.548,13.72-3.491
	c5.485,0.063,11.048,1.594,14.993,5.324c2.533,2.396,4.402,5.701,4.318,9.262c-0.094,4.027-2.683,8.383-6.074,9.834
	c-1.266,0.541-2.642,0.678-4.211,0.924c-1.225,0.19-2.565,0.447-3.328-0.478c-0.321-0.392-0.541-0.989-0.389-1.364
	c0.18-0.439,0.87-0.568,1.475-0.777c1.686-0.576,2.705-1.768,3.406-3.146c0.433-0.851,0.623-1.829,0.606-2.799
	c-0.017-0.972-0.237-1.937-0.69-2.785c-0.853-1.593-2.523-2.786-4.305-3.229c-1.68-0.418-3.456-0.168-5.055,0.457
	c-2.689,1.054-4.872,3.166-6.297,5.775c-0.391,0.715-0.723,1.467-1.24,1.981c-1.063,1.057-2.908,1.118-4.605,1.327
	c-2.707,0.334-5.041,1.037-7.365,2.059c-3.219,1.415-6.418,3.441-8.875,5.795c-0.428,0.409-0.834,0.828-1.401,1.197
	c-0.614,0.396-1.418,0.734-1.95,0.378C248.232,316.987,247.999,316.438,248.08,315.999z M236.407,359.125
	c0.274-1.729,0.563-3.459,0.938-5.146c0.487-2.203,1.115-4.333,2.918-6.175c1.297-1.324,3.198-2.5,3.028-3.863
	c-0.114-0.912-1.153-1.907-1.606-2.862c-1.69-3.576,4.871-6.592,9.637-7.631c5.012-1.093,8.037-0.001,12.525-3.18
	c2.942-2.083,6.512-5.999,4.836-6.952c-0.576-0.327-1.77-0.305-2.908-0.044c-1.748,0.4-3.363,1.365-4.176,1.59
	c-3.188,0.885,6.019-9.632,10.483-14.072c0.17-0.168,0.334-0.33,0.528-0.408c0.255-0.103,0.563-0.067,0.865,0
	c0.369,0.082,0.731,0.218,0.938,0.472c0.219,0.271,0.26,0.676,0.337,1.063c0.513,2.566,2.624,4.313,4.819,5.606
	c1.627,0.958,3.304,1.666,5.076,2.062c1.072,0.24,2.182,0.365,3.291,0.387c3.037,0.054,6.08-0.688,8.871-1.896
	c1.711-0.742,3.326-1.66,4.566-3.173c0.076-0.095,0.152-0.19,0.248-0.243c0.242-0.136,0.605,0.027,0.865,0.245
	c0.291,0.246,0.449,0.56,0.518,0.875c0.297,1.388-1.146,2.808-1.416,4.241c-0.145,0.75,0.035,1.505,0.395,2.248
	c-28.547,1.55-54.029,18.4-66.631,44.063C235.675,363.928,236.025,361.526,236.407,359.125z M266.55,500.879
	c-3.932-2.386-6.829-5.881-9.372-9.583c-5.652-8.232-9.553-17.497-12.748-26.927c-1.811-5.339-3.395-10.729-4.767-16.184
	c-0.614-2.44-1.187-4.894-1.711-7.356c9.144,15.742,23.44,27.848,40.479,34.263c-1.406,0.982-2.572,2.423-3.336,4.063
	c-1.205,2.582-1.422,5.664-0.375,8.219c1.088,2.652,3.539,4.735,6.297,5.774c1.639,0.617,3.385,0.865,5.055,0.457
	c1.771-0.434,3.449-1.604,4.305-3.229c0.887-1.688,0.881-3.861,0.083-5.586c-0.381-0.822-0.944-1.545-1.636-2.112
	c-0.528-0.438-1.133-0.784-1.771-1.031c-0.596-0.23-1.22-0.372-1.845-0.514c0.188-0.621,0.378-1.242,0.758-1.626
	c0.712-0.723,2.095-0.609,3.329-0.479c1.584,0.17,2.928,0.374,4.21,0.923c1.353,0.578,2.636,1.538,3.63,2.729
	c1.646,1.97,2.496,4.565,2.443,7.104c-0.068,3.453-1.809,6.795-4.318,9.264C288.191,505.99,274.988,505.994,266.55,500.879z
	 M328.779,530.669c0.49,3.828-0.029,7.803-1.477,11.376c-0.98,2.418-2.385,4.65-4.119,6.577c-1.369,1.523-2.945,2.854-4.67,3.977
	c-1.6,1.037-3.322,1.893-5.123,2.454c-2.355,0.731-4.842,0.965-7.328,1.194h-0.127c-2.486-0.229-4.973-0.463-7.326-1.194
	c-1.803-0.563-3.525-1.417-5.123-2.454c-1.725-1.12-3.301-2.451-4.672-3.977c-1.732-1.927-3.139-4.159-4.117-6.577
	c-1.447-3.573-1.967-7.548-1.477-11.376c0.402-3.15,1.49-6.205,3.147-8.896c1.547-2.513,3.592-4.71,5.978-6.473
	c2.18-1.611,4.646-2.859,7.234-3.537c2.064-0.54,4.209-0.717,6.354-0.896h0.127c2.146,0.18,4.291,0.354,6.354,0.896
	c2.592,0.678,5.057,1.926,7.234,3.537c2.387,1.763,4.432,3.96,5.98,6.473C327.287,524.464,328.377,527.518,328.779,530.669z
	 M300.078,503.145c0.092-0.168,0.248-0.305,0.402-0.443c2.125-1.918,3.58-4.243,4.148-7.147c0.059-0.31,0.107-0.622,0.275-0.83
	c0.215-0.27,0.623-0.359,1.029-0.451h0.127c0.408,0.092,0.816,0.184,1.031,0.451c0.166,0.208,0.217,0.521,0.275,0.83
	c0.568,2.906,2.021,5.229,4.148,7.147c0.154,0.141,0.313,0.275,0.402,0.443c0.143,0.267,0.117,0.61,0.012,0.948
	c-0.143,0.442-0.424,0.877-0.795,0.962c-0.26,0.06-0.563-0.049-0.861-0.137c-1.449-0.431-2.832-0.367-4.215-0.308h-0.127
	c-1.381-0.062-2.764-0.123-4.215,0.308c-0.299,0.088-0.602,0.194-0.859,0.137c-0.371-0.085-0.654-0.52-0.795-0.962
	C299.959,503.756,299.936,503.411,300.078,503.145z M373.029,448.187c-1.373,5.453-2.955,10.845-4.766,16.184
	c-3.195,9.43-7.1,18.692-12.75,26.927c-2.543,3.702-5.439,7.197-9.371,9.583c-8.438,5.114-21.641,5.11-28.713-1.833
	c-2.512-2.469-4.248-5.811-4.318-9.264c-0.051-2.539,0.799-5.137,2.445-7.104c0.994-1.189,2.277-2.149,3.629-2.729
	c1.283-0.549,2.627-0.753,4.211-0.923c1.236-0.132,2.617-0.243,3.33,0.479c0.379,0.384,0.568,1.005,0.758,1.626
	c-0.625,0.142-1.25,0.281-1.846,0.514c-0.637,0.247-1.24,0.595-1.771,1.031c-0.688,0.567-1.252,1.29-1.635,2.113
	c-0.797,1.724-0.803,3.897,0.084,5.586c0.855,1.625,2.535,2.796,4.303,3.229c1.67,0.408,3.416,0.16,5.057-0.457
	c2.758-1.039,5.209-3.122,6.297-5.773c1.047-2.556,0.832-5.638-0.373-8.22c-0.775-1.66-1.961-3.111-3.393-4.099
	c17.148-6.482,31.51-18.729,40.619-34.633C374.277,443.022,373.678,445.611,373.029,448.187z M306.271,474.159
	c-40.317,0-73.004-32.686-73.004-73.005s32.687-73.004,73.004-73.004c40.32,0,73.004,32.687,73.004,73.004
	C379.275,441.474,346.592,474.159,306.271,474.159z"/>
<g id="LWPOLYLINE_53_">
	<polyline stroke="#000000" stroke-width="0.7087" stroke-linecap="round" stroke-linejoin="round" stroke-miterlimit="10" points="
		306.322,448.882 305.232,448.828 304.225,448.879 303.299,449.035 302.453,449.297 301.693,449.664 301.016,450.136 
		297.555,450.875 294.501,451.615 291.854,452.355 289.613,453.097 287.777,453.84 286.35,454.584 285.719,455.22 285.1,456.031 
		284.493,457.015 283.9,458.174 283.318,459.507 282.749,461.012 282.285,462.372 281.917,463.735 281.645,465.102 281.467,466.474 
		281.387,467.849 281.4,469.23 281.057,469.076 280.773,468.927 280.555,468.783 280.396,468.644 280.303,468.511 280.271,468.383 
		280.271,443.5 283.389,443.466 286.096,443.362 288.396,443.19 290.288,442.949 291.771,442.639 292.848,442.261 293.664,441.884 
		294.368,441.577 294.96,441.342 295.441,441.177 295.809,441.083 296.066,441.06 296.376,440.222 296.646,439.462 296.875,438.777 
		297.064,438.17 297.212,437.64 297.32,437.187 297.4,436.719 297.467,436.142 297.518,435.461 297.555,434.672 297.576,433.777 
		297.584,432.774 297.648,430.678 297.715,428.545 297.781,426.373 297.852,424.163 297.924,421.914 297.998,419.627 
		298.365,414.026 298.682,408.777 298.947,403.881 299.162,399.338 299.326,395.146 299.441,391.306 299.76,385.409 
		300.023,379.903 300.227,374.79 300.371,370.069 300.459,365.743 300.488,361.807 300.473,359.575 300.428,357.491 
		300.352,355.556 300.246,353.77 300.111,352.131 299.945,350.642 299.764,349.329 299.582,348.217 299.402,347.311 
		299.221,346.608 299.039,346.109 298.857,345.812 298.59,345.758 298.361,345.708 298.17,345.663 298.018,345.62 297.904,345.583 
		297.828,345.549 297.846,345.073 297.693,344.568 297.374,344.036 296.887,343.475 296.23,342.885 295.407,342.268 
		294.988,341.409 294.514,340.76 293.988,340.321 293.408,340.09 292.775,340.071 292.089,340.261 291.813,340.167 291.387,340.062 
		290.811,339.944 290.083,339.815 289.206,339.674 288.178,339.521 287.039,339.375 285.829,339.256 284.547,339.163 
		283.193,339.097 281.77,339.057 280.271,339.043 280.271,333.531 304.783,333.531 305.078,333.518 305.885,333.478 
		307.201,333.413 309.031,333.322 311.373,333.204 314.229,333.06 317.256,332.917 320.115,332.799 322.811,332.708 
		325.338,332.642 327.697,332.603 329.895,332.59 329.895,339.043 326.682,339.079 323.924,339.179 321.615,339.348 319.76,339.584 
		318.357,339.889 317.406,340.261 316.77,340.418 316.172,340.636 315.615,340.918 315.098,341.262 314.617,341.668 
		314.182,342.136 314.074,342.049 313.975,342.15 313.877,342.44 313.783,342.918 313.693,343.586 313.607,344.442 313.529,345.383 
		313.467,346.309 313.416,347.217 313.381,348.11 313.359,348.986 313.354,349.845 313.354,373.249 313.354,410.156 
		313.354,432.417 313.359,433.609 313.379,434.736 313.408,435.797 313.453,436.792 313.51,437.721 313.578,438.586 
		313.656,439.363 313.74,440.031 313.826,440.592 313.922,441.045 314.021,441.388 314.123,441.625 314.58,442.095 315.076,442.449 
		315.615,442.683 316.191,442.799 316.807,442.795 317.461,442.672 317.521,442.852 317.623,443.017 317.771,443.166 
		317.963,443.299 318.197,443.417 318.475,443.519 318.762,443.605 319.025,443.676 319.264,443.73 319.477,443.769 
		319.662,443.793 319.826,443.801 320.463,443.801 321.283,443.801 322.291,443.801 323.486,443.801 324.863,443.801 
		326.428,443.801 327.924,443.801 329.094,443.801 329.939,443.801 330.463,443.801 330.658,443.801 330.533,443.801 
		331.732,468.421 331.711,468.552 331.648,468.686 331.545,468.82 331.4,468.956 331.213,469.092 330.984,469.23 330.703,467.813 
		330.377,466.39 330.002,464.963 329.578,463.527 329.109,462.087 328.592,460.639 328.043,459.263 327.479,458.033 
		326.898,456.951 326.301,456.014 325.688,455.225 325.059,454.584 324.164,453.937 322.902,453.287 321.27,452.633 
		319.266,451.974 316.889,451.311 314.145,450.644 313.248,450.465 312.189,450.24 310.969,449.969 309.582,449.652 308.033,449.29 
		306.322,448.882 	"/>
</g>
</svg>
