<?xml version="1.0" encoding="utf-8"?>
<!-- Generator: Adobe Illustrator 15.0.2, SVG Export Plug-In . SVG Version: 6.00 Build 0)  -->
<!DOCTYPE svg PUBLIC "-//W3C//DTD SVG 1.1//EN" "http://www.w3.org/Graphics/SVG/1.1/DTD/svg11.dtd">
<svg version="1.1" id="ELEVATION" xmlns="http://www.w3.org/2000/svg" xmlns:xlink="http://www.w3.org/1999/xlink" x="0px" y="0px"
	 width="207.965px" height="333.994px" viewBox="0 0 207.965 333.994" enable-background="new 0 0 207.965 333.994"
	 xml:space="preserve">
<g id="SPLINE_9_">
	<path stroke="#000000" stroke-width="0.7087" stroke-linecap="round" stroke-linejoin="round" stroke-miterlimit="10" d="
		M103.918,0.354c-3.063,0.292-6.127,0.583-9.047,1.427c-3.362,0.971-6.535,2.672-9.292,4.989c-3.108,2.612-5.688,6.005-7.576,9.162
		c-0.878,1.468-1.606,2.884-2.092,5.118c-0.473,2.172-0.716,5.116-2.006,4.989c-0.546-0.054-1.28-0.659-2.024-1.043
		c-0.968-0.5-1.954-0.626-2.929-0.449c-1.407,0.257-2.794,1.148-3.512,2.439c-0.85,1.529-0.761,3.621,0.256,5.059
		c0.997,1.41,2.885,2.191,4.518,2.06c0.667-0.053,1.292-0.259,1.922-0.652c0.584-0.364,1.172-0.89,1.716-0.772
		c0.392,0.084,0.76,0.502,0.988,0.927c0.227,0.422,0.315,0.852,0.409,1.286c0.218,1.006,0.467,2.032,0.778,3.035
		c0.399,1.288,0.898,2.536,1.477,3.745c0.797,1.667,1.745,3.261,2.862,4.753c0.457,0.611,0.942,1.205,1.422,1.77
		c0.524,0.617,1.044,1.199,1.385,2.055c0.211,0.531,0.354,1.167,0.145,1.531c-0.289,0.502-1.247,0.485-2.079,0.441
		c-1.325-0.069-2.326-0.206-3.375-0.271c-2.885-0.178-6.131,0.189-9.254,1.049c-3.435,0.946-6.721,2.488-9.342,4.203
		c-1.356,0.887-2.534,1.819-4.047,3.418c-1.4,1.479-3.086,3.527-4.095,2.692c-0.372-0.308-0.651-1.007-0.738-1.649
		c-0.104-0.768,0.069-1.453,0.099-2.161c0.042-0.99-0.196-2.026-0.584-2.965c-0.563-1.36-1.442-2.516-2.042-3.869
		c-0.843-1.901-1.136-4.19-2.072-5.786c-1.16-1.977-3.309-2.889-5.34-5.427c-1.117-1.396-2.199-3.282-3.156-2.751
		c-0.363,0.202-0.708,0.751-0.917,1.296c-0.325,0.847-0.321,1.686-0.219,2.456c0.286,2.141,1.34,3.75,2.051,6.542
		c1.125,4.413,1.392,11.782-0.079,10.834c-0.604-0.389-1.501-2.18-2.813-3.444c-0.856-0.825-1.891-1.426-2.541-1.401
		c-1.893,0.072-0.544,5.437,0.677,8.414c0.321,0.783,0.634,1.401,1.024,1.97c1.219,1.777,3.195,3.077,4.406,5.352
		c1.053,1.979,1.527,4.695,0.085,6.027c-0.79,0.729-2.152,1.043-2.836,1.684c-1.624,1.52,0.577,4.874,1.398,7.704
		c0.492,1.695,0.49,3.202,0.18,4.687c-0.377,1.811-1.212,3.589-1.913,5.39c-0.941,2.416-1.642,4.872-2.337,7.312
		c-1.063,3.732-2.111,7.429-3.081,11.329c-0.817,3.286-1.578,6.716-2.102,9.667c-0.302,1.701-0.525,3.242-0.998,5.614
		c-0.288,1.445-0.667,3.199-1.582,3.094c-0.375-0.043-0.839-0.398-1.196-0.772c-0.433-0.453-0.709-0.932-1.042-1.374
		c-0.986-1.305-2.473-2.276-3.625-3.588c-1.479-1.684-2.403-3.929-3.943-5.227c-1.795-1.514-4.427-1.739-6.893-3.292
		c-1.386-0.873-2.72-2.165-3.991-1.584c-0.579,0.264-1.145,0.917-1.256,1.499c-0.166,0.872,0.689,1.586,1.561,2.479
		c5.211,5.343,11.005,17.094,7.856,15.661c-0.802-0.365-2.184-1.585-3.833-2.283c-1.075-0.456-2.264-0.689-2.872-0.457
		c-1.769,0.675,1.367,5.291,3.543,7.677c0.573,0.629,1.08,1.103,1.643,1.505c1.757,1.255,4.063,1.808,5.989,3.537
		c1.672,1.501,3.059,3.887,2.162,5.635c-0.489,0.952-1.655,1.714-2.083,2.542c-1.022,1.978,2.162,4.333,3.975,6.766
		c2.153,2.888,2.373,5.885,2.533,8.964c0.088,1.7,0.159,3.426,0.237,5.139c0.167,3.664,0.373,7.274,0.77,10.971
		c0.083,0.769,0.173,1.54,0.259,2.271c0.079,0.675,0.153,1.313,0.052,2.11c-0.083,0.646-0.281,1.397-0.624,1.597
		c-0.567,0.329-1.531-0.849-2.34-1.597c-0.508-0.47-0.954-0.77-1.438-1.045c-1.197-0.682-2.623-1.207-3.915-2.01
		c-1.814-1.128-3.365-2.803-5.05-3.563c-2.086-0.94-4.38-0.478-7.519-1.413c-1.725-0.515-3.705-1.451-4.179-0.462
		c-0.178,0.373-0.144,1.019,0,1.583c0.225,0.881,0.714,1.564,1.244,2.136c1.478,1.592,3.27,2.309,5.47,4.194
		c3.47,2.974,7.957,8.857,6.212,8.92c-0.717,0.025-2.488-0.934-4.299-1.224c-1.179-0.188-2.374-0.094-2.894,0.295
		c-1.515,1.133,2.706,4.764,5.43,6.508c0.717,0.459,1.331,0.788,1.98,1.032c2.025,0.762,4.397,0.704,6.71,1.882
		c2.007,1.022,3.97,2.976,3.561,4.889c-0.222,1.038-1.141,2.064-1.348,2.99c-0.497,2.221,3.101,3.865,5.609,5.517
		c1.47,0.968,2.566,1.938,3.338,3.181c0.965,1.553,1.424,3.53,1.946,5.428c0.693,2.521,1.498,4.903,2.329,7.299
		c0.988,2.85,2.013,5.72,3.126,8.559c1.958,4.995,4.191,9.896,6.922,14.456c0.647,1.081,1.323,2.143,1.995,3.233
		c0.362,0.589,0.723,1.186,1.13,1.708c0.271,0.348,0.563,0.663,0.796,1.106c0.261,0.497,0.449,1.156,0.197,1.515
		c-0.254,0.361-0.955,0.416-1.509,0.311c-0.502-0.097-0.885-0.325-1.309-0.487c-0.58-0.221-1.235-0.314-1.879-0.342
		c-1.488-0.064-2.917,0.229-4.405,0.197c-2.093-0.045-4.302-0.729-6.173-0.586c-2.307,0.177-4.1,1.614-7.225,2.498
		c-2.046,0.578-4.662,0.919-4.686,1.755c-0.022,0.76,2.099,1.928,3.789,2.519c2.571,0.897,4.147,0.461,6.855,0.924
		c4.277,0.732,11.375,3.708,9.885,4.65c-0.61,0.385-2.658,0.43-4.342,1.068c-1.091,0.414-2.029,1.078-2.357,1.688
		c-1.199,2.234,5.796,3.746,10.226,2.862c2.907-0.58,4.708-2.193,6.761-1.691c1.791,0.438,3.772,2.484,5.553,2.471
		c1.707-0.012,3.231-1.914,4.92-3.114c1.12-0.796,2.313-1.282,3.569-1.473c1.207-0.183,2.473-0.09,3.711,0.036
		c1.537,0.157,3.032,0.368,4.58,0.469c1.218,0.079,2.467,0.089,3.622-0.043c0.65-0.073,1.27-0.192,2.032-0.172
		c0.904,0.025,2.009,0.248,2.236,0.928c0.131,0.393-0.031,0.938-0.283,1.368c-0.397,0.678-1.02,1.071-1.572,1.538
		c-1.397,1.181-2.35,2.827-3.266,4.502c-0.871,1.591-1.708,3.207-2.25,4.784c-0.433,1.261-0.677,2.497-1.144,4.071
		c-0.272,0.917-0.621,1.949-1.263,2.117c-0.525,0.137-1.248-0.305-1.917-0.63c-0.74-0.358-1.417-0.574-2.143-0.611
		c-1.299-0.066-2.757,0.438-3.717,1.439c-1.372,1.431-1.727,3.877-0.826,5.635c0.611,1.192,1.801,2.068,3.033,2.396
		c0.949,0.252,1.924,0.18,2.97-0.197c1.006-0.362,2.078-1.007,2.756-0.772c0.806,0.279,1.056,1.8,1.352,3.124
		c0.629,2.82,1.463,4.75,2.593,6.77c0.922,1.647,2.04,3.355,3.314,4.9c2.122,2.573,4.675,4.696,7.514,6.377
		c2.304,1.365,4.796,2.438,7.376,3.099c2.501,0.64,5.085,0.89,7.669,1.141c2.584-0.251,5.168-0.501,7.669-1.141
		c2.58-0.66,5.072-1.733,7.377-3.099c2.838-1.681,5.392-3.804,7.513-6.377c1.274-1.545,2.393-3.253,3.314-4.9
		c1.129-2.02,1.964-3.949,2.593-6.77c0.295-1.324,0.545-2.845,1.352-3.124c0.679-0.234,1.751,0.41,2.757,0.772
		c1.046,0.377,2.021,0.449,2.97,0.197c1.232-0.327,2.422-1.203,3.033-2.396c0.901-1.758,0.546-4.204-0.826-5.635
		c-0.96-1.002-2.418-1.506-3.717-1.439c-0.727,0.037-1.403,0.253-2.143,0.611c-0.671,0.325-1.393,0.767-1.918,0.63
		c-0.642-0.168-0.99-1.2-1.263-2.117c-0.467-1.574-0.711-2.811-1.144-4.071c-0.542-1.577-1.379-3.193-2.25-4.784
		c-0.916-1.675-1.868-3.321-3.267-4.502c-0.552-0.467-1.174-0.86-1.571-1.538c-0.252-0.431-0.414-0.976-0.283-1.368
		c0.227-0.68,1.332-0.902,2.236-0.928c0.762-0.021,1.382,0.099,2.032,0.172c1.154,0.132,2.404,0.122,3.621,0.043
		c1.548-0.101,3.044-0.312,4.58-0.469c1.239-0.126,2.504-0.219,3.712-0.036c1.255,0.19,2.448,0.677,3.568,1.473
		c1.689,1.2,3.213,3.103,4.92,3.114c1.782,0.014,3.764-2.033,5.554-2.471c2.053-0.502,3.854,1.111,6.762,1.691
		c4.429,0.884,11.424-0.628,10.225-2.862c-0.327-0.609-1.266-1.273-2.356-1.688c-1.684-0.639-3.732-0.684-4.342-1.068
		c-1.489-0.942,5.608-3.918,9.885-4.65c2.708-0.463,4.285-0.026,6.855-0.924c1.691-0.591,3.812-1.759,3.79-2.519
		c-0.024-0.836-2.641-1.177-4.687-1.755c-3.125-0.884-4.918-2.321-7.225-2.498c-1.871-0.144-4.08,0.541-6.173,0.586
		c-1.488,0.031-2.917-0.262-4.405-0.197c-0.645,0.027-1.3,0.121-1.879,0.342c-0.423,0.162-0.806,0.391-1.309,0.487
		c-0.555,0.105-1.255,0.051-1.509-0.311c-0.252-0.358-0.064-1.018,0.196-1.515c0.233-0.443,0.525-0.759,0.797-1.106
		c0.407-0.522,0.769-1.119,1.131-1.708c0.671-1.091,1.347-2.152,1.994-3.233c2.731-4.56,4.964-9.461,6.922-14.456
		c1.114-2.839,2.139-5.709,3.127-8.559c0.831-2.396,1.635-4.777,2.328-7.299c0.522-1.897,0.981-3.875,1.946-5.428
		c0.772-1.242,1.868-2.213,3.338-3.181c2.509-1.651,6.106-3.296,5.609-5.517c-0.207-0.926-1.126-1.952-1.348-2.99
		c-0.409-1.913,1.554-3.866,3.561-4.889c2.313-1.178,4.685-1.12,6.71-1.882c0.649-0.244,1.263-0.573,1.98-1.032
		c2.724-1.744,6.944-5.375,5.43-6.508c-0.52-0.389-1.716-0.483-2.894-0.295c-1.812,0.29-3.583,1.249-4.3,1.224
		c-1.744-0.063,2.742-5.946,6.212-8.92c2.201-1.886,3.992-2.603,5.471-4.194c0.529-0.571,1.02-1.255,1.243-2.136
		c0.144-0.564,0.179-1.21,0-1.583c-0.474-0.989-2.453-0.053-4.179,0.462c-3.138,0.936-5.432,0.473-7.518,1.413
		c-1.686,0.76-3.236,2.435-5.05,3.563c-1.292,0.803-2.718,1.328-3.915,2.01c-0.483,0.275-0.931,0.575-1.438,1.045
		c-0.809,0.748-1.772,1.926-2.34,1.597c-0.344-0.199-0.542-0.95-0.624-1.597c-0.102-0.797-0.027-1.436,0.052-2.11
		c0.086-0.73,0.177-1.502,0.259-2.271c0.397-3.696,0.603-7.307,0.77-10.971c0.078-1.713,0.148-3.438,0.236-5.139
		c0.16-3.079,0.381-6.076,2.533-8.964c1.813-2.433,4.998-4.789,3.976-6.766c-0.429-0.829-1.596-1.591-2.084-2.542
		c-0.897-1.748,0.49-4.134,2.162-5.635c1.927-1.729,4.231-2.282,5.989-3.537c0.563-0.402,1.069-0.876,1.643-1.505
		c2.176-2.386,5.313-7.001,3.543-7.677c-0.608-0.232-1.797,0.001-2.872,0.457c-1.649,0.698-3.031,1.918-3.833,2.283
		c-3.149,1.434,2.645-10.318,7.855-15.661c0.871-0.893,1.727-1.607,1.561-2.479c-0.111-0.582-0.677-1.235-1.256-1.499
		c-1.271-0.58-2.604,0.712-3.991,1.584c-2.465,1.553-5.097,1.777-6.893,3.292c-1.539,1.298-2.464,3.543-3.942,5.227
		c-1.151,1.312-2.639,2.283-3.624,3.588c-0.334,0.442-0.61,0.921-1.043,1.374c-0.357,0.374-0.821,0.729-1.196,0.772
		c-0.914,0.105-1.294-1.648-1.581-3.094c-0.473-2.372-0.696-3.913-0.998-5.614c-0.524-2.951-1.285-6.381-2.103-9.667
		c-0.969-3.9-2.018-7.597-3.081-11.329c-0.694-2.44-1.396-4.896-2.337-7.312c-0.701-1.8-1.535-3.579-1.913-5.39
		c-0.31-1.485-0.313-2.992,0.18-4.687c0.822-2.83,3.022-6.185,1.398-7.704c-0.685-0.64-2.047-0.955-2.836-1.684
		c-1.442-1.332-0.969-4.048,0.084-6.027c1.211-2.275,3.188-3.575,4.406-5.352c0.391-0.569,0.703-1.187,1.024-1.97
		c1.222-2.978,2.569-8.342,0.677-8.414c-0.65-0.024-1.685,0.576-2.541,1.401c-1.313,1.264-2.209,3.055-2.813,3.444
		c-1.471,0.948-1.203-6.421-0.079-10.834c0.712-2.792,1.766-4.401,2.051-6.542c0.103-0.77,0.106-1.609-0.219-2.456
		c-0.209-0.545-0.554-1.095-0.917-1.296c-0.956-0.531-2.038,1.355-3.155,2.751c-2.031,2.538-4.18,3.45-5.34,5.427
		c-0.937,1.596-1.229,3.885-2.072,5.786c-0.601,1.353-1.479,2.509-2.043,3.869c-0.389,0.939-0.626,1.976-0.584,2.965
		c0.03,0.708,0.203,1.393,0.1,2.161c-0.087,0.642-0.366,1.341-0.738,1.649c-1.009,0.835-2.695-1.213-4.095-2.692
		c-1.513-1.599-2.691-2.531-4.047-3.418c-2.622-1.714-5.908-3.257-9.343-4.203c-3.123-0.86-6.368-1.227-9.254-1.049
		c-1.049,0.064-2.051,0.201-3.375,0.271c-0.831,0.044-1.79,0.061-2.079-0.441c-0.208-0.364-0.065-1,0.146-1.531
		c0.341-0.855,0.86-1.438,1.385-2.055c0.48-0.565,0.966-1.159,1.423-1.77c1.116-1.492,2.063-3.086,2.861-4.753
		c0.578-1.209,1.077-2.458,1.477-3.745c0.311-1.002,0.561-2.028,0.778-3.035c0.094-0.434,0.181-0.863,0.408-1.286
		c0.228-0.425,0.597-0.842,0.988-0.927c0.544-0.118,1.132,0.408,1.716,0.772c0.63,0.393,1.255,0.599,1.922,0.652
		c1.633,0.131,3.521-0.65,4.519-2.06c1.017-1.438,1.105-3.529,0.256-5.059c-0.718-1.291-2.104-2.182-3.512-2.439
		c-0.976-0.178-1.961-0.051-2.929,0.449c-0.744,0.384-1.478,0.989-2.023,1.043c-1.29,0.127-1.534-2.817-2.007-4.989
		c-0.486-2.233-1.214-3.65-2.092-5.118c-1.888-3.156-4.469-6.55-7.576-9.162c-2.758-2.317-5.93-4.019-9.292-4.989
		c-2.92-0.843-5.984-1.135-9.048-1.427H103.918z"/>
</g>
<g id="SPLINE_16_">
	<linearGradient id="SVGID_1_" gradientUnits="userSpaceOnUse" x1="97.9609" y1="270.6689" x2="110.0039" y2="270.6689">
		<stop  offset="0" style="stop-color:#DCFFFF"/>
		<stop  offset="1" style="stop-color:#64AFFF"/>
	</linearGradient>
	
		<path fill="url(#SVGID_1_)" stroke="#000000" stroke-width="0.7087" stroke-linecap="round" stroke-linejoin="round" stroke-miterlimit="10" d="
		M103.918,275.609c-1.382-0.062-2.764-0.123-4.215,0.306c-0.299,0.088-0.601,0.196-0.86,0.137c-0.371-0.085-0.654-0.518-0.795-0.962
		c-0.107-0.338-0.131-0.682,0.012-0.948c0.09-0.168,0.248-0.305,0.402-0.443c2.125-1.918,3.58-4.243,4.148-7.149
		c0.06-0.308,0.11-0.622,0.277-0.83c0.215-0.268,0.623-0.359,1.03-0.451h0.127c0.408,0.092,0.815,0.184,1.03,0.451
		c0.167,0.208,0.217,0.522,0.277,0.83c0.568,2.906,2.022,5.231,4.148,7.149c0.154,0.139,0.312,0.275,0.402,0.443
		c0.144,0.267,0.119,0.61,0.012,0.948c-0.141,0.444-0.424,0.877-0.795,0.962c-0.259,0.06-0.561-0.049-0.86-0.137
		c-1.45-0.429-2.832-0.367-4.215-0.306"/>
</g>
<g id="SPLINE_1_">
	<linearGradient id="SVGID_2_" gradientUnits="userSpaceOnUse" x1="111.0908" y1="73.4297" x2="161.918" y2="73.4297">
		<stop  offset="0" style="stop-color:#DCFFFF"/>
		<stop  offset="1" style="stop-color:#64AFFF"/>
	</linearGradient>
	
		<path fill="url(#SVGID_2_)" stroke="#000000" stroke-width="0.7087" stroke-linecap="round" stroke-linejoin="round" stroke-miterlimit="10" d="
		M120.217,78.068c0.701,1.377,1.722,2.568,3.405,3.146c0.604,0.208,1.296,0.336,1.475,0.776c0.152,0.375-0.066,0.975-0.388,1.365
		c-0.763,0.925-2.105,0.668-3.33,0.477c-1.569-0.245-2.945-0.382-4.21-0.923c-3.392-1.451-5.981-5.807-6.075-9.834
		c-0.082-3.561,1.785-6.866,4.319-9.262c3.946-3.731,9.508-5.26,14.994-5.324c4.881-0.057,9.702,1.047,13.719,3.491
		c3.802,2.314,6.882,5.831,9.371,9.583c3.153,4.754,5.358,9.888,8.171,14.885c0.099,0.175,0.198,0.35,0.234,0.546
		c0.081,0.44-0.152,0.989-0.508,1.228c-0.532,0.357-1.337,0.019-1.95-0.378c-0.569-0.369-0.975-0.788-1.402-1.197
		c-2.458-2.354-5.656-4.38-8.876-5.795c-2.322-1.021-4.657-1.724-7.365-2.057c-1.697-0.209-3.542-0.272-4.605-1.329
		c-0.519-0.515-0.852-1.267-1.241-1.981c-1.424-2.61-3.606-4.723-6.296-5.775c-1.598-0.625-3.375-0.875-5.055-0.457
		c-1.78,0.442-3.451,1.636-4.303,3.229c-0.455,0.85-0.676,1.813-0.691,2.785C119.594,76.239,119.784,77.217,120.217,78.068z"/>
</g>
<g id="SPLINE_2_">
	<linearGradient id="SVGID_3_" gradientUnits="userSpaceOnUse" x1="106.7686" y1="128.4888" x2="177.3545" y2="128.4888">
		<stop  offset="0" style="stop-color:#DCFFFF"/>
		<stop  offset="1" style="stop-color:#64AFFF"/>
	</linearGradient>
	
		<path fill="url(#SVGID_3_)" stroke="#000000" stroke-width="0.7087" stroke-linecap="round" stroke-linejoin="round" stroke-miterlimit="10" d="
		M126.024,90.582c-1.09,0.179-2.188,0.342-3.291,0.385c-3.021,0.116-6.079-0.674-8.871-1.895c-1.712-0.749-3.322-1.659-4.566-3.173
		c-0.078-0.095-0.154-0.191-0.248-0.244c-0.242-0.135-0.6,0.031-0.865,0.246c-0.3,0.243-0.482,0.548-0.517,0.875
		c-0.027,0.257,0.038,0.528,0.121,0.792c0.383,1.213,1.147,2.288,1.295,3.449c0.139,1.09-0.266,2.256-1.021,3.306
		c-0.388,0.538-0.867,1.045-0.855,1.553c0.015,0.617,0.754,1.236,1.429,1.612c0.427,0.238,0.828,0.379,1.23,0.593
		c0.861,0.458,1.729,1.251,2.029,2.109c0.488,1.4-0.538,2.975-2.132,4.273c-0.866,0.705-1.899,1.33-1.762,1.903
		c0.106,0.445,0.92,0.86,1.666,1.132c2.39,0.869,4.104,0.275,6.281,1.44c0.983,0.526,2.062,1.411,1.93,2.18
		c-0.104,0.611-0.975,1.148-1.758,1.506c-0.985,0.451-1.833,0.615-2.777,0.889c-2.78,0.805-6.404,2.553-6.567,5.527
		c-0.036,0.643,0.091,1.343,0.431,1.805c0.499,0.677,1.457,0.841,2.228,1.563c0.807,0.756,1.406,2.123,0.79,2.736
		c-0.382,0.38-1.229,0.471-1.579,0.782c-0.781,0.691,0.9,2.467,2.369,3.127c1.484,0.668,2.751,0.196,3.948-0.391
		c2.447-1.2,4.605-2.878,7.107-3.909c2.68-1.104,5.754-1.464,8.687,0c2.755,1.376,5.386,4.363,4.738,6.646
		c-0.225,0.791-0.843,1.497-1.58,2.345c-0.882,1.016-1.937,2.237-2.764,1.955c-0.643-0.219-1.148-1.344-1.185-2.345
		c-0.021-0.596,0.123-1.148,0-1.564c-0.265-0.895-1.771-1.154-3.158-1.172c-2.834-0.039-5.167,0.924-6.318,2.736
		c-1.034,1.628-1.114,3.942-1.974,5.863c-0.734,1.64-2.036,2.994-3.554,3.909c-1.771,1.068-3.837,1.538-5.528,2.736
		c-0.967,0.686-1.812,1.61-2.228,2.736c-0.368,0.998-0.399,2.154,0,3.127c0.271,0.661,0.742,1.238,1.438,1.563
		c1.852,0.866,5.302-0.046,5.527,1.172c0.095,0.513-0.381,1.404-0.395,2.346c-0.018,1.248,0.777,2.585,0.395,3.127
		c-0.339,0.48-1.602,0.336-2.764,0.391c-1.93,0.091-3.581,0.729-4.202,1.955c-0.576,1.137-0.266,2.78,0,4.3
		c0.355,2.032,0.63,3.843,0.466,5.732c-0.031,0.362-0.078,0.728,0.018,1.102c0.077,0.301,0.247,0.607,0.494,0.733
		c0.385,0.197,0.957-0.046,1.325-0.383c0.41-0.375,0.566-0.864,0.75-1.341c1.242-3.229,3.723-5.836,6.442-8.177
		c8.055-6.934,18.206-11.523,28.638-11.433c5.855,0.051,11.8,1.577,16.647,4.742c4.85,3.167,8.601,7.975,11.503,12.944
		c0.712,1.22,1.373,2.449,1.591,3.941c0.05,0.339,0.077,0.692,0.286,0.923c0.243,0.269,0.73,0.373,1.091,0.25
		c0.437-0.147,0.686-0.628,0.803-1.091c0.128-0.505,0.099-0.989,0.073-1.475c-0.255-4.946-0.046-10.011-0.143-15.038
		c-0.181-9.374-1.426-18.619-2.921-27.887c-0.279-1.729-0.567-3.458-0.939-5.146c-0.485-2.203-1.115-4.333-2.919-6.175
		c-1.296-1.324-3.198-2.5-3.028-3.863c0.114-0.912,1.154-1.907,1.606-2.862c1.692-3.577-4.87-6.592-9.636-7.631
		c-5.012-1.093-8.037-0.001-12.527-3.18c-2.941-2.083-6.511-5.999-4.835-6.952c0.575-0.327,1.77-0.305,2.908-0.044
		c1.748,0.401,3.363,1.365,4.176,1.59c3.188,0.884-6.017-9.632-10.483-14.072c-0.171-0.169-0.335-0.33-0.53-0.409
		c-0.254-0.102-0.562-0.068-0.865,0c-0.368,0.083-0.731,0.217-0.937,0.471c-0.22,0.271-0.261,0.677-0.338,1.064
		c-0.514,2.564-2.635,4.275-4.82,5.607C129.481,89.506,127.827,90.286,126.024,90.582z"/>
</g>
<g id="SPLINE_3_">
	<linearGradient id="SVGID_4_" gradientUnits="userSpaceOnUse" x1="110.0381" y1="179.8105" x2="169.8574" y2="179.8105">
		<stop  offset="0" style="stop-color:#DCFFFF"/>
		<stop  offset="1" style="stop-color:#64AFFF"/>
	</linearGradient>
	
		<path fill="url(#SVGID_4_)" stroke="#000000" stroke-width="0.7087" stroke-linecap="round" stroke-linejoin="round" stroke-miterlimit="10" d="
		M142.387,159.506c-1.202,0.086-2.401,0.222-3.592,0.428c-6.038,1.047-11.826,3.929-16.469,8.109
		c-4.477,4.031-7.889,9.269-9.628,14.854c-1.363,4.378-1.699,8.97-2.592,13.632c-0.046,0.24-0.093,0.479-0.054,0.712
		c0.063,0.365,0.344,0.711,0.723,0.862c0.418,0.168,0.956,0.099,1.227-0.194c0.154-0.167,0.222-0.406,0.298-0.641
		c0.894-2.75,2.955-4.787,5.261-6.411c2.15-1.516,4.514-2.671,7.134-2.997c4.104-0.513,8.84,1.009,11.386,4.167
		c0.342,0.424,0.644,0.877,1.094,1.204c0.295,0.216,0.654,0.376,1.01,0.351c0.441-0.032,0.878-0.354,1.102-0.745
		c0.222-0.388,0.234-0.845,0.295-1.287c0.389-2.836,2.758-5.101,5.569-6.37c2.543-1.147,5.447-1.481,7.647-0.271
		c1.84,1.012,3.188,3.103,3.397,5.42c0.222,2.453-0.831,5.162-3.604,5.731c-1.625,0.334-3.842-0.067-3.926,0.581
		c-0.057,0.432,0.834,1.33,1.737,1.993c5.149,3.781,10.733-0.059,14.438-4.322c3.052-3.512,4.83-7.311,5.003-11.358
		c0.122-2.858-0.556-5.842-1.721-8.594c-1.723-4.067-4.508-7.63-8.053-10.147c-4.202-2.983-9.469-4.498-14.606-4.735
		C144.435,159.429,143.41,159.433,142.387,159.506z"/>
</g>
<g id="SPLINE_4_">
	<linearGradient id="SVGID_5_" gradientUnits="userSpaceOnUse" x1="111.0918" y1="233.9307" x2="175.8828" y2="233.9307">
		<stop  offset="0" style="stop-color:#DCFFFF"/>
		<stop  offset="1" style="stop-color:#64AFFF"/>
	</linearGradient>
	
		<path fill="url(#SVGID_5_)" stroke="#000000" stroke-width="0.7087" stroke-linecap="round" stroke-linejoin="round" stroke-miterlimit="10" d="
		M154.022,206.006c-0.715-0.012-1.431-0.027-2.143-0.094c-2.29-0.214-4.528-0.948-6.611-1.987c-1.175-0.586-2.3-1.27-3.063-2.404
		c-0.128-0.19-0.246-0.395-0.424-0.499c-0.238-0.141-0.584-0.104-0.882,0.015c-0.362,0.145-0.653,0.407-0.793,0.727
		c-0.133,0.306-0.129,0.662-0.169,1.012c-0.163,1.425-1.056,2.724-2.225,3.542c-0.831,0.582-1.802,0.921-2.823,0.932
		c-1.128,0.013-2.317-0.376-3.012-1.304c-0.597-0.799-0.828-1.995-0.376-2.796c0.236-0.42,0.662-0.73,1.166-0.914
		c0.375-0.137,0.795-0.203,1.037-0.386c0.631-0.477,0.061-1.746-0.598-2.822c-2.139-3.496-5.207-4.946-8.253-4.44
		c-1.231,0.205-2.458,0.729-3.493,1.468c-2.587,1.847-3.97,5.03-4.835,8.146c-0.894,3.222-1.233,6.37-1.604,9.66
		c-0.228,2.021-0.468,4.097-0.579,5.991c-0.115,1.951-0.094,3.711-0.591,6.173c-0.608,3.01-1.992,7.071-0.878,7.53
		c0.911,0.375,3.494-1.66,5.313-3.198c1.177-0.994,2.035-1.781,2.971-2.695c1.935-1.89,4.205-4.323,6.684-4.901
		c1.718-0.4,3.535,0.09,5.694,0.735c0.415,0.124,0.843,0.254,0.99,0.489c0.263,0.424-0.379,1.188-0.99,1.716
		c-1.67,1.444-3.113,1.135-4.802,2.491c-1.347,1.082-2.849,3.224-1.883,3.881c0.229,0.155,0.596,0.228,0.99,0.245
		c2.166,0.094,5.175-1.474,5.596-0.051c0.11,0.37,0.044,0.944-0.098,1.455c-0.471,1.694-1.773,2.696-3.136,3.686
		c-1.51,1.097-3.093,2.177-3.6,3.978c-0.126,0.447-0.186,0.938-0.026,1.331c0.171,0.422,0.594,0.73,1.023,0.997
		c1.417,0.877,2.908,1.293,4.217,2.097c1.597,0.98,2.921,2.539,3.763,4.342c1.205,2.582,1.421,5.664,0.373,8.219
		c-1.087,2.652-3.536,4.736-6.296,5.774c-1.64,0.616-3.389,0.863-5.055,0.457c-1.766-0.431-3.438-1.597-4.303-3.229
		c-0.898-1.695-0.929-3.894-0.084-5.585c0.404-0.809,1.009-1.501,1.635-2.114c0.48-0.47,0.973-0.894,1.771-1.031
		c0.746-0.128,1.758-0.008,1.845-0.514c0.028-0.165-0.041-0.396-0.123-0.611c-0.158-0.413-0.36-0.765-0.635-1.015
		c-0.771-0.704-2.112-0.604-3.33-0.478c-1.561,0.163-2.921,0.373-4.21,0.923c-1.358,0.58-2.638,1.539-3.63,2.728
		c-1.642,1.968-2.495,4.567-2.445,7.106c0.068,3.453,1.808,6.796,4.319,9.262c7.072,6.945,20.272,6.95,28.713,1.833
		c3.932-2.384,6.83-5.881,9.371-9.583c5.647-8.23,9.529-17.481,12.749-26.925c1.824-5.348,3.436-10.757,4.766-16.184
		c1.281-5.227,2.3-10.47,3.336-15.907c0.349-1.83,0.699-3.682,0.816-5.409c0.094-1.369,0.04-2.659,0.549-4.302
		c0.112-0.362,0.252-0.742,0.108-0.951c-0.133-0.192-0.508-0.24-0.847-0.256c-0.265-0.013-0.508-0.006-0.685,0.095
		c-0.335,0.189-0.43,0.715-0.575,1.181c-0.34,1.088-0.959,1.847-1.583,2.634c-0.844,1.065-1.696,2.184-2.666,3.193
		c-3.265,3.397-7.858,5.568-12.499,6.312C155.987,205.929,155.007,206.022,154.022,206.006z"/>
</g>
<g id="SPLINE_10_">
	<linearGradient id="SVGID_6_" gradientUnits="userSpaceOnUse" x1="46.0464" y1="73.4297" x2="96.873" y2="73.4297">
		<stop  offset="0" style="stop-color:#DCFFFF"/>
		<stop  offset="1" style="stop-color:#64AFFF"/>
	</linearGradient>
	
		<path fill="url(#SVGID_6_)" stroke="#000000" stroke-width="0.7087" stroke-linecap="round" stroke-linejoin="round" stroke-miterlimit="10" d="
		M87.748,78.068c-0.701,1.377-1.722,2.568-3.405,3.146c-0.605,0.208-1.295,0.336-1.475,0.776c-0.152,0.375,0.066,0.975,0.388,1.365
		c0.762,0.925,2.104,0.668,3.329,0.477c1.569-0.245,2.946-0.382,4.21-0.923c3.392-1.451,5.981-5.807,6.075-9.834
		c0.083-3.561-1.785-6.866-4.319-9.262c-3.946-3.731-9.508-5.26-14.994-5.324c-4.881-0.057-9.703,1.047-13.718,3.491
		c-3.803,2.314-6.883,5.831-9.372,9.583c-3.153,4.754-5.358,9.888-8.171,14.885c-0.099,0.175-0.198,0.35-0.234,0.546
		c-0.081,0.44,0.152,0.989,0.508,1.228c0.532,0.357,1.336,0.019,1.95-0.378c0.569-0.369,0.974-0.788,1.402-1.197
		c2.458-2.354,5.656-4.38,8.876-5.795c2.323-1.021,4.657-1.724,7.365-2.057c1.697-0.209,3.542-0.272,4.605-1.329
		c0.519-0.515,0.852-1.267,1.241-1.981c1.424-2.61,3.607-4.723,6.297-5.775c1.598-0.625,3.375-0.875,5.054-0.457
		c1.781,0.442,3.452,1.636,4.304,3.229c0.454,0.85,0.676,1.813,0.691,2.785C88.371,76.239,88.181,77.217,87.748,78.068z"/>
</g>
<g id="SPLINE_11_">
	<linearGradient id="SVGID_7_" gradientUnits="userSpaceOnUse" x1="30.6108" y1="128.4888" x2="101.1968" y2="128.4888">
		<stop  offset="0" style="stop-color:#DCFFFF"/>
		<stop  offset="1" style="stop-color:#64AFFF"/>
	</linearGradient>
	
		<path fill="url(#SVGID_7_)" stroke="#000000" stroke-width="0.7087" stroke-linecap="round" stroke-linejoin="round" stroke-miterlimit="10" d="
		M81.94,90.582c1.09,0.179,2.188,0.342,3.291,0.385c3.021,0.116,6.08-0.674,8.872-1.895c1.711-0.749,3.322-1.659,4.567-3.173
		c0.078-0.095,0.154-0.191,0.247-0.244c0.243-0.135,0.6,0.031,0.866,0.246c0.3,0.243,0.482,0.548,0.517,0.875
		c0.027,0.257-0.039,0.528-0.122,0.792c-0.383,1.213-1.147,2.288-1.295,3.449c-0.139,1.09,0.266,2.256,1.021,3.306
		c0.388,0.538,0.867,1.045,0.855,1.553c-0.015,0.617-0.754,1.236-1.428,1.612c-0.427,0.238-0.828,0.379-1.23,0.593
		c-0.862,0.458-1.73,1.251-2.03,2.109c-0.488,1.4,0.538,2.975,2.132,4.273c0.866,0.705,1.899,1.33,1.762,1.903
		c-0.107,0.445-0.92,0.86-1.667,1.132c-2.389,0.869-4.103,0.275-6.28,1.44c-0.984,0.526-2.063,1.411-1.93,2.18
		c0.105,0.611,0.975,1.148,1.757,1.506c0.986,0.451,1.833,0.615,2.778,0.889c2.78,0.805,6.404,2.553,6.568,5.527
		c0.035,0.643-0.091,1.343-0.431,1.805c-0.499,0.677-1.458,0.841-2.228,1.563c-0.806,0.756-1.406,2.123-0.79,2.736
		c0.381,0.38,1.229,0.471,1.58,0.782c0.78,0.691-0.901,2.467-2.369,3.127c-1.485,0.668-2.751,0.196-3.949-0.391
		c-2.447-1.2-4.605-2.878-7.107-3.909c-2.68-1.104-5.754-1.464-8.687,0c-2.755,1.376-5.386,4.363-4.738,6.646
		c0.224,0.791,0.842,1.497,1.579,2.345c0.883,1.016,1.937,2.237,2.764,1.955c0.642-0.219,1.148-1.344,1.185-2.345
		c0.021-0.596-0.123-1.148,0-1.564c0.265-0.895,1.771-1.154,3.159-1.172c2.834-0.039,5.167,0.924,6.317,2.736
		c1.035,1.628,1.115,3.942,1.974,5.863c0.734,1.64,2.037,2.994,3.554,3.909c1.772,1.068,3.837,1.538,5.528,2.736
		c0.967,0.686,1.812,1.61,2.228,2.736c0.368,0.998,0.399,2.154,0,3.127c-0.271,0.661-0.742,1.238-1.438,1.563
		c-1.852,0.866-5.302-0.046-5.528,1.172c-0.095,0.513,0.381,1.404,0.395,2.346c0.018,1.248-0.777,2.585-0.395,3.127
		c0.339,0.48,1.602,0.336,2.764,0.391c1.929,0.091,3.581,0.729,4.202,1.955c0.576,1.137,0.266,2.78,0,4.3
		c-0.355,2.032-0.63,3.843-0.466,5.732c0.031,0.362,0.079,0.728-0.018,1.102c-0.077,0.301-0.247,0.607-0.493,0.733
		c-0.385,0.197-0.958-0.046-1.326-0.383c-0.41-0.375-0.566-0.864-0.75-1.341c-1.243-3.229-3.723-5.836-6.442-8.177
		c-8.055-6.934-18.206-11.523-28.638-11.433c-5.856,0.051-11.8,1.577-16.647,4.742c-4.849,3.167-8.601,7.975-11.503,12.944
		c-0.712,1.22-1.373,2.449-1.591,3.941c-0.049,0.339-0.076,0.692-0.286,0.923c-0.243,0.269-0.731,0.373-1.091,0.25
		c-0.436-0.147-0.685-0.628-0.802-1.091c-0.128-0.505-0.098-0.989-0.073-1.475c0.255-4.946,0.046-10.011,0.143-15.038
		c0.181-9.374,1.426-18.619,2.921-27.887c0.279-1.729,0.566-3.458,0.938-5.146c0.486-2.203,1.116-4.333,2.919-6.175
		c1.296-1.324,3.198-2.5,3.028-3.863c-0.114-0.912-1.154-1.907-1.606-2.862c-1.692-3.577,4.87-6.592,9.636-7.631
		c5.012-1.093,8.038-0.001,12.527-3.18c2.942-2.083,6.512-5.999,4.836-6.952c-0.576-0.327-1.771-0.305-2.909-0.044
		c-1.748,0.401-3.364,1.365-4.175,1.59c-3.189,0.884,6.016-9.632,10.483-14.072c0.17-0.169,0.334-0.33,0.53-0.409
		c0.253-0.102,0.561-0.068,0.864,0c0.369,0.083,0.732,0.217,0.938,0.471c0.219,0.271,0.26,0.677,0.337,1.064
		c0.513,2.564,2.635,4.275,4.82,5.607C78.483,89.506,80.138,90.286,81.94,90.582z"/>
</g>
<g id="SPLINE_12_">
	<linearGradient id="SVGID_8_" gradientUnits="userSpaceOnUse" x1="38.1064" y1="179.8105" x2="97.9268" y2="179.8105">
		<stop  offset="0" style="stop-color:#DCFFFF"/>
		<stop  offset="1" style="stop-color:#64AFFF"/>
	</linearGradient>
	
		<path fill="url(#SVGID_8_)" stroke="#000000" stroke-width="0.7087" stroke-linecap="round" stroke-linejoin="round" stroke-miterlimit="10" d="
		M65.578,159.506c1.203,0.086,2.402,0.222,3.592,0.428c6.038,1.047,11.827,3.929,16.47,8.109c4.477,4.031,7.888,9.269,9.627,14.854
		c1.363,4.378,1.699,8.97,2.592,13.632c0.046,0.24,0.093,0.479,0.053,0.712c-0.063,0.365-0.343,0.711-0.722,0.862
		c-0.418,0.168-0.956,0.099-1.227-0.194c-0.154-0.167-0.222-0.406-0.298-0.641c-0.894-2.75-2.955-4.787-5.261-6.411
		c-2.151-1.516-4.514-2.671-7.134-2.997c-4.105-0.513-8.839,1.009-11.386,4.167c-0.342,0.424-0.644,0.877-1.094,1.204
		c-0.295,0.216-0.654,0.376-1.01,0.351c-0.442-0.032-0.878-0.354-1.102-0.745c-0.222-0.388-0.234-0.845-0.295-1.287
		c-0.389-2.836-2.758-5.101-5.57-6.37c-2.542-1.147-5.447-1.481-7.647-0.271c-1.839,1.012-3.188,3.103-3.397,5.42
		c-0.222,2.453,0.831,5.162,3.604,5.731c1.625,0.334,3.842-0.067,3.926,0.581c0.056,0.432-0.833,1.33-1.737,1.993
		c-5.15,3.781-10.733-0.059-14.439-4.322c-3.051-3.512-4.83-7.311-5.003-11.358c-0.122-2.858,0.556-5.842,1.721-8.594
		c1.722-4.067,4.508-7.63,8.053-10.147c4.202-2.983,9.469-4.498,14.606-4.735C63.531,159.429,64.555,159.433,65.578,159.506z"/>
</g>
<g id="SPLINE_13_">
	<linearGradient id="SVGID_9_" gradientUnits="userSpaceOnUse" x1="32.0825" y1="233.9307" x2="96.8726" y2="233.9307">
		<stop  offset="0" style="stop-color:#DCFFFF"/>
		<stop  offset="1" style="stop-color:#64AFFF"/>
	</linearGradient>
	
		<path fill="url(#SVGID_9_)" stroke="#000000" stroke-width="0.7087" stroke-linecap="round" stroke-linejoin="round" stroke-miterlimit="10" d="
		M53.942,206.006c0.715-0.012,1.432-0.027,2.143-0.094c2.29-0.214,4.529-0.948,6.611-1.987c1.174-0.586,2.299-1.27,3.063-2.404
		c0.128-0.19,0.246-0.395,0.423-0.499c0.239-0.141,0.584-0.104,0.882,0.015c0.362,0.145,0.653,0.407,0.793,0.727
		c0.133,0.306,0.129,0.662,0.169,1.012c0.163,1.425,1.056,2.724,2.225,3.542c0.831,0.582,1.802,0.921,2.823,0.932
		c1.128,0.013,2.317-0.376,3.012-1.304c0.597-0.799,0.828-1.995,0.376-2.796c-0.237-0.42-0.663-0.73-1.166-0.914
		c-0.376-0.137-0.795-0.203-1.037-0.386c-0.632-0.477-0.062-1.746,0.597-2.822c2.139-3.496,5.208-4.946,8.252-4.44
		c1.231,0.205,2.459,0.729,3.494,1.468c2.587,1.847,3.97,5.03,4.835,8.146c0.894,3.222,1.233,6.37,1.604,9.66
		c0.228,2.021,0.468,4.097,0.579,5.991c0.115,1.951,0.094,3.711,0.591,6.173c0.608,3.01,1.992,7.071,0.878,7.53
		c-0.912,0.375-3.494-1.66-5.314-3.198c-1.177-0.994-2.034-1.781-2.97-2.695c-1.935-1.89-4.205-4.323-6.684-4.901
		c-1.717-0.4-3.535,0.09-5.693,0.735c-0.416,0.124-0.844,0.254-0.99,0.489c-0.263,0.424,0.379,1.188,0.99,1.716
		c1.669,1.444,3.113,1.135,4.801,2.491c1.347,1.082,2.849,3.224,1.882,3.881c-0.229,0.155-0.595,0.228-0.99,0.245
		c-2.166,0.094-5.174-1.474-5.595-0.051c-0.11,0.37-0.044,0.944,0.098,1.455c0.47,1.694,1.773,2.696,3.136,3.686
		c1.51,1.097,3.092,2.177,3.6,3.978c0.126,0.447,0.186,0.938,0.026,1.331c-0.171,0.422-0.594,0.73-1.023,0.997
		c-1.417,0.877-2.908,1.293-4.217,2.097c-1.597,0.98-2.921,2.539-3.763,4.342c-1.205,2.582-1.42,5.664-0.374,8.219
		c1.087,2.652,3.537,4.736,6.297,5.774c1.639,0.616,3.388,0.863,5.054,0.457c1.766-0.431,3.438-1.597,4.304-3.229
		c0.898-1.695,0.928-3.894,0.083-5.585c-0.404-0.809-1.009-1.501-1.635-2.114c-0.48-0.47-0.973-0.894-1.771-1.031
		c-0.746-0.128-1.758-0.008-1.845-0.514c-0.028-0.165,0.042-0.396,0.124-0.611c0.157-0.413,0.36-0.765,0.635-1.015
		c0.771-0.704,2.111-0.604,3.329-0.478c1.561,0.163,2.921,0.373,4.21,0.923c1.358,0.58,2.638,1.539,3.63,2.728
		c1.642,1.968,2.495,4.567,2.445,7.106c-0.068,3.453-1.807,6.796-4.319,9.262c-7.072,6.945-20.273,6.95-28.712,1.833
		c-3.932-2.384-6.831-5.881-9.372-9.583c-5.647-8.23-9.529-17.481-12.75-26.925c-1.824-5.348-3.436-10.757-4.765-16.184
		c-1.281-5.227-2.3-10.47-3.335-15.907c-0.349-1.83-0.7-3.682-0.817-5.409c-0.093-1.369-0.04-2.659-0.548-4.302
		c-0.112-0.362-0.252-0.742-0.108-0.951c0.133-0.192,0.507-0.24,0.846-0.256c0.265-0.013,0.508-0.006,0.685,0.095
		c0.335,0.189,0.43,0.715,0.575,1.181c0.34,1.088,0.959,1.847,1.583,2.634c0.844,1.065,1.697,2.184,2.667,3.193
		c3.265,3.397,7.858,5.568,12.499,6.312C51.977,205.929,52.958,206.022,53.942,206.006z"/>
</g>
<g id="SPLINE_14_">
	<linearGradient id="SVGID_10_" gradientUnits="userSpaceOnUse" x1="97.8115" y1="62.9395" x2="110.1533" y2="62.9395">
		<stop  offset="0" style="stop-color:#DCFFFF"/>
		<stop  offset="1" style="stop-color:#64AFFF"/>
	</linearGradient>
	
		<path fill="url(#SVGID_10_)" stroke="#000000" stroke-width="0.7087" stroke-linecap="round" stroke-linejoin="round" stroke-miterlimit="10" d="
		M103.918,68.146c-0.446,0.001-0.891,0.002-1.107-0.251c-0.136-0.16-0.18-0.421-0.23-0.677c-0.565-2.87-1.907-5.109-4.014-6.937
		c-0.256-0.222-0.523-0.438-0.655-0.719c-0.161-0.344-0.121-0.786,0.06-1.186c0.131-0.289,0.335-0.557,0.588-0.625
		c0.239-0.064,0.521,0.05,0.798,0.14c1.186,0.384,2.298,0.324,3.443,0.332c0.37,0.002,0.743,0.012,1.116,0.022h0.127
		c0.374-0.01,0.747-0.02,1.117-0.022c1.146-0.008,2.258,0.052,3.442-0.332c0.278-0.09,0.56-0.204,0.798-0.14
		c0.253,0.068,0.458,0.335,0.589,0.625c0.182,0.4,0.221,0.842,0.061,1.186c-0.133,0.281-0.399,0.497-0.655,0.719
		c-2.106,1.828-3.448,4.067-4.014,6.937c-0.051,0.256-0.095,0.517-0.23,0.677c-0.216,0.254-0.661,0.252-1.107,0.251"/>
</g>
<g id="SPLINE_15_">
	<linearGradient id="SVGID_11_" gradientUnits="userSpaceOnUse" x1="81.0195" y1="29.2998" x2="126.9453" y2="29.2998">
		<stop  offset="0" style="stop-color:#DCFFFF"/>
		<stop  offset="1" style="stop-color:#64AFFF"/>
	</linearGradient>
	
		<path fill="url(#SVGID_11_)" stroke="#000000" stroke-width="0.7087" stroke-linecap="round" stroke-linejoin="round" stroke-miterlimit="10" d="
		M103.918,51.99c-2.64-0.266-5.28-0.531-7.767-1.349c-2.504-0.824-4.852-2.208-6.901-3.921c-2.064-1.725-3.826-3.782-5.174-6.093
		c-1.661-2.849-2.693-6.083-2.977-9.391c-0.324-3.788,0.335-7.67,1.88-11.125c1.23-2.752,3.024-5.233,5.226-7.314
		c2.017-1.907,4.376-3.479,6.929-4.448c2.776-1.055,5.78-1.397,8.783-1.74h0.127c3.004,0.343,6.008,0.685,8.783,1.74
		c2.553,0.97,4.913,2.542,6.93,4.448c2.202,2.082,3.995,4.562,5.227,7.314c1.545,3.454,2.203,7.336,1.879,11.125
		c-0.282,3.307-1.315,6.542-2.977,9.391c-1.348,2.312-3.109,4.369-5.173,6.093c-2.05,1.712-4.398,3.097-6.901,3.921
		c-2.487,0.818-5.127,1.083-7.768,1.349"/>
</g>
<g id="SPLINE_17_">
	<linearGradient id="SVGID_12_" gradientUnits="userSpaceOnUse" x1="81.0234" y1="304.5547" x2="126.9414" y2="304.5547">
		<stop  offset="0" style="stop-color:#DCFFFF"/>
		<stop  offset="1" style="stop-color:#64AFFF"/>
	</linearGradient>
	
		<path fill="url(#SVGID_12_)" stroke="#000000" stroke-width="0.7087" stroke-linecap="round" stroke-linejoin="round" stroke-miterlimit="10" d="
		M103.918,327.245c-2.486-0.231-4.973-0.463-7.327-1.196c-1.802-0.562-3.526-1.417-5.123-2.454c-1.724-1.12-3.3-2.451-4.671-3.975
		c-1.734-1.927-3.139-4.161-4.118-6.579c-1.448-3.573-1.967-7.546-1.477-11.376c0.403-3.15,1.491-6.205,3.148-8.896
		c1.547-2.513,3.592-4.71,5.977-6.473c2.181-1.611,4.645-2.859,7.236-3.537c2.064-0.54,4.209-0.717,6.354-0.895h0.127
		c2.146,0.178,4.29,0.354,6.354,0.895c2.591,0.678,5.056,1.926,7.235,3.537c2.386,1.763,4.431,3.96,5.978,6.473
		c1.658,2.691,2.745,5.746,3.148,8.896c0.49,3.83-0.029,7.803-1.477,11.376c-0.979,2.418-2.384,4.652-4.118,6.579
		c-1.37,1.523-2.946,2.854-4.671,3.975c-1.598,1.037-3.321,1.893-5.123,2.454c-2.354,0.733-4.841,0.965-7.327,1.196"/>
</g>
</svg>
