<?xml version="1.0" encoding="utf-8"?>
<!-- Generator: Adobe Illustrator 15.0.2, SVG Export Plug-In . SVG Version: 6.00 Build 0)  -->
<!DOCTYPE svg PUBLIC "-//W3C//DTD SVG 1.1//EN" "http://www.w3.org/Graphics/SVG/1.1/DTD/svg11.dtd">
<svg version="1.1" id="ELEVATION" xmlns="http://www.w3.org/2000/svg" xmlns:xlink="http://www.w3.org/1999/xlink" x="0px" y="0px"
	 width="207.961px" height="334.001px" viewBox="202.021 229 207.961 334.001" enable-background="new 202.021 229 207.961 334.001"
	 xml:space="preserve">
<path stroke="#000000" stroke-width="0.7087" stroke-linecap="round" stroke-linejoin="round" stroke-miterlimit="10" d="
	M409.507,411.92c-0.475-0.988-2.453-0.053-4.18,0.462c-3.138,0.937-5.432,0.474-7.518,1.413c-1.687,0.761-3.236,2.436-5.05,3.563
	c-1.292,0.803-2.718,1.328-3.915,2.01c-0.483,0.275-0.932,0.575-1.438,1.045c-0.809,0.748-1.771,1.927-2.34,1.598
	c-0.344-0.199-0.542-0.95-0.624-1.598c-0.102-0.797-0.026-1.436,0.052-2.109c0.086-0.73,0.178-1.502,0.26-2.271
	c0.396-3.696,0.603-7.307,0.77-10.971c0.078-1.713,0.148-3.438,0.236-5.14c0.16-3.078,0.381-6.075,2.533-8.964
	c1.813-2.433,4.997-4.789,3.976-6.766c-0.429-0.829-1.596-1.591-2.084-2.542c-0.897-1.748,0.49-4.134,2.162-5.635
	c1.927-1.729,4.23-2.282,5.989-3.537c0.563-0.402,1.068-0.876,1.643-1.505c2.176-2.387,5.313-7.001,3.543-7.678
	c-0.608-0.231-1.797,0.001-2.872,0.457c-1.648,0.698-3.031,1.918-3.833,2.283c-3.148,1.435,2.646-10.317,7.855-15.661
	c0.871-0.893,1.727-1.606,1.561-2.479c-0.111-0.582-0.677-1.235-1.256-1.499c-1.271-0.58-2.604,0.712-3.991,1.584
	c-2.465,1.553-5.097,1.777-6.893,3.292c-1.539,1.298-2.464,3.543-3.942,5.227c-1.15,1.313-2.639,2.283-3.624,3.588
	c-0.334,0.442-0.609,0.922-1.043,1.374c-0.356,0.374-0.821,0.729-1.196,0.772c-0.914,0.104-1.294-1.648-1.581-3.094
	c-0.473-2.372-0.695-3.913-0.997-5.614c-0.524-2.951-1.285-6.381-2.104-9.667c-0.969-3.9-2.018-7.597-3.081-11.329
	c-0.694-2.44-1.396-4.896-2.337-7.312c-0.701-1.801-1.535-3.579-1.913-5.391c-0.31-1.484-0.313-2.992,0.18-4.687
	c0.822-2.83,3.022-6.186,1.398-7.704c-0.685-0.641-2.047-0.955-2.836-1.685c-1.442-1.332-0.969-4.048,0.084-6.026
	c1.211-2.275,3.188-3.575,4.406-5.353c0.391-0.568,0.703-1.187,1.023-1.97c1.223-2.978,2.569-8.342,0.678-8.414
	c-0.65-0.024-1.686,0.576-2.541,1.401c-1.313,1.264-2.209,3.055-2.813,3.443c-1.471,0.948-1.203-6.421-0.079-10.834
	c0.712-2.792,1.767-4.4,2.051-6.542c0.104-0.77,0.106-1.608-0.219-2.456c-0.209-0.545-0.554-1.095-0.917-1.296
	c-0.956-0.53-2.038,1.355-3.155,2.751c-2.03,2.538-4.18,3.45-5.34,5.428c-0.937,1.596-1.229,3.885-2.071,5.785
	c-0.602,1.354-1.479,2.51-2.043,3.869c-0.39,0.939-0.627,1.977-0.585,2.965c0.03,0.708,0.203,1.394,0.101,2.161
	c-0.087,0.643-0.366,1.341-0.738,1.649c-1.009,0.835-2.695-1.213-4.095-2.692c-1.513-1.599-2.691-2.53-4.047-3.418
	c-2.622-1.714-5.908-3.257-9.343-4.203c-3.123-0.859-6.368-1.227-9.255-1.049c-1.049,0.064-2.051,0.201-3.375,0.271
	c-0.831,0.044-1.79,0.061-2.078-0.441c-0.208-0.364-0.065-1,0.146-1.531c0.341-0.854,0.86-1.438,1.385-2.055
	c0.48-0.565,0.966-1.159,1.423-1.77c1.116-1.492,2.063-3.087,2.861-4.754c0.578-1.209,1.077-2.458,1.478-3.744
	c0.311-1.002,0.561-2.028,0.777-3.035c0.094-0.435,0.182-0.863,0.408-1.286c0.228-0.425,0.597-0.842,0.988-0.927
	c0.544-0.118,1.132,0.407,1.716,0.771c0.63,0.394,1.255,0.6,1.922,0.652c1.633,0.131,3.521-0.65,4.519-2.061
	c1.018-1.438,1.105-3.528,0.257-5.059c-0.719-1.291-2.104-2.182-3.513-2.439c-0.976-0.178-1.961-0.051-2.929,0.449
	c-0.744,0.384-1.478,0.989-2.022,1.043c-1.29,0.127-1.534-2.816-2.008-4.988c-0.485-2.233-1.214-3.65-2.092-5.118
	c-1.888-3.156-4.469-6.551-7.576-9.162c-2.758-2.317-5.93-4.02-9.292-4.989c-2.92-0.843-5.983-1.135-9.048-1.427
	c-3.106,0.286-6.214,0.573-9.175,1.427c-3.361,0.97-6.534,2.672-9.292,4.989c-3.107,2.611-5.688,6.005-7.576,9.162
	c-0.878,1.468-1.605,2.884-2.092,5.118c-0.473,2.172-0.716,5.115-2.006,4.988c-0.546-0.054-1.28-0.659-2.024-1.043
	c-0.968-0.5-1.953-0.626-2.929-0.449c-1.407,0.258-2.794,1.148-3.512,2.439c-0.85,1.529-0.761,3.621,0.256,5.059
	c0.997,1.41,2.885,2.191,4.519,2.061c0.667-0.053,1.292-0.259,1.922-0.652c0.584-0.364,1.172-0.89,1.716-0.771
	c0.392,0.084,0.76,0.502,0.988,0.927c0.227,0.422,0.314,0.852,0.408,1.286c0.219,1.006,0.468,2.032,0.778,3.035
	c0.399,1.288,0.898,2.535,1.477,3.744c0.798,1.667,1.745,3.262,2.862,4.754c0.457,0.61,0.942,1.204,1.422,1.77
	c0.524,0.617,1.044,1.199,1.386,2.055c0.211,0.531,0.354,1.167,0.145,1.531c-0.289,0.502-1.247,0.485-2.079,0.441
	c-1.325-0.069-2.326-0.206-3.375-0.271c-2.885-0.178-6.131,0.189-9.254,1.049c-3.435,0.946-6.721,2.488-9.342,4.203
	c-1.356,0.888-2.534,1.819-4.047,3.418c-1.4,1.479-3.086,3.527-4.096,2.692c-0.372-0.309-0.65-1.007-0.737-1.649
	c-0.104-0.768,0.068-1.453,0.099-2.161c0.042-0.989-0.196-2.025-0.584-2.965c-0.563-1.359-1.442-2.516-2.042-3.869
	c-0.843-1.9-1.136-4.189-2.072-5.785c-1.16-1.978-3.309-2.89-5.34-5.428c-1.117-1.396-2.199-3.281-3.156-2.751
	c-0.362,0.202-0.708,0.751-0.917,1.296c-0.324,0.848-0.32,1.687-0.219,2.456c0.286,2.142,1.34,3.75,2.051,6.542
	c1.125,4.413,1.393,11.782-0.079,10.834c-0.604-0.389-1.501-2.18-2.813-3.443c-0.856-0.825-1.891-1.427-2.541-1.401
	c-1.893,0.072-0.544,5.438,0.677,8.414c0.321,0.783,0.634,1.401,1.024,1.97c1.219,1.777,3.194,3.077,4.406,5.353
	c1.053,1.979,1.526,4.694,0.085,6.026c-0.79,0.729-2.152,1.043-2.836,1.685c-1.624,1.52,0.576,4.874,1.397,7.704
	c0.492,1.694,0.49,3.201,0.18,4.687c-0.377,1.812-1.212,3.589-1.913,5.39c-0.94,2.416-1.642,4.872-2.337,7.313
	c-1.063,3.732-2.11,7.429-3.081,11.329c-0.816,3.286-1.577,6.716-2.102,9.667c-0.302,1.701-0.525,3.242-0.998,5.614
	c-0.288,1.444-0.667,3.198-1.582,3.094c-0.375-0.043-0.839-0.398-1.196-0.772c-0.433-0.453-0.709-0.932-1.042-1.374
	c-0.985-1.305-2.473-2.275-3.625-3.588c-1.479-1.684-2.402-3.929-3.942-5.227c-1.795-1.515-4.428-1.739-6.894-3.292
	c-1.386-0.873-2.72-2.165-3.991-1.584c-0.578,0.264-1.145,0.917-1.256,1.499c-0.166,0.872,0.689,1.586,1.562,2.479
	c5.211,5.343,11.005,17.095,7.855,15.661c-0.802-0.365-2.184-1.585-3.833-2.283c-1.074-0.456-2.264-0.688-2.872-0.457
	c-1.769,0.676,1.367,5.291,3.543,7.678c0.573,0.629,1.08,1.103,1.644,1.505c1.757,1.255,4.063,1.808,5.989,3.537
	c1.672,1.501,3.059,3.887,2.162,5.635c-0.489,0.952-1.655,1.714-2.083,2.542c-1.022,1.978,2.161,4.333,3.975,6.766
	c2.153,2.889,2.373,5.886,2.533,8.964c0.088,1.7,0.159,3.427,0.236,5.14c0.167,3.664,0.373,7.273,0.771,10.971
	c0.083,0.77,0.173,1.54,0.259,2.271c0.079,0.675,0.153,1.313,0.052,2.109c-0.083,0.646-0.28,1.397-0.624,1.598
	c-0.566,0.329-1.53-0.85-2.34-1.598c-0.508-0.47-0.954-0.77-1.438-1.045c-1.197-0.682-2.623-1.207-3.915-2.01
	c-1.814-1.128-3.365-2.803-5.05-3.563c-2.086-0.939-4.381-0.478-7.52-1.413c-1.725-0.515-3.705-1.45-4.179-0.462
	c-0.178,0.373-0.145,1.02,0,1.583c0.225,0.881,0.714,1.564,1.244,2.137c1.478,1.592,3.27,2.309,5.47,4.193
	c3.47,2.975,7.957,8.857,6.212,8.921c-0.717,0.024-2.488-0.935-4.299-1.225c-1.179-0.188-2.374-0.094-2.895,0.295
	c-1.515,1.133,2.706,4.765,5.431,6.508c0.717,0.459,1.331,0.788,1.979,1.032c2.025,0.763,4.397,0.704,6.71,1.882
	c2.008,1.022,3.971,2.977,3.562,4.89c-0.223,1.038-1.142,2.063-1.349,2.989c-0.496,2.222,3.102,3.865,5.609,5.518
	c1.47,0.968,2.566,1.938,3.338,3.181c0.965,1.554,1.424,3.53,1.946,5.429c0.693,2.521,1.498,4.902,2.329,7.299
	c0.987,2.85,2.013,5.72,3.126,8.559c1.958,4.995,4.19,9.896,6.922,14.456c0.646,1.081,1.323,2.144,1.995,3.233
	c0.361,0.589,0.723,1.186,1.13,1.708c0.271,0.348,0.563,0.663,0.796,1.105c0.261,0.497,0.449,1.156,0.197,1.516
	c-0.254,0.36-0.955,0.416-1.509,0.311c-0.503-0.097-0.886-0.325-1.31-0.487c-0.58-0.221-1.235-0.313-1.879-0.342
	c-1.488-0.063-2.917,0.229-4.405,0.197c-2.093-0.045-4.302-0.729-6.173-0.586c-2.307,0.177-4.1,1.614-7.225,2.498
	c-2.046,0.578-4.662,0.919-4.687,1.755c-0.021,0.76,2.1,1.928,3.789,2.519c2.571,0.897,4.147,0.461,6.855,0.924
	c4.276,0.732,11.375,3.709,9.885,4.65c-0.61,0.385-2.658,0.43-4.342,1.068c-1.091,0.414-2.029,1.078-2.357,1.688
	c-1.199,2.234,5.796,3.746,10.227,2.862c2.906-0.58,4.708-2.193,6.761-1.691c1.791,0.438,3.771,2.484,5.553,2.472
	c1.707-0.013,3.231-1.914,4.92-3.114c1.12-0.796,2.313-1.282,3.569-1.473c1.207-0.184,2.473-0.091,3.711,0.035
	c1.537,0.157,3.032,0.368,4.58,0.47c1.218,0.079,2.467,0.089,3.622-0.043c0.649-0.073,1.27-0.192,2.032-0.172
	c0.903,0.024,2.009,0.248,2.235,0.928c0.131,0.393-0.03,0.938-0.283,1.368c-0.396,0.678-1.02,1.07-1.571,1.538
	c-1.397,1.181-2.351,2.826-3.267,4.502c-0.871,1.591-1.708,3.207-2.25,4.783c-0.433,1.262-0.677,2.497-1.144,4.071
	c-0.272,0.917-0.621,1.949-1.263,2.117c-0.525,0.137-1.248-0.305-1.917-0.63c-0.74-0.358-1.417-0.574-2.144-0.611
	c-1.299-0.065-2.757,0.438-3.717,1.439c-1.372,1.431-1.727,3.877-0.826,5.635c0.611,1.192,1.801,2.068,3.033,2.396
	c0.949,0.252,1.924,0.18,2.97-0.197c1.006-0.362,2.078-1.007,2.756-0.772c0.807,0.279,1.057,1.8,1.353,3.124
	c0.629,2.82,1.463,4.75,2.593,6.771c0.922,1.646,2.04,3.354,3.314,4.899c2.121,2.573,4.675,4.696,7.514,6.377
	c2.304,1.365,4.796,2.438,7.376,3.1c2.501,0.64,5.085,0.89,7.669,1.141c2.584-0.251,5.168-0.501,7.669-1.141
	c2.58-0.66,5.072-1.733,7.377-3.1c2.838-1.681,5.392-3.804,7.513-6.377c1.274-1.545,2.394-3.253,3.314-4.899
	c1.129-2.021,1.964-3.949,2.593-6.771c0.295-1.324,0.545-2.845,1.352-3.124c0.68-0.233,1.751,0.41,2.758,0.772
	c1.046,0.377,2.021,0.449,2.97,0.197c1.231-0.327,2.422-1.203,3.033-2.396c0.9-1.758,0.546-4.204-0.826-5.635
	c-0.96-1.002-2.418-1.506-3.717-1.439c-0.728,0.037-1.403,0.253-2.144,0.611c-0.671,0.325-1.393,0.767-1.918,0.63
	c-0.642-0.168-0.99-1.2-1.263-2.117c-0.467-1.574-0.711-2.811-1.145-4.071c-0.542-1.576-1.379-3.192-2.25-4.783
	c-0.916-1.676-1.868-3.321-3.267-4.502c-0.552-0.468-1.174-0.86-1.571-1.538c-0.252-0.432-0.414-0.977-0.283-1.368
	c0.228-0.68,1.332-0.902,2.236-0.928c0.762-0.021,1.382,0.099,2.032,0.172c1.154,0.132,2.404,0.122,3.621,0.043
	c1.548-0.102,3.044-0.313,4.58-0.47c1.238-0.126,2.504-0.219,3.712-0.035c1.255,0.189,2.447,0.677,3.567,1.473
	c1.689,1.2,3.214,3.103,4.92,3.114c1.782,0.014,3.765-2.033,5.555-2.472c2.053-0.502,3.854,1.111,6.762,1.691
	c4.429,0.884,11.424-0.628,10.225-2.862c-0.326-0.608-1.266-1.272-2.355-1.688c-1.685-0.64-3.732-0.685-4.342-1.068
	c-1.489-0.941,5.607-3.918,9.885-4.649c2.708-0.464,4.285-0.026,6.854-0.925c1.691-0.591,3.813-1.759,3.79-2.519
	c-0.023-0.836-2.641-1.177-4.687-1.755c-3.125-0.884-4.918-2.321-7.225-2.498c-1.871-0.145-4.08,0.541-6.174,0.586
	c-1.487,0.031-2.917-0.262-4.404-0.197c-0.646,0.027-1.301,0.121-1.879,0.342c-0.424,0.162-0.807,0.392-1.31,0.487
	c-0.555,0.105-1.255,0.051-1.509-0.311c-0.252-0.358-0.064-1.019,0.196-1.516c0.232-0.442,0.524-0.759,0.797-1.105
	c0.407-0.522,0.769-1.119,1.131-1.708c0.671-1.092,1.347-2.152,1.994-3.233c2.73-4.56,4.964-9.461,6.922-14.456
	c1.114-2.839,2.139-5.709,3.127-8.559c0.831-2.396,1.635-4.777,2.328-7.299c0.521-1.897,0.98-3.875,1.946-5.429
	c0.771-1.242,1.867-2.213,3.338-3.181c2.509-1.651,6.105-3.296,5.608-5.517c-0.207-0.927-1.126-1.952-1.348-2.99
	c-0.409-1.913,1.554-3.866,3.561-4.89c2.313-1.178,4.686-1.119,6.71-1.882c0.649-0.244,1.264-0.572,1.98-1.032
	c2.724-1.743,6.944-5.375,5.43-6.508c-0.52-0.389-1.716-0.482-2.894-0.295c-1.813,0.29-3.583,1.249-4.3,1.225
	c-1.744-0.063,2.741-5.946,6.212-8.921c2.201-1.886,3.992-2.603,5.471-4.193c0.529-0.571,1.021-1.256,1.243-2.137
	C409.65,412.938,409.686,412.293,409.507,411.92z M371.006,341.079c-0.452,0.956-1.492,1.951-1.606,2.862
	c-0.17,1.363,1.732,2.539,3.028,3.863c1.803,1.843,2.432,3.973,2.919,6.175c0.374,1.687,0.664,3.416,0.938,5.146
	c0.403,2.54,0.772,5.081,1.105,7.623c-12.501-25.839-38.032-42.866-66.691-44.474c0.361-0.746,0.542-1.503,0.399-2.256
	c-0.271-1.435-1.714-2.854-1.416-4.241c0.067-0.315,0.225-0.629,0.517-0.875c0.259-0.218,0.622-0.381,0.865-0.246
	c0.094,0.052,0.17,0.149,0.248,0.244c1.24,1.513,2.855,2.432,4.566,3.173c2.79,1.209,5.834,1.949,8.871,1.895
	c1.108-0.02,2.219-0.145,3.291-0.385c1.772-0.396,3.447-1.104,5.075-2.062c2.197-1.292,4.309-3.04,4.82-5.607
	c0.077-0.388,0.118-0.793,0.338-1.063c0.205-0.254,0.568-0.389,0.938-0.472c0.304-0.067,0.61-0.102,0.864,0
	c0.195,0.079,0.359,0.24,0.53,0.409c4.467,4.44,13.672,14.956,10.483,14.072c-0.813-0.226-2.429-1.189-4.177-1.59
	c-1.139-0.262-2.333-0.283-2.907,0.044c-1.677,0.953,1.894,4.869,4.835,6.952c4.489,3.178,7.516,2.087,12.526,3.18
	C366.136,334.487,372.698,337.502,371.006,341.079z M307.401,296.221c-0.051,0.256-0.095,0.517-0.229,0.677
	c-0.217,0.254-0.661,0.252-1.107,0.251h-0.127c-0.446,0.001-0.891,0.002-1.107-0.251c-0.136-0.16-0.18-0.421-0.229-0.677
	c-0.565-2.87-1.907-5.109-4.014-6.938c-0.257-0.222-0.523-0.438-0.655-0.719c-0.161-0.344-0.121-0.786,0.06-1.187
	c0.131-0.289,0.335-0.557,0.588-0.625c0.239-0.063,0.521,0.051,0.799,0.141c1.186,0.384,2.298,0.324,3.442,0.332
	c0.37,0.002,0.743,0.012,1.116,0.021h0.127c0.374-0.01,0.747-0.02,1.117-0.021c1.146-0.008,2.258,0.052,3.441-0.332
	c0.278-0.09,0.561-0.204,0.799-0.141c0.253,0.068,0.458,0.335,0.589,0.625c0.182,0.4,0.221,0.843,0.061,1.187
	c-0.133,0.281-0.398,0.497-0.655,0.719C309.309,291.112,307.967,293.351,307.401,296.221z M332.547,287.491
	c4.881-0.057,9.701,1.047,13.719,3.491c3.802,2.313,6.882,5.831,9.371,9.583c3.152,4.754,5.357,9.888,8.171,14.885
	c0.099,0.175,0.198,0.35,0.233,0.546c0.081,0.44-0.151,0.989-0.508,1.229c-0.531,0.356-1.337,0.019-1.949-0.378
	c-0.569-0.369-0.976-0.788-1.402-1.197c-2.458-2.354-5.656-4.38-8.876-5.795c-2.322-1.021-4.657-1.725-7.365-2.058
	c-1.697-0.209-3.542-0.271-4.604-1.329c-0.52-0.515-0.853-1.267-1.241-1.98c-1.424-2.61-3.606-4.723-6.296-5.775
	c-1.599-0.625-3.375-0.875-5.056-0.457c-1.779,0.442-3.45,1.637-4.303,3.229c-0.455,0.85-0.676,1.813-0.691,2.785
	c-0.016,0.97,0.176,1.947,0.607,2.799c0.701,1.377,1.722,2.568,3.405,3.146c0.604,0.208,1.296,0.336,1.475,0.776
	c0.152,0.375-0.065,0.975-0.388,1.365c-0.763,0.925-2.105,0.668-3.33,0.477c-1.569-0.245-2.945-0.382-4.21-0.923
	c-3.393-1.451-5.981-5.807-6.075-9.834c-0.082-3.561,1.785-6.866,4.319-9.262C321.498,289.084,327.061,287.555,332.547,287.491z
	 M283.118,260.239c-0.324-3.788,0.335-7.67,1.88-11.125c1.229-2.752,3.023-5.233,5.226-7.313c2.018-1.907,4.376-3.479,6.929-4.448
	c2.776-1.056,5.78-1.397,8.783-1.74c3.048,0.335,6.097,0.671,8.911,1.74c2.553,0.969,4.913,2.542,6.93,4.448
	c2.202,2.081,3.995,4.562,5.228,7.313c1.545,3.454,2.202,7.336,1.879,11.125c-0.282,3.307-1.315,6.542-2.978,9.391
	c-1.348,2.313-3.108,4.369-5.173,6.094c-2.05,1.712-4.397,3.097-6.901,3.921c-2.486,0.817-5.127,1.083-7.768,1.349h-0.127
	c-2.64-0.266-5.28-0.531-7.767-1.349c-2.504-0.824-4.853-2.208-6.901-3.921c-2.063-1.726-3.826-3.782-5.174-6.094
	C284.433,266.781,283.401,263.546,283.118,260.239z M248.08,315.998c0.037-0.197,0.136-0.372,0.233-0.546
	c2.813-4.997,5.019-10.131,8.171-14.885c2.489-3.753,5.569-7.27,9.372-9.583c4.017-2.444,8.837-3.548,13.719-3.491
	c5.485,0.063,11.048,1.593,14.993,5.324c2.534,2.396,4.402,5.701,4.319,9.262c-0.094,4.027-2.683,8.383-6.075,9.834
	c-1.265,0.541-2.641,0.678-4.21,0.923c-1.225,0.191-2.566,0.448-3.329-0.477c-0.321-0.391-0.541-0.99-0.388-1.365
	c0.179-0.439,0.87-0.568,1.475-0.776c1.685-0.577,2.705-1.768,3.405-3.146c0.433-0.851,0.623-1.829,0.607-2.799
	c-0.016-0.972-0.237-1.936-0.691-2.785c-0.852-1.593-2.523-2.787-4.304-3.229c-1.68-0.418-3.456-0.168-5.055,0.457
	c-2.689,1.053-4.872,3.165-6.297,5.775c-0.39,0.714-0.723,1.466-1.24,1.981c-1.063,1.057-2.908,1.119-4.605,1.328
	c-2.708,0.333-5.042,1.036-7.365,2.058c-3.22,1.415-6.418,3.441-8.876,5.795c-0.428,0.409-0.833,0.828-1.401,1.197
	c-0.614,0.396-1.418,0.734-1.95,0.378C248.232,316.987,247.999,316.438,248.08,315.998z M236.407,359.125
	c0.274-1.729,0.564-3.459,0.938-5.146c0.488-2.203,1.116-4.333,2.919-6.175c1.296-1.324,3.198-2.5,3.028-3.863
	c-0.114-0.912-1.154-1.907-1.606-2.862c-1.691-3.577,4.87-6.592,9.636-7.631c5.012-1.093,8.037-0.001,12.526-3.18
	c2.942-2.083,6.512-5.999,4.836-6.952c-0.576-0.327-1.77-0.305-2.909-0.044c-1.748,0.4-3.363,1.365-4.175,1.59
	c-3.188,0.884,6.018-9.632,10.483-14.072c0.17-0.169,0.334-0.33,0.529-0.409c0.254-0.102,0.562-0.067,0.864,0
	c0.369,0.083,0.732,0.218,0.938,0.472c0.219,0.271,0.26,0.676,0.337,1.063c0.513,2.567,2.624,4.314,4.819,5.607
	c1.628,0.958,3.304,1.666,5.076,2.062c1.073,0.24,2.182,0.365,3.291,0.386c3.038,0.054,6.081-0.687,8.872-1.896
	c1.71-0.742,3.326-1.66,4.566-3.173c0.077-0.095,0.152-0.191,0.248-0.244c0.242-0.135,0.606,0.028,0.865,0.246
	c0.292,0.246,0.449,0.559,0.518,0.875c0.297,1.388-1.146,2.807-1.417,4.241c-0.143,0.75,0.037,1.505,0.396,2.248
	c-28.548,1.55-54.03,18.401-66.632,44.063C235.675,363.928,236.026,361.526,236.407,359.125z M266.55,500.879
	c-3.932-2.385-6.829-5.88-9.372-9.583c-5.652-8.232-9.553-17.497-12.749-26.926c-1.81-5.339-3.394-10.729-4.766-16.184
	c-0.614-2.44-1.187-4.894-1.711-7.356c9.143,15.742,23.441,27.847,40.479,34.262c-1.406,0.983-2.571,2.423-3.336,4.063
	c-1.205,2.582-1.421,5.664-0.374,8.219c1.088,2.652,3.539,4.735,6.297,5.774c1.638,0.617,3.385,0.865,5.054,0.457
	c1.771-0.434,3.45-1.604,4.305-3.229c0.886-1.687,0.881-3.861,0.083-5.585c-0.381-0.823-0.944-1.545-1.636-2.113
	c-0.528-0.438-1.133-0.784-1.771-1.031c-0.596-0.23-1.22-0.372-1.845-0.514c0.188-0.621,0.378-1.242,0.758-1.626
	c0.712-0.722,2.094-0.609,3.329-0.479c1.584,0.17,2.928,0.374,4.21,0.923c1.352,0.578,2.636,1.538,3.63,2.729
	c1.646,1.97,2.496,4.566,2.443,7.105c-0.069,3.453-1.808,6.795-4.318,9.263C288.191,505.99,274.988,505.994,266.55,500.879z
	 M328.779,530.669c0.49,3.829-0.028,7.803-1.477,11.376c-0.979,2.418-2.384,4.651-4.118,6.578c-1.37,1.523-2.946,2.854-4.671,3.976
	c-1.599,1.037-3.321,1.893-5.123,2.454c-2.354,0.732-4.841,0.965-7.327,1.195h-0.127c-2.486-0.23-4.973-0.463-7.327-1.195
	c-1.802-0.563-3.525-1.417-5.123-2.454c-1.724-1.12-3.3-2.451-4.671-3.976c-1.733-1.927-3.139-4.16-4.118-6.578
	c-1.447-3.573-1.967-7.547-1.477-11.376c0.403-3.15,1.491-6.205,3.148-8.896c1.547-2.513,3.592-4.71,5.977-6.473
	c2.181-1.611,4.646-2.859,7.235-3.537c2.064-0.54,4.209-0.717,6.354-0.896h0.127c2.146,0.179,4.29,0.354,6.354,0.896
	c2.591,0.678,5.056,1.926,7.234,3.537c2.386,1.763,4.432,3.96,5.979,6.473C327.288,524.464,328.376,527.518,328.779,530.669z
	 M300.078,503.145c0.091-0.168,0.248-0.305,0.402-0.443c2.125-1.918,3.58-4.243,4.148-7.148c0.06-0.309,0.109-0.622,0.276-0.83
	c0.215-0.269,0.623-0.359,1.03-0.451h0.127c0.408,0.092,0.815,0.184,1.03,0.451c0.167,0.208,0.217,0.521,0.276,0.83
	c0.568,2.906,2.022,5.23,4.148,7.148c0.154,0.14,0.313,0.275,0.402,0.443c0.144,0.267,0.119,0.61,0.012,0.948
	c-0.141,0.443-0.424,0.877-0.795,0.962c-0.259,0.06-0.562-0.049-0.86-0.137c-1.45-0.43-2.832-0.367-4.215-0.307h-0.127
	c-1.382-0.062-2.764-0.123-4.215,0.307c-0.299,0.088-0.602,0.195-0.86,0.137c-0.371-0.085-0.653-0.519-0.795-0.962
	C299.959,503.756,299.935,503.411,300.078,503.145z M373.029,448.187c-1.372,5.453-2.955,10.845-4.766,16.184
	c-3.195,9.429-7.099,18.692-12.749,26.926c-2.543,3.703-5.44,7.198-9.371,9.583c-8.438,5.115-21.642,5.111-28.713-1.833
	c-2.512-2.468-4.249-5.81-4.319-9.263c-0.051-2.539,0.8-5.137,2.445-7.105c0.994-1.189,2.278-2.149,3.63-2.729
	c1.283-0.549,2.627-0.753,4.21-0.923c1.236-0.132,2.618-0.243,3.33,0.479c0.38,0.384,0.568,1.005,0.758,1.626
	c-0.624,0.142-1.249,0.282-1.845,0.514c-0.637,0.247-1.241,0.595-1.771,1.031c-0.689,0.568-1.253,1.29-1.635,2.114
	c-0.797,1.723-0.803,3.897,0.084,5.585c0.854,1.625,2.534,2.796,4.303,3.229c1.669,0.408,3.416,0.16,5.056-0.457
	c2.758-1.039,5.209-3.122,6.296-5.774c1.048-2.555,0.832-5.637-0.373-8.219c-0.775-1.66-1.96-3.112-3.391-4.099
	c17.147-6.482,31.508-18.728,40.618-34.633C374.278,443.022,373.678,445.611,373.029,448.187z M306.272,474.159
	c-40.318,0-73.005-32.686-73.005-73.005s32.687-73.004,73.005-73.004c40.319,0,73.004,32.686,73.004,73.004
	C379.276,441.474,346.592,474.159,306.272,474.159z"/>
<path stroke="#000000" stroke-width="0.7087" stroke-linecap="round" stroke-linejoin="round" stroke-miterlimit="10" d="
	M361.787,354.244l-0.529-0.073l-0.483-0.056l-0.44-0.04l-0.396-0.024l-0.352-0.008l-0.371,0.024l-0.453,0.073l-0.535,0.122
	l-0.617,0.17l-0.697,0.219l-0.781,0.268l-1.156,0.308l-1.008,0.249l-0.861,0.189l-0.714,0.13l-0.565,0.071l-0.418,0.012l-3.81,0.522
	l-3.813,0.488l-3.815,0.455l-3.819,0.421l-3.824,0.387l-3.826,0.354l-5.736,0.583l-5.258,0.726l-4.779,0.868l-4.299,1.01
	l-3.82,1.153l-3.341,1.295l-3.905,2.098l-3.195,2.386l-2.485,2.674l-1.775,2.962l-1.065,3.25l-0.355,3.538l0.091,1.48l0.274,1.401
	l0.457,1.321l0.64,1.242l0.823,1.162l1.006,1.083l1.145,0.956l1.24,0.782l1.335,0.608l1.431,0.436l1.526,0.26l1.621,0.088
	l2.402-0.098l2.246-0.29l2.091-0.484l1.935-0.678l1.781-0.871l1.623-1.065l1.826-1.423l1.494-1.542l1.162-1.664l0.83-1.783
	l0.498-1.903l0.166-2.023l-0.917-5.205l-0.729,1.053l0.232,0.664l0.19,0.635l0.147,0.607l0.105,0.579l0.064,0.551l0.021,0.522
	l-0.121,1.917l-0.362,1.794l-0.605,1.672l-0.846,1.549l-1.089,1.428l-1.331,1.305l-1.533,1.139l-1.697,0.933l-1.863,0.726
	l-2.025,0.518l-2.191,0.311l-2.355,0.104l-1.292-0.063l-1.197-0.192l-1.103-0.32l-1.008-0.448l-0.914-0.576l-0.819-0.705
	l-0.708-0.813l-0.579-0.899l-0.451-0.987l-0.322-1.075l-0.193-1.162l-0.064-1.25l0.641-4.515l1.921-4.074l3.202-3.633l4.483-3.192
	l5.764-2.751l7.044-2.31l4.948-1.27l5.271-1.088l5.594-0.907l5.915-0.727l6.237-0.546l6.56-0.365l-4.487,2.436l-4.514,3.311
	l-4.539,4.186l-4.563,5.06l-4.59,5.935l-4.615,6.809l-2.345,3.393l-2.794,4.397l-3.242,5.403l-3.691,6.41l-4.14,7.417l-4.588,8.423
	l-3.308,0.416l-3.285,0.437l-3.261,0.456l-3.237,0.476l-3.214,0.495l-3.19,0.515l-4.769,0.718l-4.355,0.789l-3.942,0.861
	l-3.529,0.934l-3.116,1.005l-2.704,1.077l-3.207,1.709l-2.624,1.902l-2.041,2.096l-1.458,2.289l-0.875,2.481l-0.292,2.675
	l0.13,1.922l0.391,1.766l0.652,1.611l0.913,1.455l1.174,1.301l1.435,1.146l1.55,0.769l1.648,0.629l1.747,0.489l1.845,0.349
	l1.943,0.21l2.041,0.07l7.865-0.938l7.608-2.812l7.351-4.685l7.093-6.56l6.836-8.434l6.579-10.307l6.543-1.918l6.045-2.622
	l5.543-3.327l5.044-4.031l4.544-4.735l4.043-5.44l-0.471-0.551l-4.143,5.387l-4.521,4.659l-4.899,3.931l-5.277,3.203l-5.656,2.477
	l-6.035,1.748l3.308-5.5l3.288-5.495l3.27-5.491l3.25-5.489l3.23-5.485l3.213-5.48l5.394-8.566l4.776-7.026l4.158-5.486l3.543-3.946
	l2.924-2.406l2.309-0.867l0.846-0.036l0.863-0.038l0.879-0.04l0.895-0.041l0.91-0.043l0.928-0.044l1.029-0.14l0.964-0.247
	l0.896-0.352l0.829-0.458l0.762-0.564l0.694-0.67L361.787,354.244z M298.597,425.385l-2.591,3.917l-2.493,3.563l-2.393,3.207
	l-2.294,2.853l-2.195,2.496l-3.644,3.413l-3.617,2.793l-3.589,2.172l-3.563,1.552l-3.536,0.931l-3.508,0.311l-1.638-0.079
	l-1.533-0.238l-1.428-0.398l-1.324-0.557l-1.219-0.715l-1.115-0.875l-0.974-1.031l-0.796-1.187l-0.62-1.341l-0.442-1.495
	l-0.266-1.649l-0.088-1.805l0.262-2.282l0.788-2.161l1.313-2.039l1.837-1.917l2.363-1.796l2.888-1.674l2.548-1.085l2.938-1.038
	l3.328-0.99l3.717-0.942l4.107-0.896l4.497-0.847l2.794-0.407l2.808-0.407l2.822-0.407l2.835-0.406l2.849-0.407l2.862-0.407
	L298.597,425.385z"/>
</svg>
