<?xml version="1.0" encoding="utf-8"?>
<!-- Generator: Adobe Illustrator 15.0.2, SVG Export Plug-In . SVG Version: 6.00 Build 0)  -->
<!DOCTYPE svg PUBLIC "-//W3C//DTD SVG 1.1//EN" "http://www.w3.org/Graphics/SVG/1.1/DTD/svg11.dtd">
<svg version="1.1" id="_x30_" xmlns="http://www.w3.org/2000/svg" xmlns:xlink="http://www.w3.org/1999/xlink" x="0px" y="0px"
	 width="376.709px" height="2060.709px" viewBox="0 0 376.709 2060.709" enable-background="new 0 0 376.709 2060.709"
	 xml:space="preserve">
<g id="LWPOLYLINE_10_">
	<linearGradient id="SVGID_1_" gradientUnits="userSpaceOnUse" x1="0.3545" y1="1030.3545" x2="376.3545" y2="1030.3545">
		<stop  offset="0" style="stop-color:#FFFFFF"/>
		<stop  offset="0.4758" style="stop-color:#F0F0F0"/>
		<stop  offset="1" style="stop-color:#DADADA"/>
	</linearGradient>
	<rect x="0.354" y="0.354" fill="url(#SVGID_1_)" width="376" height="2060"/>
</g>
<g id="LWPOLYLINE">
	
		<rect x="0.354" y="0.354" fill="none" stroke="#000000" stroke-width="0.7087" stroke-linecap="round" stroke-linejoin="round" stroke-miterlimit="10" width="376" height="2060"/>
</g>
<g id="LWPOLYLINE_8_">
	
		<rect x="168.354" y="160.354" fill="none" stroke="#000000" stroke-width="0.7087" stroke-linecap="round" stroke-linejoin="round" stroke-miterlimit="10" width="40" height="40"/>
</g>
<g id="LINE_7_">
	<linearGradient id="SVGID_2_" gradientUnits="userSpaceOnUse" x1="138.3545" y1="1030.3545" x2="238.3545" y2="1030.3545">
		<stop  offset="0" style="stop-color:#FFFFFF"/>
		<stop  offset="0.4758" style="stop-color:#F0F0F0"/>
		<stop  offset="1" style="stop-color:#DADADA"/>
	</linearGradient>
	
		<polygon fill="url(#SVGID_2_)" stroke="#000000" stroke-width="0.7087" stroke-linecap="round" stroke-linejoin="round" stroke-miterlimit="10" points="
		173.354,980.354 138.354,980.354 138.354,1080.354 173.354,1080.354 173.354,1405.326 138.354,1405.326 138.354,1505.326 
		173.354,1505.326 173.354,1830.354 138.354,1830.354 138.354,1930.354 238.354,1930.354 238.354,1830.354 203.354,1830.354 
		203.354,1505.326 238.354,1505.326 238.354,1405.326 203.354,1405.326 203.354,1080.354 238.354,1080.354 238.354,980.354 
		203.354,980.354 203.354,655.383 238.354,655.383 238.354,555.383 203.354,555.383 203.354,230.354 238.354,230.354 
		238.354,130.354 138.354,130.354 138.354,230.354 173.354,230.354 173.354,555.383 138.354,555.383 138.354,655.383 
		173.354,655.383 	"/>
</g>
<g id="HATCH">
	<rect x="168.354" y="160.354" fill-rule="evenodd" clip-rule="evenodd" fill="#0000FF" width="40" height="40"/>
</g>
<g id="LWPOLYLINE_11_">
	
		<rect x="168.354" y="160.354" fill="none" stroke="#000000" stroke-width="0.7087" stroke-linecap="round" stroke-linejoin="round" stroke-miterlimit="10" width="40" height="40"/>
</g>
<g id="LWPOLYLINE_12_">
	
		<rect x="168.354" y="585.383" fill="none" stroke="#000000" stroke-width="0.7087" stroke-linecap="round" stroke-linejoin="round" stroke-miterlimit="10" width="40" height="40"/>
</g>
<g id="HATCH_1_">
	<rect x="168.354" y="585.383" fill-rule="evenodd" clip-rule="evenodd" fill="#0000FF" width="40" height="40"/>
</g>
<g id="LWPOLYLINE_13_">
	
		<rect x="168.354" y="585.383" fill="none" stroke="#000000" stroke-width="0.7087" stroke-linecap="round" stroke-linejoin="round" stroke-miterlimit="10" width="40" height="40"/>
</g>
<g id="LWPOLYLINE_14_">
	
		<rect x="168.354" y="1010.354" fill="none" stroke="#000000" stroke-width="0.7087" stroke-linecap="round" stroke-linejoin="round" stroke-miterlimit="10" width="40" height="40"/>
</g>
<g id="HATCH_2_">
	<rect x="168.354" y="1010.354" fill-rule="evenodd" clip-rule="evenodd" fill="#0000FF" width="40" height="40"/>
</g>
<g id="LWPOLYLINE_15_">
	
		<rect x="168.354" y="1010.354" fill="none" stroke="#000000" stroke-width="0.7087" stroke-linecap="round" stroke-linejoin="round" stroke-miterlimit="10" width="40" height="40"/>
</g>
<g id="LWPOLYLINE_16_">
	
		<rect x="168.354" y="1435.326" fill="none" stroke="#000000" stroke-width="0.7087" stroke-linecap="round" stroke-linejoin="round" stroke-miterlimit="10" width="40" height="40"/>
</g>
<g id="HATCH_3_">
	<rect x="168.354" y="1435.326" fill-rule="evenodd" clip-rule="evenodd" fill="#0000FF" width="40" height="40"/>
</g>
<g id="LWPOLYLINE_17_">
	
		<rect x="168.354" y="1435.326" fill="none" stroke="#000000" stroke-width="0.7087" stroke-linecap="round" stroke-linejoin="round" stroke-miterlimit="10" width="40" height="40"/>
</g>
<g id="LWPOLYLINE_18_">
	
		<rect x="168.354" y="1860.354" fill="none" stroke="#000000" stroke-width="0.7087" stroke-linecap="round" stroke-linejoin="round" stroke-miterlimit="10" width="40" height="40"/>
</g>
<g id="HATCH_4_">
	<rect x="168.354" y="1860.354" fill-rule="evenodd" clip-rule="evenodd" fill="#0000FF" width="40" height="40"/>
</g>
<g id="LWPOLYLINE_19_">
	
		<rect x="168.354" y="1860.354" fill="none" stroke="#000000" stroke-width="0.7087" stroke-linecap="round" stroke-linejoin="round" stroke-miterlimit="10" width="40" height="40"/>
</g>
</svg>
