<?xml version="1.0" encoding="utf-8"?>
<!-- Generator: Adobe Illustrator 15.0.0, SVG Export Plug-In . SVG Version: 6.00 Build 0)  -->
<!DOCTYPE svg PUBLIC "-//W3C//DTD SVG 1.1//EN" "http://www.w3.org/Graphics/SVG/1.1/DTD/svg11.dtd">
<svg version="1.1" id="_x30_" xmlns="http://www.w3.org/2000/svg" xmlns:xlink="http://www.w3.org/1999/xlink" x="0px" y="0px"
	 width="153.4px" height="153.402px" viewBox="0 0 153.4 153.402" enable-background="new 0 0 153.4 153.402" xml:space="preserve">
<path fill="none" stroke="#000000" stroke-linecap="round" stroke-linejoin="round" stroke-miterlimit="10" d="M152.9,19.053V13.2
	c0-7.014-5.687-12.7-12.7-12.7h-127C6.185,0.5,0.5,6.186,0.5,13.2v127c0,7.015,5.686,12.702,12.7,12.702h127
	c7.014,0,12.7-5.688,12.7-12.702v-5.851"/>
<path fill="none" stroke="#000000" stroke-width="0.25" stroke-linecap="round" stroke-linejoin="round" stroke-miterlimit="10" d="
	M28.479,82.41V71.001 M31.653,85.586v-17.76 M34.829,88.762v-8.979 M38.003,91.937v-8.979 M41.178,95.111v-8.979 M44.354,98.286
	v-8.979 M34.829,73.63V64.65 M38.003,70.456v-8.979 M41.178,67.28v-8.979 M44.354,64.104v-8.979 M47.529,101.462v-8.979
	 M47.529,60.931v-8.98 M50.704,104.635v-8.979 M50.704,59.318V48.776 M53.878,107.811v-8.979 M53.878,59.467V45.601 M57.054,110.987
	v-8.979 M57.054,61.551V42.426 M60.229,114.162v-8.979 M60.229,64.725V55.2 M60.229,48.751V39.25 M63.404,117.336v-8.979
	 M66.578,120.512v-8.979 M63.404,67.901v-8.98 M66.578,71.075v-8.979 M63.404,45.055v-8.979 M66.578,41.879V32.9 M69.754,123.688
	v-8.98 M69.754,74.796v-9.524 M69.754,38.706v-8.979 M72.929,126.564v-8.682 M72.929,81.568V68.446 M72.929,35.53v-8.681
	 M76.103,127.778v-6.721 M76.103,82.884v-3.274 M76.103,73.754v-3.646 M76.103,32.355v-6.746 M79.28,127.233v-8.161 M79.28,82.362
	v-0.845 M79.28,75.02v-3.945 M79.28,34.339v-8.186 M82.454,124.878v-8.979 M82.454,78.938v-4.613 M82.454,37.515v-8.98
	 M85.629,121.701v-8.978 M88.803,118.527v-8.979 M91.979,115.354v-8.98 M95.155,112.177v-8.979 M98.328,109.003v-8.979
	 M101.504,105.826v-8.978 M104.68,102.652v-8.98 M107.854,99.477v-8.979 M111.029,96.302v-8.979 M114.204,93.128v-8.979
	 M117.379,89.952v-8.979 M120.554,86.777v-8.979 M85.629,40.689V31.71 M88.803,43.865v-8.979 M91.979,47.04V38.06 M95.155,50.214
	v-8.979 M98.328,53.39v-8.979 M101.504,56.564v-8.979 M104.68,59.74v-8.98 M107.854,62.914v-8.979 M111.029,66.09V57.11
	 M114.204,69.265v-8.98 M117.379,72.439V63.46 M120.554,75.615v-8.979 M123.73,83.602V69.811 M126.905,79.855v-6.324"/>
<g id="LWPOLYLINE_1_">
	<path fill="none" stroke="#000000" stroke-linecap="round" stroke-linejoin="round" stroke-miterlimit="10" d="M126.139,81.191
		L81.191,126.14c-2.48,2.479-6.501,2.479-8.98,0L27.261,81.191c-2.48-2.48-2.48-6.501,0-8.98L72.21,27.262
		c2.479-2.479,6.5-2.479,8.98,0l44.948,44.948C128.619,74.69,128.619,78.71,126.139,81.191z"/>
</g>
<g id="LINE">
	
		<line fill="none" stroke="#000000" stroke-linecap="round" stroke-linejoin="round" stroke-miterlimit="10" x1="73.006" y1="68.516" x2="60.96" y2="56.472"/>
</g>
<g id="ARC">
	<path fill="none" stroke="#000000" stroke-linecap="round" stroke-linejoin="round" stroke-miterlimit="10" d="M60.96,47.49
		c-2.479,2.479-2.479,6.501,0,8.979"/>
</g>
<g id="LINE_1_">
	
		<line fill="none" stroke="#000000" stroke-linecap="round" stroke-linejoin="round" stroke-miterlimit="10" x1="60.96" y1="47.49" x2="76.701" y2="31.752"/>
</g>
<g id="LINE_2_">
	
		<line fill="none" stroke="#000000" stroke-linecap="round" stroke-linejoin="round" stroke-miterlimit="10" x1="76.701" y1="31.752" x2="121.65" y2="76.701"/>
</g>
<g id="LINE_3_">
	
		<line fill="none" stroke="#000000" stroke-linecap="round" stroke-linejoin="round" stroke-miterlimit="10" x1="121.65" y1="76.701" x2="76.701" y2="121.65"/>
</g>
<g id="LINE_4_">
	
		<line fill="none" stroke="#000000" stroke-linecap="round" stroke-linejoin="round" stroke-miterlimit="10" x1="76.701" y1="121.65" x2="31.752" y2="76.701"/>
</g>
<g id="LINE_5_">
	
		<line fill="none" stroke="#000000" stroke-linecap="round" stroke-linejoin="round" stroke-miterlimit="10" x1="31.752" y1="76.701" x2="47.49" y2="60.961"/>
</g>
<g id="ARC_1_">
	<path fill="none" stroke="#000000" stroke-linecap="round" stroke-linejoin="round" stroke-miterlimit="10" d="M56.471,60.961
		c-2.479-2.479-6.5-2.479-8.98,0"/>
</g>
<g id="LINE_6_">
	
		<line fill="none" stroke="#000000" stroke-linecap="round" stroke-linejoin="round" stroke-miterlimit="10" x1="56.471" y1="60.961" x2="68.516" y2="73.006"/>
</g>
<g id="LWPOLYLINE_2_">
	<path fill="none" stroke="#000000" stroke-linecap="round" stroke-linejoin="round" stroke-miterlimit="10" d="M130.629,85.682
		l-44.947,44.948c-4.961,4.959-13.001,4.959-17.961,0L22.771,85.682c-4.959-4.96-4.959-13.001,0-17.961L67.72,22.772
		c4.96-4.959,13.001-4.959,17.961,0l44.947,44.949C135.589,72.68,135.589,80.722,130.629,85.682z"/>
</g>
<g id="LINE_7_">
	
		<line fill="none" stroke="#000000" stroke-linecap="round" stroke-linejoin="round" stroke-miterlimit="10" x1="77.522" y1="79.768" x2="79.926" y2="82.172"/>
</g>
<g id="LINE_8_">
	
		<line fill="none" stroke="#000000" stroke-linecap="round" stroke-linejoin="round" stroke-miterlimit="10" x1="79.767" y1="77.522" x2="82.171" y2="79.926"/>
</g>
<g id="ARC_2_">
	<path fill="none" stroke="#000000" stroke-linecap="round" stroke-linejoin="round" stroke-miterlimit="10" d="M79.767,77.522
		c0.454-1.693-0.553-3.436-2.245-3.889c-1.692-0.454-3.435,0.552-3.889,2.245c-0.453,1.694,0.552,3.435,2.244,3.889
		c0.439,0.146,1.204,0.146,1.645,0"/>
</g>
<g id="ARC_3_">
	<path fill="none" stroke="#000000" stroke-linecap="round" stroke-linejoin="round" stroke-miterlimit="10" d="M82.171,79.926
		c1.78-3.021,0.776-6.913-2.245-8.695c-0.685-0.454-2.007-0.859-2.827-0.867"/>
</g>
<g id="ARC_4_">
	<path fill="none" stroke="#000000" stroke-linecap="round" stroke-linejoin="round" stroke-miterlimit="10" d="M73.006,68.516
		c0.89,1.001,2.754,1.843,4.093,1.848"/>
</g>
<g id="ARC_5_">
	<path fill="none" stroke="#000000" stroke-linecap="round" stroke-linejoin="round" stroke-miterlimit="10" d="M70.363,77.099
		c0.221,3.5,3.235,6.158,6.735,5.938c0.82-0.008,2.144-0.414,2.827-0.866"/>
</g>
<g id="ARC_6_">
	<path fill="none" stroke="#000000" stroke-linecap="round" stroke-linejoin="round" stroke-miterlimit="10" d="M70.363,77.099
		c-0.005-1.34-0.847-3.205-1.848-4.094"/>
</g>
<g id="CIRCLE">
	
		<path fill="none" stroke="#000000" stroke-width="0.25" stroke-linecap="round" stroke-linejoin="round" stroke-miterlimit="10" d="
		M143.376,13.2c0-1.753-1.423-3.174-3.176-3.174c-1.754,0-3.175,1.421-3.175,3.174c0,1.754,1.421,3.176,3.175,3.176
		C141.953,16.375,143.376,14.954,143.376,13.2L143.376,13.2z"/>
</g>
<g id="CIRCLE_1_">
	
		<path fill="none" stroke="#000000" stroke-width="0.25" stroke-linecap="round" stroke-linejoin="round" stroke-miterlimit="10" d="
		M143.376,140.2c0-1.752-1.423-3.174-3.176-3.174c-1.754,0-3.175,1.422-3.175,3.174c0,1.754,1.421,3.176,3.175,3.176
		C141.953,143.376,143.376,141.955,143.376,140.2L143.376,140.2z"/>
</g>
<g id="CIRCLE_2_">
	
		<path fill="none" stroke="#000000" stroke-width="0.25" stroke-linecap="round" stroke-linejoin="round" stroke-miterlimit="10" d="
		M16.375,140.2c0-1.752-1.421-3.174-3.174-3.174s-3.175,1.422-3.175,3.174c0,1.754,1.421,3.176,3.175,3.176
		S16.375,141.955,16.375,140.2L16.375,140.2z"/>
</g>
<g id="CIRCLE_3_">
	
		<path fill="none" stroke="#000000" stroke-width="0.25" stroke-linecap="round" stroke-linejoin="round" stroke-miterlimit="10" d="
		M16.375,13.2c0-1.753-1.421-3.174-3.174-3.174s-3.175,1.421-3.175,3.174c0,1.754,1.421,3.176,3.175,3.176
		S16.375,14.954,16.375,13.2L16.375,13.2z"/>
</g>
<g id="CIRCLE_4_">
	
		<path fill="none" stroke="#000000" stroke-width="0.25" stroke-linecap="round" stroke-linejoin="round" stroke-miterlimit="10" d="
		M19.549,13.2c0-3.507-2.842-6.35-6.349-6.35S6.849,9.693,6.849,13.2s2.844,6.35,6.351,6.35
		C16.707,19.551,19.549,16.708,19.549,13.2L19.549,13.2z"/>
</g>
<g id="CIRCLE_5_">
	
		<path fill="none" stroke="#000000" stroke-width="0.25" stroke-linecap="round" stroke-linejoin="round" stroke-miterlimit="10" d="
		M146.551,13.2c0-3.507-2.843-6.35-6.35-6.35c-3.508,0-6.35,2.843-6.35,6.35s2.843,6.35,6.35,6.35
		C143.708,19.551,146.551,16.708,146.551,13.2L146.551,13.2z"/>
</g>
<g id="CIRCLE_6_">
	
		<path fill="none" stroke="#000000" stroke-width="0.25" stroke-linecap="round" stroke-linejoin="round" stroke-miterlimit="10" d="
		M146.551,140.2c0-3.506-2.843-6.349-6.35-6.349c-3.508,0-6.35,2.843-6.35,6.349c0,3.509,2.843,6.351,6.35,6.351
		S146.551,143.709,146.551,140.2L146.551,140.2z"/>
</g>
<g id="CIRCLE_7_">
	
		<path fill="none" stroke="#000000" stroke-width="0.25" stroke-linecap="round" stroke-linejoin="round" stroke-miterlimit="10" d="
		M19.549,140.2c0-3.506-2.842-6.349-6.349-6.349s-6.351,2.843-6.351,6.349c0,3.509,2.844,6.351,6.351,6.351
		S19.549,143.709,19.549,140.2L19.549,140.2z"/>
</g>
</svg>
