<?xml version="1.0" encoding="utf-8"?>
<!-- Generator: Adobe Illustrator 13.0.0, SVG Export Plug-In . SVG Version: 6.00 Build 14948)  -->
<!DOCTYPE svg PUBLIC "-//W3C//DTD SVG 1.1//EN" "http://www.w3.org/Graphics/SVG/1.1/DTD/svg11.dtd">
<svg version="1.1" id="Layer_1" xmlns="http://www.w3.org/2000/svg" xmlns:xlink="http://www.w3.org/1999/xlink" x="0px" y="0px"
	 width="91.299px" height="58.521px" viewBox="0 0 91.299 58.521" enable-background="new 0 0 91.299 58.521" xml:space="preserve">
<g>
	
		<linearGradient id="SVGID_1_" gradientUnits="userSpaceOnUse" x1="-363.3472" y1="1479.9678" x2="-363.3472" y2="1473.8428" gradientTransform="matrix(1 0 0 1 376 -1469.043)">
		<stop  offset="0" style="stop-color:#000000"/>
		<stop  offset="0.5156" style="stop-color:#FFFFFF"/>
		<stop  offset="1" style="stop-color:#000000"/>
	</linearGradient>
	
		<rect x="9.871" y="4.8" fill="url(#SVGID_1_)" stroke="#000000" stroke-width="0.5" stroke-linecap="round" stroke-linejoin="round" width="5.563" height="6.125"/>
	
		<linearGradient id="SVGID_2_" gradientUnits="userSpaceOnUse" x1="-357.8784" y1="1480.4688" x2="-357.8784" y2="1473.374" gradientTransform="matrix(1 0 0 1 376 -1469.043)">
		<stop  offset="0" style="stop-color:#000000"/>
		<stop  offset="0.5156" style="stop-color:#FFFFFF"/>
		<stop  offset="1" style="stop-color:#000000"/>
	</linearGradient>
	
		<rect x="15.434" y="4.331" fill="url(#SVGID_2_)" stroke="#000000" stroke-width="0.5" stroke-linecap="round" stroke-linejoin="round" width="5.375" height="7.095"/>
	<g id="CIRCLE">
		
			<radialGradient id="SVGID_3_" cx="-369.75" cy="1476.8623" r="6" gradientTransform="matrix(1 0 0 1 376 -1469.043)" gradientUnits="userSpaceOnUse">
			<stop  offset="0.0035" style="stop-color:#FFFFFF"/>
			<stop  offset="1" style="stop-color:#000000"/>
		</radialGradient>
		
			<path fill="url(#SVGID_3_)" stroke="#000000" stroke-width="0.5" stroke-linecap="round" stroke-linejoin="round" stroke-dasharray="1000,1000,1000,1000" d="
			M12.25,7.819c0-3.313-2.686-6-6-6s-6,2.688-6,6c0,3.313,2.687,6,6,6S12.25,11.133,12.25,7.819L12.25,7.819L12.25,7.819z"/>
	</g>
</g>
<path id="SVGID_4_" fill="#EBECED" stroke="#000000" d="M73.908,53.795c0,1.107-0.892,2.016-1.985,2.016l0,0l0,0H46.082v0.06
	c-1.099,0-1.988-0.896-1.988-2.011l0,0l0,0v-2.013l0,0l4.688-2.217l0,0v-3.418l0,0l-3.963-1.865l0,0
	c-1.002-0.42-1.769-1.642-1.722-2.734l0,0v-0.525l0,0h6.957l0,0V38.57l0,0H36.14l0,0c-1.097,0-1.987-0.897-1.987-2.01l0,0v-0.063
	v-0.744l0,0h2.188v-0.062v-2.012l0,0h9.144l0,0v-5.128l0,0l1.055-1.007l0,0l-1.055-1.007l0,0v-5.122l0,0h-9.144l0,0v-2.013l0,0
	h-2.188l0,0v-2.815l0,0h6.957l0,0v-2.512l0,0H17.259l0,0c-0.549,0-0.994-0.45-0.994-1.007l0,0l0,0v-2.01l0,0
	c-0.063-1.156,0.402-3.032,0.994-4.021l0,0c0.514-0.869,0.975-2.534,0.979-3.547l0,0c0.014-0.266,0.235-0.478,0.496-0.476l0,0h1.505
	l0,0V1.509l0,0c0-0.558,0.445-1.009,0.994-1.009l0,0l0,0h57.646l0,0c1.099,0,1.988,0.899,1.988,2.015l0,0l0,0v1.507l0,0
	c1.558-0.091,3.635,0.852,4.604,2.087l0,0c0.688,0.885,2.215,1.779,3.314,1.949l0,0c0.754,0.13,1.438,0.852,1.543,1.618l0,0
	l0.439,2.545l0,0c0.188,1.094-0.529,2.136-1.611,2.33c-0.063,0.012-0.188,0.023-0.25,0.025l-0.096,0.002h-11.92l0,0l0,0
	c-1.647,0-2.981,1.353-2.981,3.019l0,0v38.414l0,0l0,0c0,1.105,0.894,2.01,1.987,2.01l0,0h2.979l0,0l0,0
	c1.102,0,1.988-0.898,1.988-2.01l0,0v-1.512l0,0c1.561,0.094,3.635-0.852,4.604-2.088l0,0c0.69-0.885,2.217-1.775,3.317-1.949l0,0
	c0.754-0.131,1.438-0.852,1.543-1.615l0,0l0.44-2.543l0,0c0.015-0.063,0.026-0.188,0.026-0.259c0.052-1.106-0.795-2.051-1.896-2.104
	l-0.096-0.002H73.908"/>
</svg>
