<?xml version="1.0" encoding="utf-8"?>
<!-- Generator: Adobe Illustrator 13.0.0, SVG Export Plug-In . SVG Version: 6.00 Build 14948)  -->
<!DOCTYPE svg PUBLIC "-//W3C//DTD SVG 1.1//EN" "http://www.w3.org/Graphics/SVG/1.1/DTD/svg11.dtd">
<svg version="1.1" id="Layer_1" xmlns="http://www.w3.org/2000/svg" xmlns:xlink="http://www.w3.org/1999/xlink" x="0px" y="0px"
	 width="95.584px" height="66.711px" viewBox="0 0 95.584 66.711" enable-background="new 0 0 95.584 66.711" xml:space="preserve">
<path id="SVGID_1_" fill="#EBECED" stroke="#000000" d="M94.61,9.583c-0.104-0.759-0.791-1.472-1.547-1.602l0,0
	c-1.104-0.168-2.631-1.056-3.323-1.93l0,0c-0.97-1.224-3.054-2.157-4.611-2.066l0,0V2.491l0,0c0-1.1-0.892-1.991-1.991-1.991l0,0
	l0,0H45.303l0,0c-0.55,0-0.996,0.446-0.996,0.996l0,0l0,0v1.493l0,0H42.8l0,0c-0.262-0.001-0.484,0.208-0.497,0.47l0,0
	c-0.005,1.003-0.466,2.652-0.982,3.513l0,0c-0.592,0.98-1.057,2.838-0.996,3.982l0,0v7.368l0,0H32.36l0,0
	c-1.1,0-1.991,0.892-1.991,1.991l0,0l0,0v4.48l0,0c0,0.275,0.223,0.498,0.498,0.498l0,0l0,0h3.485l0,0v7.965l0,0h-3.485
	l-0.498,0.498v6.82l0,0l0.686,0.06l0,0c0.347-0.021,0.825,0.179,1.056,0.438c0.583,0.583,0.583,1.527,0,2.111l0,0l-1.373,1.373l0,0
	c-0.583,0.582-0.583,1.527,0,2.11c0.231,0.26,0.709,0.458,1.056,0.438l0,0h8.112l0,0c0.347-0.021,0.826,0.179,1.056,0.438
	c0.583,0.583,0.583,1.527,0,2.111l0,0l-2.329,2.328l0,0v3.275l0,0h37.535l0,0c1.101,0,1.991-0.892,1.991-1.99l0,0l0,0V17.426l0,0
	l0,0c0-1.65,1.337-2.987,2.986-2.987l0,0h11.946l0.095-0.002c1.1-0.052,1.946-0.984,1.896-2.083
	c-0.002-0.065-0.017-0.188-0.026-0.252l0,0L94.61,9.583L94.61,9.583z"/>
<g>
	<polygon id="SVGID_3_" fill="#EBECED" stroke="#000000" points="42.236,48.32 42.323,48.216 42.389,48.098 42.433,47.97 
		42.454,47.837 42.45,47.702 42.421,47.57 42.37,47.445 42.296,47.332 42.204,47.232 42.095,47.152 41.973,47.093 41.843,47.057 
		41.708,47.045 41.708,47.045 29.991,47.045 29.991,47.045 29.856,47.033 29.726,46.997 29.604,46.938 29.496,46.857 29.403,46.759 
		29.33,46.645 29.278,46.521 29.25,46.389 29.246,46.253 29.266,46.12 29.31,45.992 29.376,45.875 29.463,45.77 29.463,45.77 
		33.385,41.848 33.385,41.848 33.472,41.745 33.538,41.626 33.582,41.499 33.603,41.366 33.599,41.23 33.57,41.098 33.518,40.973 
		33.445,40.859 33.352,40.761 33.243,40.682 33.122,40.623 32.992,40.585 32.857,40.574 32.857,40.574 30.369,40.574 22.403,40.574 
		22.403,40.574 22.372,40.843 22.292,41.104 22.166,41.345 21.999,41.559 21.795,41.74 21.563,41.88 21.308,41.977 21.041,42.025 
		21.041,42.025 14.265,42.618 14.265,42.618 13.902,42.684 13.558,42.814 13.244,43.008 12.971,43.255 12.748,43.549 12.583,43.879 
		12.481,44.234 12.447,44.602 12.447,44.602 19.837,48.047 19.837,48.047 20,48.143 20.141,48.266 20.256,48.415 20.342,48.582 
		20.395,48.762 20.413,48.95 20.413,48.95 20.413,54.264 20.413,54.264 20.393,54.458 20.336,54.645 20.245,54.816 20.121,54.967 
		19.97,55.091 19.798,55.184 19.611,55.24 19.417,55.259 19.417,55.259 1.496,55.259 1.496,55.259 1.301,55.277 1.114,55.334 
		0.942,55.427 0.792,55.55 0.667,55.702 0.576,55.874 0.519,56.061 0.5,56.254 0.5,56.254 0.5,57.438 0.5,57.438 0.613,58.625 
		0.949,59.77 1.496,60.829 1.496,60.829 1.929,61.625 2.243,62.475 2.432,63.361 2.432,63.361 2.472,63.534 2.542,63.698 
		2.641,63.846 2.764,63.975 2.908,64.08 3.069,64.157 3.241,64.204 3.418,64.22 3.418,64.22 4.482,64.22 4.482,65.215 4.482,65.215 
		4.501,65.41 4.558,65.596 4.65,65.768 4.774,65.919 4.925,66.043 5.097,66.135 5.284,66.191 5.478,66.211 5.478,66.211 
		50.282,66.211 50.282,66.211 50.476,66.191 50.663,66.135 50.834,66.043 50.985,65.919 51.11,65.768 51.202,65.596 51.258,65.41 
		51.276,65.215 51.276,65.215 51.276,64.22 52.34,64.22 52.34,64.22 52.519,64.204 52.69,64.157 52.851,64.08 52.995,63.975 
		53.118,63.846 53.217,63.698 53.288,63.534 53.327,63.361 53.327,63.361 53.517,62.475 53.831,61.625 54.265,60.829 54.265,60.829 
		54.81,59.77 55.146,58.625 55.259,57.438 55.259,57.438 55.259,56.254 55.259,56.254 55.241,56.061 55.185,55.874 55.092,55.702 
		54.967,55.55 54.817,55.427 54.646,55.334 54.458,55.277 54.265,55.259 54.265,55.259 38.632,55.259 38.632,55.259 38.632,51.923 	
		"/>
</g>
<g>
	<path id="SVGID_5_" fill="#EBECED" stroke="#000000" d="M94.61,46.533c-0.104,0.759-0.791,1.472-1.547,1.602l0,0
		c-1.104,0.168-2.631,1.055-3.323,1.93l0,0c-0.97,1.226-3.054,2.158-4.611,2.066l0,0v1.493l0,0l0,0c0,1.101-0.892,1.991-1.991,1.991
		l0,0h-2.988l0,0l0,0c-1.1,0-1.989-0.893-1.989-1.991l0,0V41.676l0,0h14.935l0.096,0.002c0.063,0.002,0.188,0.016,0.252,0.028
		c1.082,0.19,1.807,1.224,1.615,2.308l0,0L94.61,46.533L94.61,46.533z"/>
</g>
</svg>
