<?xml version="1.0" encoding="utf-8"?>
<!-- Generator: Adobe Illustrator 13.0.0, SVG Export Plug-In . SVG Version: 6.00 Build 14948)  -->
<!DOCTYPE svg PUBLIC "-//W3C//DTD SVG 1.1//EN" "http://www.w3.org/Graphics/SVG/1.1/DTD/svg11.dtd">
<svg version="1.1" id="Layer_1" xmlns="http://www.w3.org/2000/svg" xmlns:xlink="http://www.w3.org/1999/xlink" x="0px" y="0px"
	 width="83.011px" height="116.434px" viewBox="0 0 83.011 116.434" enable-background="new 0 0 83.011 116.434"
	 xml:space="preserve">
<path fill="#EBECED" stroke="#000000" stroke-linecap="round" stroke-linejoin="round" d="M69.837,39.733
	c-0.001,0.438-0.356,0.793-0.795,0.793l0,0l0,0l-0.793,0l0,0c-0.438,0-0.794-0.356-0.794-0.794l0,0l0.001-0.793l0,0
	c0-0.438-0.354-0.794-0.793-0.794l0,0l-0.794,0l0,0l0,0c-0.438,0-0.795,0.355-0.795,0.793l0,0l-0.009,15.874l0,0l0,0
	c0,0.438,0.354,0.794,0.793,0.794l0,0l0.794,0l0,0l0,0c0.438,0,0.794-0.355,0.794-0.793l0,0l0.001-1.587l0,0l1.588,0.001l0,0
	c0.438,0,0.794,0.355,0.793,0.793l0,0l0,0l-0.018,31.75l0,0l12.699,0.007l0,0l-0.015,24.949l0,0
	c0.013,0.257-0.159,0.561-0.386,0.682l0,0l-7.366,4.413l-0.408,0.112l-3.529-0.002l-0.407-0.113l-7.361-4.421l0,0
	c-0.227-0.121-0.398-0.425-0.385-0.682l0,0l0.018-30.723l0,0l0,0c0.001-1.314-1.064-2.383-2.38-2.384l0,0l-42.86-0.024l0,0
	c-1.315-0.001-2.382-1.067-2.381-2.383l0,0l0,0l0.029-50.581l0,0l0,0c0.001-1.315-1.065-2.382-2.381-2.383l0,0l-9.819-0.006l0,0
	c-1.315,0-2.38-1.067-2.379-2.383l0,0l0,0L0.5,18.263l0,0c0-0.438,0.354-0.793,0.793-0.793l0,0l0.794,0l0,0
	c0.438,0,0.794-0.355,0.795-0.793l0,0l0.004-7.284l0,0l0,0c0-0.438-0.355-0.794-0.794-0.794l0,0l-0.794,0l0,0
	c-0.438,0-0.792-0.355-0.792-0.793l0,0l0,0l0.001-1.525l0,0C0.503,4.997,1.534,3.934,2.815,3.899l0,0
	c3.244-0.101,6.487-0.157,9.726,0.017l0,0c5.834,0.313,11.646,1.375,17.505,0.897l0,0c9.805-0.797,19.735-5.898,30.453-3.82l0,0
	c1.585,0.307,3.187,0.771,9.358,3.943l0,0L69.837,39.733L69.837,39.733z"/>
<path fill="#FFFFFF" stroke="#000000" stroke-width="0.5" stroke-linecap="round" stroke-linejoin="round" d="M67.467,19.889
	l-25.695-0.015l0,0c-0.438,0-0.793-0.355-0.793-0.793l0,0l0,0l0.008-13.253l0,0c-0.009-0.354,0.261-0.697,0.608-0.771l0,0
	c2.377-0.573,4.726-1.139,7.057-1.547l0,0c2.548-0.445,5.069-0.703,7.587-0.608l0,0c1.259,0.047,2.517,0.182,3.783,0.427l0,0
	c0.596,0.115,1.063,0.219,1.922,0.533l0,0c1.014,0.37,2.548,1.044,5.092,2.316l0,0c0.257,0.114,0.452,0.431,0.439,0.711l0,0
	L67.467,19.889L67.467,19.889z"/>
<line fill="#FFFFFF" stroke="#000000" stroke-width="0.5" stroke-linecap="round" stroke-linejoin="round" x1="67.457" y1="38.939" x2="67.456" y2="39.732"/>
<path fill="#FFFFFF" stroke="#000000" stroke-width="0.5" stroke-linecap="round" stroke-linejoin="round" d="M79.333,88.156
	c0.438,0.001,0.794,0.356,0.794,0.795l0,0l0,0l-0.012,20.427l0,0c0.013,0.256-0.16,0.561-0.386,0.68l0,0l-5.645,3.382l0,0
	c-0.099,0.067-0.288,0.12-0.408,0.113l0,0l-2.21-0.001l0,0c-0.119,0.007-0.309-0.046-0.408-0.114l0,0l-5.64-3.389l0,0
	c-0.227-0.119-0.398-0.424-0.385-0.68l0,0l0.011-18.839l0,0c0.001-1.315,1.067-2.381,2.383-2.381l0,0l0,0L79.333,88.156
	L79.333,88.156z"/>
<path fill="#FFFFFF" stroke="#000000" stroke-width="0.5" stroke-linecap="round" stroke-linejoin="round" d="M38.605,6.759
	c0.001-0.045-0.007-0.129-0.018-0.173c-0.096-0.428-0.519-0.697-0.947-0.603l0,0c-0.611,0.136-1.227,0.266-1.843,0.389l0,0
	c-2.926,0.584-5.962,0.946-8.913,0.945l0,0c-2.951-0.002-5.822-0.273-8.622-0.541l0,0c-3.467-0.332-6.776-0.588-10.171-0.591l0,0
	c-0.678,0-1.358,0.006-2.042,0.017l0,0C5.618,6.208,5.268,6.563,5.268,6.996l0,0L5.261,19.06l0,0l0,0
	c0,0.438,0.356,0.793,0.795,0.793l0,0l31.748,0.019l0,0l0,0c0.438,0,0.794-0.354,0.794-0.792l0,0L38.605,6.759L38.605,6.759z"/>
<polygon fill="#FFFFFF" stroke="#000000" stroke-width="0.5" stroke-linecap="round" stroke-linejoin="round" points="
	66.665,35.763 66.802,35.751 66.936,35.715 67.061,35.657 67.174,35.577 67.273,35.479 67.352,35.367 67.411,35.242 67.446,35.108 
	67.458,34.97 67.458,34.97 67.465,23.064 67.465,23.064 67.451,22.909 67.406,22.76 67.333,22.623 67.233,22.502 67.114,22.403 
	66.976,22.33 66.828,22.285 66.672,22.27 66.672,22.27 41.771,22.255 41.771,22.255 41.634,22.267 41.5,22.303 41.375,22.361 
	41.261,22.441 41.163,22.539 41.083,22.651 41.025,22.777 40.99,22.91 40.978,23.048 40.978,23.048 40.965,44.876 40.965,44.876 
	40.977,45.014 41.013,45.147 41.07,45.272 41.15,45.387 41.248,45.484 41.361,45.563 41.487,45.622 41.62,45.658 41.758,45.67 
	41.758,45.67 61.896,45.682 61.896,45.682 62.051,45.667 62.2,45.622 62.337,45.549 62.458,45.45 62.556,45.33 62.63,45.192 
	62.675,45.043 62.691,44.889 62.691,44.889 62.696,36.554 62.696,36.554 62.708,36.417 62.744,36.283 62.802,36.158 62.881,36.044 
	62.979,35.946 63.092,35.867 63.218,35.809 63.352,35.773 63.49,35.761 63.49,35.761 66.665,35.763 "/>
<polygon fill="#FFFFFF" stroke="#000000" stroke-width="0.5" stroke-linecap="round" stroke-linejoin="round" points="
	38.596,23.047 38.584,22.909 38.548,22.775 38.491,22.65 38.411,22.537 38.312,22.439 38.2,22.359 38.075,22.301 37.941,22.265 
	37.802,22.253 37.802,22.253 18.254,22.241 18.254,22.241 18.1,22.257 17.951,22.302 17.814,22.375 17.693,22.474 17.594,22.594 
	17.521,22.731 17.476,22.88 17.461,23.035 17.461,23.035 17.449,44.863 17.449,44.863 17.46,45 17.497,45.134 17.554,45.259 
	17.634,45.373 17.731,45.471 17.845,45.55 17.97,45.608 18.104,45.645 18.241,45.657 18.241,45.657 37.79,45.668 37.79,45.668 
	37.944,45.653 38.093,45.608 38.231,45.535 38.351,45.436 38.45,45.315 38.523,45.178 38.568,45.029 38.583,44.875 38.583,44.875 
	38.596,23.047 "/>
<line fill="#EBECED" stroke="#000000" stroke-width="0.5" stroke-linecap="round" stroke-linejoin="round" x1="2.087" y1="17.47" x2="1.293" y2="17.469"/>
<polygon fill="#FFFFFF" stroke="#000000" stroke-width="0.5" stroke-linecap="round" stroke-linejoin="round" points="
	63.477,57.986 63.338,57.974 63.205,57.938 63.08,57.879 62.967,57.799 62.87,57.702 62.79,57.588 62.731,57.463 62.695,57.329 
	62.683,57.191 62.683,57.191 62.688,48.857 62.688,48.857 62.673,48.702 62.628,48.553 62.555,48.417 62.457,48.296 62.335,48.197 
	62.199,48.124 62.049,48.078 61.895,48.063 61.895,48.063 41.756,48.051 41.756,48.051 41.619,48.063 41.485,48.1 41.36,48.158 
	41.247,48.237 41.148,48.335 41.069,48.448 41.011,48.573 40.975,48.707 40.962,48.845 40.962,48.845 40.948,74.424 40.948,74.424 
	40.96,74.563 40.996,74.696 41.053,74.821 41.133,74.935 41.231,75.032 41.344,75.112 41.47,75.17 41.603,75.206 41.741,75.218 
	41.741,75.218 66.642,75.232 66.642,75.232 66.796,75.217 66.946,75.172 67.083,75.099 67.203,75.001 67.302,74.88 67.375,74.743 
	67.42,74.594 67.436,74.439 67.436,74.439 67.445,58.782 67.445,58.782 67.433,58.644 67.397,58.51 67.338,58.385 67.259,58.271 
	67.162,58.173 67.048,58.094 66.922,58.035 66.79,58 66.652,57.988 66.652,57.988 63.477,57.986 "/>
<polygon fill="#FFFFFF" stroke="#000000" stroke-width="0.5" stroke-linecap="round" stroke-linejoin="round" points="
	38.582,48.844 38.566,48.688 38.521,48.539 38.448,48.402 38.349,48.282 38.229,48.183 38.091,48.11 37.943,48.064 37.788,48.049 
	37.788,48.049 18.24,48.038 18.24,48.038 18.085,48.053 17.936,48.098 17.799,48.171 17.678,48.27 17.58,48.391 17.506,48.527 
	17.461,48.676 17.447,48.832 17.447,48.832 17.432,74.411 17.432,74.411 17.446,74.565 17.491,74.715 17.564,74.852 17.663,74.973 
	17.784,75.07 17.92,75.144 18.07,75.188 18.224,75.204 18.224,75.204 37.772,75.216 37.772,75.216 37.911,75.204 38.044,75.168 
	38.169,75.11 38.282,75.03 38.38,74.933 38.46,74.819 38.518,74.694 38.554,74.561 38.567,74.423 38.567,74.423 38.582,48.844 "/>
<path fill="#FFFFFF" stroke="#000000" stroke-width="0.5" stroke-linecap="round" stroke-linejoin="round" d="M70.806,115.932
	c-0.119,0.007-0.309-0.045-0.407-0.113"/>
<path fill="#FFFFFF" stroke="#000000" stroke-width="0.5" stroke-linecap="round" stroke-linejoin="round" d="M74.744,115.821
	c-0.099,0.068-0.288,0.12-0.408,0.112"/>
</svg>
