<?xml version="1.0" encoding="utf-8"?>
<!-- Generator: Adobe Illustrator 13.0.0, SVG Export Plug-In . SVG Version: 6.00 Build 14948)  -->
<!DOCTYPE svg PUBLIC "-//W3C//DTD SVG 1.1//EN" "http://www.w3.org/Graphics/SVG/1.1/DTD/svg11.dtd">
<svg version="1.1" id="Layer_1" xmlns="http://www.w3.org/2000/svg" xmlns:xlink="http://www.w3.org/1999/xlink" x="0px" y="0px"
	 width="18.228px" height="24.88px" viewBox="0 0 18.228 24.88" enable-background="new 0 0 18.228 24.88" xml:space="preserve">
<polyline fill="#EBECED" stroke="#231F20" stroke-linecap="round" stroke-linejoin="round" points="5.198,1.603 5.198,1.674 
	4.415,1.674 2.849,1.674 "/>
<path fill="#EBECED" stroke="#231F20" stroke-linecap="round" stroke-linejoin="round" d="M4.415,14.202L4.415,14.202
	c0.432,0,0.783,0.351,0.783,0.782l0,0v8.613l0,0c0,0.432,0.351,0.783,0.783,0.783l0,0l0,0h11.744l0,0V8.057l0,0
	c0.032-0.545-0.28-1.298-0.688-1.661l0,0l-4.888-4.888l0,0c-0.362-0.408-1.115-0.72-1.661-0.688l0,0H5.981l0,0
	c-0.433,0-0.783,0.351-0.783,0.783l0,0v0.071H2.849l0,0c0-0.648-0.526-1.174-1.175-1.174C1.026,0.5,0.5,1.026,0.5,1.674l0,0l0,0
	V3.24l0,0c0,0.432,0.351,0.783,0.783,0.783l0,0l0,0h3.915l0,0v7.829l0,0H1.283l0,0c-0.433,0-0.783,0.351-0.783,0.783l0,0l0,0v3.131
	l0,0c0,0.434,0.351,0.783,0.783,0.783l0,0l0,0h0.783l0,0c0.432,0,0.783-0.35,0.783-0.783l0,0l0,0v-1.565"/>
<path fill="#FFFFFF" stroke="#231F20" stroke-width="0.5" stroke-linecap="round" stroke-linejoin="round" d="M7.546,21.248
	c0,0.433,0.351,0.783,0.783,0.783l0,0l0,0h6.264l0,0c0.432,0,0.783-0.351,0.783-0.783l0,0l0,0V8.381l0,0
	c0.011-0.182-0.093-0.433-0.229-0.554l0,0l-4.429-4.429l0,0c-0.121-0.136-0.372-0.24-0.554-0.229l0,0H8.33l0,0
	c-0.433,0-0.783,0.351-0.783,0.783l0,0l0,0V21.248L7.546,21.248z"/>
<rect x="2.849" y="14.202" fill="#EBECED" stroke="#231F20" stroke-linecap="round" stroke-linejoin="round" width="1.566" height="0"/>
</svg>
