<?xml version="1.0" encoding="utf-8"?>
<!-- Generator: Adobe Illustrator 13.0.0, SVG Export Plug-In . SVG Version: 6.00 Build 14948)  -->
<!DOCTYPE svg PUBLIC "-//W3C//DTD SVG 1.1//EN" "http://www.w3.org/Graphics/SVG/1.1/DTD/svg11.dtd">
<svg version="1.1" id="Layer_1" xmlns="http://www.w3.org/2000/svg" xmlns:xlink="http://www.w3.org/1999/xlink" x="0px" y="0px"
	 width="148.64px" height="118.146px" viewBox="0 0 148.64 118.146" enable-background="new 0 0 148.64 118.146"
	 xml:space="preserve">
<path fill="#EBECED" stroke="#000000" stroke-linecap="round" stroke-linejoin="round" d="M82.257,80.339L82.257,80.339
	c0-0.438,0.355-0.794,0.794-0.794l0,0h24.606l0,0c1.315,0,2.382-1.066,2.382-2.382l0,0l0,0V24.775l0,0l0,0
	c0-1.315,1.065-2.381,2.381-2.381l0,0h33.338l0,0c1.315,0,2.382-1.066,2.382-2.381l0,0l0,0v-1.588l0,0
	c0-0.438-0.355-0.793-0.795-0.793l0,0l0,0h-0.793l0,0l0,0c-0.438,0-0.794-0.355-0.794-0.794l0,0V9.554l0,0l0,0
	c0-0.439,0.356-0.794,0.794-0.794l0,0h0.793l0,0c0.439,0,0.795-0.355,0.795-0.793l0,0l0,0V6.44l0,0
	c0.005-1.281-1.025-2.345-2.307-2.38l0,0c-3.245-0.102-6.489-0.161-9.727,0.011l0,0c-5.834,0.31-11.648,1.368-17.506,0.888l0,0
	c-9.805-0.803-19.733-5.91-29.052-4.058l0,0c-1.489,0.296-2.963,0.77-4.428,1.334l0,0c-2.297,1.004-6.612,1.805-9.115,1.691l0,0
	h-3.373l0,0c-2.502,0.114-6.819-0.687-9.114-1.691l0,0c-1.466-0.564-2.94-1.038-4.43-1.334l0,0
	c-9.318-1.853-19.247,3.254-29.05,4.058l0,0c-5.858,0.479-11.672-0.578-17.506-0.888l0,0C9.295,3.899,6.051,3.958,2.806,4.06l0,0
	C1.526,4.096,0.495,5.159,0.5,6.44l0,0v1.525l0,0c0,0.438,0.355,0.793,0.793,0.793l0,0l0,0h0.794l0,0l0,0
	c0.438,0,0.793,0.355,0.793,0.794l0,0v7.284l0,0l0,0c0,0.438-0.355,0.794-0.793,0.794l0,0H1.293l0,0
	c-0.438,0-0.793,0.355-0.793,0.793l0,0l0,0v1.588l0,0c0,1.315,1.066,2.381,2.381,2.381l0,0l0,0h33.338l0,0l0,0
	c1.315,0,2.381,1.066,2.381,2.381l0,0v52.388l0,0c0,1.315,1.066,2.382,2.381,2.382l0,0l0,0h24.607l0,0l0,0
	c0.438,0,0.794,0.355,0.794,0.794l0,0v36.513l0,0c0,0.438,0.355,0.794,0.793,0.794l0,0l0,0h14.289l0,0
	c0.438,0,0.793-0.355,0.793-0.794l0,0l0,0V80.339L82.257,80.339z"/>
<path fill="#FFFFFF" stroke="#000000" stroke-width="0.5" stroke-linecap="round" stroke-linejoin="round" d="M80.67,47.236
	L80.67,47.236c0,0.438-0.356,0.793-0.795,0.793l0,0H68.763l0,0l0,0c-0.438,0-0.793-0.355-0.793-0.793l0,0V28.125l0,0l0,0
	c0-0.438,0.355-0.793,0.793-0.793l0,0h11.112l0,0l0,0c0.438,0,0.795,0.355,0.795,0.793l0,0V47.236L80.67,47.236z"/>
<path fill="#FFFFFF" stroke="#000000" stroke-width="0.5" stroke-linecap="round" stroke-linejoin="round" d="M80.67,76.371
	L80.67,76.371c0,0.438-0.356,0.793-0.795,0.793l0,0H68.763l0,0l0,0c-0.438,0-0.793-0.354-0.793-0.793l0,0V51.205l0,0l0,0
	c0-0.438,0.355-0.794,0.793-0.794l0,0h11.112l0,0l0,0c0.438,0,0.795,0.355,0.795,0.794l0,0V76.371L80.67,76.371z"/>
<path fill="#FFFFFF" stroke="#000000" stroke-width="0.5" stroke-linecap="round" stroke-linejoin="round" d="M80.67,24.156V6.839
	l0,0c0-0.438-0.356-0.794-0.795-0.794c-0.027,0-0.08,0.003-0.106,0.007l0,0c-0.956,0.151-2.796,0.276-3.763,0.256l0,0h-3.373l0,0
	c-0.966,0.021-2.807-0.105-3.762-0.256l0,0c-0.434-0.059-0.835,0.245-0.894,0.679c-0.004,0.027-0.008,0.08-0.007,0.107l0,0v17.317
	l0,0c0,0.439,0.355,0.794,0.793,0.794l0,0l0,0h11.112l0,0C80.314,24.95,80.67,24.595,80.67,24.156L80.67,24.156L80.67,24.156z"/>
<path fill="#FFFFFF" stroke="#000000" stroke-width="0.5" stroke-linecap="round" stroke-linejoin="round" d="M83.051,19.219
	c0,0.438,0.355,0.794,0.793,0.794l0,0l0,0h23.02l0,0c0.438,0,0.794-0.355,0.794-0.794l0,0l0,0V5.935l0,0
	c0.01-0.352-0.258-0.694-0.601-0.771l0,0c-1.307-0.326-2.596-0.652-3.867-0.949l0,0c-2.687-0.628-5.287-1.127-7.764-1.283l0,0
	c-2.478-0.156-4.76,0.037-7.123,0.729l0,0c-1.543,0.452-3.135,1.096-4.775,1.812l0,0c-0.277,0.107-0.489,0.431-0.477,0.728l0,0
	V19.219L83.051,19.219z"/>
<path fill="#FFFFFF" stroke="#000000" stroke-width="0.5" stroke-linecap="round" stroke-linejoin="round" d="M83.051,47.236
	c0,0.438,0.355,0.793,0.793,0.793l0,0l0,0h23.02l0,0c0.438,0,0.794-0.355,0.794-0.793l0,0l0,0V23.188l0,0
	c0-0.439-0.355-0.794-0.794-0.794l0,0l0,0h-23.02l0,0c-0.438,0-0.793,0.355-0.793,0.794l0,0l0,0V47.236L83.051,47.236z"/>
<path fill="#FFFFFF" stroke="#000000" stroke-width="0.5" stroke-linecap="round" stroke-linejoin="round" d="M83.051,76.371
	c0,0.438,0.355,0.793,0.793,0.793l0,0l0,0h23.02l0,0c0.438,0,0.794-0.354,0.794-0.793l0,0l0,0V51.205l0,0
	c0-0.438-0.355-0.794-0.794-0.794l0,0l0,0h-23.02l0,0c-0.438,0-0.793,0.355-0.793,0.794l0,0l0,0V76.371L83.051,76.371z"/>
<path fill="#FFFFFF" stroke="#000000" stroke-width="0.5" stroke-linecap="round" stroke-linejoin="round" d="M79.083,79.545
	L79.083,79.545c0.438,0,0.793,0.355,0.793,0.794l0,0v34.131l0,0l0,0c0,0.439-0.354,0.795-0.793,0.795l0,0h-9.525l0,0l0,0
	c-0.439,0-0.794-0.355-0.794-0.795l0,0V80.339l0,0l0,0c0-0.438,0.355-0.794,0.794-0.794l0,0H79.083L79.083,79.545z"/>
<path fill="#FFFFFF" stroke="#000000" stroke-width="0.5" stroke-linecap="round" stroke-linejoin="round" d="M110.04,6.892
	c-0.002-0.046,0.008-0.13,0.019-0.175c0.098-0.428,0.521-0.696,0.949-0.6l0,0c0.957,0.216,1.922,0.418,2.895,0.598l0,0
	c3.035,0.56,6.188,0.809,9.217,0.73l0,0c3.027-0.08,5.971-0.4,8.84-0.667l0,0c3.598-0.333,7.061-0.473,10.637-0.417l0,0
	c0.434,0.006,0.782,0.361,0.781,0.793l0,0v12.064l0,0l0,0c0,0.438-0.354,0.794-0.793,0.794l0,0h-31.751l0,0l0,0
	c-0.438,0-0.793-0.355-0.793-0.794l0,0V6.892L110.04,6.892z"/>
<path fill="#FFFFFF" stroke="#000000" stroke-width="0.5" stroke-linecap="round" stroke-linejoin="round" d="M65.588,19.219
	L65.588,19.219c0,0.438-0.355,0.794-0.794,0.794l0,0H41.776l0,0l0,0c-0.439,0-0.794-0.355-0.794-0.794l0,0V5.935l0,0
	c-0.009-0.352,0.258-0.694,0.602-0.771l0,0c1.307-0.326,2.596-0.652,3.866-0.949l0,0c2.688-0.628,5.287-1.127,7.765-1.283l0,0
	c2.477-0.156,4.759,0.037,7.123,0.729l0,0c1.542,0.452,3.135,1.096,4.776,1.812l0,0c0.277,0.107,0.489,0.431,0.476,0.728l0,0V19.219
	L65.588,19.219z"/>
<path fill="#FFFFFF" stroke="#000000" stroke-width="0.5" stroke-linecap="round" stroke-linejoin="round" d="M65.588,47.236
	L65.588,47.236c0,0.438-0.355,0.793-0.794,0.793l0,0H41.776l0,0l0,0c-0.439,0-0.794-0.355-0.794-0.793l0,0V23.188l0,0l0,0
	c0-0.439,0.355-0.794,0.794-0.794l0,0h23.019l0,0l0,0c0.439,0,0.794,0.355,0.794,0.794l0,0V47.236L65.588,47.236z"/>
<path fill="#FFFFFF" stroke="#000000" stroke-width="0.5" stroke-linecap="round" stroke-linejoin="round" d="M65.588,76.371
	L65.588,76.371c0,0.438-0.355,0.793-0.794,0.793l0,0H41.776l0,0l0,0c-0.439,0-0.794-0.354-0.794-0.793l0,0V51.205l0,0l0,0
	c0-0.438,0.355-0.794,0.794-0.794l0,0h23.019l0,0l0,0c0.439,0,0.794,0.355,0.794,0.794l0,0V76.371L65.588,76.371z"/>
<path fill="#FFFFFF" stroke="#000000" stroke-width="0.5" stroke-linecap="round" stroke-linejoin="round" d="M38.601,6.892
	c0-0.438-0.355-0.794-0.793-0.794c-0.046-0.001-0.131,0.008-0.175,0.02l0,0c-0.957,0.216-1.921,0.418-2.894,0.598l0,0
	c-3.036,0.56-6.189,0.809-9.216,0.73l0,0c-3.028-0.08-5.972-0.4-8.841-0.667l0,0C13.083,6.446,9.62,6.306,6.043,6.361l0,0
	C5.611,6.367,5.261,6.722,5.262,7.155l0,0v12.064l0,0c0,0.438,0.355,0.794,0.794,0.794l0,0l0,0h31.751l0,0
	c0.438,0,0.793-0.355,0.793-0.794l0,0l0,0V6.892L38.601,6.892z"/>
</svg>
