<?xml version="1.0" encoding="utf-8"?>
<!-- Generator: Adobe Illustrator 15.0.0, SVG Export Plug-In . SVG Version: 6.00 Build 0)  -->
<!DOCTYPE svg PUBLIC "-//W3C//DTD SVG 1.1//EN" "http://www.w3.org/Graphics/SVG/1.1/DTD/svg11.dtd">
<svg version="1.1" id="Layer_1" xmlns="http://www.w3.org/2000/svg" xmlns:xlink="http://www.w3.org/1999/xlink" x="0px" y="0px"
	 width="14.577px" height="43.4px" viewBox="0 0 14.577 43.4" enable-background="new 0 0 14.577 43.4" xml:space="preserve">
<g id="LWPOLYLINE_1_">
	<path fill="#1670B9" d="M1.083,38.399L0,38.807V43.4h14.577V0H0.074v4.593L1.156,5c1.105,0,2,0.895,2,2v1.173
		c-0.03,0.776,0.532,1.604,1.266,1.86l3.888,1.535c0.733,0.256,1.297,1.084,1.267,1.86v16.543c0.03,0.775-0.533,1.604-1.267,1.86
		l-3.888,1.534c-0.733,0.257-1.296,1.084-1.266,1.86v1.173c0,1.104-0.895,2-2,2"/>
</g>
</svg>
