<?xml version="1.0" encoding="utf-8"?>
<!-- Generator: Adobe Illustrator 15.0.0, SVG Export Plug-In . SVG Version: 6.00 Build 0)  -->
<!DOCTYPE svg PUBLIC "-//W3C//DTD SVG 1.1//EN" "http://www.w3.org/Graphics/SVG/1.1/DTD/svg11.dtd">
<svg version="1.1" id="Layer_1" xmlns="http://www.w3.org/2000/svg" xmlns:xlink="http://www.w3.org/1999/xlink" x="0px" y="0px"
	 width="141.48px" height="18.925px" viewBox="0.25 0.251 141.48 18.925" enable-background="new 0.25 0.251 141.48 18.925"
	 xml:space="preserve">
<path fill="#006699" d="M132.574,5.227h9.156l0,0v13.949l0,0H0.25l0,0V6.726l0,0h7.327l0,0c0,0.829,0.671,1.5,1.5,1.5l0,0l0,0l0,0
	c-0.829,0-1.5-0.67-1.5-1.5l0,0c0,0.829,0.671,1.5,1.5,1.5l0,0l0,0h7.555l0,0c0.502,0.007,0.944-0.389,0.994-0.888l0,0
	c0.335-3.732,3.604-6.886,7.346-7.087l0,0l4.605,7.976l0,0h14.746l0,0l0.26-0.488l0,0l0.307,0.488l0,0h14.688l0,0l1.838-3.458l0,0
	l2.162,3.458l0,0l1.838-3.458l0,0l2.162,3.458l0,0l1.837-3.458l0,0l2.163,3.458l0,0l1.837-3.458l0,0l2.163,3.458l0,0l1.837-3.458
	l0,0l2.162,3.458l0,0l1.838-3.458l0,0l2.162,3.458l0,0l1.838-3.458l0,0l2.162,3.458l0,0l1.838-3.458l0,0l2.162,3.458l0,0
	l1.839-3.458l0,0l2.161,3.458l0,0l1.838-3.458l0,0l2.162,3.458l0,0l2.126-4l0,0h20.872l0,0v2.5l0,0c0,0.829,0.67,1.5,1.501,1.5l0,0
	l0,0h5.5l0,0C131.232,8.226,132.574,6.883,132.574,5.227L132.574,5.227L132.574,5.227z"/>
</svg>
