<?xml version="1.0" encoding="utf-8"?>
<!-- Generator: Adobe Illustrator 15.0.0, SVG Export Plug-In . SVG Version: 6.00 Build 0)  -->
<!DOCTYPE svg PUBLIC "-//W3C//DTD SVG 1.1//EN" "http://www.w3.org/Graphics/SVG/1.1/DTD/svg11.dtd">
<svg version="1.1" id="Décor" xmlns="http://www.w3.org/2000/svg" xmlns:xlink="http://www.w3.org/1999/xlink" x="0px" y="0px"
	 width="940.053px" height="1884.596px" viewBox="0 0 940.053 1884.596" enable-background="new 0 0 940.053 1884.596"
	 xml:space="preserve">
<path fill="#231F20" stroke="#231F20" stroke-width="0.7087" stroke-linecap="round" stroke-linejoin="round" stroke-miterlimit="10" d="
	M432.082,853.533c-51.116,0-100.135,20.309-136.277,56.463c-35.542,35.566-83.764,55.546-134.062,55.546
	c-50.237,0-98.435-19.949-133.977-55.473c-8.476-8.47-17.66-16.069-27.412-22.74v3.811c8.937,6.263,17.374,13.326,25.198,21.145
	c36.129,36.11,85.124,56.389,136.191,56.389c51.128,0,100.147-20.31,136.277-56.463c35.554-35.566,83.776-55.545,134.061-55.545
	c50.249,0,98.435,19.949,133.976,55.473l-0.129-4.501C530.037,872.963,482.068,853.533,432.082,853.533z"/>
<path fill="#231F20" stroke="#231F20" stroke-width="0.7087" stroke-linecap="round" stroke-linejoin="round" stroke-miterlimit="10" d="
	M702.25,968.521v-3.131c-50.237-0.001-98.437-19.95-133.977-55.467c-0.76-0.759-1.533-1.502-2.305-2.247l0.089,4.462
	C602.188,948.242,651.181,968.521,702.25,968.521z"/>
<path fill="#231F20" stroke="#231F20" stroke-width="0.7087" stroke-linecap="round" stroke-linejoin="round" stroke-miterlimit="10" d="
	M569.379,852.327c-1.56-1.559-3.151-3.077-4.757-4.576l-0.02-0.54c-0.144-0.063-0.28-0.135-0.412-0.211l0.011,0.361
	c-35.855-33.279-83.022-51.875-132.12-51.875c-51.532,0-100.949,20.475-137.384,56.923c-35.249,35.272-83.072,55.086-132.955,55.086
	c-49.822,0-97.622-19.784-132.87-55.014c-8.8-8.794-18.359-16.654-28.519-23.522v7.619c8.53,6.053,16.595,12.843,24.091,20.333
	c36.423,36.404,85.815,56.848,137.298,56.848c51.543,0,100.961-20.475,137.385-56.923c35.259-35.272,83.083-55.086,132.953-55.086
	c49.604,0,97.174,19.608,132.375,54.526l0.024,0.837c0.171,0.118,0.335,0.244,0.485,0.383l-0.015-0.738
	c36.422,36.404,85.815,56.848,137.298,56.848v-6.264C652.427,907.341,604.626,887.557,569.379,852.327z"/>
<path fill="#231F20" stroke="#231F20" stroke-width="0.7087" stroke-linecap="round" stroke-linejoin="round" stroke-miterlimit="10" d="
	M571.593,787.372c-37.01-36.991-87.188-57.764-139.512-57.764c-52.362,0-102.577,20.805-139.599,57.839
	c-34.662,34.685-81.688,54.169-130.739,54.169c-48.992,0-95.995-19.455-130.655-54.098c-9.447-9.44-19.754-17.822-30.733-25.074
	v15.244c7.719,5.619,15.039,11.858,21.877,18.692c37.011,36.991,87.199,57.763,139.512,57.764c52.374,0,102.589-20.805,139.6-57.84
	c34.673-34.685,81.699-54.168,130.738-54.168c49.004,0,95.995,19.454,130.655,54.098c37.011,36.985,87.199,57.758,139.513,57.758
	v-12.528C653.257,841.464,606.253,822.009,571.593,787.372z"/>
<path fill="#231F20" stroke="#231F20" stroke-width="0.7087" stroke-linecap="round" stroke-linejoin="round" stroke-miterlimit="10" d="
	M403.477,1884.241c51.116,0,100.135-20.309,136.277-56.463c35.541-35.566,83.775-55.546,134.062-55.546
	c50.236,0,98.435,19.949,133.976,55.474c35.119,35.094,82.381,55.233,131.908,56.333v-3.133
	c-48.696-1.1-95.163-20.909-129.693-55.417c-36.129-36.109-85.124-56.389-136.19-56.389c-51.116,0-100.148,20.31-136.277,56.464
	c-35.554,35.565-83.776,55.545-134.061,55.545c-50.236,0-98.435-19.95-133.977-55.473c-0.654-0.653-1.321-1.291-1.984-1.934
	l-0.23,4.149C303.415,1863.963,352.409,1884.241,403.477,1884.241z"/>
<path fill="#231F20" stroke="#231F20" stroke-width="0.7087" stroke-linecap="round" stroke-linejoin="round" stroke-miterlimit="10" d="
	M133.309,1769.253c-49.565,0-97.17,19.098-132.954,53.219v4.364c35.434-34.88,83.189-54.451,132.954-54.451
	c50.237,0,98.435,19.949,133.977,55.468l0.186-4.193C231.547,1788.8,183.431,1769.253,133.309,1769.253z"/>
<path fill="#231F20" stroke="#231F20" stroke-width="0.7087" stroke-linecap="round" stroke-linejoin="round" stroke-miterlimit="10" d="
	M813.326,1702.939c-37.01-36.991-87.198-57.765-139.511-57.765c-52.363,0-102.589,20.805-139.601,57.841
	c-34.672,34.684-81.7,54.169-130.738,54.169c-48.991,0-95.996-19.455-130.655-54.099c-37.012-36.984-87.2-57.759-139.512-57.759
	c-49.292,0-96.689,18.439-132.955,51.497v17.379c0.744-0.721,1.483-1.445,2.216-2.179c34.66-34.684,81.699-54.169,130.738-54.169
	c48.99,0,95.996,19.455,130.655,54.092c2.64,2.639,5.354,5.185,8.124,7.656l-0.033,0.753c0.058,0.04,0.118,0.076,0.173,0.118
	l0.025-0.726c36.042,32.092,82.716,49.963,131.223,49.963c52.362,0,102.577-20.805,139.599-57.84
	c34.66-34.685,81.699-54.169,130.739-54.169c48.991,0,95.995,19.454,130.654,54.097c36.001,35.976,84.457,56.609,135.229,57.71
	v-12.53C892.248,1755.882,846.976,1736.565,813.326,1702.939z"/>
<path fill="#231F20" stroke="#231F20" stroke-width="0.7087" stroke-linecap="round" stroke-linejoin="round" stroke-miterlimit="10" d="
	M811.113,1767.895c-36.424-36.398-85.816-56.842-137.298-56.842c-51.532,0-100.962,20.475-137.385,56.923
	c-35.261,35.272-83.084,55.086-132.954,55.086c-49.821,0-97.622-19.783-132.869-55.015l0.014-0.395
	c-0.235-0.174-0.447-0.369-0.639-0.581l-0.016,0.352c-36.362-36.003-85.474-56.217-136.657-56.217
	c-49.472,0-97.005,18.873-132.955,52.632v8.719c35.249-35.272,83.084-55.087,132.955-55.087c49.821,0,97.622,19.784,132.869,55.008
	c1.126,1.126,2.266,2.235,3.416,3.331l-0.014,0.315c0.199,0.138,0.384,0.288,0.553,0.453l0.014-0.254
	c36.001,33.991,83.691,53.003,133.329,53.003c51.532,0,100.948-20.475,137.385-56.923c35.248-35.271,83.084-55.086,132.954-55.086
	c49.821,0,97.621,19.783,132.87,55.008c35.41,35.394,83.071,55.698,133.014,56.799v-6.266
	C891.417,1821.76,845.35,1802.114,811.113,1767.895z"/>
<path fill="#231F20" stroke="#231F20" stroke-width="0.7087" stroke-linecap="round" stroke-linejoin="round" stroke-miterlimit="10" d="
	M888.445,123.309C852.009,86.86,802.591,66.385,751.06,66.386c-51.494,0-100.875,20.443-137.297,56.841
	c-35.249,35.23-83.05,55.014-132.87,55.014c-35.882,0-70.689-10.267-100.525-29.15c-0.2-0.109-0.39-0.229-0.565-0.363
	c-0.354-0.226-0.7-0.465-1.053-0.693c-0.309-0.155-0.589-0.342-0.842-0.555c-0.175-0.114-0.348-0.23-0.522-0.344
	c-0.912-0.101-1.676-0.415-2.291-0.875l2.388,8.432c30.726,19.322,66.522,29.813,103.41,29.813
	c51.481,0,100.874-20.443,137.297-56.847c35.248-35.224,83.036-55.008,132.87-55.008c49.869,0,97.693,19.814,132.954,55.087
	c16.287,16.298,35.173,29.398,55.685,38.906v-6.929C920.866,150.626,903.506,138.38,888.445,123.309z"/>
<path fill="#231F20" stroke="#231F20" stroke-width="0.7087" stroke-linecap="round" stroke-linejoin="round" stroke-miterlimit="10" d="
	M457.548,440.43c-49.653-0.458-97.183-20.367-132.312-55.52c-36.13-36.154-85.161-56.464-136.277-56.464
	c-51.067,0-100.061,20.279-136.191,56.384c-15.386,15.378-33.146,27.835-52.415,37.021v3.463
	c20.107-9.396,38.63-22.279,54.629-38.27c35.542-35.518,83.74-55.466,133.977-55.466c50.285,0,98.52,19.979,134.061,55.545
	c36.13,36.154,85.161,56.463,136.278,56.463l-0.438-1.548C458.343,441.616,457.889,441.087,457.548,440.43z"/>
<path fill="#231F20" stroke="#231F20" stroke-width="0.7087" stroke-linecap="round" stroke-linejoin="round" stroke-miterlimit="10" d="
	M443.085,387.092c-0.776-1.799-1.308-3.677-1.807-5.563c-43.257-4.165-83.958-23.21-114.934-54.207
	c-36.423-36.449-85.854-56.923-137.385-56.923c-51.482,0-100.875,20.443-137.298,56.841c-15.08,15.072-32.458,27.314-51.308,36.393
	v6.927c20.527-9.498,39.431-22.593,55.736-38.889c35.248-35.223,83.048-55.007,132.87-55.007c49.87,0,97.706,19.814,132.954,55.086
	c32.55,32.573,75.49,52.37,121.033,56.216C442.986,387.672,443.023,387.378,443.085,387.092z"/>
<path fill="#231F20" stroke="#231F20" stroke-width="0.7087" stroke-linecap="round" stroke-linejoin="round" stroke-miterlimit="10" d="
	M188.96,217.05c49.039,0,96.078,19.484,130.738,54.168c29.085,29.106,66.334,48.179,106.366,55.016l0.35,1.235
	c0.389-0.061,0.777-0.124,1.166-0.184c-1.539-4.744-3.14-9.566-3.172-14.494c-0.902-0.019-1.675-0.233-2.318-0.59l0.162,0.572
	c-35.235-7.208-67.894-24.594-93.691-50.41c-37.011-37.036-87.238-57.841-139.6-57.841c-52.313,0.001-102.501,20.773-139.512,57.758
	c-14.465,14.458-31.082,26.268-49.094,35.125v13.855c21.366-9.696,41.035-23.212,57.95-40.118
	C92.965,236.505,139.968,217.049,188.96,217.05z"/>
<path fill="#231F20" stroke="#231F20" stroke-width="0.7087" stroke-linecap="round" stroke-linejoin="round" stroke-miterlimit="10" d="
	M210.555,0.354c-52.325,0-102.502,20.773-139.512,57.765C50.955,78.193,26.72,93.167,0.354,102.21v13.196
	c29.725-9.48,57.065-25.961,79.543-48.425c34.662-34.644,81.652-54.098,130.657-54.098c49.038,0,96.065,19.484,130.739,54.168
	c2.693,2.695,5.464,5.293,8.292,7.814l0.569-16.67C313.131,21.159,262.917,0.354,210.555,0.354z"/>
<path fill="#231F20" stroke="#231F20" stroke-width="0.7087" stroke-linecap="round" stroke-linejoin="round" stroke-miterlimit="10" d="
	M890.66,58.348c-37.023-37.036-87.237-57.841-139.6-57.841c-52.324,0-102.501,20.773-139.512,57.758
	c-34.66,34.643-81.665,54.098-130.655,54.098c-49.052,0-96.078-19.484-130.738-54.168c2.077,7.332,4.153,14.664,6.229,21.996
	c0.239,0.292,0.44,0.611,0.604,0.951c34.923,28.171,78.602,43.75,123.905,43.75c52.312,0,102.501-20.772,139.511-57.765
	c34.661-34.637,81.652-54.091,130.656-54.091c49.038,0,96.065,19.484,130.738,54.168c16.897,16.909,36.549,30.433,57.9,40.14V93.483
	C921.704,84.618,905.107,72.805,890.66,58.348z"/>
<path fill="#231F20" stroke="#231F20" stroke-width="0.7087" stroke-linecap="round" stroke-linejoin="round" stroke-miterlimit="10" d="
	M887.337,180.896c-36.142-36.154-85.162-56.463-136.277-56.463c-51.079,0-100.062,20.279-136.19,56.383
	c-35.542,35.523-83.741,55.473-133.977,55.473c-30.244,0-59.733-7.233-86.171-20.726l-0.167-0.589
	c-0.687-0.169-1.273-0.469-1.759-0.864c-3.29-0.92-6.272-3.099-9.096-4.89c-4.771-3.027-10.401-4.542-15.069-7.64
	c-5.001-3.321-9.096-7.692-12.4-12.693c-0.255-0.386-0.525-0.708-0.801-1.006c-1.268-0.323-2.191-1.097-2.767-2.083
	c-0.749-0.451-1.523-0.92-2.303-1.577c-0.795-0.671-1.389-1.396-1.869-2.189c-0.693-0.351-1.248-0.857-1.658-1.462l-0.003,0.175
	c-36.141-36.154-85.16-56.463-136.276-56.463c-51.08,0-100.062,20.278-136.191,56.389c-20.985,20.972-46.384,36.513-74.009,45.727
	v3.298c28.465-9.323,54.64-25.242,76.223-46.81c35.542-35.523,83.727-55.473,133.977-55.473c50.285,0,98.507,19.979,134.061,55.546
	c0.465,0.465,0.941,0.917,1.411,1.377l-0.019,0.083c1.026,0.586,1.711,1.535,2.066,2.609c0.425,0.47,0.733,1.028,0.947,1.625
	c0.708,0.233,1.403,0.668,2.041,1.361c0.144,0.156,0.272,0.325,0.411,0.485c1.697,0.272,3.308,1.282,4.125,3.222
	c1.148,2.726,5.725,4.944,7.698,7.25c1.307,1.526,2.672,3.028,4.16,4.391c0.975,0.106,1.961,0.538,2.856,1.403
	c0.808,0.782,1.72,1.383,2.68,1.902c0.567,0.161,1.067,0.409,1.491,0.731c1.988,0.884,4.096,1.57,5.989,2.652
	c1.371,0.784,2.665,1.677,3.941,2.596c0.831,0.22,1.512,0.634,2.042,1.176c1.452,0.106,2.546,0.74,3.28,1.646
	c0.372,0.09,0.74,0.184,1.12,0.26c1.257,0.254,2.152,0.841,2.739,1.605c0.983,0.081,1.805,0.398,2.447,0.895l-0.166-0.585
	c26.208,12.885,55.252,19.78,85.017,19.78c51.066,0,100.061-20.279,136.19-56.389c35.542-35.517,83.728-55.467,133.977-55.467
	c50.285,0,98.507,19.98,134.062,55.545c15.981,15.992,34.485,28.881,54.577,38.287v-3.465
	C920.446,208.737,902.706,196.275,887.337,180.896z"/>
<path fill="#231F20" stroke="#231F20" stroke-width="0.7087" stroke-linecap="round" stroke-linejoin="round" stroke-miterlimit="10" d="
	M210.555,66.232c-51.495,0-100.875,20.443-137.298,56.841C52.57,143.75,27.559,159.103,0.354,168.261v6.598
	c28.885-9.377,55.449-25.484,77.33-47.354c35.248-35.225,83.035-55.008,132.87-55.008c49.869,0,97.693,19.814,132.953,55.087
	c1.401,1.402,2.828,2.771,4.266,4.125l0.165-8.554C311.503,86.707,262.086,66.231,210.555,66.232z"/>
<path fill="#231F20" stroke="#231F20" stroke-miterlimit="10" d="M380.881,149.485c-0.617-0.228-1.128-0.58-1.557-1.002
	c-0.461-0.198-0.858-0.47-1.205-0.786c-0.556-0.149-1.036-0.394-1.457-0.697c-0.611-0.159-1.132-0.43-1.582-0.772
	c-1.137-0.315-1.988-1-2.552-1.873c-3.922-2.407-7.594-5.266-11.299-8.042c-3.174-2.378-6.194-4.748-8.754-7.805
	c-1.559-1.862-3.229-3.324-4.481-5.191c-0.624-0.367-1.117-0.872-1.487-1.454c-0.557,2.383-1.35,4.721-1.896,7.114
	c0.192,0.117,0.368,0.25,0.536,0.39c0.024,0.021,0.049,0.041,0.073,0.062c0.292,0.258,0.539,0.555,0.753,0.873
	c0.793,0.517,1.366,1.259,1.718,2.104c0.182,0.191,0.347,0.404,0.52,0.607c1.01,0.478,1.732,1.286,2.165,2.237
	c0.686,0.427,1.211,1.02,1.581,1.704c0.948,0.413,1.655,1.108,2.118,1.946c1.342,0.986,2.662,1.999,3.905,3.112
	c2.316,2.076,4.808,3.961,7.208,5.938c1.074,0.259,1.903,0.84,2.489,1.6c1.005,0.298,1.798,0.865,2.342,1.619
	c0.111,0.047,0.218,0.094,0.329,0.142c2.181,0.934,4.068,2.402,6.06,3.648c0.966,0.105,1.763,0.451,2.396,0.954
	c0.663,0.136,1.239,0.388,1.726,0.732c-0.415-1.382-0.546-2.528-0.253-4.235C380.43,151.515,380.684,150.506,380.881,149.485z"/>
<path fill="#231F20" stroke="#231F20" stroke-miterlimit="10" d="M348.776,68.772c-0.221,1.39-0.325,2.094,0.162,3.511
	c0.256,0.744-0.012,1.659,0.201,2.379c0.594,0.367,1.066,0.86,1.422,1.427c0.314,0.227,0.59,0.49,0.829,0.782
	c0.812,0.257,1.452,0.724,1.957,1.296c0.315,0.163,0.592,0.368,0.849,0.591c1.24,0.36,2.136,1.163,2.683,2.167
	c0.006,0.005,0.014,0.009,0.02,0.014c0.107-0.48,0.185-0.984,0.131-1.416c-0.112-0.891-0.878-1.865-1.175-2.742
	c-0.78-2.309-0.891-4.848-1.583-7.156c-0.296-0.986-0.844-2.027-1.139-3.091c-0.307-1.11-0.623-1.922-1.194-2.944
	c-0.582-1.041-1.384-4.627-2.831-2.708c-0.999,1.324-0.679,2.96-0.331,4.48C349.025,66.45,348.955,67.654,348.776,68.772z"/>
</svg>
