<?xml version="1.0" encoding="utf-8"?>
<!-- Generator: Adobe Illustrator 15.0.2, SVG Export Plug-In . SVG Version: 6.00 Build 0)  -->
<!DOCTYPE svg PUBLIC "-//W3C//DTD SVG 1.1//EN" "http://www.w3.org/Graphics/SVG/1.1/DTD/svg11.dtd">
<svg version="1.1" xmlns="http://www.w3.org/2000/svg" xmlns:xlink="http://www.w3.org/1999/xlink" x="0px" y="0px"
	 width="1000.709px" height="2250.709px" viewBox="0 0 1000.709 2250.709" enable-background="new 0 0 1000.709 2250.709"
	 xml:space="preserve">
<g id="AXES">
	<g id="LINE">
		
			<line stroke="#000000" stroke-width="0.7087" stroke-linecap="round" stroke-linejoin="round" stroke-miterlimit="10" stroke-dasharray="1000,889,889,889" x1="1000.354" y1="2250.354" x2="1000.354" y2="0.354"/>
	</g>
	<g id="LINE_1_">
		
			<line stroke="#000000" stroke-width="0.7087" stroke-linecap="round" stroke-linejoin="round" stroke-miterlimit="10" stroke-dasharray="1000,889,889,889" x1="0.354" y1="2250.354" x2="0.354" y2="0.354"/>
	</g>
	<g id="LINE_5_">
		
			<line stroke="#000000" stroke-width="0.7087" stroke-linecap="round" stroke-linejoin="round" stroke-miterlimit="10" stroke-dasharray="1000,889,889,889" x1="0.354" y1="2250.354" x2="1000.354" y2="2250.354"/>
	</g>
	<g id="LINE_6_">
		
			<line stroke="#000000" stroke-width="0.7087" stroke-linecap="round" stroke-linejoin="round" stroke-miterlimit="10" stroke-dasharray="1000,889,889,889" x1="0.354" y1="0.354" x2="1000.354" y2="0.354"/>
	</g>
</g>
<g id="Cotation">
</g>
<g id="poignée_VAR">
	<g id="ARC">
		<path stroke="#000000" stroke-width="0.7087" stroke-linecap="round" stroke-linejoin="round" stroke-miterlimit="10" d="
			M840.969,1178.34c-2.753,0.345-5.372,1.382-7.614,3.015"/>
	</g>
	<g id="ARC_1_">
		<path stroke="#000000" stroke-width="0.7087" stroke-linecap="round" stroke-linejoin="round" stroke-miterlimit="10" d="
			M833.354,1189.354c2.242,1.633,4.861,2.67,7.614,3.015"/>
	</g>
	<g id="ARC_2_">
		<path stroke="#000000" stroke-width="0.7087" stroke-linecap="round" stroke-linejoin="round" stroke-miterlimit="10" d="
			M831.522,1183.445c-0.646,1.19-0.646,2.628,0,3.818"/>
	</g>
	<g id="ARC_3_">
		<path stroke="#000000" stroke-width="0.7087" stroke-linecap="round" stroke-linejoin="round" stroke-miterlimit="10" d="
			M831.522,1187.264c0.448,0.824,1.074,1.538,1.832,2.091"/>
	</g>
	<g id="ARC_4_">
		<path stroke="#000000" stroke-width="0.7087" stroke-linecap="round" stroke-linejoin="round" stroke-miterlimit="10" d="
			M833.354,1181.354c-0.758,0.552-1.384,1.267-1.832,2.091"/>
	</g>
</g>
<g id="poignée_VAP">
	<g id="ARC_5_">
		<path stroke="#000000" stroke-width="0.7087" stroke-linecap="round" stroke-linejoin="round" stroke-miterlimit="10" d="
			M833.354,1181.354c-0.758,0.552-1.384,1.267-1.832,2.091"/>
	</g>
	<g id="ARC_6_">
		<path stroke="#000000" stroke-width="0.7087" stroke-linecap="round" stroke-linejoin="round" stroke-miterlimit="10" d="
			M831.522,1183.445c-0.646,1.19-0.646,2.628,0,3.818"/>
	</g>
	<g id="ARC_7_">
		<path stroke="#000000" stroke-width="0.7087" stroke-linecap="round" stroke-linejoin="round" stroke-miterlimit="10" d="
			M831.522,1187.264c0.448,0.824,1.074,1.538,1.832,2.091"/>
	</g>
	<g id="ARC_8_">
		<path stroke="#000000" stroke-width="0.7087" stroke-linecap="round" stroke-linejoin="round" stroke-miterlimit="10" d="
			M840.969,1178.34c-2.753,0.345-5.372,1.382-7.614,3.015"/>
	</g>
	<g id="ARC_9_">
		<path stroke="#000000" stroke-width="0.7087" stroke-linecap="round" stroke-linejoin="round" stroke-miterlimit="10" d="
			M833.354,1189.354c2.242,1.633,4.861,2.67,7.614,3.015"/>
	</g>
</g>
<g id="Décor">
	<g id="HATCH">
		<path fill-rule="evenodd" clip-rule="evenodd" stroke="#000000" stroke-miterlimit="10" d="M622.283,2209.721l0.001-2185.366
			h4.786v2185.366H622.283L622.283,2209.721z M640.916,2209.721V24.354h4.79l-0.001,2185.366H640.916L640.916,2209.721z
			 M682.807,2209.721l0.001-2185.366h30.671l-0.001,2185.366H682.807L682.807,2209.721z M751.443,2209.721l0.001-2185.366h113.911
			v2185.366H751.443L751.443,2209.721z"/>
	</g>
	<g id="LINE_10_">
		
			<line stroke="#000000" stroke-width="0.7087" stroke-linecap="round" stroke-linejoin="round" stroke-miterlimit="10" x1="627.07" y1="24.354" x2="627.07" y2="2209.721"/>
	</g>
	<g id="LINE_11_">
		
			<line stroke="#000000" stroke-width="0.7087" stroke-linecap="round" stroke-linejoin="round" stroke-miterlimit="10" x1="645.705" y1="24.354" x2="645.705" y2="2209.721"/>
	</g>
	<g id="LINE_12_">
		
			<line stroke="#000000" stroke-width="0.7087" stroke-linecap="round" stroke-linejoin="round" stroke-miterlimit="10" x1="865.354" y1="24.354" x2="865.354" y2="2209.721"/>
	</g>
	<g id="LINE_13_">
		
			<line stroke="#000000" stroke-width="0.7087" stroke-linecap="round" stroke-linejoin="round" stroke-miterlimit="10" x1="713.479" y1="24.354" x2="713.478" y2="2209.721"/>
	</g>
	<g id="LINE_14_">
		
			<line stroke="#000000" stroke-width="0.7087" stroke-linecap="round" stroke-linejoin="round" stroke-miterlimit="10" x1="622.284" y1="24.354" x2="627.07" y2="24.354"/>
	</g>
	<g id="LINE_15_">
		
			<line stroke="#000000" stroke-width="0.7087" stroke-linecap="round" stroke-linejoin="round" stroke-miterlimit="10" x1="640.916" y1="24.354" x2="645.705" y2="24.354"/>
	</g>
	<g id="LINE_16_">
		
			<line stroke="#000000" stroke-width="0.7087" stroke-linecap="round" stroke-linejoin="round" stroke-miterlimit="10" x1="751.444" y1="24.354" x2="865.354" y2="24.354"/>
	</g>
	<g id="LINE_17_">
		
			<line stroke="#000000" stroke-width="0.7087" stroke-linecap="round" stroke-linejoin="round" stroke-miterlimit="10" x1="682.808" y1="24.354" x2="713.479" y2="24.354"/>
	</g>
	<g id="LINE_18_">
		
			<line stroke="#000000" stroke-width="0.7087" stroke-linecap="round" stroke-linejoin="round" stroke-miterlimit="10" x1="627.07" y1="2209.721" x2="622.283" y2="2209.721"/>
	</g>
	<g id="LINE_19_">
		
			<line stroke="#000000" stroke-width="0.7087" stroke-linecap="round" stroke-linejoin="round" stroke-miterlimit="10" x1="645.705" y1="2209.721" x2="640.915" y2="2209.721"/>
	</g>
	<g id="LINE_20_">
		
			<line stroke="#000000" stroke-width="0.7087" stroke-linecap="round" stroke-linejoin="round" stroke-miterlimit="10" x1="682.807" y1="2209.721" x2="713.478" y2="2209.721"/>
	</g>
	<g id="LINE_21_">
		
			<line stroke="#000000" stroke-width="0.7087" stroke-linecap="round" stroke-linejoin="round" stroke-miterlimit="10" x1="865.354" y1="2209.721" x2="751.443" y2="2209.721"/>
	</g>
	<g id="LINE_22_">
		
			<line stroke="#000000" stroke-width="0.7087" stroke-linecap="round" stroke-linejoin="round" stroke-miterlimit="10" x1="751.443" y1="2209.721" x2="751.444" y2="24.354"/>
	</g>
	<g id="LINE_23_">
		
			<line stroke="#000000" stroke-width="0.7087" stroke-linecap="round" stroke-linejoin="round" stroke-miterlimit="10" x1="682.807" y1="2209.721" x2="682.808" y2="24.354"/>
	</g>
	<g id="LINE_24_">
		
			<line stroke="#000000" stroke-width="0.7087" stroke-linecap="round" stroke-linejoin="round" stroke-miterlimit="10" x1="640.915" y1="2209.721" x2="640.916" y2="24.354"/>
	</g>
	<g id="LINE_25_">
		
			<line stroke="#000000" stroke-width="0.7087" stroke-linecap="round" stroke-linejoin="round" stroke-miterlimit="10" x1="622.283" y1="2209.721" x2="622.284" y2="24.354"/>
	</g>
</g>
<g id="boite_aux_lettres">
	<g id="LINE_26_">
		
			<line stroke="#000000" stroke-width="0.7087" stroke-linecap="round" stroke-linejoin="round" stroke-miterlimit="10" x1="622.354" y1="1341.555" x2="622.354" y2="1281.555"/>
	</g>
</g>
<g id="TBG">
	<g id="LINE_27_">
		
			<line stroke="#000000" stroke-width="0.7087" stroke-linecap="round" stroke-linejoin="round" stroke-miterlimit="10" x1="852.946" y1="385.354" x2="852.446" y2="385.854"/>
	</g>
	<g id="LINE_28_">
		
			<line stroke="#000000" stroke-width="0.7087" stroke-linecap="round" stroke-linejoin="round" stroke-miterlimit="10" x1="852.446" y1="1984.854" x2="852.946" y2="1985.354"/>
	</g>
</g>
<g id="TBP">
	<g id="LINE_29_">
		
			<line stroke="#000000" stroke-width="0.7087" stroke-linecap="round" stroke-linejoin="round" stroke-miterlimit="10" x1="852.946" y1="1005.354" x2="852.446" y2="1005.854"/>
	</g>
	<g id="LINE_30_">
		
			<line stroke="#000000" stroke-width="0.7087" stroke-linecap="round" stroke-linejoin="round" stroke-miterlimit="10" x1="852.446" y1="1504.854" x2="852.946" y2="1505.354"/>
	</g>
</g>
</svg>
