<?xml version="1.0" encoding="utf-8"?>
<!-- Generator: Adobe Illustrator 15.0.0, SVG Export Plug-In . SVG Version: 6.00 Build 0)  -->
<!DOCTYPE svg PUBLIC "-//W3C//DTD SVG 1.1//EN" "http://www.w3.org/Graphics/SVG/1.1/DTD/svg11.dtd">
<svg version="1.1" id="Décor" xmlns="http://www.w3.org/2000/svg" xmlns:xlink="http://www.w3.org/1999/xlink" x="0px" y="0px"
	 width="301px" height="1887px" viewBox="0 0 301 1887" enable-background="new 0 0 301 1887" xml:space="preserve">
<g id="POLYLINE">
	<polyline stroke="#000000" stroke-width="0.7087" stroke-linecap="round" stroke-linejoin="round" stroke-miterlimit="10" points="
		0.5,1657.913 0.5,1675.001 300.5,1675.001 300.5,1657.913 0.5,1657.913 	"/>
</g>
<g id="HATCH">
	<path fill-rule="evenodd" clip-rule="evenodd" stroke="#000000" stroke-miterlimit="10" d="M300.5,515.235V345.629H0.5v169.606
		H300.5L300.5,515.235z M0.5,1354.164v17.089h300v-17.089H0.5L0.5,1354.164z M0.5,1326.551v17.089h300v-17.089H0.5L0.5,1326.551z
		 M0.5,1381.779v17.087h300v-17.087H0.5L0.5,1381.779z M0.5,1160.871v17.088h300v-17.088H0.5L0.5,1160.871z M0.5,1409.392v17.088
		h300v-17.088H0.5L0.5,1409.392z M0.5,1188.484v17.087h300v-17.087H0.5L0.5,1188.484z M0.5,1216.098v17.087h300v-17.087H0.5
		L0.5,1216.098z M0.5,1243.711v17.088h300v-17.088H0.5L0.5,1243.711z M0.5,1298.938v17.087h300v-17.087H0.5L0.5,1298.938z
		 M0.5,1271.324v17.088h300v-17.088H0.5L0.5,1271.324z M0.5,1437.005v17.088h300v-17.088H0.5L0.5,1437.005z M0.5,1105.644v17.087
		h300v-17.087H0.5L0.5,1105.644z M0.5,774.282v17.087h300v-17.087H0.5L0.5,774.282z M0.5,691.441v17.088h300v-17.088H0.5
		L0.5,691.441z M0.5,663.828v17.088h300v-17.088H0.5L0.5,663.828z M0.5,719.055v17.088h300v-17.088H0.5L0.5,719.055z M0.5,746.668
		v17.088h300v-17.088H0.5L0.5,746.668z M0.5,636.215v17.087h300v-17.087H0.5L0.5,636.215z M0.5,525.761v17.087h300v-17.087H0.5
		L0.5,525.761z M0.5,608.601v17.088h300v-17.088H0.5L0.5,608.601z M0.5,553.374v17.088h300v-17.088H0.5L0.5,553.374z M0.5,580.987
		v17.088h300v-17.088H0.5L0.5,580.987z M0.5,995.19v17.087h300V995.19H0.5L0.5,995.19z M0.5,1133.257v17.087h300v-17.087H0.5
		L0.5,1133.257z M0.5,1022.803v17.088h300v-17.088H0.5L0.5,1022.803z M0.5,801.896v17.088h300v-17.088H0.5L0.5,801.896z
		 M0.5,1050.417v17.087h300v-17.087H0.5L0.5,1050.417z M0.5,967.577v17.087h300v-17.087H0.5L0.5,967.577z M0.5,1078.03v17.088h300
		v-17.088H0.5L0.5,1078.03z M0.5,829.509v17.088h300v-17.088H0.5L0.5,829.509z M0.5,857.122v17.088h300v-17.088H0.5L0.5,857.122z
		 M0.5,939.963v17.088h300v-17.088H0.5L0.5,939.963z M0.5,912.35v17.087h300V912.35H0.5L0.5,912.35z M0.5,884.735v17.088h300
		v-17.088H0.5L0.5,884.735z M0.5,1657.913v17.088h300v-17.088H0.5L0.5,1657.913z M300.5,1785.455v-17.089H0.5v17.089H300.5
		L300.5,1785.455z M0.5,1492.232v17.087h300v-17.087H0.5L0.5,1492.232z M0.5,1713.14v17.088h300v-17.088H0.5L0.5,1713.14z
		 M0.5,1740.753v17.089h300v-17.089H0.5L0.5,1740.753z M0.5,1685.526v17.088h300v-17.088H0.5L0.5,1685.526z M0.5,1630.3v17.087h300
		V1630.3H0.5L0.5,1630.3z M0.5,1547.459v17.087h300v-17.087H0.5L0.5,1547.459z M0.5,1519.846v17.087h300v-17.087H0.5L0.5,1519.846z
		 M0.5,1602.687v17.087h300v-17.087H0.5L0.5,1602.687z M0.5,1575.073v17.087h300v-17.087H0.5L0.5,1575.073z M0.5,1795.98v90.52h300
		v-90.52H0.5L0.5,1795.98z M0.5,1464.619v17.087h300v-17.087H0.5L0.5,1464.619z"/>
</g>
<g id="POLYLINE_1_">
	<polyline stroke="#000000" stroke-width="0.7087" stroke-linecap="round" stroke-linejoin="round" stroke-miterlimit="10" points="
		300.5,1785.455 300.5,1768.366 0.5,1768.366 0.5,1785.455 300.5,1785.455 	"/>
</g>
<g id="POLYLINE_2_">
	<polyline stroke="#000000" stroke-width="0.7087" stroke-linecap="round" stroke-linejoin="round" stroke-miterlimit="10" points="
		0.5,1713.14 0.5,1730.227 300.5,1730.227 300.5,1713.14 0.5,1713.14 	"/>
</g>
<g id="POLYLINE_3_">
	<polyline stroke="#000000" stroke-width="0.7087" stroke-linecap="round" stroke-linejoin="round" stroke-miterlimit="10" points="
		0.5,1740.753 0.5,1757.842 300.5,1757.842 300.5,1740.753 0.5,1740.753 	"/>
</g>
<g id="POLYLINE_4_">
	<polyline stroke="#000000" stroke-width="0.7087" stroke-linecap="round" stroke-linejoin="round" stroke-miterlimit="10" points="
		0.5,1685.526 0.5,1702.614 300.5,1702.614 300.5,1685.526 0.5,1685.526 	"/>
</g>
<g id="POLYLINE_5_">
	<polyline stroke="#000000" stroke-width="0.7087" stroke-linecap="round" stroke-linejoin="round" stroke-miterlimit="10" points="
		0.5,1795.98 0.5,1886.5 300.5,1886.5 300.5,1795.98 0.5,1795.98 	"/>
</g>
<g id="POLYLINE_6_">
	<polyline stroke="#000000" stroke-width="0.7087" stroke-linecap="round" stroke-linejoin="round" stroke-miterlimit="10" points="
		0.5,1354.164 0.5,1371.253 300.5,1371.253 300.5,1354.164 0.5,1354.164 	"/>
</g>
<g id="POLYLINE_7_">
	<polyline stroke="#000000" stroke-width="0.7087" stroke-linecap="round" stroke-linejoin="round" stroke-miterlimit="10" points="
		0.5,1326.551 0.5,1343.64 300.5,1343.64 300.5,1326.551 0.5,1326.551 	"/>
</g>
<g id="POLYLINE_8_">
	<polyline stroke="#000000" stroke-width="0.7087" stroke-linecap="round" stroke-linejoin="round" stroke-miterlimit="10" points="
		0.5,1381.778 0.5,1398.866 300.5,1398.866 300.5,1381.778 0.5,1381.778 	"/>
</g>
<g id="POLYLINE_9_">
	<polyline stroke="#000000" stroke-width="0.7087" stroke-linecap="round" stroke-linejoin="round" stroke-miterlimit="10" points="
		0.5,1409.392 0.5,1426.479 300.5,1426.479 300.5,1409.392 0.5,1409.392 	"/>
</g>
<g id="POLYLINE_10_">
	<polyline stroke="#000000" stroke-width="0.7087" stroke-linecap="round" stroke-linejoin="round" stroke-miterlimit="10" points="
		0.5,1188.484 0.5,1205.571 300.5,1205.571 300.5,1188.484 0.5,1188.484 	"/>
</g>
<g id="POLYLINE_11_">
	<polyline stroke="#000000" stroke-width="0.7087" stroke-linecap="round" stroke-linejoin="round" stroke-miterlimit="10" points="
		0.5,1216.098 0.5,1233.185 300.5,1233.185 300.5,1216.098 0.5,1216.098 	"/>
</g>
<g id="POLYLINE_12_">
	<polyline stroke="#000000" stroke-width="0.7087" stroke-linecap="round" stroke-linejoin="round" stroke-miterlimit="10" points="
		0.5,1243.711 0.5,1260.799 300.5,1260.799 300.5,1243.711 0.5,1243.711 	"/>
</g>
<g id="POLYLINE_13_">
	<polyline stroke="#000000" stroke-width="0.7087" stroke-linecap="round" stroke-linejoin="round" stroke-miterlimit="10" points="
		0.5,1298.938 0.5,1316.025 300.5,1316.025 300.5,1298.938 0.5,1298.938 	"/>
</g>
<g id="POLYLINE_14_">
	<polyline stroke="#000000" stroke-width="0.7087" stroke-linecap="round" stroke-linejoin="round" stroke-miterlimit="10" points="
		0.5,1271.324 0.5,1288.412 300.5,1288.412 300.5,1271.324 0.5,1271.324 	"/>
</g>
<g id="POLYLINE_15_">
	<polyline stroke="#000000" stroke-width="0.7087" stroke-linecap="round" stroke-linejoin="round" stroke-miterlimit="10" points="
		0.5,1437.005 0.5,1454.093 300.5,1454.093 300.5,1437.005 0.5,1437.005 	"/>
</g>
<g id="POLYLINE_16_">
	<polyline stroke="#000000" stroke-width="0.7087" stroke-linecap="round" stroke-linejoin="round" stroke-miterlimit="10" points="
		0.5,1492.232 0.5,1509.319 300.5,1509.319 300.5,1492.232 0.5,1492.232 	"/>
</g>
<g id="POLYLINE_17_">
	<polyline stroke="#000000" stroke-width="0.7087" stroke-linecap="round" stroke-linejoin="round" stroke-miterlimit="10" points="
		0.5,1630.3 0.5,1647.387 300.5,1647.387 300.5,1630.3 0.5,1630.3 	"/>
</g>
<g id="POLYLINE_18_">
	<polyline stroke="#000000" stroke-width="0.7087" stroke-linecap="round" stroke-linejoin="round" stroke-miterlimit="10" points="
		0.5,1547.459 0.5,1564.546 300.5,1564.546 300.5,1547.459 0.5,1547.459 	"/>
</g>
<g id="POLYLINE_19_">
	<polyline stroke="#000000" stroke-width="0.7087" stroke-linecap="round" stroke-linejoin="round" stroke-miterlimit="10" points="
		0.5,1519.845 0.5,1536.933 300.5,1536.933 300.5,1519.845 0.5,1519.845 	"/>
</g>
<g id="POLYLINE_20_">
	<polyline stroke="#000000" stroke-width="0.7087" stroke-linecap="round" stroke-linejoin="round" stroke-miterlimit="10" points="
		0.5,1602.686 0.5,1619.773 300.5,1619.773 300.5,1602.686 0.5,1602.686 	"/>
</g>
<g id="POLYLINE_21_">
	<polyline stroke="#000000" stroke-width="0.7087" stroke-linecap="round" stroke-linejoin="round" stroke-miterlimit="10" points="
		0.5,1575.073 0.5,1592.16 300.5,1592.16 300.5,1575.073 0.5,1575.073 	"/>
</g>
<g id="POLYLINE_22_">
	<polyline stroke="#000000" stroke-width="0.7087" stroke-linecap="round" stroke-linejoin="round" stroke-miterlimit="10" points="
		0.5,1464.619 0.5,1481.706 300.5,1481.706 300.5,1464.619 0.5,1464.619 	"/>
</g>
<g id="POLYLINE_23_">
	<polyline stroke="#000000" stroke-width="0.7087" stroke-linecap="round" stroke-linejoin="round" stroke-miterlimit="10" points="
		0.5,1160.871 0.5,1177.959 300.5,1177.959 300.5,1160.871 0.5,1160.871 	"/>
</g>
<g id="POLYLINE_24_">
	<polyline stroke="#000000" stroke-width="0.7087" stroke-linecap="round" stroke-linejoin="round" stroke-miterlimit="10" points="
		0.5,1105.644 0.5,1122.73 300.5,1122.73 300.5,1105.644 0.5,1105.644 	"/>
</g>
<g id="POLYLINE_25_">
	<polyline stroke="#000000" stroke-width="0.7087" stroke-linecap="round" stroke-linejoin="round" stroke-miterlimit="10" points="
		0.5,774.282 0.5,791.369 300.5,791.369 300.5,774.282 0.5,774.282 	"/>
</g>
<g id="POLYLINE_26_">
	<polyline stroke="#000000" stroke-width="0.7087" stroke-linecap="round" stroke-linejoin="round" stroke-miterlimit="10" points="
		0.5,719.055 0.5,736.143 300.5,736.143 300.5,719.055 0.5,719.055 	"/>
</g>
<g id="POLYLINE_27_">
	<polyline stroke="#000000" stroke-width="0.7087" stroke-linecap="round" stroke-linejoin="round" stroke-miterlimit="10" points="
		0.5,746.668 0.5,763.756 300.5,763.756 300.5,746.668 0.5,746.668 	"/>
</g>
<g id="POLYLINE_28_">
	<polyline stroke="#000000" stroke-width="0.7087" stroke-linecap="round" stroke-linejoin="round" stroke-miterlimit="10" points="
		0.5,995.189 0.5,1012.277 300.5,1012.277 300.5,995.189 0.5,995.189 	"/>
</g>
<g id="POLYLINE_29_">
	<polyline stroke="#000000" stroke-width="0.7087" stroke-linecap="round" stroke-linejoin="round" stroke-miterlimit="10" points="
		0.5,1133.257 0.5,1150.344 300.5,1150.344 300.5,1133.257 0.5,1133.257 	"/>
</g>
<g id="POLYLINE_30_">
	<polyline stroke="#000000" stroke-width="0.7087" stroke-linecap="round" stroke-linejoin="round" stroke-miterlimit="10" points="
		0.5,1022.803 0.5,1039.891 300.5,1039.891 300.5,1022.803 0.5,1022.803 	"/>
</g>
<g id="POLYLINE_31_">
	<polyline stroke="#000000" stroke-width="0.7087" stroke-linecap="round" stroke-linejoin="round" stroke-miterlimit="10" points="
		0.5,801.895 0.5,818.983 300.5,818.983 300.5,801.895 0.5,801.895 	"/>
</g>
<g id="POLYLINE_32_">
	<polyline stroke="#000000" stroke-width="0.7087" stroke-linecap="round" stroke-linejoin="round" stroke-miterlimit="10" points="
		0.5,1050.417 0.5,1067.504 300.5,1067.504 300.5,1050.417 0.5,1050.417 	"/>
</g>
<g id="POLYLINE_33_">
	<polyline stroke="#000000" stroke-width="0.7087" stroke-linecap="round" stroke-linejoin="round" stroke-miterlimit="10" points="
		0.5,967.577 0.5,984.664 300.5,984.664 300.5,967.577 0.5,967.577 	"/>
</g>
<g id="POLYLINE_34_">
	<polyline stroke="#000000" stroke-width="0.7087" stroke-linecap="round" stroke-linejoin="round" stroke-miterlimit="10" points="
		0.5,1078.03 0.5,1095.118 300.5,1095.118 300.5,1078.03 0.5,1078.03 	"/>
</g>
<g id="POLYLINE_35_">
	<polyline stroke="#000000" stroke-width="0.7087" stroke-linecap="round" stroke-linejoin="round" stroke-miterlimit="10" points="
		0.5,829.509 0.5,846.597 300.5,846.597 300.5,829.509 0.5,829.509 	"/>
</g>
<g id="POLYLINE_36_">
	<polyline stroke="#000000" stroke-width="0.7087" stroke-linecap="round" stroke-linejoin="round" stroke-miterlimit="10" points="
		0.5,857.122 0.5,874.21 300.5,874.21 300.5,857.122 0.5,857.122 	"/>
</g>
<g id="POLYLINE_37_">
	<polyline stroke="#000000" stroke-width="0.7087" stroke-linecap="round" stroke-linejoin="round" stroke-miterlimit="10" points="
		0.5,939.963 0.5,957.051 300.5,957.051 300.5,939.963 0.5,939.963 	"/>
</g>
<g id="POLYLINE_38_">
	<polyline stroke="#000000" stroke-width="0.7087" stroke-linecap="round" stroke-linejoin="round" stroke-miterlimit="10" points="
		0.5,912.349 0.5,929.437 300.5,929.437 300.5,912.349 0.5,912.349 	"/>
</g>
<g id="POLYLINE_39_">
	<polyline stroke="#000000" stroke-width="0.7087" stroke-linecap="round" stroke-linejoin="round" stroke-miterlimit="10" points="
		0.5,884.735 0.5,901.823 300.5,901.823 300.5,884.735 0.5,884.735 	"/>
</g>
<g id="POLYLINE_40_">
	<polyline stroke="#000000" stroke-width="0.7087" stroke-linecap="round" stroke-linejoin="round" stroke-miterlimit="10" points="
		300.5,515.235 300.5,345.629 0.5,345.629 0.5,515.235 300.5,515.235 	"/>
</g>
<g id="POLYLINE_41_">
	<polyline stroke="#000000" stroke-width="0.7087" stroke-linecap="round" stroke-linejoin="round" stroke-miterlimit="10" points="
		0.5,691.441 0.5,708.529 300.5,708.529 300.5,691.441 0.5,691.441 	"/>
</g>
<g id="POLYLINE_42_">
	<polyline stroke="#000000" stroke-width="0.7087" stroke-linecap="round" stroke-linejoin="round" stroke-miterlimit="10" points="
		0.5,663.828 0.5,680.916 300.5,680.916 300.5,663.828 0.5,663.828 	"/>
</g>
<g id="POLYLINE_43_">
	<polyline stroke="#000000" stroke-width="0.7087" stroke-linecap="round" stroke-linejoin="round" stroke-miterlimit="10" points="
		0.5,636.214 0.5,653.302 300.5,653.302 300.5,636.214 0.5,636.214 	"/>
</g>
<g id="POLYLINE_44_">
	<polyline stroke="#000000" stroke-width="0.7087" stroke-linecap="round" stroke-linejoin="round" stroke-miterlimit="10" points="
		0.5,525.761 0.5,542.848 300.5,542.848 300.5,525.761 0.5,525.761 	"/>
</g>
<g id="POLYLINE_45_">
	<polyline stroke="#000000" stroke-width="0.7087" stroke-linecap="round" stroke-linejoin="round" stroke-miterlimit="10" points="
		0.5,608.601 0.5,625.688 300.5,625.688 300.5,608.601 0.5,608.601 	"/>
</g>
<g id="POLYLINE_46_">
	<polyline stroke="#000000" stroke-width="0.7087" stroke-linecap="round" stroke-linejoin="round" stroke-miterlimit="10" points="
		0.5,553.374 0.5,570.461 300.5,570.461 300.5,553.374 0.5,553.374 	"/>
</g>
<g id="POLYLINE_47_">
	<polyline stroke="#000000" stroke-width="0.7087" stroke-linecap="round" stroke-linejoin="round" stroke-miterlimit="10" points="
		0.5,580.987 0.5,598.075 300.5,598.075 300.5,580.987 0.5,580.987 	"/>
</g>
<g id="HATCH_1_">
	
		<rect x="5.5" y="0.5" fill-rule="evenodd" clip-rule="evenodd" stroke="#000000" stroke-miterlimit="10" width="290" height="290"/>
</g>
<g id="LWPOLYLINE">
	
		<rect x="5.5" y="0.5" stroke="#000000" stroke-width="0.8504" stroke-linecap="round" stroke-linejoin="round" stroke-miterlimit="10" width="290" height="290"/>
</g>
</svg>
