<?xml version="1.0" encoding="utf-8"?>
<!-- Generator: Adobe Illustrator 15.0.2, SVG Export Plug-In . SVG Version: 6.00 Build 0)  -->
<!DOCTYPE svg PUBLIC "-//W3C//DTD SVG 1.1//EN" "http://www.w3.org/Graphics/SVG/1.1/DTD/svg11.dtd">
<svg version="1.1" xmlns="http://www.w3.org/2000/svg" xmlns:xlink="http://www.w3.org/1999/xlink" x="0px" y="0px"
	 width="946.708px" height="1918px" viewBox="0 0 946.708 1918" enable-background="new 0 0 946.708 1918" xml:space="preserve">
<g id="ELEVATION">
	<g id="LINE">
		
			<line fill="none" stroke="#000000" stroke-width="0.7087" stroke-linecap="round" stroke-linejoin="round" stroke-miterlimit="10" x1="0.354" y1="1876.412" x2="946.354" y2="1916.145"/>
	</g>
	<g id="LINE_1_">
		
			<line fill="none" stroke="#000000" stroke-width="0.7087" stroke-linecap="round" stroke-linejoin="round" stroke-miterlimit="10" x1="0.354" y1="1874.41" x2="946.354" y2="1914.143"/>
	</g>
	<g id="LINE_2_">
		
			<line fill="none" stroke="#000000" stroke-width="0.7087" stroke-linecap="round" stroke-linejoin="round" stroke-miterlimit="10" x1="0.354" y1="1713.047" x2="946.354" y2="1722.507"/>
	</g>
	<g id="LINE_3_">
		
			<line fill="none" stroke="#000000" stroke-width="0.7087" stroke-linecap="round" stroke-linejoin="round" stroke-miterlimit="10" x1="0.354" y1="1711.046" x2="946.354" y2="1720.506"/>
	</g>
	<g id="LINE_4_">
		
			<line fill="none" stroke="#000000" stroke-width="0.7087" stroke-linecap="round" stroke-linejoin="round" stroke-miterlimit="10" x1="0.354" y1="1541.697" x2="946.354" y2="1503.857"/>
	</g>
	<g id="LINE_5_">
		
			<line fill="none" stroke="#000000" stroke-width="0.7087" stroke-linecap="round" stroke-linejoin="round" stroke-miterlimit="10" x1="0.354" y1="1539.695" x2="946.354" y2="1501.855"/>
	</g>
	<g id="LINE_6_">
		
			<line fill="none" stroke="#000000" stroke-width="0.7087" stroke-linecap="round" stroke-linejoin="round" stroke-miterlimit="10" x1="0.354" y1="1877.914" x2="946.354" y2="1917.646"/>
	</g>
	<g id="LINE_7_">
		
			<line fill="none" stroke="#000000" stroke-width="0.7087" stroke-linecap="round" stroke-linejoin="round" stroke-miterlimit="10" x1="0.354" y1="1872.909" x2="946.354" y2="1912.642"/>
	</g>
	<g id="LINE_8_">
		
			<line fill="none" stroke="#000000" stroke-width="0.7087" stroke-linecap="round" stroke-linejoin="round" stroke-miterlimit="10" x1="0.354" y1="1714.547" x2="946.354" y2="1724.007"/>
	</g>
	<g id="LINE_9_">
		
			<line fill="none" stroke="#000000" stroke-width="0.7087" stroke-linecap="round" stroke-linejoin="round" stroke-miterlimit="10" x1="0.354" y1="1709.546" x2="946.354" y2="1719.006"/>
	</g>
	<g id="LINE_10_">
		
			<line fill="none" stroke="#000000" stroke-width="0.7087" stroke-linecap="round" stroke-linejoin="round" stroke-miterlimit="10" x1="0.354" y1="1543.198" x2="946.354" y2="1505.358"/>
	</g>
	<g id="LINE_11_">
		
			<line fill="none" stroke="#000000" stroke-width="0.7087" stroke-linecap="round" stroke-linejoin="round" stroke-miterlimit="10" x1="0.354" y1="1538.194" x2="946.354" y2="1500.354"/>
	</g>
	<g id="LINE_12_">
		
			<line fill="none" stroke="#000000" stroke-width="0.7087" stroke-linecap="round" stroke-linejoin="round" stroke-miterlimit="10" x1="0.354" y1="602.372" x2="946.354" y2="588.182"/>
	</g>
	<g id="LINE_13_">
		
			<line fill="none" stroke="#000000" stroke-width="0.7087" stroke-linecap="round" stroke-linejoin="round" stroke-miterlimit="10" x1="0.354" y1="600.371" x2="946.354" y2="586.181"/>
	</g>
	<g id="LINE_14_">
		
			<line fill="none" stroke="#000000" stroke-width="0.7087" stroke-linecap="round" stroke-linejoin="round" stroke-miterlimit="10" x1="0.354" y1="603.872" x2="946.354" y2="589.682"/>
	</g>
	<g id="LINE_15_">
		
			<line fill="none" stroke="#000000" stroke-width="0.7087" stroke-linecap="round" stroke-linejoin="round" stroke-miterlimit="10" x1="0.354" y1="598.871" x2="946.354" y2="584.681"/>
	</g>
	<g id="LINE_16_">
		
			<line fill="none" stroke="#000000" stroke-width="0.7087" stroke-linecap="round" stroke-linejoin="round" stroke-miterlimit="10" x1="0.354" y1="1338.047" x2="946.354" y2="1347.507"/>
	</g>
	<g id="LINE_17_">
		
			<line fill="none" stroke="#000000" stroke-width="0.7087" stroke-linecap="round" stroke-linejoin="round" stroke-miterlimit="10" x1="0.354" y1="1336.046" x2="946.354" y2="1345.506"/>
	</g>
	<g id="LINE_18_">
		
			<line fill="none" stroke="#000000" stroke-width="0.7087" stroke-linecap="round" stroke-linejoin="round" stroke-miterlimit="10" x1="0.354" y1="1147.642" x2="946.354" y2="1142.911"/>
	</g>
	<g id="LINE_19_">
		
			<line fill="none" stroke="#000000" stroke-width="0.7087" stroke-linecap="round" stroke-linejoin="round" stroke-miterlimit="10" x1="0.354" y1="1145.642" x2="946.354" y2="1140.911"/>
	</g>
	<g id="LINE_20_">
		
			<line fill="none" stroke="#000000" stroke-width="0.7087" stroke-linecap="round" stroke-linejoin="round" stroke-miterlimit="10" x1="0.354" y1="958.316" x2="946.354" y2="977.236"/>
	</g>
	<g id="LINE_21_">
		
			<line fill="none" stroke="#000000" stroke-width="0.7087" stroke-linecap="round" stroke-linejoin="round" stroke-miterlimit="10" x1="0.354" y1="956.316" x2="946.354" y2="975.236"/>
	</g>
	<g id="LINE_22_">
		
			<line fill="none" stroke="#000000" stroke-width="0.7087" stroke-linecap="round" stroke-linejoin="round" stroke-miterlimit="10" x1="0.354" y1="786.697" x2="946.354" y2="748.857"/>
	</g>
	<g id="LINE_23_">
		
			<line fill="none" stroke="#000000" stroke-width="0.7087" stroke-linecap="round" stroke-linejoin="round" stroke-miterlimit="10" x1="0.354" y1="784.695" x2="946.354" y2="746.855"/>
	</g>
	<g id="LINE_24_">
		
			<line fill="none" stroke="#000000" stroke-width="0.7087" stroke-linecap="round" stroke-linejoin="round" stroke-miterlimit="10" x1="0.354" y1="1339.547" x2="946.354" y2="1349.007"/>
	</g>
	<g id="LINE_25_">
		
			<line fill="none" stroke="#000000" stroke-width="0.7087" stroke-linecap="round" stroke-linejoin="round" stroke-miterlimit="10" x1="0.354" y1="1334.546" x2="946.354" y2="1344.006"/>
	</g>
	<g id="LINE_26_">
		
			<line fill="none" stroke="#000000" stroke-width="0.7087" stroke-linecap="round" stroke-linejoin="round" stroke-miterlimit="10" x1="0.354" y1="1149.142" x2="946.354" y2="1144.411"/>
	</g>
	<g id="LINE_27_">
		
			<line fill="none" stroke="#000000" stroke-width="0.7087" stroke-linecap="round" stroke-linejoin="round" stroke-miterlimit="10" x1="0.354" y1="1144.142" x2="946.354" y2="1139.411"/>
	</g>
	<g id="LINE_28_">
		
			<line fill="none" stroke="#000000" stroke-width="0.7087" stroke-linecap="round" stroke-linejoin="round" stroke-miterlimit="10" x1="0.354" y1="959.816" x2="946.354" y2="978.737"/>
	</g>
	<g id="LINE_29_">
		
			<line fill="none" stroke="#000000" stroke-width="0.7087" stroke-linecap="round" stroke-linejoin="round" stroke-miterlimit="10" x1="0.354" y1="954.816" x2="946.354" y2="973.736"/>
	</g>
	<g id="LINE_30_">
		
			<line fill="none" stroke="#000000" stroke-width="0.7087" stroke-linecap="round" stroke-linejoin="round" stroke-miterlimit="10" x1="0.354" y1="788.198" x2="946.354" y2="750.358"/>
	</g>
	<g id="LINE_31_">
		
			<line fill="none" stroke="#000000" stroke-width="0.7087" stroke-linecap="round" stroke-linejoin="round" stroke-miterlimit="10" x1="0.354" y1="783.194" x2="946.354" y2="745.354"/>
	</g>
	<g id="LINE_32_">
		
			<line fill="none" stroke="#000000" stroke-width="0.7087" stroke-linecap="round" stroke-linejoin="round" stroke-miterlimit="10" x1="0.354" y1="378.857" x2="946.354" y2="416.697"/>
	</g>
	<g id="LINE_33_">
		
			<line fill="none" stroke="#000000" stroke-width="0.7087" stroke-linecap="round" stroke-linejoin="round" stroke-miterlimit="10" x1="0.354" y1="376.855" x2="946.354" y2="414.695"/>
	</g>
	<g id="LINE_34_">
		
			<line fill="none" stroke="#000000" stroke-width="0.7087" stroke-linecap="round" stroke-linejoin="round" stroke-miterlimit="10" x1="0.354" y1="213.182" x2="946.354" y2="227.372"/>
	</g>
	<g id="LINE_35_">
		
			<line fill="none" stroke="#000000" stroke-width="0.7087" stroke-linecap="round" stroke-linejoin="round" stroke-miterlimit="10" x1="0.354" y1="211.181" x2="946.354" y2="225.371"/>
	</g>
	<g id="LINE_36_">
		
			<line fill="none" stroke="#000000" stroke-width="0.7087" stroke-linecap="round" stroke-linejoin="round" stroke-miterlimit="10" x1="0.354" y1="41.697" x2="946.354" y2="3.857"/>
	</g>
	<g id="LINE_37_">
		
			<line fill="none" stroke="#000000" stroke-width="0.7087" stroke-linecap="round" stroke-linejoin="round" stroke-miterlimit="10" x1="0.354" y1="39.695" x2="946.354" y2="1.855"/>
	</g>
	<g id="LINE_38_">
		
			<line fill="none" stroke="#000000" stroke-width="0.7087" stroke-linecap="round" stroke-linejoin="round" stroke-miterlimit="10" x1="0.354" y1="380.358" x2="946.354" y2="418.198"/>
	</g>
	<g id="LINE_39_">
		
			<line fill="none" stroke="#000000" stroke-width="0.7087" stroke-linecap="round" stroke-linejoin="round" stroke-miterlimit="10" x1="0.354" y1="375.354" x2="946.354" y2="413.194"/>
	</g>
	<g id="LINE_40_">
		
			<line fill="none" stroke="#000000" stroke-width="0.7087" stroke-linecap="round" stroke-linejoin="round" stroke-miterlimit="10" x1="0.354" y1="214.682" x2="946.354" y2="228.872"/>
	</g>
	<g id="LINE_41_">
		
			<line fill="none" stroke="#000000" stroke-width="0.7087" stroke-linecap="round" stroke-linejoin="round" stroke-miterlimit="10" x1="0.354" y1="209.681" x2="946.354" y2="223.871"/>
	</g>
	<g id="LINE_42_">
		
			<line fill="none" stroke="#000000" stroke-width="0.7087" stroke-linecap="round" stroke-linejoin="round" stroke-miterlimit="10" x1="0.354" y1="43.198" x2="946.354" y2="5.358"/>
	</g>
	<g id="LINE_43_">
		
			<line fill="none" stroke="#000000" stroke-width="0.7087" stroke-linecap="round" stroke-linejoin="round" stroke-miterlimit="10" x1="0.354" y1="38.194" x2="946.354" y2="0.354"/>
	</g>
</g>
<g id="_x30_">
</g>
</svg>
