<?xml version="1.0" encoding="utf-8"?>
<!-- Generator: Adobe Illustrator 15.0.2, SVG Export Plug-In . SVG Version: 6.00 Build 0)  -->
<!DOCTYPE svg PUBLIC "-//W3C//DTD SVG 1.1//EN" "http://www.w3.org/Graphics/SVG/1.1/DTD/svg11.dtd">
<svg version="1.1" id="Layer_1" xmlns="http://www.w3.org/2000/svg" xmlns:xlink="http://www.w3.org/1999/xlink" x="0px" y="0px"
	 width="946.354px" height="2111.563px" viewBox="0 0 946.354 2111.563" enable-background="new 0 0 946.354 2111.563"
	 xml:space="preserve">
<g id="ELEVATION">
	<g id="LINE">
		
			<line fill="none" stroke="#000000" stroke-width="0.7087" stroke-linecap="round" stroke-linejoin="round" stroke-miterlimit="10" x1="159.428" y1="221.049" x2="380.12" y2="0.354"/>
	</g>
	<g id="LINE_1_">
		
			<line fill="none" stroke="#000000" stroke-width="0.7087" stroke-linecap="round" stroke-linejoin="round" stroke-miterlimit="10" x1="160.488" y1="222.109" x2="382.241" y2="0.354"/>
	</g>
	<g id="LINE_2_">
		
			<line fill="none" stroke="#000000" stroke-width="0.7087" stroke-linecap="round" stroke-linejoin="round" stroke-miterlimit="10" x1="162.178" y1="223.249" x2="385.072" y2="0.354"/>
	</g>
	<g id="LINE_3_">
		
			<line fill="none" stroke="#000000" stroke-width="0.7087" stroke-linecap="round" stroke-linejoin="round" stroke-miterlimit="10" x1="163.651" y1="223.896" x2="387.193" y2="0.354"/>
	</g>
	<g id="LINE_4_">
		
			<line fill="none" stroke="#000000" stroke-width="0.7087" stroke-linecap="round" stroke-linejoin="round" stroke-miterlimit="10" x1="0.354" y1="344.767" x2="344.767" y2="0.354"/>
	</g>
	<g id="LINE_5_">
		
			<line fill="none" stroke="#000000" stroke-width="0.7087" stroke-linecap="round" stroke-linejoin="round" stroke-miterlimit="10" x1="0.354" y1="342.646" x2="342.646" y2="0.354"/>
	</g>
	<g id="LINE_6_">
		
			<line fill="none" stroke="#000000" stroke-width="0.7087" stroke-linecap="round" stroke-linejoin="round" stroke-miterlimit="10" x1="0.354" y1="339.817" x2="339.817" y2="0.354"/>
	</g>
	<g id="LINE_7_">
		
			<line fill="none" stroke="#000000" stroke-width="0.7087" stroke-linecap="round" stroke-linejoin="round" stroke-miterlimit="10" x1="0.354" y1="337.696" x2="337.695" y2="0.354"/>
	</g>
	<g id="ARC">
		
			<path fill="none" stroke="#000000" stroke-width="0.7087" stroke-linecap="round" stroke-linejoin="round" stroke-miterlimit="10" d="
			M158.698,222.708c-5.14,118.017-3.311,236.231,5.479,354.031"/>
	</g>
	<g id="ARC_1_">
		
			<path fill="none" stroke="#000000" stroke-width="0.7087" stroke-linecap="round" stroke-linejoin="round" stroke-miterlimit="10" d="
			M159.428,221.049c-0.442,0.441-0.703,1.034-0.729,1.659"/>
	</g>
	<g id="ARC_2_">
		
			<path fill="none" stroke="#000000" stroke-width="0.7087" stroke-linecap="round" stroke-linejoin="round" stroke-miterlimit="10" d="
			M160.197,222.773c-5.138,117.957-3.31,236.114,5.477,353.855"/>
	</g>
	<g id="ARC_3_">
		
			<path fill="none" stroke="#000000" stroke-width="0.7087" stroke-linecap="round" stroke-linejoin="round" stroke-miterlimit="10" d="
			M160.488,222.109c-0.177,0.178-0.279,0.414-0.292,0.664"/>
	</g>
	<g id="ARC_4_">
		
			<path fill="none" stroke="#000000" stroke-width="0.7087" stroke-linecap="round" stroke-linejoin="round" stroke-miterlimit="10" d="
			M162.178,223.249c-5.082,117.021-3.303,234.24,5.327,351.056"/>
	</g>
	<g id="ARC_5_">
		
			<path fill="none" stroke="#000000" stroke-width="0.7087" stroke-linecap="round" stroke-linejoin="round" stroke-miterlimit="10" d="
			M163.651,223.896c-5.001,115.679-3.295,231.549,5.109,347.029"/>
	</g>
	<g id="LINE_9_">
		
			<line fill="none" stroke="#000000" stroke-width="0.7087" stroke-linecap="round" stroke-linejoin="round" stroke-miterlimit="10" x1="168.437" y1="578.321" x2="746.403" y2="0.354"/>
	</g>
	<g id="LINE_10_">
		
			<line fill="none" stroke="#000000" stroke-width="0.7087" stroke-linecap="round" stroke-linejoin="round" stroke-miterlimit="10" x1="167.376" y1="577.261" x2="744.281" y2="0.354"/>
	</g>
	<g id="LINE_11_">
		
			<line fill="none" stroke="#000000" stroke-width="0.7087" stroke-linecap="round" stroke-linejoin="round" stroke-miterlimit="10" x1="167.504" y1="574.304" x2="741.452" y2="0.354"/>
	</g>
	<g id="LINE_12_">
		
			<line fill="none" stroke="#000000" stroke-width="0.7087" stroke-linecap="round" stroke-linejoin="round" stroke-miterlimit="10" x1="168.761" y1="570.927" x2="739.33" y2="0.354"/>
	</g>
	<g id="LINE_14_">
		
			<line fill="none" stroke="#000000" stroke-width="0.7087" stroke-linecap="round" stroke-linejoin="round" stroke-miterlimit="10" x1="0.354" y1="781.76" x2="407.771" y2="374.343"/>
	</g>
	<g id="ARC_7_">
		
			<path fill="none" stroke="#000000" stroke-width="0.7087" stroke-linecap="round" stroke-linejoin="round" stroke-miterlimit="10" d="
			M164.176,576.739c0.103,1.377,1.302,2.41,2.679,2.309c0.599-0.044,1.159-0.304,1.582-0.727"/>
	</g>
	<g id="ARC_8_">
		
			<path fill="none" stroke="#000000" stroke-width="0.7087" stroke-linecap="round" stroke-linejoin="round" stroke-miterlimit="10" d="
			M165.671,576.629c0.042,0.551,0.521,0.964,1.072,0.923c0.237-0.02,0.463-0.121,0.633-0.29"/>
	</g>
	<g id="LINE_15_">
		
			<line fill="none" stroke="#000000" stroke-width="0.7087" stroke-linecap="round" stroke-linejoin="round" stroke-miterlimit="10" x1="0.354" y1="783.881" x2="408.829" y2="375.403"/>
	</g>
	<g id="LINE_16_">
		
			<line fill="none" stroke="#000000" stroke-width="0.7087" stroke-linecap="round" stroke-linejoin="round" stroke-miterlimit="10" x1="0.354" y1="786.708" x2="409.309" y2="377.754"/>
	</g>
	<g id="LINE_17_">
		
			<line fill="none" stroke="#000000" stroke-width="0.7087" stroke-linecap="round" stroke-linejoin="round" stroke-miterlimit="10" x1="0.354" y1="788.829" x2="408.963" y2="380.221"/>
	</g>
	<g id="ARC_9_">
		
			<path fill="none" stroke="#000000" stroke-width="0.7087" stroke-linecap="round" stroke-linejoin="round" stroke-miterlimit="10" d="
			M531.496,614.63c-36.337-81.654-76.302-161.646-119.773-239.735"/>
	</g>
	<g id="ARC_10_">
		
			<path fill="none" stroke="#000000" stroke-width="0.7087" stroke-linecap="round" stroke-linejoin="round" stroke-miterlimit="10" d="
			M411.723,374.894c-0.671-1.206-2.194-1.641-3.4-0.968c-0.202,0.112-0.388,0.253-0.552,0.417"/>
	</g>
	<g id="ARC_11_">
		
			<path fill="none" stroke="#000000" stroke-width="0.7087" stroke-linecap="round" stroke-linejoin="round" stroke-miterlimit="10" d="
			M530.127,615.239c-36.318-81.614-76.266-161.563-119.717-239.614"/>
	</g>
	<g id="ARC_12_">
		
			<path fill="none" stroke="#000000" stroke-width="0.7087" stroke-linecap="round" stroke-linejoin="round" stroke-miterlimit="10" d="
			M410.41,375.624c-0.269-0.481-0.877-0.656-1.358-0.389c-0.081,0.045-0.155,0.103-0.223,0.167"/>
	</g>
	<g id="ARC_13_">
		
			<path fill="none" stroke="#000000" stroke-width="0.7087" stroke-linecap="round" stroke-linejoin="round" stroke-miterlimit="10" d="
			M526.23,615.094c-35.64-79.966-74.767-158.332-117.267-234.872"/>
	</g>
	<g id="ARC_14_">
		
			<path fill="none" stroke="#000000" stroke-width="0.7087" stroke-linecap="round" stroke-linejoin="round" stroke-miterlimit="10" d="
			M528.021,615.425c-36.041-80.938-75.65-160.239-118.712-237.671"/>
	</g>
	<g id="LINE_18_">
		
			<line fill="none" stroke="#000000" stroke-width="0.7087" stroke-linecap="round" stroke-linejoin="round" stroke-miterlimit="10" x1="219.758" y1="963.991" x2="946.354" y2="237.396"/>
	</g>
	<g id="LINE_19_">
		
			<line fill="none" stroke="#000000" stroke-width="0.7087" stroke-linecap="round" stroke-linejoin="round" stroke-miterlimit="10" x1="220.819" y1="965.052" x2="946.354" y2="239.517"/>
	</g>
	<g id="LINE_20_">
		
			<line fill="none" stroke="#000000" stroke-width="0.7087" stroke-linecap="round" stroke-linejoin="round" stroke-miterlimit="10" x1="222.615" y1="966.083" x2="946.354" y2="242.345"/>
	</g>
	<g id="LINE_21_">
		
			<line fill="none" stroke="#000000" stroke-width="0.7087" stroke-linecap="round" stroke-linejoin="round" stroke-miterlimit="10" x1="224.25" y1="966.571" x2="946.354" y2="244.467"/>
	</g>
	<g id="LINE_22_">
		
			<line fill="none" stroke="#000000" stroke-width="0.7087" stroke-linecap="round" stroke-linejoin="round" stroke-miterlimit="10" x1="297.493" y1="1252.537" x2="946.354" y2="603.677"/>
	</g>
	<g id="LINE_23_">
		
			<line fill="none" stroke="#000000" stroke-width="0.7087" stroke-linecap="round" stroke-linejoin="round" stroke-miterlimit="10" x1="296.433" y1="1251.478" x2="946.354" y2="601.556"/>
	</g>
	<g id="LINE_24_">
		
			<line fill="none" stroke="#000000" stroke-width="0.7087" stroke-linecap="round" stroke-linejoin="round" stroke-miterlimit="10" x1="296.186" y1="1248.896" x2="946.354" y2="598.727"/>
	</g>
	<g id="LINE_25_">
		
			<line fill="none" stroke="#000000" stroke-width="0.7087" stroke-linecap="round" stroke-linejoin="round" stroke-miterlimit="10" x1="296.878" y1="1246.081" x2="946.354" y2="596.606"/>
	</g>
	<g id="LINE_26_">
		
			<line fill="none" stroke="#000000" stroke-width="0.7087" stroke-linecap="round" stroke-linejoin="round" stroke-miterlimit="10" x1="0.354" y1="1585.031" x2="649.215" y2="936.172"/>
	</g>
	<g id="LINE_27_">
		
			<line fill="none" stroke="#000000" stroke-width="0.7087" stroke-linecap="round" stroke-linejoin="round" stroke-miterlimit="10" x1="0.354" y1="1587.153" x2="650.276" y2="937.231"/>
	</g>
	<g id="LINE_28_">
		
			<line fill="none" stroke="#000000" stroke-width="0.7087" stroke-linecap="round" stroke-linejoin="round" stroke-miterlimit="10" x1="0.354" y1="1589.982" x2="650.522" y2="939.813"/>
	</g>
	<g id="LINE_29_">
		
			<line fill="none" stroke="#000000" stroke-width="0.7087" stroke-linecap="round" stroke-linejoin="round" stroke-miterlimit="10" x1="0.354" y1="1592.104" x2="649.828" y2="942.628"/>
	</g>
	<g id="ARC_16_">
		
			<path fill="none" stroke="#000000" stroke-width="0.7087" stroke-linecap="round" stroke-linejoin="round" stroke-miterlimit="10" d="
			M727.63,1222.439c-20.069-96.241-44.854-191.439-74.263-285.249"/>
	</g>
	<g id="ARC_17_">
		
			<path fill="none" stroke="#000000" stroke-width="0.7087" stroke-linecap="round" stroke-linejoin="round" stroke-miterlimit="10" d="
			M653.367,937.191c-0.413-1.317-1.814-2.051-3.133-1.638c-0.385,0.121-0.734,0.333-1.02,0.618"/>
	</g>
	<g id="ARC_18_">
		
			<path fill="none" stroke="#000000" stroke-width="0.7087" stroke-linecap="round" stroke-linejoin="round" stroke-miterlimit="10" d="
			M726.16,1222.744c-20.059-96.19-44.83-191.343-74.224-285.104"/>
	</g>
	<g id="ARC_19_">
		
			<path fill="none" stroke="#000000" stroke-width="0.7087" stroke-linecap="round" stroke-linejoin="round" stroke-miterlimit="10" d="
			M651.938,937.64c-0.165-0.527-0.727-0.82-1.253-0.655c-0.154,0.048-0.294,0.133-0.408,0.247"/>
	</g>
	<g id="ARC_20_">
		
			<path fill="none" stroke="#000000" stroke-width="0.7087" stroke-linecap="round" stroke-linejoin="round" stroke-miterlimit="10" d="
			M724.093,1222.624c-19.914-95.408-44.466-189.791-73.571-282.812"/>
	</g>
	<g id="ARC_21_">
		
			<path fill="none" stroke="#000000" stroke-width="0.7087" stroke-linecap="round" stroke-linejoin="round" stroke-miterlimit="10" d="
			M722.459,1222.138c-19.705-94.283-43.942-187.563-72.631-279.51"/>
	</g>
	<g id="LINE_30_">
		
			<line fill="none" stroke="#000000" stroke-width="0.7087" stroke-linecap="round" stroke-linejoin="round" stroke-miterlimit="10" x1="415.727" y1="1571.297" x2="946.354" y2="1040.67"/>
	</g>
	<g id="LINE_31_">
		
			<line fill="none" stroke="#000000" stroke-width="0.7087" stroke-linecap="round" stroke-linejoin="round" stroke-miterlimit="10" x1="416.786" y1="1572.356" x2="946.354" y2="1042.79"/>
	</g>
	<g id="LINE_32_">
		
			<line fill="none" stroke="#000000" stroke-width="0.7087" stroke-linecap="round" stroke-linejoin="round" stroke-miterlimit="10" x1="418.688" y1="1573.284" x2="946.354" y2="1045.618"/>
	</g>
	<g id="LINE_33_">
		
			<line fill="none" stroke="#000000" stroke-width="0.7087" stroke-linecap="round" stroke-linejoin="round" stroke-miterlimit="10" x1="420.478" y1="1573.615" x2="946.354" y2="1047.74"/>
	</g>
	<g id="LINE_34_">
		
			<line fill="none" stroke="#000000" stroke-width="0.7087" stroke-linecap="round" stroke-linejoin="round" stroke-miterlimit="10" x1="0.354" y1="1951.313" x2="726.948" y2="1224.719"/>
	</g>
	<g id="LINE_35_">
		
			<line fill="none" stroke="#000000" stroke-width="0.7087" stroke-linecap="round" stroke-linejoin="round" stroke-miterlimit="10" x1="0.354" y1="1949.192" x2="725.89" y2="1223.656"/>
	</g>
	<g id="LINE_36_">
		
			<line fill="none" stroke="#000000" stroke-width="0.7087" stroke-linecap="round" stroke-linejoin="round" stroke-miterlimit="10" x1="0.354" y1="1946.364" x2="724.093" y2="1222.624"/>
	</g>
	<g id="LINE_37_">
		
			<line fill="none" stroke="#000000" stroke-width="0.7087" stroke-linecap="round" stroke-linejoin="round" stroke-miterlimit="10" x1="0.354" y1="1944.241" x2="722.459" y2="1222.138"/>
	</g>
	<g id="ARC_23_">
		
			<path fill="none" stroke="#000000" stroke-width="0.7087" stroke-linecap="round" stroke-linejoin="round" stroke-miterlimit="10" d="
			M726.948,1224.719c0.598-0.599,0.854-1.453,0.682-2.278"/>
	</g>
	<g id="ARC_24_">
		
			<path fill="none" stroke="#000000" stroke-width="0.7087" stroke-linecap="round" stroke-linejoin="round" stroke-miterlimit="10" d="
			M725.89,1223.656c0.238-0.239,0.341-0.582,0.271-0.912"/>
	</g>
	<g id="ARC_25_">
		
			<path fill="none" stroke="#000000" stroke-width="0.7087" stroke-linecap="round" stroke-linejoin="round" stroke-miterlimit="10" d="
			M415.211,1574.079c36.337,81.654,76.302,161.646,119.773,239.734"/>
	</g>
	<g id="ARC_26_">
		
			<path fill="none" stroke="#000000" stroke-width="0.7087" stroke-linecap="round" stroke-linejoin="round" stroke-miterlimit="10" d="
			M415.727,1571.297c-0.731,0.729-0.938,1.839-0.516,2.782"/>
	</g>
	<g id="ARC_27_">
		
			<path fill="none" stroke="#000000" stroke-width="0.7087" stroke-linecap="round" stroke-linejoin="round" stroke-miterlimit="10" d="
			M416.58,1573.47c36.319,81.613,76.266,161.563,119.717,239.615"/>
	</g>
	<g id="ARC_28_">
		
			<path fill="none" stroke="#000000" stroke-width="0.7087" stroke-linecap="round" stroke-linejoin="round" stroke-miterlimit="10" d="
			M416.786,1572.356c-0.293,0.293-0.375,0.735-0.207,1.113"/>
	</g>
	<g id="ARC_29_">
		
			<path fill="none" stroke="#000000" stroke-width="0.7087" stroke-linecap="round" stroke-linejoin="round" stroke-miterlimit="10" d="
			M418.688,1573.284c36.041,80.938,75.65,160.239,118.712,237.67"/>
	</g>
	<g id="ARC_30_">
		
			<path fill="none" stroke="#000000" stroke-width="0.7087" stroke-linecap="round" stroke-linejoin="round" stroke-miterlimit="10" d="
			M420.478,1573.615c35.64,79.966,74.767,158.331,117.267,234.872"/>
	</g>
	<g id="ARC_32_">
		
			<path fill="none" stroke="#000000" stroke-width="0.7087" stroke-linecap="round" stroke-linejoin="round" stroke-miterlimit="10" d="
			M219.079,966.27c20.067,96.241,44.853,191.438,74.261,285.249"/>
	</g>
	<g id="ARC_33_">
		
			<path fill="none" stroke="#000000" stroke-width="0.7087" stroke-linecap="round" stroke-linejoin="round" stroke-miterlimit="10" d="
			M293.34,1251.519c0.413,1.317,1.814,2.051,3.133,1.638c0.385-0.121,0.735-0.333,1.021-0.618"/>
	</g>
	<g id="ARC_34_">
		
			<path fill="none" stroke="#000000" stroke-width="0.7087" stroke-linecap="round" stroke-linejoin="round" stroke-miterlimit="10" d="
			M219.758,963.991c-0.596,0.598-0.854,1.453-0.68,2.278"/>
	</g>
	<g id="LINE_38_">
		
			<line fill="none" stroke="#000000" stroke-width="0.7087" stroke-linecap="round" stroke-linejoin="round" stroke-miterlimit="10" x1="0.354" y1="1148.04" x2="530.981" y2="617.412"/>
	</g>
	<g id="LINE_39_">
		
			<line fill="none" stroke="#000000" stroke-width="0.7087" stroke-linecap="round" stroke-linejoin="round" stroke-miterlimit="10" x1="0.354" y1="1145.92" x2="529.921" y2="616.353"/>
	</g>
	<g id="ARC_35_">
		
			<path fill="none" stroke="#000000" stroke-width="0.7087" stroke-linecap="round" stroke-linejoin="round" stroke-miterlimit="10" d="
			M220.547,965.964c20.059,96.191,44.83,191.343,74.224,285.104"/>
	</g>
	<g id="ARC_36_">
		
			<path fill="none" stroke="#000000" stroke-width="0.7087" stroke-linecap="round" stroke-linejoin="round" stroke-miterlimit="10" d="
			M220.819,965.052c-0.236,0.236-0.341,0.581-0.271,0.911"/>
	</g>
	<g id="ARC_37_">
		
			<path fill="none" stroke="#000000" stroke-width="0.7087" stroke-linecap="round" stroke-linejoin="round" stroke-miterlimit="10" d="
			M294.771,1251.069c0.166,0.527,0.729,0.82,1.253,0.655c0.154-0.049,0.294-0.133,0.408-0.247"/>
	</g>
	<g id="ARC_38_">
		
			<path fill="none" stroke="#000000" stroke-width="0.7087" stroke-linecap="round" stroke-linejoin="round" stroke-miterlimit="10" d="
			M222.615,966.083c19.912,95.41,44.466,189.793,73.569,282.813"/>
	</g>
	<g id="ARC_39_">
		
			<path fill="none" stroke="#000000" stroke-width="0.7087" stroke-linecap="round" stroke-linejoin="round" stroke-miterlimit="10" d="
			M224.25,966.571c19.705,94.283,43.94,187.563,72.629,279.511"/>
	</g>
	<g id="LINE_40_">
		
			<line fill="none" stroke="#000000" stroke-width="0.7087" stroke-linecap="round" stroke-linejoin="round" stroke-miterlimit="10" x1="0.354" y1="1140.969" x2="526.23" y2="615.094"/>
	</g>
	<g id="LINE_41_">
		
			<line fill="none" stroke="#000000" stroke-width="0.7087" stroke-linecap="round" stroke-linejoin="round" stroke-miterlimit="10" x1="0.354" y1="1143.092" x2="528.021" y2="615.425"/>
	</g>
	<g id="ARC_41_">
		
			<path fill="none" stroke="#000000" stroke-width="0.7087" stroke-linecap="round" stroke-linejoin="round" stroke-miterlimit="10" d="
			M530.981,617.412c0.731-0.73,0.938-1.839,0.516-2.782"/>
	</g>
	<g id="ARC_42_">
		
			<path fill="none" stroke="#000000" stroke-width="0.7087" stroke-linecap="round" stroke-linejoin="round" stroke-miterlimit="10" d="
			M529.921,616.353c0.292-0.293,0.375-0.735,0.206-1.114"/>
	</g>
	<g id="LINE_42_">
		
			<line fill="none" stroke="#000000" stroke-width="0.7087" stroke-linecap="round" stroke-linejoin="round" stroke-miterlimit="10" x1="281.394" y1="2107.266" x2="778.272" y2="1610.388"/>
	</g>
	<g id="LINE_43_">
		
			<line fill="none" stroke="#000000" stroke-width="0.7087" stroke-linecap="round" stroke-linejoin="round" stroke-miterlimit="10" x1="538.938" y1="1814.365" x2="946.354" y2="1406.949"/>
	</g>
	<g id="LINE_44_">
		
			<line fill="none" stroke="#000000" stroke-width="0.7087" stroke-linecap="round" stroke-linejoin="round" stroke-miterlimit="10" x1="537.877" y1="1813.306" x2="946.354" y2="1404.828"/>
	</g>
	<g id="LINE_45_">
		
			<line fill="none" stroke="#000000" stroke-width="0.7087" stroke-linecap="round" stroke-linejoin="round" stroke-miterlimit="10" x1="283.515" y1="2107.266" x2="779.331" y2="1611.448"/>
	</g>
	<g id="LINE_46_">
		
			<line fill="none" stroke="#000000" stroke-width="0.7087" stroke-linecap="round" stroke-linejoin="round" stroke-miterlimit="10" x1="286.343" y1="2107.266" x2="779.202" y2="1614.405"/>
	</g>
	<g id="LINE_47_">
		
			<line fill="none" stroke="#000000" stroke-width="0.7087" stroke-linecap="round" stroke-linejoin="round" stroke-miterlimit="10" x1="288.465" y1="2107.266" x2="777.948" y2="1617.782"/>
	</g>
	<g id="LINE_48_">
		
			<line fill="none" stroke="#000000" stroke-width="0.7087" stroke-linecap="round" stroke-linejoin="round" stroke-miterlimit="10" x1="537.4" y1="1810.954" x2="946.354" y2="1401.999"/>
	</g>
	<g id="LINE_49_">
		
			<line fill="none" stroke="#000000" stroke-width="0.7087" stroke-linecap="round" stroke-linejoin="round" stroke-miterlimit="10" x1="537.743" y1="1808.488" x2="946.354" y2="1399.88"/>
	</g>
	<g id="ARC_43_">
		
			<path fill="none" stroke="#000000" stroke-width="0.7087" stroke-linecap="round" stroke-linejoin="round" stroke-miterlimit="10" d="
			M534.986,1813.814c0.671,1.207,2.194,1.641,3.4,0.969c0.202-0.11,0.388-0.253,0.552-0.417"/>
	</g>
	<g id="ARC_44_">
		
			<path fill="none" stroke="#000000" stroke-width="0.7087" stroke-linecap="round" stroke-linejoin="round" stroke-miterlimit="10" d="
			M536.296,1813.086c0.269,0.48,0.877,0.654,1.358,0.388c0.081-0.045,0.155-0.104,0.223-0.167"/>
	</g>
	<g id="ARC_45_">
		
			<path fill="none" stroke="#000000" stroke-width="0.7087" stroke-linecap="round" stroke-linejoin="round" stroke-miterlimit="10" d="
			M788.011,1966.001c5.14-118.017,3.311-236.23-5.479-354.03"/>
	</g>
	<g id="ARC_46_">
		
			<path fill="none" stroke="#000000" stroke-width="0.7087" stroke-linecap="round" stroke-linejoin="round" stroke-miterlimit="10" d="
			M782.531,1611.97c-0.103-1.377-1.302-2.41-2.679-2.31c-0.597,0.046-1.159,0.304-1.582,0.728"/>
	</g>
	<g id="ARC_47_">
		
			<path fill="none" stroke="#000000" stroke-width="0.7087" stroke-linecap="round" stroke-linejoin="round" stroke-miterlimit="10" d="
			M786.512,1965.937c5.138-117.957,3.31-236.114-5.477-353.855"/>
	</g>
	<g id="ARC_48_">
		
			<path fill="none" stroke="#000000" stroke-width="0.7087" stroke-linecap="round" stroke-linejoin="round" stroke-miterlimit="10" d="
			M781.035,1612.081c-0.041-0.552-0.521-0.965-1.07-0.924c-0.239,0.02-0.463,0.121-0.635,0.29"/>
	</g>
	<g id="ARC_49_">
		
			<path fill="none" stroke="#000000" stroke-width="0.7087" stroke-linecap="round" stroke-linejoin="round" stroke-miterlimit="10" d="
			M784.531,1965.462c5.082-117.022,3.305-234.241-5.327-351.058"/>
	</g>
	<g id="ARC_50_">
		
			<path fill="none" stroke="#000000" stroke-width="0.7087" stroke-linecap="round" stroke-linejoin="round" stroke-miterlimit="10" d="
			M783.058,1964.813c5-115.678,3.294-231.549-5.11-347.029"/>
	</g>
	<g id="LINE_51_">
		
			<line fill="none" stroke="#000000" stroke-width="0.7087" stroke-linecap="round" stroke-linejoin="round" stroke-miterlimit="10" x1="647.675" y1="2107.266" x2="787.281" y2="1967.659"/>
	</g>
	<g id="LINE_52_">
		
			<line fill="none" stroke="#000000" stroke-width="0.7087" stroke-linecap="round" stroke-linejoin="round" stroke-miterlimit="10" x1="645.554" y1="2107.266" x2="786.22" y2="1966.6"/>
	</g>
	<g id="LINE_53_">
		
			<line fill="none" stroke="#000000" stroke-width="0.7087" stroke-linecap="round" stroke-linejoin="round" stroke-miterlimit="10" x1="642.725" y1="2107.266" x2="784.531" y2="1965.462"/>
	</g>
	<g id="LINE_54_">
		
			<line fill="none" stroke="#000000" stroke-width="0.7087" stroke-linecap="round" stroke-linejoin="round" stroke-miterlimit="10" x1="640.604" y1="2107.266" x2="783.058" y2="1964.813"/>
	</g>
	<g id="LINE_55_">
		
			<line fill="none" stroke="#000000" stroke-width="0.7087" stroke-linecap="round" stroke-linejoin="round" stroke-miterlimit="10" x1="683.03" y1="2107.266" x2="946.354" y2="1843.942"/>
	</g>
	<g id="LINE_56_">
		
			<line fill="none" stroke="#000000" stroke-width="0.7087" stroke-linecap="round" stroke-linejoin="round" stroke-miterlimit="10" x1="685.152" y1="2107.266" x2="946.354" y2="1846.063"/>
	</g>
	<g id="LINE_57_">
		
			<line fill="none" stroke="#000000" stroke-width="0.7087" stroke-linecap="round" stroke-linejoin="round" stroke-miterlimit="10" x1="687.98" y1="2107.266" x2="946.354" y2="1848.892"/>
	</g>
	<g id="LINE_58_">
		
			<line fill="none" stroke="#000000" stroke-width="0.7087" stroke-linecap="round" stroke-linejoin="round" stroke-miterlimit="10" x1="690.102" y1="2107.266" x2="946.354" y2="1851.013"/>
	</g>
	<g id="ARC_52_">
		
			<path fill="none" stroke="#000000" stroke-width="0.7087" stroke-linecap="round" stroke-linejoin="round" stroke-miterlimit="10" d="
			M787.281,1967.659c0.442-0.44,0.703-1.032,0.73-1.657"/>
	</g>
	<g id="ARC_53_">
		
			<path fill="none" stroke="#000000" stroke-width="0.7087" stroke-linecap="round" stroke-linejoin="round" stroke-miterlimit="10" d="
			M786.22,1966.6c0.177-0.177,0.28-0.413,0.292-0.663"/>
	</g>
	<g id="LINE_65_">
		
			<line fill="none" stroke="#000000" stroke-width="0.7087" stroke-linecap="round" stroke-linejoin="round" stroke-miterlimit="10" x1="1916.429" y1="224.99" x2="2137.121" y2="4.296"/>
	</g>
	<g id="LINE_66_">
		
			<line fill="none" stroke="#000000" stroke-width="0.7087" stroke-linecap="round" stroke-linejoin="round" stroke-miterlimit="10" x1="1917.489" y1="226.052" x2="2139.242" y2="4.296"/>
	</g>
	<g id="LINE_67_">
		
			<line fill="none" stroke="#000000" stroke-width="0.7087" stroke-linecap="round" stroke-linejoin="round" stroke-miterlimit="10" x1="1919.179" y1="227.189" x2="2142.072" y2="4.296"/>
	</g>
	<g id="LINE_68_">
		
			<line fill="none" stroke="#000000" stroke-width="0.7087" stroke-linecap="round" stroke-linejoin="round" stroke-miterlimit="10" x1="1920.651" y1="227.838" x2="2144.193" y2="4.296"/>
	</g>
	<g id="LINE_69_">
		
			<line fill="none" stroke="#000000" stroke-width="0.7087" stroke-linecap="round" stroke-linejoin="round" stroke-miterlimit="10" x1="1757.354" y1="348.708" x2="2101.767" y2="4.296"/>
	</g>
	<g id="LINE_70_">
		
			<line fill="none" stroke="#000000" stroke-width="0.7087" stroke-linecap="round" stroke-linejoin="round" stroke-miterlimit="10" x1="1757.354" y1="346.587" x2="2099.646" y2="4.296"/>
	</g>
	<g id="LINE_71_">
		
			<line fill="none" stroke="#000000" stroke-width="0.7087" stroke-linecap="round" stroke-linejoin="round" stroke-miterlimit="10" x1="1757.354" y1="343.759" x2="2096.817" y2="4.296"/>
	</g>
	<g id="LINE_72_">
		
			<line fill="none" stroke="#000000" stroke-width="0.7087" stroke-linecap="round" stroke-linejoin="round" stroke-miterlimit="10" x1="1757.354" y1="341.637" x2="2094.696" y2="4.296"/>
	</g>
	<g id="ARC_55_">
		
			<path fill="none" stroke="#000000" stroke-width="0.7087" stroke-linecap="round" stroke-linejoin="round" stroke-miterlimit="10" d="
			M1915.698,226.649c-5.14,118.017-3.311,236.232,5.479,354.032"/>
	</g>
	<g id="ARC_56_">
		
			<path fill="none" stroke="#000000" stroke-width="0.7087" stroke-linecap="round" stroke-linejoin="round" stroke-miterlimit="10" d="
			M1916.429,224.99c-0.442,0.442-0.703,1.034-0.73,1.659"/>
	</g>
	<g id="ARC_57_">
		
			<path fill="none" stroke="#000000" stroke-width="0.7087" stroke-linecap="round" stroke-linejoin="round" stroke-miterlimit="10" d="
			M1917.197,226.714c-5.138,117.957-3.31,236.113,5.477,353.854"/>
	</g>
	<g id="ARC_58_">
		
			<path fill="none" stroke="#000000" stroke-width="0.7087" stroke-linecap="round" stroke-linejoin="round" stroke-miterlimit="10" d="
			M1917.489,226.052c-0.177,0.177-0.281,0.413-0.292,0.663"/>
	</g>
	<g id="ARC_59_">
		
			<path fill="none" stroke="#000000" stroke-width="0.7087" stroke-linecap="round" stroke-linejoin="round" stroke-miterlimit="10" d="
			M1919.179,227.189c-5.082,117.021-3.304,234.241,5.326,351.056"/>
	</g>
	<g id="ARC_60_">
		
			<path fill="none" stroke="#000000" stroke-width="0.7087" stroke-linecap="round" stroke-linejoin="round" stroke-miterlimit="10" d="
			M1920.651,227.838c-5,115.679-3.294,231.55,5.11,347.028"/>
	</g>
	<g id="LINE_73_">
		
			<line fill="none" stroke="#000000" stroke-width="0.7087" stroke-linecap="round" stroke-linejoin="round" stroke-miterlimit="10" x1="1925.437" y1="582.263" x2="2503.403" y2="4.296"/>
	</g>
	<g id="LINE_74_">
		
			<line fill="none" stroke="#000000" stroke-width="0.7087" stroke-linecap="round" stroke-linejoin="round" stroke-miterlimit="10" x1="1924.375" y1="581.201" x2="2501.281" y2="4.296"/>
	</g>
	<g id="LINE_75_">
		
			<line fill="none" stroke="#000000" stroke-width="0.7087" stroke-linecap="round" stroke-linejoin="round" stroke-miterlimit="10" x1="1924.505" y1="578.244" x2="2498.452" y2="4.296"/>
	</g>
	<g id="LINE_76_">
		
			<line fill="none" stroke="#000000" stroke-width="0.7087" stroke-linecap="round" stroke-linejoin="round" stroke-miterlimit="10" x1="1925.762" y1="574.866" x2="2496.332" y2="4.296"/>
	</g>
	<g id="LINE_77_">
		
			<line fill="none" stroke="#000000" stroke-width="0.7087" stroke-linecap="round" stroke-linejoin="round" stroke-miterlimit="10" x1="1757.354" y1="785.699" x2="2164.771" y2="378.284"/>
	</g>
	<g id="ARC_62_">
		
			<path fill="none" stroke="#000000" stroke-width="0.7087" stroke-linecap="round" stroke-linejoin="round" stroke-miterlimit="10" d="
			M1921.176,580.681c0.104,1.377,1.303,2.41,2.68,2.307c0.598-0.044,1.158-0.302,1.581-0.725"/>
	</g>
	<g id="ARC_63_">
		
			<path fill="none" stroke="#000000" stroke-width="0.7087" stroke-linecap="round" stroke-linejoin="round" stroke-miterlimit="10" d="
			M1922.672,580.569c0.041,0.551,0.521,0.964,1.069,0.923c0.239-0.018,0.465-0.121,0.634-0.29"/>
	</g>
	<g id="LINE_78_">
		
			<line fill="none" stroke="#000000" stroke-width="0.7087" stroke-linecap="round" stroke-linejoin="round" stroke-miterlimit="10" x1="1757.354" y1="787.821" x2="2165.832" y2="379.345"/>
	</g>
	<g id="LINE_79_">
		
			<line fill="none" stroke="#000000" stroke-width="0.7087" stroke-linecap="round" stroke-linejoin="round" stroke-miterlimit="10" x1="1757.354" y1="790.65" x2="2166.31" y2="381.695"/>
	</g>
	<g id="LINE_80_">
		
			<line fill="none" stroke="#000000" stroke-width="0.7087" stroke-linecap="round" stroke-linejoin="round" stroke-miterlimit="10" x1="1757.354" y1="792.771" x2="2165.964" y2="384.162"/>
	</g>
	<g id="ARC_64_">
		
			<path fill="none" stroke="#000000" stroke-width="0.7087" stroke-linecap="round" stroke-linejoin="round" stroke-miterlimit="10" d="
			M2288.498,618.57c-36.338-81.654-76.304-161.646-119.774-239.734"/>
	</g>
	<g id="ARC_65_">
		
			<path fill="none" stroke="#000000" stroke-width="0.7087" stroke-linecap="round" stroke-linejoin="round" stroke-miterlimit="10" d="
			M2168.724,378.835c-0.672-1.207-2.194-1.641-3.399-0.968c-0.202,0.112-0.39,0.253-0.553,0.417"/>
	</g>
	<g id="ARC_66_">
		
			<path fill="none" stroke="#000000" stroke-width="0.7087" stroke-linecap="round" stroke-linejoin="round" stroke-miterlimit="10" d="
			M2287.127,619.18c-36.318-81.614-76.265-161.565-119.716-239.615"/>
	</g>
	<g id="ARC_67_">
		
			<path fill="none" stroke="#000000" stroke-width="0.7087" stroke-linecap="round" stroke-linejoin="round" stroke-miterlimit="10" d="
			M2167.412,379.565c-0.271-0.482-0.877-0.655-1.359-0.388c-0.081,0.045-0.155,0.102-0.221,0.167"/>
	</g>
	<g id="ARC_68_">
		
			<path fill="none" stroke="#000000" stroke-width="0.7087" stroke-linecap="round" stroke-linejoin="round" stroke-miterlimit="10" d="
			M2283.231,619.033c-35.641-79.966-74.768-158.332-117.268-234.871"/>
	</g>
	<g id="ARC_69_">
		
			<path fill="none" stroke="#000000" stroke-width="0.7087" stroke-linecap="round" stroke-linejoin="round" stroke-miterlimit="10" d="
			M2285.021,619.365c-36.04-80.938-75.649-160.237-118.711-237.67"/>
	</g>
	<g id="LINE_81_">
		
			<line fill="none" stroke="#000000" stroke-width="0.7087" stroke-linecap="round" stroke-linejoin="round" stroke-miterlimit="10" x1="1976.759" y1="967.933" x2="2703.354" y2="241.337"/>
	</g>
	<g id="LINE_82_">
		
			<line fill="none" stroke="#000000" stroke-width="0.7087" stroke-linecap="round" stroke-linejoin="round" stroke-miterlimit="10" x1="1977.819" y1="968.993" x2="2703.354" y2="243.458"/>
	</g>
	<g id="LINE_83_">
		
			<line fill="none" stroke="#000000" stroke-width="0.7087" stroke-linecap="round" stroke-linejoin="round" stroke-miterlimit="10" x1="1979.615" y1="970.025" x2="2703.354" y2="246.287"/>
	</g>
	<g id="LINE_84_">
		
			<line fill="none" stroke="#000000" stroke-width="0.7087" stroke-linecap="round" stroke-linejoin="round" stroke-miterlimit="10" x1="1981.25" y1="970.513" x2="2703.354" y2="248.408"/>
	</g>
	<g id="LINE_85_">
		
			<line fill="none" stroke="#000000" stroke-width="0.7087" stroke-linecap="round" stroke-linejoin="round" stroke-miterlimit="10" x1="2054.491" y1="1256.479" x2="2703.354" y2="607.617"/>
	</g>
	<g id="LINE_86_">
		
			<line fill="none" stroke="#000000" stroke-width="0.7087" stroke-linecap="round" stroke-linejoin="round" stroke-miterlimit="10" x1="2053.433" y1="1255.42" x2="2703.354" y2="605.496"/>
	</g>
	<g id="LINE_87_">
		
			<line fill="none" stroke="#000000" stroke-width="0.7087" stroke-linecap="round" stroke-linejoin="round" stroke-miterlimit="10" x1="2053.187" y1="1252.838" x2="2703.354" y2="602.669"/>
	</g>
	<g id="LINE_88_">
		
			<line fill="none" stroke="#000000" stroke-width="0.7087" stroke-linecap="round" stroke-linejoin="round" stroke-miterlimit="10" x1="2053.879" y1="1250.023" x2="2703.354" y2="600.548"/>
	</g>
	<g id="LINE_89_">
		
			<line fill="none" stroke="#000000" stroke-width="0.7087" stroke-linecap="round" stroke-linejoin="round" stroke-miterlimit="10" x1="1757.354" y1="1588.974" x2="2406.216" y2="940.112"/>
	</g>
	<g id="LINE_90_">
		
			<line fill="none" stroke="#000000" stroke-width="0.7087" stroke-linecap="round" stroke-linejoin="round" stroke-miterlimit="10" x1="1757.354" y1="1591.095" x2="2407.276" y2="941.174"/>
	</g>
	<g id="LINE_91_">
		
			<line fill="none" stroke="#000000" stroke-width="0.7087" stroke-linecap="round" stroke-linejoin="round" stroke-miterlimit="10" x1="1757.354" y1="1593.924" x2="2407.523" y2="943.756"/>
	</g>
	<g id="LINE_92_">
		
			<line fill="none" stroke="#000000" stroke-width="0.7087" stroke-linecap="round" stroke-linejoin="round" stroke-miterlimit="10" x1="1757.354" y1="1596.046" x2="2406.83" y2="946.569"/>
	</g>
	<g id="ARC_71_">
		
			<path fill="none" stroke="#000000" stroke-width="0.7087" stroke-linecap="round" stroke-linejoin="round" stroke-miterlimit="10" d="
			M2484.629,1226.382c-20.067-96.241-44.853-191.439-74.262-285.249"/>
	</g>
	<g id="ARC_72_">
		
			<path fill="none" stroke="#000000" stroke-width="0.7087" stroke-linecap="round" stroke-linejoin="round" stroke-miterlimit="10" d="
			M2410.367,941.133c-0.413-1.318-1.813-2.053-3.133-1.64c-0.386,0.121-0.735,0.333-1.021,0.618"/>
	</g>
	<g id="ARC_73_">
		
			<path fill="none" stroke="#000000" stroke-width="0.7087" stroke-linecap="round" stroke-linejoin="round" stroke-miterlimit="10" d="
			M2483.162,1226.687c-20.061-96.192-44.83-191.343-74.226-285.105"/>
	</g>
	<g id="ARC_74_">
		
			<path fill="none" stroke="#000000" stroke-width="0.7087" stroke-linecap="round" stroke-linejoin="round" stroke-miterlimit="10" d="
			M2408.938,941.58c-0.166-0.525-0.727-0.818-1.254-0.653c-0.154,0.048-0.294,0.133-0.408,0.247"/>
	</g>
	<g id="ARC_75_">
		
			<path fill="none" stroke="#000000" stroke-width="0.7087" stroke-linecap="round" stroke-linejoin="round" stroke-miterlimit="10" d="
			M2481.094,1226.566c-19.913-95.41-44.467-189.792-73.57-282.812"/>
	</g>
	<g id="ARC_76_">
		
			<path fill="none" stroke="#000000" stroke-width="0.7087" stroke-linecap="round" stroke-linejoin="round" stroke-miterlimit="10" d="
			M2479.459,1226.078c-19.705-94.281-43.942-187.562-72.629-279.51"/>
	</g>
	<g id="LINE_93_">
		
			<line fill="none" stroke="#000000" stroke-width="0.7087" stroke-linecap="round" stroke-linejoin="round" stroke-miterlimit="10" x1="2172.728" y1="1575.237" x2="2703.354" y2="1044.61"/>
	</g>
	<g id="LINE_94_">
		
			<line fill="none" stroke="#000000" stroke-width="0.7087" stroke-linecap="round" stroke-linejoin="round" stroke-miterlimit="10" x1="2173.787" y1="1576.299" x2="2703.354" y2="1046.731"/>
	</g>
	<g id="LINE_95_">
		
			<line fill="none" stroke="#000000" stroke-width="0.7087" stroke-linecap="round" stroke-linejoin="round" stroke-miterlimit="10" x1="2175.688" y1="1577.227" x2="2703.354" y2="1049.56"/>
	</g>
	<g id="LINE_96_">
		
			<line fill="none" stroke="#000000" stroke-width="0.7087" stroke-linecap="round" stroke-linejoin="round" stroke-miterlimit="10" x1="2177.479" y1="1577.558" x2="2703.354" y2="1051.681"/>
	</g>
	<g id="LINE_97_">
		
			<line fill="none" stroke="#000000" stroke-width="0.7087" stroke-linecap="round" stroke-linejoin="round" stroke-miterlimit="10" x1="1757.354" y1="1955.256" x2="2483.949" y2="1228.658"/>
	</g>
	<g id="LINE_98_">
		
			<line fill="none" stroke="#000000" stroke-width="0.7087" stroke-linecap="round" stroke-linejoin="round" stroke-miterlimit="10" x1="1757.354" y1="1953.135" x2="2482.89" y2="1227.598"/>
	</g>
	<g id="LINE_99_">
		
			<line fill="none" stroke="#000000" stroke-width="0.7087" stroke-linecap="round" stroke-linejoin="round" stroke-miterlimit="10" x1="1757.354" y1="1950.305" x2="2481.094" y2="1226.566"/>
	</g>
	<g id="LINE_100_">
		
			<line fill="none" stroke="#000000" stroke-width="0.7087" stroke-linecap="round" stroke-linejoin="round" stroke-miterlimit="10" x1="1757.354" y1="1948.184" x2="2479.459" y2="1226.078"/>
	</g>
	<g id="ARC_78_">
		
			<path fill="none" stroke="#000000" stroke-width="0.7087" stroke-linecap="round" stroke-linejoin="round" stroke-miterlimit="10" d="
			M2483.949,1228.658c0.598-0.597,0.854-1.452,0.68-2.276"/>
	</g>
	<g id="ARC_79_">
		
			<path fill="none" stroke="#000000" stroke-width="0.7087" stroke-linecap="round" stroke-linejoin="round" stroke-miterlimit="10" d="
			M2482.89,1227.598c0.239-0.238,0.341-0.581,0.271-0.911"/>
	</g>
	<g id="ARC_80_">
		
			<path fill="none" stroke="#000000" stroke-width="0.7087" stroke-linecap="round" stroke-linejoin="round" stroke-miterlimit="10" d="
			M2172.211,1578.021c36.338,81.654,76.302,161.646,119.773,239.734"/>
	</g>
	<g id="ARC_81_">
		
			<path fill="none" stroke="#000000" stroke-width="0.7087" stroke-linecap="round" stroke-linejoin="round" stroke-miterlimit="10" d="
			M2172.728,1575.237c-0.731,0.731-0.937,1.839-0.517,2.784"/>
	</g>
	<g id="ARC_82_">
		
			<path fill="none" stroke="#000000" stroke-width="0.7087" stroke-linecap="round" stroke-linejoin="round" stroke-miterlimit="10" d="
			M2173.582,1577.41c36.316,81.614,76.264,161.565,119.715,239.615"/>
	</g>
	<g id="ARC_83_">
		
			<path fill="none" stroke="#000000" stroke-width="0.7087" stroke-linecap="round" stroke-linejoin="round" stroke-miterlimit="10" d="
			M2173.787,1576.299c-0.291,0.293-0.375,0.733-0.205,1.111"/>
	</g>
	<g id="ARC_84_">
		
			<path fill="none" stroke="#000000" stroke-width="0.7087" stroke-linecap="round" stroke-linejoin="round" stroke-miterlimit="10" d="
			M2175.688,1577.227c36.041,80.938,75.65,160.238,118.712,237.67"/>
	</g>
	<g id="ARC_85_">
		
			<path fill="none" stroke="#000000" stroke-width="0.7087" stroke-linecap="round" stroke-linejoin="round" stroke-miterlimit="10" d="
			M2177.479,1577.558c35.64,79.966,74.768,158.331,117.268,234.872"/>
	</g>
	<g id="ARC_87_">
		
			<path fill="none" stroke="#000000" stroke-width="0.7087" stroke-linecap="round" stroke-linejoin="round" stroke-miterlimit="10" d="
			M1976.077,970.212c20.068,96.239,44.854,191.438,74.263,285.248"/>
	</g>
	<g id="ARC_88_">
		
			<path fill="none" stroke="#000000" stroke-width="0.7087" stroke-linecap="round" stroke-linejoin="round" stroke-miterlimit="10" d="
			M2050.34,1255.461c0.413,1.315,1.814,2.05,3.134,1.637c0.385-0.12,0.733-0.332,1.021-0.617"/>
	</g>
	<g id="ARC_89_">
		
			<path fill="none" stroke="#000000" stroke-width="0.7087" stroke-linecap="round" stroke-linejoin="round" stroke-miterlimit="10" d="
			M1976.759,967.933c-0.599,0.597-0.854,1.453-0.682,2.278"/>
	</g>
	<g id="LINE_101_">
		
			<line fill="none" stroke="#000000" stroke-width="0.7087" stroke-linecap="round" stroke-linejoin="round" stroke-miterlimit="10" x1="1757.354" y1="1151.981" x2="2287.981" y2="621.354"/>
	</g>
	<g id="LINE_102_">
		
			<line fill="none" stroke="#000000" stroke-width="0.7087" stroke-linecap="round" stroke-linejoin="round" stroke-miterlimit="10" x1="1757.354" y1="1149.86" x2="2286.92" y2="620.295"/>
	</g>
	<g id="ARC_90_">
		
			<path fill="none" stroke="#000000" stroke-width="0.7087" stroke-linecap="round" stroke-linejoin="round" stroke-miterlimit="10" d="
			M1977.548,969.905c20.059,96.193,44.829,191.343,74.224,285.106"/>
	</g>
	<g id="ARC_91_">
		
			<path fill="none" stroke="#000000" stroke-width="0.7087" stroke-linecap="round" stroke-linejoin="round" stroke-miterlimit="10" d="
			M1977.819,968.993c-0.238,0.238-0.341,0.581-0.271,0.911"/>
	</g>
	<g id="ARC_92_">
		
			<path fill="none" stroke="#000000" stroke-width="0.7087" stroke-linecap="round" stroke-linejoin="round" stroke-miterlimit="10" d="
			M2051.771,1255.011c0.165,0.525,0.728,0.818,1.253,0.654c0.154-0.05,0.294-0.134,0.408-0.246"/>
	</g>
	<g id="ARC_93_">
		
			<path fill="none" stroke="#000000" stroke-width="0.7087" stroke-linecap="round" stroke-linejoin="round" stroke-miterlimit="10" d="
			M1979.615,970.025c19.913,95.41,44.466,189.792,73.57,282.813"/>
	</g>
	<g id="ARC_94_">
		
			<path fill="none" stroke="#000000" stroke-width="0.7087" stroke-linecap="round" stroke-linejoin="round" stroke-miterlimit="10" d="
			M1981.25,970.513c19.703,94.283,43.94,187.562,72.629,279.511"/>
	</g>
	<g id="LINE_103_">
		
			<line fill="none" stroke="#000000" stroke-width="0.7087" stroke-linecap="round" stroke-linejoin="round" stroke-miterlimit="10" x1="1757.354" y1="1144.909" x2="2283.231" y2="619.033"/>
	</g>
	<g id="LINE_104_">
		
			<line fill="none" stroke="#000000" stroke-width="0.7087" stroke-linecap="round" stroke-linejoin="round" stroke-miterlimit="10" x1="1757.354" y1="1147.031" x2="2285.021" y2="619.365"/>
	</g>
	<g id="ARC_96_">
		
			<path fill="none" stroke="#000000" stroke-width="0.7087" stroke-linecap="round" stroke-linejoin="round" stroke-miterlimit="10" d="
			M2287.981,621.354c0.732-0.732,0.938-1.839,0.518-2.784"/>
	</g>
	<g id="ARC_97_">
		
			<path fill="none" stroke="#000000" stroke-width="0.7087" stroke-linecap="round" stroke-linejoin="round" stroke-miterlimit="10" d="
			M2286.92,620.295c0.293-0.294,0.375-0.736,0.207-1.114"/>
	</g>
	<g id="LINE_105_">
		
			<line fill="none" stroke="#000000" stroke-width="0.7087" stroke-linecap="round" stroke-linejoin="round" stroke-miterlimit="10" x1="2038.395" y1="2111.206" x2="2535.272" y2="1614.328"/>
	</g>
	<g id="LINE_106_">
		
			<line fill="none" stroke="#000000" stroke-width="0.7087" stroke-linecap="round" stroke-linejoin="round" stroke-miterlimit="10" x1="2295.938" y1="1818.308" x2="2703.354" y2="1410.892"/>
	</g>
	<g id="LINE_107_">
		
			<line fill="none" stroke="#000000" stroke-width="0.7087" stroke-linecap="round" stroke-linejoin="round" stroke-miterlimit="10" x1="2294.877" y1="1817.246" x2="2703.354" y2="1408.771"/>
	</g>
	<g id="LINE_108_">
		
			<line fill="none" stroke="#000000" stroke-width="0.7087" stroke-linecap="round" stroke-linejoin="round" stroke-miterlimit="10" x1="2040.516" y1="2111.206" x2="2536.332" y2="1615.39"/>
	</g>
	<g id="LINE_109_">
		
			<line fill="none" stroke="#000000" stroke-width="0.7087" stroke-linecap="round" stroke-linejoin="round" stroke-miterlimit="10" x1="2043.344" y1="2111.206" x2="2536.202" y2="1618.347"/>
	</g>
	<g id="LINE_110_">
		
			<line fill="none" stroke="#000000" stroke-width="0.7087" stroke-linecap="round" stroke-linejoin="round" stroke-miterlimit="10" x1="2045.465" y1="2111.206" x2="2534.948" y2="1621.725"/>
	</g>
	<g id="LINE_111_">
		
			<line fill="none" stroke="#000000" stroke-width="0.7087" stroke-linecap="round" stroke-linejoin="round" stroke-miterlimit="10" x1="2294.4" y1="1814.896" x2="2703.354" y2="1405.941"/>
	</g>
	<g id="LINE_112_">
		
			<line fill="none" stroke="#000000" stroke-width="0.7087" stroke-linecap="round" stroke-linejoin="round" stroke-miterlimit="10" x1="2294.743" y1="1812.43" x2="2703.354" y2="1403.82"/>
	</g>
	<g id="ARC_98_">
		
			<path fill="none" stroke="#000000" stroke-width="0.7087" stroke-linecap="round" stroke-linejoin="round" stroke-miterlimit="10" d="
			M2291.986,1817.757c0.673,1.207,2.194,1.64,3.4,0.969c0.202-0.113,0.388-0.253,0.552-0.417"/>
	</g>
	<g id="ARC_99_">
		
			<path fill="none" stroke="#000000" stroke-width="0.7087" stroke-linecap="round" stroke-linejoin="round" stroke-miterlimit="10" d="
			M2293.297,1817.026c0.269,0.482,0.878,0.656,1.358,0.388c0.082-0.045,0.155-0.102,0.222-0.167"/>
	</g>
	<g id="ARC_100_">
		
			<path fill="none" stroke="#000000" stroke-width="0.7087" stroke-linecap="round" stroke-linejoin="round" stroke-miterlimit="10" d="
			M2545.011,1969.942c5.141-118.016,3.312-236.229-5.479-354.031"/>
	</g>
	<g id="ARC_101_">
		
			<path fill="none" stroke="#000000" stroke-width="0.7087" stroke-linecap="round" stroke-linejoin="round" stroke-miterlimit="10" d="
			M2539.531,1615.91c-0.103-1.377-1.302-2.409-2.679-2.308c-0.598,0.045-1.158,0.302-1.582,0.726"/>
	</g>
	<g id="ARC_102_">
		
			<path fill="none" stroke="#000000" stroke-width="0.7087" stroke-linecap="round" stroke-linejoin="round" stroke-miterlimit="10" d="
			M2543.513,1969.879c5.137-117.957,3.309-236.114-5.478-353.855"/>
	</g>
	<g id="ARC_103_">
		
			<path fill="none" stroke="#000000" stroke-width="0.7087" stroke-linecap="round" stroke-linejoin="round" stroke-miterlimit="10" d="
			M2538.037,1616.022c-0.041-0.551-0.521-0.964-1.071-0.923c-0.238,0.018-0.463,0.121-0.634,0.29"/>
	</g>
	<g id="ARC_104_">
		
			<path fill="none" stroke="#000000" stroke-width="0.7087" stroke-linecap="round" stroke-linejoin="round" stroke-miterlimit="10" d="
			M2541.531,1969.402c5.081-117.021,3.304-234.241-5.327-351.056"/>
	</g>
	<g id="ARC_105_">
		
			<path fill="none" stroke="#000000" stroke-width="0.7087" stroke-linecap="round" stroke-linejoin="round" stroke-miterlimit="10" d="
			M2540.058,1968.755c5.001-115.68,3.295-231.551-5.108-347.029"/>
	</g>
	<g id="LINE_113_">
		
			<line fill="none" stroke="#000000" stroke-width="0.7087" stroke-linecap="round" stroke-linejoin="round" stroke-miterlimit="10" x1="2404.676" y1="2111.206" x2="2544.281" y2="1971.602"/>
	</g>
	<g id="LINE_114_">
		
			<line fill="none" stroke="#000000" stroke-width="0.7087" stroke-linecap="round" stroke-linejoin="round" stroke-miterlimit="10" x1="2402.554" y1="2111.206" x2="2543.221" y2="1970.54"/>
	</g>
	<g id="LINE_115_">
		
			<line fill="none" stroke="#000000" stroke-width="0.7087" stroke-linecap="round" stroke-linejoin="round" stroke-miterlimit="10" x1="2399.726" y1="2111.206" x2="2541.531" y2="1969.402"/>
	</g>
	<g id="LINE_116_">
		
			<line fill="none" stroke="#000000" stroke-width="0.7087" stroke-linecap="round" stroke-linejoin="round" stroke-miterlimit="10" x1="2397.604" y1="2111.206" x2="2540.058" y2="1968.755"/>
	</g>
	<g id="LINE_117_">
		
			<line fill="none" stroke="#000000" stroke-width="0.7087" stroke-linecap="round" stroke-linejoin="round" stroke-miterlimit="10" x1="2440.03" y1="2111.206" x2="2703.354" y2="1847.885"/>
	</g>
	<g id="LINE_118_">
		
			<line fill="none" stroke="#000000" stroke-width="0.7087" stroke-linecap="round" stroke-linejoin="round" stroke-miterlimit="10" x1="2442.152" y1="2111.206" x2="2703.354" y2="1850.006"/>
	</g>
	<g id="LINE_119_">
		
			<line fill="none" stroke="#000000" stroke-width="0.7087" stroke-linecap="round" stroke-linejoin="round" stroke-miterlimit="10" x1="2444.98" y1="2111.206" x2="2703.354" y2="1852.833"/>
	</g>
	<g id="LINE_120_">
		
			<line fill="none" stroke="#000000" stroke-width="0.7087" stroke-linecap="round" stroke-linejoin="round" stroke-miterlimit="10" x1="2447.102" y1="2111.206" x2="2703.354" y2="1854.953"/>
	</g>
	<g id="ARC_107_">
		
			<path fill="none" stroke="#000000" stroke-width="0.7087" stroke-linecap="round" stroke-linejoin="round" stroke-miterlimit="10" d="
			M2544.281,1971.602c0.442-0.442,0.702-1.034,0.729-1.659"/>
	</g>
	<g id="ARC_108_">
		
			<path fill="none" stroke="#000000" stroke-width="0.7087" stroke-linecap="round" stroke-linejoin="round" stroke-miterlimit="10" d="
			M2543.221,1970.54c0.177-0.177,0.281-0.412,0.292-0.661"/>
	</g>
</g>
<g id="_x30_">
	<g id="ARC_6_">
		
			<path fill="none" stroke="#000000" stroke-width="0.7087" stroke-linecap="round" stroke-linejoin="round" stroke-miterlimit="10" d="
			M161.196,222.816c-5.136,117.917-3.308,236.035,5.475,353.737"/>
	</g>
	<g id="ARC_15_">
		
			<path fill="none" stroke="#000000" stroke-width="0.7087" stroke-linecap="round" stroke-linejoin="round" stroke-miterlimit="10" d="
			M529.213,615.646c-36.309-81.586-76.238-161.511-119.677-239.535"/>
	</g>
	<g id="ARC_22_">
		
			<path fill="none" stroke="#000000" stroke-width="0.7087" stroke-linecap="round" stroke-linejoin="round" stroke-miterlimit="10" d="
			M725.183,1222.948c-20.052-96.161-44.815-191.279-74.199-285.011"/>
	</g>
	<g id="ARC_31_">
		
			<path fill="none" stroke="#000000" stroke-width="0.7087" stroke-linecap="round" stroke-linejoin="round" stroke-miterlimit="10" d="
			M417.493,1573.063c36.309,81.587,76.238,161.511,119.677,239.535"/>
	</g>
	<g id="ARC_40_">
		
			<path fill="none" stroke="#000000" stroke-width="0.7087" stroke-linecap="round" stroke-linejoin="round" stroke-miterlimit="10" d="
			M221.526,965.76c20.054,96.16,44.815,191.278,74.199,285.011"/>
	</g>
	<g id="ARC_51_">
		
			<path fill="none" stroke="#000000" stroke-width="0.7087" stroke-linecap="round" stroke-linejoin="round" stroke-miterlimit="10" d="
			M785.513,1965.893c5.136-117.917,3.309-236.035-5.475-353.737"/>
	</g>
	<g id="ARC_61_">
		
			<path fill="none" stroke="#000000" stroke-width="0.7087" stroke-linecap="round" stroke-linejoin="round" stroke-miterlimit="10" d="
			M1918.196,226.758c-5.136,117.917-3.309,236.036,5.475,353.736"/>
	</g>
	<g id="ARC_70_">
		
			<path fill="none" stroke="#000000" stroke-width="0.7087" stroke-linecap="round" stroke-linejoin="round" stroke-miterlimit="10" d="
			M2286.214,619.588c-36.309-81.586-76.238-161.513-119.675-239.536"/>
	</g>
	<g id="ARC_77_">
		
			<path fill="none" stroke="#000000" stroke-width="0.7087" stroke-linecap="round" stroke-linejoin="round" stroke-miterlimit="10" d="
			M2482.183,1226.891c-20.052-96.161-44.813-191.279-74.199-285.011"/>
	</g>
	<g id="ARC_86_">
		
			<path fill="none" stroke="#000000" stroke-width="0.7087" stroke-linecap="round" stroke-linejoin="round" stroke-miterlimit="10" d="
			M2174.493,1577.006c36.309,81.587,76.238,161.511,119.677,239.534"/>
	</g>
	<g id="ARC_95_">
		
			<path fill="none" stroke="#000000" stroke-width="0.7087" stroke-linecap="round" stroke-linejoin="round" stroke-miterlimit="10" d="
			M1978.526,969.7c20.052,96.161,44.815,191.28,74.199,285.013"/>
	</g>
	<g id="ARC_106_">
		
			<path fill="none" stroke="#000000" stroke-width="0.7087" stroke-linecap="round" stroke-linejoin="round" stroke-miterlimit="10" d="
			M2542.514,1969.833c5.136-117.916,3.308-236.033-5.476-353.735"/>
	</g>
</g>
<g id="occulus_1">
	<g id="LINE_63_">
		
			<linearGradient id="SVGID_1_" gradientUnits="userSpaceOnUse" x1="407.2063" y1="1750.1936" x2="912.2787" y2="1566.3622" gradientTransform="matrix(1 0 0 -1 8.3999 2087.6626)">
			<stop  offset="0" style="stop-color:#DCFFFF"/>
			<stop  offset="1" style="stop-color:#64AFFF"/>
		</linearGradient>
		
			<path fill="url(#SVGID_1_)" stroke="#000000" stroke-width="0.7087" stroke-linecap="round" stroke-linejoin="round" stroke-miterlimit="10" d="
			M467.497,194.9L571.544,90.854h253.81v692.35L752.656,855.9C684.363,624.963,588.625,403.045,467.497,194.9z"/>
	</g>
</g>
<g id="TBG">
	<g id="LINE_64_">
		
			<line fill="none" stroke="#000000" stroke-width="0.7087" stroke-linecap="round" stroke-linejoin="round" stroke-miterlimit="10" x1="826.446" y1="358.354" x2="825.946" y2="358.854"/>
	</g>
	<g id="LINE_121_">
		
			<line fill="none" stroke="#000000" stroke-width="0.7087" stroke-linecap="round" stroke-linejoin="round" stroke-miterlimit="10" x1="2583.446" y1="362.295" x2="2582.946" y2="362.795"/>
	</g>
</g>
</svg>
