<?xml version="1.0" encoding="utf-8"?>
<!-- Generator: Adobe Illustrator 15.0.2, SVG Export Plug-In . SVG Version: 6.00 Build 0)  -->
<!DOCTYPE svg PUBLIC "-//W3C//DTD SVG 1.1//EN" "http://www.w3.org/Graphics/SVG/1.1/DTD/svg11.dtd">
<svg version="1.1" id="Layer_1" xmlns="http://www.w3.org/2000/svg" xmlns:xlink="http://www.w3.org/1999/xlink" x="0px" y="0px"
	 width="946.354px" height="2111.494px" viewBox="0 0 946.354 2111.494" enable-background="new 0 0 946.354 2111.494"
	 xml:space="preserve">
<g id="ELEVATION">
	<g id="LINE">
		
			<line fill="none" stroke="#000000" stroke-width="0.7087" stroke-linecap="round" stroke-linejoin="round" stroke-miterlimit="10" x1="159.428" y1="224.922" x2="380.12" y2="4.228"/>
	</g>
	<g id="LINE_1_">
		
			<line fill="none" stroke="#000000" stroke-width="0.7087" stroke-linecap="round" stroke-linejoin="round" stroke-miterlimit="10" x1="160.489" y1="225.983" x2="382.242" y2="4.228"/>
	</g>
	<g id="LINE_2_">
		
			<line fill="none" stroke="#000000" stroke-width="0.7087" stroke-linecap="round" stroke-linejoin="round" stroke-miterlimit="10" x1="162.178" y1="227.122" x2="385.072" y2="4.228"/>
	</g>
	<g id="LINE_3_">
		
			<line fill="none" stroke="#000000" stroke-width="0.7087" stroke-linecap="round" stroke-linejoin="round" stroke-miterlimit="10" x1="163.651" y1="227.77" x2="387.193" y2="4.228"/>
	</g>
	<g id="LINE_4_">
		
			<line fill="none" stroke="#000000" stroke-width="0.7087" stroke-linecap="round" stroke-linejoin="round" stroke-miterlimit="10" x1="0.354" y1="348.641" x2="344.767" y2="4.228"/>
	</g>
	<g id="LINE_5_">
		
			<line fill="none" stroke="#000000" stroke-width="0.7087" stroke-linecap="round" stroke-linejoin="round" stroke-miterlimit="10" x1="0.354" y1="346.519" x2="342.646" y2="4.228"/>
	</g>
	<g id="LINE_6_">
		
			<line fill="none" stroke="#000000" stroke-width="0.7087" stroke-linecap="round" stroke-linejoin="round" stroke-miterlimit="10" x1="0.354" y1="343.691" x2="339.817" y2="4.228"/>
	</g>
	<g id="LINE_7_">
		
			<line fill="none" stroke="#000000" stroke-width="0.7087" stroke-linecap="round" stroke-linejoin="round" stroke-miterlimit="10" x1="0.354" y1="341.569" x2="337.696" y2="4.228"/>
	</g>
	<g id="ARC">
		
			<path fill="none" stroke="#000000" stroke-width="0.7087" stroke-linecap="round" stroke-linejoin="round" stroke-miterlimit="10" d="
			M158.698,226.581c-5.14,118.018-3.311,236.232,5.479,354.032"/>
	</g>
	<g id="ARC_1_">
		
			<path fill="none" stroke="#000000" stroke-width="0.7087" stroke-linecap="round" stroke-linejoin="round" stroke-miterlimit="10" d="
			M159.428,224.922c-0.442,0.442-0.703,1.034-0.73,1.659"/>
	</g>
	<g id="ARC_2_">
		
			<path fill="none" stroke="#000000" stroke-width="0.7087" stroke-linecap="round" stroke-linejoin="round" stroke-miterlimit="10" d="
			M160.197,226.646c-5.137,117.957-3.309,236.114,5.477,353.855"/>
	</g>
	<g id="ARC_3_">
		
			<path fill="none" stroke="#000000" stroke-width="0.7087" stroke-linecap="round" stroke-linejoin="round" stroke-miterlimit="10" d="
			M160.489,225.983c-0.177,0.177-0.279,0.414-0.292,0.664"/>
	</g>
	<g id="ARC_4_">
		
			<path fill="none" stroke="#000000" stroke-width="0.7087" stroke-linecap="round" stroke-linejoin="round" stroke-miterlimit="10" d="
			M162.178,227.122c-5.082,117.022-3.303,234.241,5.327,351.057"/>
	</g>
	<g id="ARC_5_">
		
			<path fill="none" stroke="#000000" stroke-width="0.7087" stroke-linecap="round" stroke-linejoin="round" stroke-miterlimit="10" d="
			M163.651,227.77c-5,115.678-3.294,231.549,5.11,347.029"/>
	</g>
	<g id="LINE_8_">
		
			<line fill="none" stroke="#000000" stroke-width="0.7087" stroke-linecap="round" stroke-linejoin="round" stroke-miterlimit="10" x1="168.437" y1="582.195" x2="746.404" y2="4.228"/>
	</g>
	<g id="LINE_9_">
		
			<line fill="none" stroke="#000000" stroke-width="0.7087" stroke-linecap="round" stroke-linejoin="round" stroke-miterlimit="10" x1="167.376" y1="581.135" x2="744.281" y2="4.228"/>
	</g>
	<g id="LINE_10_">
		
			<line fill="none" stroke="#000000" stroke-width="0.7087" stroke-linecap="round" stroke-linejoin="round" stroke-miterlimit="10" x1="167.505" y1="578.177" x2="741.452" y2="4.228"/>
	</g>
	<g id="LINE_11_">
		
			<line fill="none" stroke="#000000" stroke-width="0.7087" stroke-linecap="round" stroke-linejoin="round" stroke-miterlimit="10" x1="168.761" y1="574.801" x2="739.331" y2="4.228"/>
	</g>
	<g id="LINE_12_">
		
			<line fill="none" stroke="#000000" stroke-width="0.7087" stroke-linecap="round" stroke-linejoin="round" stroke-miterlimit="10" x1="0.354" y1="785.634" x2="407.771" y2="378.216"/>
	</g>
	<g id="ARC_7_">
		
			<path fill="none" stroke="#000000" stroke-width="0.7087" stroke-linecap="round" stroke-linejoin="round" stroke-miterlimit="10" d="
			M164.176,580.613c0.103,1.377,1.302,2.41,2.679,2.309c0.599-0.045,1.159-0.304,1.582-0.727"/>
	</g>
	<g id="ARC_8_">
		
			<path fill="none" stroke="#000000" stroke-width="0.7087" stroke-linecap="round" stroke-linejoin="round" stroke-miterlimit="10" d="
			M165.672,580.503c0.041,0.551,0.521,0.964,1.072,0.923c0.237-0.02,0.463-0.121,0.632-0.29"/>
	</g>
	<g id="LINE_13_">
		
			<line fill="none" stroke="#000000" stroke-width="0.7087" stroke-linecap="round" stroke-linejoin="round" stroke-miterlimit="10" x1="0.354" y1="787.756" x2="408.83" y2="379.277"/>
	</g>
	<g id="LINE_14_">
		
			<line fill="none" stroke="#000000" stroke-width="0.7087" stroke-linecap="round" stroke-linejoin="round" stroke-miterlimit="10" x1="0.354" y1="790.582" x2="409.309" y2="381.628"/>
	</g>
	<g id="LINE_15_">
		
			<line fill="none" stroke="#000000" stroke-width="0.7087" stroke-linecap="round" stroke-linejoin="round" stroke-miterlimit="10" x1="0.354" y1="792.704" x2="408.964" y2="384.094"/>
	</g>
	<g id="ARC_9_">
		
			<path fill="none" stroke="#000000" stroke-width="0.7087" stroke-linecap="round" stroke-linejoin="round" stroke-miterlimit="10" d="
			M531.496,618.504c-36.337-81.654-76.302-161.646-119.773-239.735"/>
	</g>
	<g id="ARC_10_">
		
			<path fill="none" stroke="#000000" stroke-width="0.7087" stroke-linecap="round" stroke-linejoin="round" stroke-miterlimit="10" d="
			M411.723,378.768c-0.672-1.206-2.194-1.642-3.4-0.97c-0.203,0.112-0.388,0.254-0.552,0.416"/>
	</g>
	<g id="ARC_11_">
		
			<path fill="none" stroke="#000000" stroke-width="0.7087" stroke-linecap="round" stroke-linejoin="round" stroke-miterlimit="10" d="
			M530.127,619.112C493.808,537.5,453.862,457.549,410.41,379.497"/>
	</g>
	<g id="ARC_12_">
		
			<path fill="none" stroke="#000000" stroke-width="0.7087" stroke-linecap="round" stroke-linejoin="round" stroke-miterlimit="10" d="
			M410.411,379.498c-0.269-0.481-0.878-0.656-1.358-0.387c-0.081,0.045-0.155,0.101-0.223,0.167"/>
	</g>
	<g id="ARC_13_">
		
			<path fill="none" stroke="#000000" stroke-width="0.7087" stroke-linecap="round" stroke-linejoin="round" stroke-miterlimit="10" d="
			M526.231,618.968C490.591,539,451.464,460.635,408.964,384.094"/>
	</g>
	<g id="ARC_14_">
		
			<path fill="none" stroke="#000000" stroke-width="0.7087" stroke-linecap="round" stroke-linejoin="round" stroke-miterlimit="10" d="
			M528.021,619.3c-36.041-80.938-75.65-160.239-118.712-237.672"/>
	</g>
	<g id="LINE_16_">
		
			<line fill="none" stroke="#000000" stroke-width="0.7087" stroke-linecap="round" stroke-linejoin="round" stroke-miterlimit="10" x1="219.759" y1="967.865" x2="946.354" y2="241.269"/>
	</g>
	<g id="LINE_17_">
		
			<line fill="none" stroke="#000000" stroke-width="0.7087" stroke-linecap="round" stroke-linejoin="round" stroke-miterlimit="10" x1="220.819" y1="968.927" x2="946.354" y2="243.391"/>
	</g>
	<g id="LINE_18_">
		
			<line fill="none" stroke="#000000" stroke-width="0.7087" stroke-linecap="round" stroke-linejoin="round" stroke-miterlimit="10" x1="222.616" y1="969.959" x2="946.354" y2="246.219"/>
	</g>
	<g id="LINE_19_">
		
			<line fill="none" stroke="#000000" stroke-width="0.7087" stroke-linecap="round" stroke-linejoin="round" stroke-miterlimit="10" x1="224.25" y1="970.445" x2="946.354" y2="248.34"/>
	</g>
	<g id="LINE_20_">
		
			<line fill="none" stroke="#000000" stroke-width="0.7087" stroke-linecap="round" stroke-linejoin="round" stroke-miterlimit="10" x1="297.493" y1="1256.412" x2="946.354" y2="607.552"/>
	</g>
	<g id="LINE_21_">
		
			<line fill="none" stroke="#000000" stroke-width="0.7087" stroke-linecap="round" stroke-linejoin="round" stroke-miterlimit="10" x1="296.433" y1="1255.351" x2="946.354" y2="605.429"/>
	</g>
	<g id="LINE_22_">
		
			<line fill="none" stroke="#000000" stroke-width="0.7087" stroke-linecap="round" stroke-linejoin="round" stroke-miterlimit="10" x1="296.187" y1="1252.769" x2="946.354" y2="602.601"/>
	</g>
	<g id="LINE_23_">
		
			<line fill="none" stroke="#000000" stroke-width="0.7087" stroke-linecap="round" stroke-linejoin="round" stroke-miterlimit="10" x1="296.879" y1="1249.955" x2="946.354" y2="600.479"/>
	</g>
	<g id="LINE_24_">
		
			<line fill="none" stroke="#000000" stroke-width="0.7087" stroke-linecap="round" stroke-linejoin="round" stroke-miterlimit="10" x1="0.354" y1="1588.906" x2="649.216" y2="940.046"/>
	</g>
	<g id="LINE_25_">
		
			<line fill="none" stroke="#000000" stroke-width="0.7087" stroke-linecap="round" stroke-linejoin="round" stroke-miterlimit="10" x1="0.354" y1="1591.027" x2="650.276" y2="941.105"/>
	</g>
	<g id="LINE_26_">
		
			<line fill="none" stroke="#000000" stroke-width="0.7087" stroke-linecap="round" stroke-linejoin="round" stroke-miterlimit="10" x1="0.354" y1="1593.855" x2="650.523" y2="943.687"/>
	</g>
	<g id="LINE_27_">
		
			<line fill="none" stroke="#000000" stroke-width="0.7087" stroke-linecap="round" stroke-linejoin="round" stroke-miterlimit="10" x1="0.354" y1="1595.977" x2="649.829" y2="946.503"/>
	</g>
	<g id="ARC_16_">
		
			<path fill="none" stroke="#000000" stroke-width="0.7087" stroke-linecap="round" stroke-linejoin="round" stroke-miterlimit="10" d="
			M727.63,1226.313c-20.069-96.241-44.854-191.438-74.263-285.248"/>
	</g>
	<g id="ARC_17_">
		
			<path fill="none" stroke="#000000" stroke-width="0.7087" stroke-linecap="round" stroke-linejoin="round" stroke-miterlimit="10" d="
			M653.367,941.064c-0.413-1.317-1.814-2.051-3.133-1.638c-0.385,0.121-0.734,0.333-1.02,0.618"/>
	</g>
	<g id="ARC_18_">
		
			<path fill="none" stroke="#000000" stroke-width="0.7087" stroke-linecap="round" stroke-linejoin="round" stroke-miterlimit="10" d="
			M726.16,1226.619c-20.059-96.191-44.83-191.343-74.224-285.104"/>
	</g>
	<g id="ARC_19_">
		
			<path fill="none" stroke="#000000" stroke-width="0.7087" stroke-linecap="round" stroke-linejoin="round" stroke-miterlimit="10" d="
			M651.938,941.513c-0.166-0.527-0.727-0.82-1.253-0.655c-0.154,0.048-0.294,0.133-0.408,0.247"/>
	</g>
	<g id="ARC_20_">
		
			<path fill="none" stroke="#000000" stroke-width="0.7087" stroke-linecap="round" stroke-linejoin="round" stroke-miterlimit="10" d="
			M724.094,1226.498c-19.914-95.407-44.466-189.791-73.571-282.811"/>
	</g>
	<g id="ARC_21_">
		
			<path fill="none" stroke="#000000" stroke-width="0.7087" stroke-linecap="round" stroke-linejoin="round" stroke-miterlimit="10" d="
			M722.459,1226.011c-19.705-94.282-43.942-187.563-72.631-279.51"/>
	</g>
	<g id="LINE_28_">
		
			<line fill="none" stroke="#000000" stroke-width="0.7087" stroke-linecap="round" stroke-linejoin="round" stroke-miterlimit="10" x1="415.728" y1="1575.172" x2="946.354" y2="1044.543"/>
	</g>
	<g id="LINE_29_">
		
			<line fill="none" stroke="#000000" stroke-width="0.7087" stroke-linecap="round" stroke-linejoin="round" stroke-miterlimit="10" x1="416.786" y1="1576.23" x2="946.354" y2="1046.664"/>
	</g>
	<g id="LINE_30_">
		
			<line fill="none" stroke="#000000" stroke-width="0.7087" stroke-linecap="round" stroke-linejoin="round" stroke-miterlimit="10" x1="418.688" y1="1577.158" x2="946.354" y2="1049.492"/>
	</g>
	<g id="LINE_31_">
		
			<line fill="none" stroke="#000000" stroke-width="0.7087" stroke-linecap="round" stroke-linejoin="round" stroke-miterlimit="10" x1="420.478" y1="1577.49" x2="946.354" y2="1051.613"/>
	</g>
	<g id="LINE_32_">
		
			<line fill="none" stroke="#000000" stroke-width="0.7087" stroke-linecap="round" stroke-linejoin="round" stroke-miterlimit="10" x1="0.354" y1="1955.188" x2="726.949" y2="1228.593"/>
	</g>
	<g id="LINE_33_">
		
			<line fill="none" stroke="#000000" stroke-width="0.7087" stroke-linecap="round" stroke-linejoin="round" stroke-miterlimit="10" x1="0.354" y1="1953.065" x2="725.89" y2="1227.53"/>
	</g>
	<g id="LINE_34_">
		
			<line fill="none" stroke="#000000" stroke-width="0.7087" stroke-linecap="round" stroke-linejoin="round" stroke-miterlimit="10" x1="0.354" y1="1950.237" x2="724.094" y2="1226.498"/>
	</g>
	<g id="LINE_35_">
		
			<line fill="none" stroke="#000000" stroke-width="0.7087" stroke-linecap="round" stroke-linejoin="round" stroke-miterlimit="10" x1="0.354" y1="1948.116" x2="722.459" y2="1226.011"/>
	</g>
	<g id="ARC_23_">
		
			<path fill="none" stroke="#000000" stroke-width="0.7087" stroke-linecap="round" stroke-linejoin="round" stroke-miterlimit="10" d="
			M726.949,1228.593c0.598-0.598,0.854-1.452,0.682-2.278"/>
	</g>
	<g id="ARC_24_">
		
			<path fill="none" stroke="#000000" stroke-width="0.7087" stroke-linecap="round" stroke-linejoin="round" stroke-miterlimit="10" d="
			M725.89,1227.53c0.238-0.237,0.34-0.581,0.271-0.911"/>
	</g>
	<g id="ARC_25_">
		
			<path fill="none" stroke="#000000" stroke-width="0.7087" stroke-linecap="round" stroke-linejoin="round" stroke-miterlimit="10" d="
			M415.211,1577.954c36.337,81.654,76.302,161.646,119.773,239.734"/>
	</g>
	<g id="ARC_26_">
		
			<path fill="none" stroke="#000000" stroke-width="0.7087" stroke-linecap="round" stroke-linejoin="round" stroke-miterlimit="10" d="
			M415.728,1575.172c-0.732,0.729-0.938,1.838-0.516,2.783"/>
	</g>
	<g id="ARC_27_">
		
			<path fill="none" stroke="#000000" stroke-width="0.7087" stroke-linecap="round" stroke-linejoin="round" stroke-miterlimit="10" d="
			M416.58,1577.344c36.319,81.612,76.266,161.563,119.717,239.614"/>
	</g>
	<g id="ARC_28_">
		
			<path fill="none" stroke="#000000" stroke-width="0.7087" stroke-linecap="round" stroke-linejoin="round" stroke-miterlimit="10" d="
			M416.786,1576.23c-0.292,0.292-0.375,0.735-0.207,1.113"/>
	</g>
	<g id="ARC_29_">
		
			<path fill="none" stroke="#000000" stroke-width="0.7087" stroke-linecap="round" stroke-linejoin="round" stroke-miterlimit="10" d="
			M418.688,1577.158c36.04,80.938,75.65,160.239,118.711,237.67"/>
	</g>
	<g id="ARC_30_">
		
			<path fill="none" stroke="#000000" stroke-width="0.7087" stroke-linecap="round" stroke-linejoin="round" stroke-miterlimit="10" d="
			M420.478,1577.49c35.641,79.965,74.767,158.331,117.268,234.871"/>
	</g>
	<g id="ARC_32_">
		
			<path fill="none" stroke="#000000" stroke-width="0.7087" stroke-linecap="round" stroke-linejoin="round" stroke-miterlimit="10" d="
			M219.079,970.143c20.067,96.242,44.852,191.438,74.261,285.249"/>
	</g>
	<g id="ARC_33_">
		
			<path fill="none" stroke="#000000" stroke-width="0.7087" stroke-linecap="round" stroke-linejoin="round" stroke-miterlimit="10" d="
			M293.34,1255.392c0.413,1.316,1.814,2.051,3.134,1.638c0.385-0.12,0.734-0.332,1.021-0.617"/>
	</g>
	<g id="ARC_34_">
		
			<path fill="none" stroke="#000000" stroke-width="0.7087" stroke-linecap="round" stroke-linejoin="round" stroke-miterlimit="10" d="
			M219.759,967.865c-0.597,0.598-0.852,1.453-0.68,2.278"/>
	</g>
	<g id="LINE_36_">
		
			<line fill="none" stroke="#000000" stroke-width="0.7087" stroke-linecap="round" stroke-linejoin="round" stroke-miterlimit="10" x1="0.354" y1="1151.914" x2="530.981" y2="621.287"/>
	</g>
	<g id="LINE_37_">
		
			<line fill="none" stroke="#000000" stroke-width="0.7087" stroke-linecap="round" stroke-linejoin="round" stroke-miterlimit="10" x1="0.354" y1="1149.793" x2="529.921" y2="620.226"/>
	</g>
	<g id="ARC_35_">
		
			<path fill="none" stroke="#000000" stroke-width="0.7087" stroke-linecap="round" stroke-linejoin="round" stroke-miterlimit="10" d="
			M220.547,969.839c20.059,96.191,44.83,191.344,74.224,285.104"/>
	</g>
	<g id="ARC_36_">
		
			<path fill="none" stroke="#000000" stroke-width="0.7087" stroke-linecap="round" stroke-linejoin="round" stroke-miterlimit="10" d="
			M220.819,968.927c-0.237,0.236-0.341,0.581-0.271,0.911"/>
	</g>
	<g id="ARC_37_">
		
			<path fill="none" stroke="#000000" stroke-width="0.7087" stroke-linecap="round" stroke-linejoin="round" stroke-miterlimit="10" d="
			M294.771,1254.943c0.165,0.526,0.728,0.82,1.253,0.654c0.154-0.048,0.293-0.133,0.408-0.247"/>
	</g>
	<g id="ARC_38_">
		
			<path fill="none" stroke="#000000" stroke-width="0.7087" stroke-linecap="round" stroke-linejoin="round" stroke-miterlimit="10" d="
			M222.616,969.959c19.911,95.409,44.466,189.791,73.569,282.812"/>
	</g>
	<g id="ARC_39_">
		
			<path fill="none" stroke="#000000" stroke-width="0.7087" stroke-linecap="round" stroke-linejoin="round" stroke-miterlimit="10" d="
			M224.25,970.445c19.705,94.283,43.94,187.563,72.629,279.51"/>
	</g>
	<g id="LINE_38_">
		
			<line fill="none" stroke="#000000" stroke-width="0.7087" stroke-linecap="round" stroke-linejoin="round" stroke-miterlimit="10" x1="0.354" y1="1144.844" x2="526.231" y2="618.968"/>
	</g>
	<g id="LINE_39_">
		
			<line fill="none" stroke="#000000" stroke-width="0.7087" stroke-linecap="round" stroke-linejoin="round" stroke-miterlimit="10" x1="0.354" y1="1146.966" x2="528.021" y2="619.3"/>
	</g>
	<g id="ARC_41_">
		
			<path fill="none" stroke="#000000" stroke-width="0.7087" stroke-linecap="round" stroke-linejoin="round" stroke-miterlimit="10" d="
			M530.981,621.287c0.732-0.729,0.938-1.838,0.518-2.782"/>
	</g>
	<g id="ARC_42_">
		
			<path fill="none" stroke="#000000" stroke-width="0.7087" stroke-linecap="round" stroke-linejoin="round" stroke-miterlimit="10" d="
			M529.921,620.226c0.293-0.292,0.375-0.735,0.207-1.114"/>
	</g>
	<g id="LINE_40_">
		
			<line fill="none" stroke="#000000" stroke-width="0.7087" stroke-linecap="round" stroke-linejoin="round" stroke-miterlimit="10" x1="281.394" y1="2111.14" x2="778.272" y2="1614.262"/>
	</g>
	<g id="LINE_41_">
		
			<line fill="none" stroke="#000000" stroke-width="0.7087" stroke-linecap="round" stroke-linejoin="round" stroke-miterlimit="10" x1="538.938" y1="1818.24" x2="946.354" y2="1410.823"/>
	</g>
	<g id="LINE_42_">
		
			<line fill="none" stroke="#000000" stroke-width="0.7087" stroke-linecap="round" stroke-linejoin="round" stroke-miterlimit="10" x1="537.877" y1="1817.18" x2="946.354" y2="1408.702"/>
	</g>
	<g id="LINE_43_">
		
			<line fill="none" stroke="#000000" stroke-width="0.7087" stroke-linecap="round" stroke-linejoin="round" stroke-miterlimit="10" x1="283.515" y1="2111.14" x2="779.331" y2="1615.322"/>
	</g>
	<g id="LINE_44_">
		
			<line fill="none" stroke="#000000" stroke-width="0.7087" stroke-linecap="round" stroke-linejoin="round" stroke-miterlimit="10" x1="286.344" y1="2111.14" x2="779.203" y2="1618.279"/>
	</g>
	<g id="LINE_45_">
		
			<line fill="none" stroke="#000000" stroke-width="0.7087" stroke-linecap="round" stroke-linejoin="round" stroke-miterlimit="10" x1="288.465" y1="2111.14" x2="777.948" y2="1621.656"/>
	</g>
	<g id="LINE_46_">
		
			<line fill="none" stroke="#000000" stroke-width="0.7087" stroke-linecap="round" stroke-linejoin="round" stroke-miterlimit="10" x1="537.4" y1="1814.828" x2="946.354" y2="1405.875"/>
	</g>
	<g id="LINE_47_">
		
			<line fill="none" stroke="#000000" stroke-width="0.7087" stroke-linecap="round" stroke-linejoin="round" stroke-miterlimit="10" x1="537.744" y1="1812.361" x2="946.354" y2="1403.755"/>
	</g>
	<g id="ARC_43_">
		
			<path fill="none" stroke="#000000" stroke-width="0.7087" stroke-linecap="round" stroke-linejoin="round" stroke-miterlimit="10" d="
			M534.986,1817.688c0.671,1.206,2.194,1.64,3.4,0.968c0.202-0.11,0.388-0.252,0.551-0.416"/>
	</g>
	<g id="ARC_44_">
		
			<path fill="none" stroke="#000000" stroke-width="0.7087" stroke-linecap="round" stroke-linejoin="round" stroke-miterlimit="10" d="
			M536.297,1816.959c0.269,0.482,0.877,0.655,1.358,0.389c0.081-0.045,0.155-0.103,0.223-0.166"/>
	</g>
	<g id="ARC_45_">
		
			<path fill="none" stroke="#000000" stroke-width="0.7087" stroke-linecap="round" stroke-linejoin="round" stroke-miterlimit="10" d="
			M788.011,1969.875c5.14-118.016,3.311-236.229-5.479-354.03"/>
	</g>
	<g id="ARC_46_">
		
			<path fill="none" stroke="#000000" stroke-width="0.7087" stroke-linecap="round" stroke-linejoin="round" stroke-miterlimit="10" d="
			M782.531,1615.844c-0.103-1.377-1.302-2.409-2.679-2.309c-0.597,0.046-1.158,0.304-1.582,0.728"/>
	</g>
	<g id="ARC_47_">
		
			<path fill="none" stroke="#000000" stroke-width="0.7087" stroke-linecap="round" stroke-linejoin="round" stroke-miterlimit="10" d="
			M786.512,1969.81c5.138-117.956,3.31-236.113-5.477-353.854"/>
	</g>
	<g id="ARC_48_">
		
			<path fill="none" stroke="#000000" stroke-width="0.7087" stroke-linecap="round" stroke-linejoin="round" stroke-miterlimit="10" d="
			M781.035,1615.955c-0.041-0.551-0.521-0.964-1.069-0.923c-0.239,0.02-0.463,0.12-0.634,0.29"/>
	</g>
	<g id="ARC_49_">
		
			<path fill="none" stroke="#000000" stroke-width="0.7087" stroke-linecap="round" stroke-linejoin="round" stroke-miterlimit="10" d="
			M784.531,1969.334c5.082-117.021,3.305-234.239-5.327-351.055"/>
	</g>
	<g id="ARC_50_">
		
			<path fill="none" stroke="#000000" stroke-width="0.7087" stroke-linecap="round" stroke-linejoin="round" stroke-miterlimit="10" d="
			M783.058,1968.687c5.001-115.679,3.294-231.549-5.109-347.03"/>
	</g>
	<g id="LINE_48_">
		
			<line fill="none" stroke="#000000" stroke-width="0.7087" stroke-linecap="round" stroke-linejoin="round" stroke-miterlimit="10" x1="647.675" y1="2111.14" x2="787.281" y2="1971.534"/>
	</g>
	<g id="LINE_49_">
		
			<line fill="none" stroke="#000000" stroke-width="0.7087" stroke-linecap="round" stroke-linejoin="round" stroke-miterlimit="10" x1="645.554" y1="2111.14" x2="786.22" y2="1970.474"/>
	</g>
	<g id="LINE_50_">
		
			<line fill="none" stroke="#000000" stroke-width="0.7087" stroke-linecap="round" stroke-linejoin="round" stroke-miterlimit="10" x1="642.726" y1="2111.14" x2="784.531" y2="1969.334"/>
	</g>
	<g id="LINE_51_">
		
			<line fill="none" stroke="#000000" stroke-width="0.7087" stroke-linecap="round" stroke-linejoin="round" stroke-miterlimit="10" x1="640.604" y1="2111.14" x2="783.058" y2="1968.687"/>
	</g>
	<g id="LINE_52_">
		
			<line fill="none" stroke="#000000" stroke-width="0.7087" stroke-linecap="round" stroke-linejoin="round" stroke-miterlimit="10" x1="683.031" y1="2111.14" x2="946.354" y2="1847.815"/>
	</g>
	<g id="LINE_53_">
		
			<line fill="none" stroke="#000000" stroke-width="0.7087" stroke-linecap="round" stroke-linejoin="round" stroke-miterlimit="10" x1="685.152" y1="2111.14" x2="946.354" y2="1849.938"/>
	</g>
	<g id="LINE_54_">
		
			<line fill="none" stroke="#000000" stroke-width="0.7087" stroke-linecap="round" stroke-linejoin="round" stroke-miterlimit="10" x1="687.98" y1="2111.14" x2="946.354" y2="1852.766"/>
	</g>
	<g id="LINE_55_">
		
			<line fill="none" stroke="#000000" stroke-width="0.7087" stroke-linecap="round" stroke-linejoin="round" stroke-miterlimit="10" x1="690.102" y1="2111.14" x2="946.354" y2="1854.887"/>
	</g>
	<g id="ARC_52_">
		
			<path fill="none" stroke="#000000" stroke-width="0.7087" stroke-linecap="round" stroke-linejoin="round" stroke-miterlimit="10" d="
			M787.281,1971.534c0.442-0.44,0.703-1.034,0.73-1.659"/>
	</g>
	<g id="ARC_53_">
		
			<path fill="none" stroke="#000000" stroke-width="0.7087" stroke-linecap="round" stroke-linejoin="round" stroke-miterlimit="10" d="
			M786.22,1970.474c0.177-0.177,0.28-0.414,0.292-0.664"/>
	</g>
	<g id="LINE_59_">
		
			<line fill="none" stroke="#000000" stroke-width="0.7087" stroke-linecap="round" stroke-linejoin="round" stroke-miterlimit="10" x1="1724.473" y1="221.049" x2="1945.166" y2="0.354"/>
	</g>
	<g id="LINE_60_">
		
			<line fill="none" stroke="#000000" stroke-width="0.7087" stroke-linecap="round" stroke-linejoin="round" stroke-miterlimit="10" x1="1725.531" y1="222.109" x2="1947.286" y2="0.354"/>
	</g>
	<g id="LINE_61_">
		
			<line fill="none" stroke="#000000" stroke-width="0.7087" stroke-linecap="round" stroke-linejoin="round" stroke-miterlimit="10" x1="1727.223" y1="223.249" x2="1950.115" y2="0.354"/>
	</g>
	<g id="LINE_62_">
		
			<line fill="none" stroke="#000000" stroke-width="0.7087" stroke-linecap="round" stroke-linejoin="round" stroke-miterlimit="10" x1="1728.696" y1="223.896" x2="1952.238" y2="0.354"/>
	</g>
	<g id="LINE_63_">
		
			<line fill="none" stroke="#000000" stroke-width="0.7087" stroke-linecap="round" stroke-linejoin="round" stroke-miterlimit="10" x1="1565.399" y1="344.767" x2="1909.812" y2="0.354"/>
	</g>
	<g id="LINE_64_">
		
			<line fill="none" stroke="#000000" stroke-width="0.7087" stroke-linecap="round" stroke-linejoin="round" stroke-miterlimit="10" x1="1565.399" y1="342.646" x2="1907.69" y2="0.354"/>
	</g>
	<g id="LINE_65_">
		
			<line fill="none" stroke="#000000" stroke-width="0.7087" stroke-linecap="round" stroke-linejoin="round" stroke-miterlimit="10" x1="1565.399" y1="339.817" x2="1904.862" y2="0.354"/>
	</g>
	<g id="LINE_66_">
		
			<line fill="none" stroke="#000000" stroke-width="0.7087" stroke-linecap="round" stroke-linejoin="round" stroke-miterlimit="10" x1="1565.399" y1="337.696" x2="1902.74" y2="0.354"/>
	</g>
	<g id="ARC_58_">
		
			<path fill="none" stroke="#000000" stroke-width="0.7087" stroke-linecap="round" stroke-linejoin="round" stroke-miterlimit="10" d="
			M1723.741,222.708c-5.14,118.018-3.312,236.232,5.479,354.032"/>
	</g>
	<g id="ARC_59_">
		
			<path fill="none" stroke="#000000" stroke-width="0.7087" stroke-linecap="round" stroke-linejoin="round" stroke-miterlimit="10" d="
			M1724.473,221.049c-0.441,0.442-0.702,1.034-0.729,1.659"/>
	</g>
	<g id="ARC_60_">
		
			<path fill="none" stroke="#000000" stroke-width="0.7087" stroke-linecap="round" stroke-linejoin="round" stroke-miterlimit="10" d="
			M1725.24,222.773c-5.138,117.957-3.31,236.114,5.477,353.855"/>
	</g>
	<g id="ARC_61_">
		
			<path fill="none" stroke="#000000" stroke-width="0.7087" stroke-linecap="round" stroke-linejoin="round" stroke-miterlimit="10" d="
			M1725.531,222.109c-0.177,0.177-0.279,0.414-0.291,0.664"/>
	</g>
	<g id="ARC_62_">
		
			<path fill="none" stroke="#000000" stroke-width="0.7087" stroke-linecap="round" stroke-linejoin="round" stroke-miterlimit="10" d="
			M1727.223,223.249c-5.081,117.022-3.303,234.241,5.327,351.057"/>
	</g>
	<g id="ARC_63_">
		
			<path fill="none" stroke="#000000" stroke-width="0.7087" stroke-linecap="round" stroke-linejoin="round" stroke-miterlimit="10" d="
			M1728.696,223.896c-5.001,115.678-3.295,231.549,5.109,347.029"/>
	</g>
	<g id="LINE_68_">
		
			<line fill="none" stroke="#000000" stroke-width="0.7087" stroke-linecap="round" stroke-linejoin="round" stroke-miterlimit="10" x1="1733.481" y1="578.321" x2="2311.448" y2="0.354"/>
	</g>
	<g id="LINE_69_">
		
			<line fill="none" stroke="#000000" stroke-width="0.7087" stroke-linecap="round" stroke-linejoin="round" stroke-miterlimit="10" x1="1732.421" y1="577.261" x2="2309.325" y2="0.354"/>
	</g>
	<g id="LINE_70_">
		
			<line fill="none" stroke="#000000" stroke-width="0.7087" stroke-linecap="round" stroke-linejoin="round" stroke-miterlimit="10" x1="1732.55" y1="574.304" x2="2306.498" y2="0.354"/>
	</g>
	<g id="LINE_71_">
		
			<line fill="none" stroke="#000000" stroke-width="0.7087" stroke-linecap="round" stroke-linejoin="round" stroke-miterlimit="10" x1="1733.806" y1="570.927" x2="2304.377" y2="0.354"/>
	</g>
	<g id="LINE_73_">
		
			<line fill="none" stroke="#000000" stroke-width="0.7087" stroke-linecap="round" stroke-linejoin="round" stroke-miterlimit="10" x1="1565.399" y1="781.76" x2="1972.815" y2="374.343"/>
	</g>
	<g id="ARC_65_">
		
			<path fill="none" stroke="#000000" stroke-width="0.7087" stroke-linecap="round" stroke-linejoin="round" stroke-miterlimit="10" d="
			M1729.221,576.739c0.103,1.377,1.303,2.41,2.679,2.309c0.598-0.044,1.159-0.304,1.582-0.727"/>
	</g>
	<g id="ARC_66_">
		
			<path fill="none" stroke="#000000" stroke-width="0.7087" stroke-linecap="round" stroke-linejoin="round" stroke-miterlimit="10" d="
			M1730.717,576.63c0.041,0.551,0.521,0.964,1.069,0.923c0.239-0.02,0.466-0.121,0.635-0.29"/>
	</g>
	<g id="LINE_74_">
		
			<line fill="none" stroke="#000000" stroke-width="0.7087" stroke-linecap="round" stroke-linejoin="round" stroke-miterlimit="10" x1="1565.399" y1="783.882" x2="1973.875" y2="375.403"/>
	</g>
	<g id="LINE_75_">
		
			<line fill="none" stroke="#000000" stroke-width="0.7087" stroke-linecap="round" stroke-linejoin="round" stroke-miterlimit="10" x1="1565.399" y1="786.709" x2="1974.354" y2="377.754"/>
	</g>
	<g id="LINE_76_">
		
			<line fill="none" stroke="#000000" stroke-width="0.7087" stroke-linecap="round" stroke-linejoin="round" stroke-miterlimit="10" x1="1565.399" y1="788.83" x2="1974.009" y2="380.221"/>
	</g>
	<g id="ARC_67_">
		
			<path fill="none" stroke="#000000" stroke-width="0.7087" stroke-linecap="round" stroke-linejoin="round" stroke-miterlimit="10" d="
			M2096.543,614.631c-36.338-81.654-76.304-161.646-119.775-239.735"/>
	</g>
	<g id="ARC_68_">
		
			<path fill="none" stroke="#000000" stroke-width="0.7087" stroke-linecap="round" stroke-linejoin="round" stroke-miterlimit="10" d="
			M1976.768,374.894c-0.672-1.206-2.193-1.642-3.4-0.968c-0.202,0.111-0.388,0.253-0.552,0.417"/>
	</g>
	<g id="ARC_69_">
		
			<path fill="none" stroke="#000000" stroke-width="0.7087" stroke-linecap="round" stroke-linejoin="round" stroke-miterlimit="10" d="
			M2095.172,615.239c-36.318-81.614-76.266-161.563-119.715-239.615"/>
	</g>
	<g id="ARC_70_">
		
			<path fill="none" stroke="#000000" stroke-width="0.7087" stroke-linecap="round" stroke-linejoin="round" stroke-miterlimit="10" d="
			M1975.457,375.624c-0.271-0.481-0.877-0.656-1.36-0.388c-0.081,0.045-0.155,0.102-0.221,0.167"/>
	</g>
	<g id="ARC_71_">
		
			<path fill="none" stroke="#000000" stroke-width="0.7087" stroke-linecap="round" stroke-linejoin="round" stroke-miterlimit="10" d="
			M2091.275,615.094c-35.64-79.966-74.767-158.332-117.267-234.872"/>
	</g>
	<g id="ARC_72_">
		
			<path fill="none" stroke="#000000" stroke-width="0.7087" stroke-linecap="round" stroke-linejoin="round" stroke-miterlimit="10" d="
			M2093.065,615.426c-36.04-80.938-75.649-160.239-118.712-237.672"/>
	</g>
	<g id="LINE_77_">
		
			<line fill="none" stroke="#000000" stroke-width="0.7087" stroke-linecap="round" stroke-linejoin="round" stroke-miterlimit="10" x1="1784.804" y1="963.992" x2="2511.399" y2="237.396"/>
	</g>
	<g id="LINE_78_">
		
			<line fill="none" stroke="#000000" stroke-width="0.7087" stroke-linecap="round" stroke-linejoin="round" stroke-miterlimit="10" x1="1785.864" y1="965.052" x2="2511.399" y2="239.517"/>
	</g>
	<g id="LINE_79_">
		
			<line fill="none" stroke="#000000" stroke-width="0.7087" stroke-linecap="round" stroke-linejoin="round" stroke-miterlimit="10" x1="1787.658" y1="966.084" x2="2511.399" y2="242.345"/>
	</g>
	<g id="LINE_80_">
		
			<line fill="none" stroke="#000000" stroke-width="0.7087" stroke-linecap="round" stroke-linejoin="round" stroke-miterlimit="10" x1="1789.295" y1="966.571" x2="2511.399" y2="244.467"/>
	</g>
	<g id="LINE_81_">
		
			<line fill="none" stroke="#000000" stroke-width="0.7087" stroke-linecap="round" stroke-linejoin="round" stroke-miterlimit="10" x1="1862.536" y1="1252.538" x2="2511.399" y2="603.677"/>
	</g>
	<g id="LINE_82_">
		
			<line fill="none" stroke="#000000" stroke-width="0.7087" stroke-linecap="round" stroke-linejoin="round" stroke-miterlimit="10" x1="1861.478" y1="1251.478" x2="2511.399" y2="601.556"/>
	</g>
	<g id="LINE_83_">
		
			<line fill="none" stroke="#000000" stroke-width="0.7087" stroke-linecap="round" stroke-linejoin="round" stroke-miterlimit="10" x1="1861.231" y1="1248.896" x2="2511.399" y2="598.727"/>
	</g>
	<g id="LINE_84_">
		
			<line fill="none" stroke="#000000" stroke-width="0.7087" stroke-linecap="round" stroke-linejoin="round" stroke-miterlimit="10" x1="1861.924" y1="1246.082" x2="2511.399" y2="596.605"/>
	</g>
	<g id="LINE_85_">
		
			<line fill="none" stroke="#000000" stroke-width="0.7087" stroke-linecap="round" stroke-linejoin="round" stroke-miterlimit="10" x1="1565.399" y1="1585.032" x2="2214.261" y2="936.173"/>
	</g>
	<g id="LINE_86_">
		
			<line fill="none" stroke="#000000" stroke-width="0.7087" stroke-linecap="round" stroke-linejoin="round" stroke-miterlimit="10" x1="1565.399" y1="1587.153" x2="2215.321" y2="937.231"/>
	</g>
	<g id="LINE_87_">
		
			<line fill="none" stroke="#000000" stroke-width="0.7087" stroke-linecap="round" stroke-linejoin="round" stroke-miterlimit="10" x1="1565.399" y1="1589.981" x2="2215.567" y2="939.813"/>
	</g>
	<g id="LINE_88_">
		
			<line fill="none" stroke="#000000" stroke-width="0.7087" stroke-linecap="round" stroke-linejoin="round" stroke-miterlimit="10" x1="1565.399" y1="1592.104" x2="2214.875" y2="942.629"/>
	</g>
	<g id="ARC_74_">
		
			<path fill="none" stroke="#000000" stroke-width="0.7087" stroke-linecap="round" stroke-linejoin="round" stroke-miterlimit="10" d="
			M2292.675,1222.439c-20.068-96.241-44.854-191.439-74.261-285.249"/>
	</g>
	<g id="ARC_75_">
		
			<path fill="none" stroke="#000000" stroke-width="0.7087" stroke-linecap="round" stroke-linejoin="round" stroke-miterlimit="10" d="
			M2218.414,937.191c-0.414-1.317-1.816-2.051-3.136-1.638c-0.385,0.121-0.732,0.333-1.02,0.618"/>
	</g>
	<g id="ARC_76_">
		
			<path fill="none" stroke="#000000" stroke-width="0.7087" stroke-linecap="round" stroke-linejoin="round" stroke-miterlimit="10" d="
			M2291.207,1222.745c-20.062-96.19-44.83-191.343-74.227-285.104"/>
	</g>
	<g id="ARC_77_">
		
			<path fill="none" stroke="#000000" stroke-width="0.7087" stroke-linecap="round" stroke-linejoin="round" stroke-miterlimit="10" d="
			M2216.982,937.64c-0.165-0.527-0.728-0.82-1.253-0.655c-0.154,0.048-0.294,0.133-0.408,0.247"/>
	</g>
	<g id="ARC_78_">
		
			<path fill="none" stroke="#000000" stroke-width="0.7087" stroke-linecap="round" stroke-linejoin="round" stroke-miterlimit="10" d="
			M2289.139,1222.625c-19.914-95.408-44.467-189.791-73.571-282.812"/>
	</g>
	<g id="ARC_79_">
		
			<path fill="none" stroke="#000000" stroke-width="0.7087" stroke-linecap="round" stroke-linejoin="round" stroke-miterlimit="10" d="
			M2287.504,1222.138c-19.705-94.283-43.942-187.563-72.629-279.51"/>
	</g>
	<g id="LINE_89_">
		
			<line fill="none" stroke="#000000" stroke-width="0.7087" stroke-linecap="round" stroke-linejoin="round" stroke-miterlimit="10" x1="1980.772" y1="1571.298" x2="2511.399" y2="1040.671"/>
	</g>
	<g id="LINE_90_">
		
			<line fill="none" stroke="#000000" stroke-width="0.7087" stroke-linecap="round" stroke-linejoin="round" stroke-miterlimit="10" x1="1981.832" y1="1572.356" x2="2511.399" y2="1042.791"/>
	</g>
	<g id="LINE_91_">
		
			<line fill="none" stroke="#000000" stroke-width="0.7087" stroke-linecap="round" stroke-linejoin="round" stroke-miterlimit="10" x1="1983.733" y1="1573.285" x2="2511.399" y2="1045.618"/>
	</g>
	<g id="LINE_92_">
		
			<line fill="none" stroke="#000000" stroke-width="0.7087" stroke-linecap="round" stroke-linejoin="round" stroke-miterlimit="10" x1="1985.523" y1="1573.616" x2="2511.399" y2="1047.74"/>
	</g>
	<g id="LINE_93_">
		
			<line fill="none" stroke="#000000" stroke-width="0.7087" stroke-linecap="round" stroke-linejoin="round" stroke-miterlimit="10" x1="1565.399" y1="1951.313" x2="2291.993" y2="1224.719"/>
	</g>
	<g id="LINE_94_">
		
			<line fill="none" stroke="#000000" stroke-width="0.7087" stroke-linecap="round" stroke-linejoin="round" stroke-miterlimit="10" x1="1565.399" y1="1949.192" x2="2290.935" y2="1223.657"/>
	</g>
	<g id="LINE_95_">
		
			<line fill="none" stroke="#000000" stroke-width="0.7087" stroke-linecap="round" stroke-linejoin="round" stroke-miterlimit="10" x1="1565.399" y1="1946.364" x2="2289.139" y2="1222.625"/>
	</g>
	<g id="LINE_96_">
		
			<line fill="none" stroke="#000000" stroke-width="0.7087" stroke-linecap="round" stroke-linejoin="round" stroke-miterlimit="10" x1="1565.399" y1="1944.242" x2="2287.504" y2="1222.138"/>
	</g>
	<g id="ARC_81_">
		
			<path fill="none" stroke="#000000" stroke-width="0.7087" stroke-linecap="round" stroke-linejoin="round" stroke-miterlimit="10" d="
			M2291.993,1224.719c0.599-0.599,0.854-1.453,0.681-2.278"/>
	</g>
	<g id="ARC_82_">
		
			<path fill="none" stroke="#000000" stroke-width="0.7087" stroke-linecap="round" stroke-linejoin="round" stroke-miterlimit="10" d="
			M2290.935,1223.657c0.238-0.239,0.341-0.582,0.272-0.912"/>
	</g>
	<g id="ARC_83_">
		
			<path fill="none" stroke="#000000" stroke-width="0.7087" stroke-linecap="round" stroke-linejoin="round" stroke-miterlimit="10" d="
			M1980.256,1574.08c36.337,81.654,76.302,161.646,119.773,239.734"/>
	</g>
	<g id="ARC_84_">
		
			<path fill="none" stroke="#000000" stroke-width="0.7087" stroke-linecap="round" stroke-linejoin="round" stroke-miterlimit="10" d="
			M1980.772,1571.298c-0.73,0.729-0.938,1.839-0.517,2.782"/>
	</g>
	<g id="ARC_85_">
		
			<path fill="none" stroke="#000000" stroke-width="0.7087" stroke-linecap="round" stroke-linejoin="round" stroke-miterlimit="10" d="
			M1981.627,1573.47c36.316,81.613,76.264,161.563,119.715,239.615"/>
	</g>
	<g id="ARC_86_">
		
			<path fill="none" stroke="#000000" stroke-width="0.7087" stroke-linecap="round" stroke-linejoin="round" stroke-miterlimit="10" d="
			M1981.832,1572.356c-0.293,0.293-0.375,0.735-0.205,1.113"/>
	</g>
	<g id="ARC_87_">
		
			<path fill="none" stroke="#000000" stroke-width="0.7087" stroke-linecap="round" stroke-linejoin="round" stroke-miterlimit="10" d="
			M1983.733,1573.285c36.04,80.938,75.649,160.239,118.712,237.67"/>
	</g>
	<g id="ARC_88_">
		
			<path fill="none" stroke="#000000" stroke-width="0.7087" stroke-linecap="round" stroke-linejoin="round" stroke-miterlimit="10" d="
			M1985.523,1573.616c35.64,79.966,74.767,158.331,117.267,234.872"/>
	</g>
	<g id="ARC_90_">
		
			<path fill="none" stroke="#000000" stroke-width="0.7087" stroke-linecap="round" stroke-linejoin="round" stroke-miterlimit="10" d="
			M1784.123,966.27c20.067,96.241,44.854,191.438,74.262,285.249"/>
	</g>
	<g id="ARC_91_">
		
			<path fill="none" stroke="#000000" stroke-width="0.7087" stroke-linecap="round" stroke-linejoin="round" stroke-miterlimit="10" d="
			M1858.385,1251.519c0.413,1.317,1.814,2.05,3.134,1.638c0.385-0.121,0.734-0.333,1.021-0.618"/>
	</g>
	<g id="ARC_92_">
		
			<path fill="none" stroke="#000000" stroke-width="0.7087" stroke-linecap="round" stroke-linejoin="round" stroke-miterlimit="10" d="
			M1784.804,963.992c-0.599,0.598-0.854,1.453-0.682,2.278"/>
	</g>
	<g id="LINE_97_">
		
			<line fill="none" stroke="#000000" stroke-width="0.7087" stroke-linecap="round" stroke-linejoin="round" stroke-miterlimit="10" x1="1565.399" y1="1148.041" x2="2096.026" y2="617.413"/>
	</g>
	<g id="LINE_98_">
		
			<line fill="none" stroke="#000000" stroke-width="0.7087" stroke-linecap="round" stroke-linejoin="round" stroke-miterlimit="10" x1="1565.399" y1="1145.921" x2="2094.966" y2="616.353"/>
	</g>
	<g id="ARC_93_">
		
			<path fill="none" stroke="#000000" stroke-width="0.7087" stroke-linecap="round" stroke-linejoin="round" stroke-miterlimit="10" d="
			M1785.592,965.965c20.06,96.191,44.83,191.343,74.225,285.104"/>
	</g>
	<g id="ARC_94_">
		
			<path fill="none" stroke="#000000" stroke-width="0.7087" stroke-linecap="round" stroke-linejoin="round" stroke-miterlimit="10" d="
			M1785.864,965.052c-0.238,0.236-0.341,0.581-0.271,0.911"/>
	</g>
	<g id="ARC_95_">
		
			<path fill="none" stroke="#000000" stroke-width="0.7087" stroke-linecap="round" stroke-linejoin="round" stroke-miterlimit="10" d="
			M1859.816,1251.069c0.165,0.527,0.729,0.82,1.253,0.655c0.154-0.049,0.294-0.133,0.408-0.247"/>
	</g>
	<g id="ARC_96_">
		
			<path fill="none" stroke="#000000" stroke-width="0.7087" stroke-linecap="round" stroke-linejoin="round" stroke-miterlimit="10" d="
			M1787.658,966.084c19.914,95.41,44.469,189.793,73.571,282.813"/>
	</g>
	<g id="ARC_97_">
		
			<path fill="none" stroke="#000000" stroke-width="0.7087" stroke-linecap="round" stroke-linejoin="round" stroke-miterlimit="10" d="
			M1789.295,966.571c19.703,94.283,43.94,187.563,72.629,279.511"/>
	</g>
	<g id="LINE_99_">
		
			<line fill="none" stroke="#000000" stroke-width="0.7087" stroke-linecap="round" stroke-linejoin="round" stroke-miterlimit="10" x1="1565.399" y1="1140.969" x2="2091.275" y2="615.094"/>
	</g>
	<g id="LINE_100_">
		
			<line fill="none" stroke="#000000" stroke-width="0.7087" stroke-linecap="round" stroke-linejoin="round" stroke-miterlimit="10" x1="1565.399" y1="1143.093" x2="2093.065" y2="615.426"/>
	</g>
	<g id="ARC_99_">
		
			<path fill="none" stroke="#000000" stroke-width="0.7087" stroke-linecap="round" stroke-linejoin="round" stroke-miterlimit="10" d="
			M2096.026,617.413c0.73-0.73,0.938-1.839,0.518-2.782"/>
	</g>
	<g id="ARC_100_">
		
			<path fill="none" stroke="#000000" stroke-width="0.7087" stroke-linecap="round" stroke-linejoin="round" stroke-miterlimit="10" d="
			M2094.966,616.353c0.293-0.293,0.375-0.735,0.206-1.114"/>
	</g>
	<g id="LINE_101_">
		
			<line fill="none" stroke="#000000" stroke-width="0.7087" stroke-linecap="round" stroke-linejoin="round" stroke-miterlimit="10" x1="1846.438" y1="2107.266" x2="2343.317" y2="1610.388"/>
	</g>
	<g id="LINE_102_">
		
			<line fill="none" stroke="#000000" stroke-width="0.7087" stroke-linecap="round" stroke-linejoin="round" stroke-miterlimit="10" x1="2103.983" y1="1814.366" x2="2511.399" y2="1406.95"/>
	</g>
	<g id="LINE_103_">
		
			<line fill="none" stroke="#000000" stroke-width="0.7087" stroke-linecap="round" stroke-linejoin="round" stroke-miterlimit="10" x1="2102.922" y1="1813.306" x2="2511.399" y2="1404.829"/>
	</g>
	<g id="LINE_104_">
		
			<line fill="none" stroke="#000000" stroke-width="0.7087" stroke-linecap="round" stroke-linejoin="round" stroke-miterlimit="10" x1="1848.561" y1="2107.266" x2="2344.377" y2="1611.448"/>
	</g>
	<g id="LINE_105_">
		
			<line fill="none" stroke="#000000" stroke-width="0.7087" stroke-linecap="round" stroke-linejoin="round" stroke-miterlimit="10" x1="1851.389" y1="2107.266" x2="2344.248" y2="1614.405"/>
	</g>
	<g id="LINE_106_">
		
			<line fill="none" stroke="#000000" stroke-width="0.7087" stroke-linecap="round" stroke-linejoin="round" stroke-miterlimit="10" x1="1853.51" y1="2107.266" x2="2342.991" y2="1617.783"/>
	</g>
	<g id="LINE_107_">
		
			<line fill="none" stroke="#000000" stroke-width="0.7087" stroke-linecap="round" stroke-linejoin="round" stroke-miterlimit="10" x1="2102.445" y1="1810.955" x2="2511.399" y2="1402"/>
	</g>
	<g id="LINE_108_">
		
			<line fill="none" stroke="#000000" stroke-width="0.7087" stroke-linecap="round" stroke-linejoin="round" stroke-miterlimit="10" x1="2102.789" y1="1808.488" x2="2511.399" y2="1399.881"/>
	</g>
	<g id="ARC_101_">
		
			<path fill="none" stroke="#000000" stroke-width="0.7087" stroke-linecap="round" stroke-linejoin="round" stroke-miterlimit="10" d="
			M2100.031,1813.814c0.671,1.207,2.193,1.641,3.4,0.969c0.202-0.11,0.388-0.253,0.552-0.417"/>
	</g>
	<g id="ARC_102_">
		
			<path fill="none" stroke="#000000" stroke-width="0.7087" stroke-linecap="round" stroke-linejoin="round" stroke-miterlimit="10" d="
			M2101.342,1813.087c0.269,0.48,0.877,0.654,1.357,0.388c0.081-0.045,0.155-0.104,0.223-0.167"/>
	</g>
	<g id="ARC_103_">
		
			<path fill="none" stroke="#000000" stroke-width="0.7087" stroke-linecap="round" stroke-linejoin="round" stroke-miterlimit="10" d="
			M2353.056,1966.002c5.14-118.017,3.311-236.23-5.479-354.03"/>
	</g>
	<g id="ARC_104_">
		
			<path fill="none" stroke="#000000" stroke-width="0.7087" stroke-linecap="round" stroke-linejoin="round" stroke-miterlimit="10" d="
			M2347.576,1611.97c-0.103-1.377-1.303-2.41-2.68-2.31c-0.597,0.046-1.158,0.304-1.581,0.728"/>
	</g>
	<g id="ARC_105_">
		
			<path fill="none" stroke="#000000" stroke-width="0.7087" stroke-linecap="round" stroke-linejoin="round" stroke-miterlimit="10" d="
			M2351.557,1965.937c5.138-117.957,3.31-236.114-5.477-353.855"/>
	</g>
	<g id="ARC_106_">
		
			<path fill="none" stroke="#000000" stroke-width="0.7087" stroke-linecap="round" stroke-linejoin="round" stroke-miterlimit="10" d="
			M2346.082,1612.082c-0.041-0.552-0.521-0.965-1.071-0.924c-0.239,0.02-0.464,0.121-0.634,0.29"/>
	</g>
	<g id="ARC_107_">
		
			<path fill="none" stroke="#000000" stroke-width="0.7087" stroke-linecap="round" stroke-linejoin="round" stroke-miterlimit="10" d="
			M2349.574,1965.463c5.081-117.022,3.305-234.241-5.326-351.058"/>
	</g>
	<g id="ARC_108_">
		
			<path fill="none" stroke="#000000" stroke-width="0.7087" stroke-linecap="round" stroke-linejoin="round" stroke-miterlimit="10" d="
			M2348.103,1964.813c5.001-115.678,3.295-231.549-5.108-347.029"/>
	</g>
	<g id="LINE_109_">
		
			<line fill="none" stroke="#000000" stroke-width="0.7087" stroke-linecap="round" stroke-linejoin="round" stroke-miterlimit="10" x1="2212.72" y1="2107.266" x2="2352.324" y2="1967.66"/>
	</g>
	<g id="LINE_110_">
		
			<line fill="none" stroke="#000000" stroke-width="0.7087" stroke-linecap="round" stroke-linejoin="round" stroke-miterlimit="10" x1="2210.599" y1="2107.266" x2="2351.266" y2="1966.6"/>
	</g>
	<g id="LINE_111_">
		
			<line fill="none" stroke="#000000" stroke-width="0.7087" stroke-linecap="round" stroke-linejoin="round" stroke-miterlimit="10" x1="2207.771" y1="2107.266" x2="2349.574" y2="1965.463"/>
	</g>
	<g id="LINE_112_">
		
			<line fill="none" stroke="#000000" stroke-width="0.7087" stroke-linecap="round" stroke-linejoin="round" stroke-miterlimit="10" x1="2205.649" y1="2107.266" x2="2348.103" y2="1964.813"/>
	</g>
	<g id="LINE_113_">
		
			<line fill="none" stroke="#000000" stroke-width="0.7087" stroke-linecap="round" stroke-linejoin="round" stroke-miterlimit="10" x1="2248.073" y1="2107.266" x2="2511.399" y2="1843.942"/>
	</g>
	<g id="LINE_114_">
		
			<line fill="none" stroke="#000000" stroke-width="0.7087" stroke-linecap="round" stroke-linejoin="round" stroke-miterlimit="10" x1="2250.197" y1="2107.266" x2="2511.399" y2="1846.063"/>
	</g>
	<g id="LINE_115_">
		
			<line fill="none" stroke="#000000" stroke-width="0.7087" stroke-linecap="round" stroke-linejoin="round" stroke-miterlimit="10" x1="2253.025" y1="2107.266" x2="2511.399" y2="1848.892"/>
	</g>
	<g id="LINE_116_">
		
			<line fill="none" stroke="#000000" stroke-width="0.7087" stroke-linecap="round" stroke-linejoin="round" stroke-miterlimit="10" x1="2255.146" y1="2107.266" x2="2511.399" y2="1851.013"/>
	</g>
	<g id="ARC_110_">
		
			<path fill="none" stroke="#000000" stroke-width="0.7087" stroke-linecap="round" stroke-linejoin="round" stroke-miterlimit="10" d="
			M2352.324,1967.66c0.441-0.44,0.702-1.032,0.729-1.657"/>
	</g>
	<g id="ARC_111_">
		
			<path fill="none" stroke="#000000" stroke-width="0.7087" stroke-linecap="round" stroke-linejoin="round" stroke-miterlimit="10" d="
			M2351.266,1966.6c0.177-0.177,0.28-0.413,0.291-0.663"/>
	</g>
</g>
<g id="_x30_">
	<g id="ARC_6_">
		
			<path fill="none" stroke="#000000" stroke-width="0.7087" stroke-linecap="round" stroke-linejoin="round" stroke-miterlimit="10" d="
			M161.196,226.69c-5.136,117.917-3.308,236.035,5.475,353.737"/>
	</g>
	<g id="ARC_15_">
		
			<path fill="none" stroke="#000000" stroke-width="0.7087" stroke-linecap="round" stroke-linejoin="round" stroke-miterlimit="10" d="
			M529.214,619.519c-36.309-81.586-76.238-161.511-119.677-239.535"/>
	</g>
	<g id="ARC_22_">
		
			<path fill="none" stroke="#000000" stroke-width="0.7087" stroke-linecap="round" stroke-linejoin="round" stroke-miterlimit="10" d="
			M725.183,1226.823c-20.052-96.161-44.815-191.277-74.199-285.011"/>
	</g>
	<g id="ARC_31_">
		
			<path fill="none" stroke="#000000" stroke-width="0.7087" stroke-linecap="round" stroke-linejoin="round" stroke-miterlimit="10" d="
			M417.493,1576.938c36.309,81.586,76.238,161.511,119.677,239.535"/>
	</g>
	<g id="ARC_40_">
		
			<path fill="none" stroke="#000000" stroke-width="0.7087" stroke-linecap="round" stroke-linejoin="round" stroke-miterlimit="10" d="
			M221.526,969.635c20.054,96.16,44.815,191.277,74.199,285.011"/>
	</g>
	<g id="ARC_51_">
		
			<path fill="none" stroke="#000000" stroke-width="0.7087" stroke-linecap="round" stroke-linejoin="round" stroke-miterlimit="10" d="
			M785.513,1969.767c5.136-117.918,3.308-236.035-5.475-353.737"/>
	</g>
	<g id="ARC_64_">
		
			<path fill="none" stroke="#000000" stroke-width="0.7087" stroke-linecap="round" stroke-linejoin="round" stroke-miterlimit="10" d="
			M1726.24,222.816c-5.136,117.917-3.309,236.035,5.475,353.737"/>
	</g>
	<g id="ARC_73_">
		
			<path fill="none" stroke="#000000" stroke-width="0.7087" stroke-linecap="round" stroke-linejoin="round" stroke-miterlimit="10" d="
			M2094.259,615.646c-36.309-81.586-76.238-161.511-119.675-239.535"/>
	</g>
	<g id="ARC_80_">
		
			<path fill="none" stroke="#000000" stroke-width="0.7087" stroke-linecap="round" stroke-linejoin="round" stroke-miterlimit="10" d="
			M2290.228,1222.949c-20.052-96.161-44.815-191.279-74.199-285.011"/>
	</g>
	<g id="ARC_89_">
		
			<path fill="none" stroke="#000000" stroke-width="0.7087" stroke-linecap="round" stroke-linejoin="round" stroke-miterlimit="10" d="
			M1982.538,1573.063c36.309,81.587,76.238,161.511,119.677,239.535"/>
	</g>
	<g id="ARC_98_">
		
			<path fill="none" stroke="#000000" stroke-width="0.7087" stroke-linecap="round" stroke-linejoin="round" stroke-miterlimit="10" d="
			M1786.571,965.76c20.053,96.162,44.814,191.278,74.199,285.011"/>
	</g>
	<g id="ARC_109_">
		
			<path fill="none" stroke="#000000" stroke-width="0.7087" stroke-linecap="round" stroke-linejoin="round" stroke-miterlimit="10" d="
			M2350.558,1965.893c5.136-117.917,3.31-236.035-5.473-353.737"/>
	</g>
</g>
<linearGradient id="SVGID_1_" gradientUnits="userSpaceOnUse" x1="229.4753" y1="1136.7234" x2="615.1809" y2="1136.7234" gradientTransform="matrix(1 0 0 -1 8.3999 2087.5933)">
	<stop  offset="0" style="stop-color:#DCFFFF"/>
	<stop  offset="1" style="stop-color:#64AFFF"/>
</linearGradient>
<path fill="url(#SVGID_1_)" stroke="#000000" stroke-width="0.7087" stroke-linecap="round" stroke-linejoin="round" stroke-miterlimit="10" d="
	M237.875,974.498c8.97,42.442,18.863,84.68,29.673,126.681s22.534,83.766,35.165,125.266l160.434-160.435L623.58,905.574
	c-12.827-38.958-26.457-77.643-40.878-116.03c-14.421-38.389-29.632-76.479-45.626-114.248L387.476,824.896L237.875,974.498"/>
<linearGradient id="SVGID_2_" gradientUnits="userSpaceOnUse" x1="298.3015" y1="1425.1667" x2="298.3015" y2="1425.1667" gradientTransform="matrix(1 0 0 -1 8.3999 2087.5933)">
	<stop  offset="0" style="stop-color:#FFFFFF"/>
	<stop  offset="0.1377" style="stop-color:#FBFDFD"/>
	<stop  offset="0.2869" style="stop-color:#EEF8F9"/>
	<stop  offset="0.4415" style="stop-color:#D8F0F1"/>
	<stop  offset="0.5997" style="stop-color:#BAE4E6"/>
	<stop  offset="0.7609" style="stop-color:#93D4D9"/>
	<stop  offset="0.9221" style="stop-color:#64C2C8"/>
	<stop  offset="1" style="stop-color:#4AB8BF"/>
</linearGradient>
<path fill="url(#SVGID_2_)" stroke="#000000" stroke-width="0.7087" stroke-linecap="round" stroke-linejoin="round" stroke-miterlimit="10" d="
	M306.701,662.427"/>
<linearGradient id="SVGID_3_" gradientUnits="userSpaceOnUse" x1="164.9558" y1="1697.7507" x2="367.1296" y2="1697.7507" gradientTransform="matrix(1 0 0 -1 8.3999 2087.5933)">
	<stop  offset="0" style="stop-color:#DCFFFF"/>
	<stop  offset="1" style="stop-color:#64AFFF"/>
</linearGradient>
<path fill="url(#SVGID_3_)" stroke="#000000" stroke-width="0.7087" stroke-linecap="round" stroke-linejoin="round" stroke-miterlimit="10" d="
	M375.53,350.353l-98.084,98.084l-98.084,98.084c-3.313-52.16-5.257-104.389-5.827-156.633
	c-0.571-52.244,0.229-104.503,2.399-156.724c37.392,11.457,73.177,27.221,106.672,46.887S347.304,323.285,375.53,350.353"/>
</svg>
