<?xml version="1.0" encoding="utf-8"?>
<!-- Generator: Adobe Illustrator 15.0.2, SVG Export Plug-In . SVG Version: 6.00 Build 0)  -->
<!DOCTYPE svg PUBLIC "-//W3C//DTD SVG 1.1//EN" "http://www.w3.org/Graphics/SVG/1.1/DTD/svg11.dtd">
<svg version="1.1" id="Layer_1" xmlns="http://www.w3.org/2000/svg" xmlns:xlink="http://www.w3.org/1999/xlink" x="0px" y="0px"
	 width="946.709px" height="2116.994px" viewBox="0 0 946.709 2116.994" enable-background="new 0 0 946.709 2116.994"
	 xml:space="preserve">
<g id="ELEVATION">
	<g id="LINE">
		
			<line fill="none" stroke="#000000" stroke-width="0.7087" stroke-linecap="round" stroke-linejoin="round" stroke-miterlimit="10" x1="0.354" y1="2040.604" x2="946.354" y2="2040.604"/>
	</g>
	<g id="LINE_1_">
		
			<line fill="none" stroke="#000000" stroke-width="0.7087" stroke-linecap="round" stroke-linejoin="round" stroke-miterlimit="10" x1="0.354" y1="2042.604" x2="946.354" y2="2042.604"/>
	</g>
	<g id="LINE_2_">
		
			<line fill="none" stroke="#000000" stroke-width="0.7087" stroke-linecap="round" stroke-linejoin="round" stroke-miterlimit="10" x1="0.354" y1="2044.104" x2="946.354" y2="2044.104"/>
	</g>
	<g id="LINE_3_">
		
			<line fill="none" stroke="#000000" stroke-width="0.7087" stroke-linecap="round" stroke-linejoin="round" stroke-miterlimit="10" x1="0.354" y1="2039.104" x2="946.354" y2="2039.104"/>
	</g>
	<g id="LINE_4_">
		
			<line fill="none" stroke="#000000" stroke-width="0.7087" stroke-linecap="round" stroke-linejoin="round" stroke-miterlimit="10" x1="0.354" y1="1897.104" x2="946.354" y2="1897.104"/>
	</g>
	<g id="LINE_5_">
		
			<line fill="none" stroke="#000000" stroke-width="0.7087" stroke-linecap="round" stroke-linejoin="round" stroke-miterlimit="10" x1="0.354" y1="1902.104" x2="946.354" y2="1902.104"/>
	</g>
	<g id="LINE_6_">
		
			<line fill="none" stroke="#000000" stroke-width="0.7087" stroke-linecap="round" stroke-linejoin="round" stroke-miterlimit="10" x1="0.354" y1="1900.604" x2="946.354" y2="1900.604"/>
	</g>
	<g id="LINE_7_">
		
			<line fill="none" stroke="#000000" stroke-width="0.7087" stroke-linecap="round" stroke-linejoin="round" stroke-miterlimit="10" x1="0.354" y1="1898.604" x2="946.354" y2="1898.604"/>
	</g>
	<g id="LINE_8_">
		
			<line fill="none" stroke="#000000" stroke-width="0.7087" stroke-linecap="round" stroke-linejoin="round" stroke-miterlimit="10" x1="0.354" y1="766.105" x2="325.229" y2="766.105"/>
	</g>
	<g id="LINE_9_">
		
			<line fill="none" stroke="#000000" stroke-width="0.7087" stroke-linecap="round" stroke-linejoin="round" stroke-miterlimit="10" x1="0.354" y1="764.605" x2="326.231" y2="764.605"/>
	</g>
	<g id="LINE_10_">
		
			<line fill="none" stroke="#000000" stroke-width="0.7087" stroke-linecap="round" stroke-linejoin="round" stroke-miterlimit="10" x1="0.354" y1="904.605" x2="384.221" y2="904.605"/>
	</g>
	<g id="LINE_11_">
		
			<line fill="none" stroke="#000000" stroke-width="0.7087" stroke-linecap="round" stroke-linejoin="round" stroke-miterlimit="10" x1="0.354" y1="906.605" x2="385.05" y2="906.605"/>
	</g>
	<g id="LINE_12_">
		
			<line fill="none" stroke="#000000" stroke-width="0.7087" stroke-linecap="round" stroke-linejoin="round" stroke-miterlimit="10" x1="0.354" y1="908.105" x2="384.047" y2="908.105"/>
	</g>
	<g id="LINE_13_">
		
			<line fill="none" stroke="#000000" stroke-width="0.7087" stroke-linecap="round" stroke-linejoin="round" stroke-miterlimit="10" x1="0.354" y1="903.105" x2="381.977" y2="903.105"/>
	</g>
	<g id="LINE_14_">
		
			<line fill="none" stroke="#000000" stroke-width="0.7087" stroke-linecap="round" stroke-linejoin="round" stroke-miterlimit="10" x1="0.354" y1="1045.105" x2="440.794" y2="1045.105"/>
	</g>
	<g id="LINE_15_">
		
			<line fill="none" stroke="#000000" stroke-width="0.7087" stroke-linecap="round" stroke-linejoin="round" stroke-miterlimit="10" x1="0.354" y1="1050.105" x2="442.865" y2="1050.105"/>
	</g>
	<g id="LINE_16_">
		
			<line fill="none" stroke="#000000" stroke-width="0.7087" stroke-linecap="round" stroke-linejoin="round" stroke-miterlimit="10" x1="0.354" y1="1048.605" x2="443.867" y2="1048.605"/>
	</g>
	<g id="LINE_17_">
		
			<line fill="none" stroke="#000000" stroke-width="0.7087" stroke-linecap="round" stroke-linejoin="round" stroke-miterlimit="10" x1="0.354" y1="1046.605" x2="443.039" y2="1046.605"/>
	</g>
	<g id="LINE_18_">
		
			<line fill="none" stroke="#000000" stroke-width="0.7087" stroke-linecap="round" stroke-linejoin="round" stroke-miterlimit="10" x1="0.354" y1="1188.604" x2="501.857" y2="1188.604"/>
	</g>
	<g id="LINE_19_">
		
			<line fill="none" stroke="#000000" stroke-width="0.7087" stroke-linecap="round" stroke-linejoin="round" stroke-miterlimit="10" x1="0.354" y1="1190.604" x2="946.354" y2="1190.604"/>
	</g>
	<g id="LINE_20_">
		
			<line fill="none" stroke="#000000" stroke-width="0.7087" stroke-linecap="round" stroke-linejoin="round" stroke-miterlimit="10" x1="0.354" y1="1192.104" x2="946.354" y2="1192.104"/>
	</g>
	<g id="LINE_21_">
		
			<line fill="none" stroke="#000000" stroke-width="0.7087" stroke-linecap="round" stroke-linejoin="round" stroke-miterlimit="10" x1="0.354" y1="1187.104" x2="499.613" y2="1187.104"/>
	</g>
	<g id="LINE_22_">
		
			<line fill="none" stroke="#000000" stroke-width="0.7087" stroke-linecap="round" stroke-linejoin="round" stroke-miterlimit="10" x1="0.354" y1="1329.104" x2="946.354" y2="1329.104"/>
	</g>
	<g id="LINE_23_">
		
			<line fill="none" stroke="#000000" stroke-width="0.7087" stroke-linecap="round" stroke-linejoin="round" stroke-miterlimit="10" x1="0.354" y1="1334.104" x2="946.354" y2="1334.104"/>
	</g>
	<g id="LINE_24_">
		
			<line fill="none" stroke="#000000" stroke-width="0.7087" stroke-linecap="round" stroke-linejoin="round" stroke-miterlimit="10" x1="0.354" y1="1332.604" x2="946.354" y2="1332.604"/>
	</g>
	<g id="LINE_25_">
		
			<line fill="none" stroke="#000000" stroke-width="0.7087" stroke-linecap="round" stroke-linejoin="round" stroke-miterlimit="10" x1="0.354" y1="1330.604" x2="946.354" y2="1330.604"/>
	</g>
	<g id="LINE_26_">
		
			<line fill="none" stroke="#000000" stroke-width="0.7087" stroke-linecap="round" stroke-linejoin="round" stroke-miterlimit="10" x1="0.354" y1="1472.604" x2="946.354" y2="1472.604"/>
	</g>
	<g id="LINE_27_">
		
			<line fill="none" stroke="#000000" stroke-width="0.7087" stroke-linecap="round" stroke-linejoin="round" stroke-miterlimit="10" x1="0.354" y1="1474.604" x2="946.354" y2="1474.604"/>
	</g>
	<g id="LINE_28_">
		
			<line fill="none" stroke="#000000" stroke-width="0.7087" stroke-linecap="round" stroke-linejoin="round" stroke-miterlimit="10" x1="0.354" y1="1476.104" x2="946.354" y2="1476.104"/>
	</g>
	<g id="LINE_29_">
		
			<line fill="none" stroke="#000000" stroke-width="0.7087" stroke-linecap="round" stroke-linejoin="round" stroke-miterlimit="10" x1="0.354" y1="1471.104" x2="946.354" y2="1471.104"/>
	</g>
	<g id="LINE_30_">
		
			<line fill="none" stroke="#000000" stroke-width="0.7087" stroke-linecap="round" stroke-linejoin="round" stroke-miterlimit="10" x1="0.354" y1="1613.104" x2="946.354" y2="1613.104"/>
	</g>
	<g id="LINE_31_">
		
			<line fill="none" stroke="#000000" stroke-width="0.7087" stroke-linecap="round" stroke-linejoin="round" stroke-miterlimit="10" x1="0.354" y1="1618.104" x2="946.354" y2="1618.104"/>
	</g>
	<g id="LINE_32_">
		
			<line fill="none" stroke="#000000" stroke-width="0.7087" stroke-linecap="round" stroke-linejoin="round" stroke-miterlimit="10" x1="0.354" y1="1616.604" x2="946.354" y2="1616.604"/>
	</g>
	<g id="LINE_33_">
		
			<line fill="none" stroke="#000000" stroke-width="0.7087" stroke-linecap="round" stroke-linejoin="round" stroke-miterlimit="10" x1="0.354" y1="1614.604" x2="946.354" y2="1614.604"/>
	</g>
	<g id="LINE_34_">
		
			<line fill="none" stroke="#000000" stroke-width="0.7087" stroke-linecap="round" stroke-linejoin="round" stroke-miterlimit="10" x1="0.354" y1="1756.604" x2="946.354" y2="1756.604"/>
	</g>
	<g id="LINE_35_">
		
			<line fill="none" stroke="#000000" stroke-width="0.7087" stroke-linecap="round" stroke-linejoin="round" stroke-miterlimit="10" x1="0.354" y1="1758.604" x2="946.354" y2="1758.604"/>
	</g>
	<g id="LINE_36_">
		
			<line fill="none" stroke="#000000" stroke-width="0.7087" stroke-linecap="round" stroke-linejoin="round" stroke-miterlimit="10" x1="0.354" y1="1760.104" x2="946.354" y2="1760.104"/>
	</g>
	<g id="LINE_37_">
		
			<line fill="none" stroke="#000000" stroke-width="0.7087" stroke-linecap="round" stroke-linejoin="round" stroke-miterlimit="10" x1="0.354" y1="1755.104" x2="946.354" y2="1755.104"/>
	</g>
	<g id="LINE_38_">
		
			<line fill="none" stroke="#000000" stroke-width="0.7087" stroke-linecap="round" stroke-linejoin="round" stroke-miterlimit="10" x1="0.354" y1="51.104" x2="29.066" y2="51.104"/>
	</g>
	<g id="LINE_39_">
		
			<line fill="none" stroke="#000000" stroke-width="0.7087" stroke-linecap="round" stroke-linejoin="round" stroke-miterlimit="10" x1="0.354" y1="56.104" x2="31.137" y2="56.104"/>
	</g>
	<g id="LINE_40_">
		
			<line fill="none" stroke="#000000" stroke-width="0.7087" stroke-linecap="round" stroke-linejoin="round" stroke-miterlimit="10" x1="0.354" y1="52.604" x2="31.312" y2="52.604"/>
	</g>
	<g id="LINE_41_">
		
			<line fill="none" stroke="#000000" stroke-width="0.7087" stroke-linecap="round" stroke-linejoin="round" stroke-miterlimit="10" x1="0.354" y1="54.604" x2="32.14" y2="54.604"/>
	</g>
	<g id="LINE_42_">
		
			<line fill="none" stroke="#000000" stroke-width="0.7087" stroke-linecap="round" stroke-linejoin="round" stroke-miterlimit="10" x1="0.354" y1="193.104" x2="87.885" y2="193.104"/>
	</g>
	<g id="LINE_43_">
		
			<line fill="none" stroke="#000000" stroke-width="0.7087" stroke-linecap="round" stroke-linejoin="round" stroke-miterlimit="10" x1="0.354" y1="194.604" x2="90.129" y2="194.604"/>
	</g>
	<g id="LINE_44_">
		
			<line fill="none" stroke="#000000" stroke-width="0.7087" stroke-linecap="round" stroke-linejoin="round" stroke-miterlimit="10" x1="0.354" y1="198.104" x2="89.956" y2="198.104"/>
	</g>
	<g id="LINE_45_">
		
			<line fill="none" stroke="#000000" stroke-width="0.7087" stroke-linecap="round" stroke-linejoin="round" stroke-miterlimit="10" x1="0.354" y1="196.604" x2="90.958" y2="196.604"/>
	</g>
	<g id="LINE_46_">
		
			<line fill="none" stroke="#000000" stroke-width="0.7087" stroke-linecap="round" stroke-linejoin="round" stroke-miterlimit="10" x1="0.354" y1="338.604" x2="149.776" y2="338.604"/>
	</g>
	<g id="LINE_47_">
		
			<line fill="none" stroke="#000000" stroke-width="0.7087" stroke-linecap="round" stroke-linejoin="round" stroke-miterlimit="10" x1="0.354" y1="340.104" x2="148.774" y2="340.104"/>
	</g>
	<g id="LINE_48_">
		
			<line fill="none" stroke="#000000" stroke-width="0.7087" stroke-linecap="round" stroke-linejoin="round" stroke-miterlimit="10" x1="0.354" y1="336.604" x2="148.948" y2="336.604"/>
	</g>
	<g id="LINE_49_">
		
			<line fill="none" stroke="#000000" stroke-width="0.7087" stroke-linecap="round" stroke-linejoin="round" stroke-miterlimit="10" x1="0.354" y1="335.104" x2="146.703" y2="335.104"/>
	</g>
	<g id="LINE_50_">
		
			<line fill="none" stroke="#000000" stroke-width="0.7087" stroke-linecap="round" stroke-linejoin="round" stroke-miterlimit="10" x1="0.354" y1="477.105" x2="205.521" y2="477.105"/>
	</g>
	<g id="LINE_51_">
		
			<line fill="none" stroke="#000000" stroke-width="0.7087" stroke-linecap="round" stroke-linejoin="round" stroke-miterlimit="10" x1="0.354" y1="478.605" x2="207.766" y2="478.605"/>
	</g>
	<g id="LINE_52_">
		
			<line fill="none" stroke="#000000" stroke-width="0.7087" stroke-linecap="round" stroke-linejoin="round" stroke-miterlimit="10" x1="0.354" y1="482.105" x2="207.592" y2="482.105"/>
	</g>
	<g id="LINE_53_">
		
			<line fill="none" stroke="#000000" stroke-width="0.7087" stroke-linecap="round" stroke-linejoin="round" stroke-miterlimit="10" x1="0.354" y1="480.605" x2="208.595" y2="480.605"/>
	</g>
	<g id="LINE_54_">
		
			<line fill="none" stroke="#000000" stroke-width="0.7087" stroke-linecap="round" stroke-linejoin="round" stroke-miterlimit="10" x1="0.354" y1="620.605" x2="266.584" y2="620.605"/>
	</g>
	<g id="LINE_55_">
		
			<line fill="none" stroke="#000000" stroke-width="0.7087" stroke-linecap="round" stroke-linejoin="round" stroke-miterlimit="10" x1="0.354" y1="622.605" x2="267.413" y2="622.605"/>
	</g>
	<g id="LINE_56_">
		
			<line fill="none" stroke="#000000" stroke-width="0.7087" stroke-linecap="round" stroke-linejoin="round" stroke-miterlimit="10" x1="0.354" y1="624.105" x2="266.411" y2="624.105"/>
	</g>
	<g id="LINE_57_">
		
			<line fill="none" stroke="#000000" stroke-width="0.7087" stroke-linecap="round" stroke-linejoin="round" stroke-miterlimit="10" x1="0.354" y1="619.105" x2="264.34" y2="619.105"/>
	</g>
	<g id="LINE_58_">
		
			<line fill="none" stroke="#000000" stroke-width="0.7087" stroke-linecap="round" stroke-linejoin="round" stroke-miterlimit="10" x1="0.354" y1="761.105" x2="323.157" y2="761.105"/>
	</g>
	<g id="LINE_59_">
		
			<line fill="none" stroke="#000000" stroke-width="0.7087" stroke-linecap="round" stroke-linejoin="round" stroke-miterlimit="10" x1="0.354" y1="762.605" x2="325.403" y2="762.605"/>
	</g>
	<g id="LINE_60_">
		
			<line fill="none" stroke="#000000" stroke-width="0.7087" stroke-linecap="round" stroke-linejoin="round" stroke-miterlimit="10" x1="505.769" y1="1188.604" x2="946.354" y2="748.019"/>
	</g>
	<g id="LINE_61_">
		
			<line fill="none" stroke="#000000" stroke-width="0.7087" stroke-linecap="round" stroke-linejoin="round" stroke-miterlimit="10" x1="503.705" y1="1187.841" x2="946.354" y2="745.19"/>
	</g>
	<g id="LINE_62_">
		
			<line fill="none" stroke="#000000" stroke-width="0.7087" stroke-linecap="round" stroke-linejoin="round" stroke-miterlimit="10" x1="509.39" y1="1187.104" x2="946.354" y2="750.14"/>
	</g>
	<g id="LINE_63_">
		
			<line fill="none" stroke="#000000" stroke-width="0.7087" stroke-linecap="round" stroke-linejoin="round" stroke-miterlimit="10" x1="504.232" y1="1185.191" x2="946.354" y2="743.069"/>
	</g>
	<g id="LINE_64_">
		
			<line fill="none" stroke="#000000" stroke-width="0.7087" stroke-linecap="round" stroke-linejoin="round" stroke-miterlimit="10" x1="501.857" y1="1188.604" x2="443.867" y2="1048.605"/>
	</g>
	<g id="LINE_65_">
		
			<line fill="none" stroke="#000000" stroke-width="0.7087" stroke-linecap="round" stroke-linejoin="round" stroke-miterlimit="10" x1="503.705" y1="1187.841" x2="445.716" y2="1047.84"/>
	</g>
	<g id="LINE_66_">
		
			<line fill="none" stroke="#000000" stroke-width="0.7087" stroke-linecap="round" stroke-linejoin="round" stroke-miterlimit="10" x1="504.232" y1="1185.191" x2="447.485" y2="1048.191"/>
	</g>
	<g id="LINE_67_">
		
			<line fill="none" stroke="#000000" stroke-width="0.7087" stroke-linecap="round" stroke-linejoin="round" stroke-miterlimit="10" x1="499.613" y1="1187.104" x2="442.865" y2="1050.105"/>
	</g>
	<g id="LINE_68_">
		
			<line fill="none" stroke="#000000" stroke-width="0.7087" stroke-linecap="round" stroke-linejoin="round" stroke-miterlimit="10" x1="703.759" y1="1188.604" x2="946.354" y2="946.01"/>
	</g>
	<g id="LINE_69_">
		
			<line fill="none" stroke="#000000" stroke-width="0.7087" stroke-linecap="round" stroke-linejoin="round" stroke-miterlimit="10" x1="706.587" y1="1188.604" x2="946.354" y2="948.838"/>
	</g>
	<g id="LINE_70_">
		
			<line fill="none" stroke="#000000" stroke-width="0.7087" stroke-linecap="round" stroke-linejoin="round" stroke-miterlimit="10" x1="710.207" y1="1187.104" x2="946.354" y2="950.959"/>
	</g>
	<g id="LINE_71_">
		
			<line fill="none" stroke="#000000" stroke-width="0.7087" stroke-linecap="round" stroke-linejoin="round" stroke-miterlimit="10" x1="703.138" y1="1187.104" x2="946.354" y2="943.888"/>
	</g>
	<g id="LINE_72_">
		
			<line fill="none" stroke="#000000" stroke-width="0.7087" stroke-linecap="round" stroke-linejoin="round" stroke-miterlimit="10" x1="443.381" y1="1047.214" x2="647.687" y2="843.121"/>
	</g>
	<g id="LINE_73_">
		
			<line fill="none" stroke="#000000" stroke-width="0.7087" stroke-linecap="round" stroke-linejoin="round" stroke-miterlimit="10" x1="447.485" y1="1048.191" x2="651.291" y2="843.355"/>
	</g>
	<g id="LINE_74_">
		
			<path fill="none" stroke="#000000" stroke-width="0.7087" stroke-linecap="round" stroke-linejoin="round" stroke-miterlimit="10" d="
			M825.149,467.563c39.205-41.565,81.205-80.565,121.205-121.181"/>
		
			<path fill="none" stroke="#000000" stroke-width="0.7087" stroke-linecap="round" stroke-linejoin="round" stroke-miterlimit="10" d="
			M386.897,905.84c49.457-50.843,101.457-99.843,150.408-150.413"/>
	</g>
	<g id="LINE_75_">
		
			<path fill="none" stroke="#000000" stroke-width="0.7087" stroke-linecap="round" stroke-linejoin="round" stroke-miterlimit="10" d="
			M825.074,464.795c40.279-40.798,80.279-81.798,121.279-121.24"/>
		
			<path fill="none" stroke="#000000" stroke-width="0.7087" stroke-linecap="round" stroke-linejoin="round" stroke-miterlimit="10" d="
			M386.069,903.84c32.54-32.852,65.323-65.458,98.051-98.121c17.504-17.471,34.991-34.956,52.416-52.504"/>
	</g>
	<g id="LINE_76_">
		
			<path fill="none" stroke="#000000" stroke-width="0.7087" stroke-linecap="round" stroke-linejoin="round" stroke-miterlimit="10" d="
			M825.118,469.771c40.235-39.774,79.235-82.774,121.235-121.269"/>
		
			<path fill="none" stroke="#000000" stroke-width="0.7087" stroke-linecap="round" stroke-linejoin="round" stroke-miterlimit="10" d="
			M388.666,906.191c33.019-32.177,65.644-64.753,98.18-97.417c17.148-17.216,34.272-34.458,51.415-51.681"/>
	</g>
	<g id="LINE_77_">
		
			<path fill="none" stroke="#000000" stroke-width="0.7087" stroke-linecap="round" stroke-linejoin="round" stroke-miterlimit="10" d="
			M824.753,463.066c40.602-40.069,81.602-81.069,121.602-121.634"/>
		
			<path fill="none" stroke="#000000" stroke-width="0.7087" stroke-linecap="round" stroke-linejoin="round" stroke-miterlimit="10" d="
			M386.596,901.191c33.073-32.398,65.888-65.062,98.575-97.85c16.937-16.989,33.84-34.012,50.728-51.048"/>
	</g>
	<g id="LINE_78_">
		
			<line fill="none" stroke="#000000" stroke-width="0.7087" stroke-linecap="round" stroke-linejoin="round" stroke-miterlimit="10" x1="445.413" y1="1047.586" x2="649.878" y2="843.121"/>
	</g>
	<g id="LINE_79_">
		
			<line fill="none" stroke="#000000" stroke-width="0.7087" stroke-linecap="round" stroke-linejoin="round" stroke-miterlimit="10" x1="444.887" y1="1043.191" x2="644.723" y2="843.355"/>
	</g>
	<g id="LINE_80_">
		
			<path fill="none" stroke="#000000" stroke-width="0.7087" stroke-linecap="round" stroke-linejoin="round" stroke-miterlimit="10" d="
			M825.154,266.417c40.2-40.419,81.2-80.419,121.2-120.853"/>
		
			<path fill="none" stroke="#000000" stroke-width="0.7087" stroke-linecap="round" stroke-linejoin="round" stroke-miterlimit="10" d="
			M328.078,763.84c49.275-50.843,100.275-99.843,150.115-149.979"/>
	</g>
	<g id="LINE_81_">
		
			<path fill="none" stroke="#000000" stroke-width="0.7087" stroke-linecap="round" stroke-linejoin="round" stroke-miterlimit="10" d="
			M825.362,263.28c39.992-40.283,79.992-80.283,120.992-120.545"/>
		
			<path fill="none" stroke="#000000" stroke-width="0.7087" stroke-linecap="round" stroke-linejoin="round" stroke-miterlimit="10" d="
			M327.25,761.84c31.387-32.455,63.858-63.831,96.021-95.513c18.403-18.127,36.708-36.357,54.655-54.938"/>
	</g>
	<g id="LINE_82_">
		
			<path fill="none" stroke="#000000" stroke-width="0.7087" stroke-linecap="round" stroke-linejoin="round" stroke-miterlimit="10" d="
			M647.484,243.582c79.87-81.585,162.87-161.585,243.261-243.228"/>
		
			<path fill="none" stroke="#000000" stroke-width="0.7087" stroke-linecap="round" stroke-linejoin="round" stroke-miterlimit="10" d="
			M269.261,621.84c51.094-49.843,100.094-100.843,150.82-151.057"/>
	</g>
	<g id="LINE_83_">
		
			<path fill="none" stroke="#000000" stroke-width="0.7087" stroke-linecap="round" stroke-linejoin="round" stroke-miterlimit="10" d="
			M644.675,243.56c65.68-66.563,131.68-131.563,199.68-198.563c15-15,29-30,43.563-44.643"/>
		
			<path fill="none" stroke="#000000" stroke-width="0.7087" stroke-linecap="round" stroke-linejoin="round" stroke-miterlimit="10" d="
			M268.432,619.84c49.922-49.843,99.922-99.843,150.268-150.234"/>
	</g>
	<g id="LINE_84_">
		
			<path fill="none" stroke="#000000" stroke-width="0.7087" stroke-linecap="round" stroke-linejoin="round" stroke-miterlimit="10" d="
			M443.871,246.417c82.483-82.42,164.483-164.42,246.056-246.063"/>
		
			<path fill="none" stroke="#000000" stroke-width="0.7087" stroke-linecap="round" stroke-linejoin="round" stroke-miterlimit="10" d="
			M210.442,479.84c48.912-50.843,100.912-99.843,151.173-151.039"/>
	</g>
	<g id="LINE_85_">
		
			<path fill="none" stroke="#000000" stroke-width="0.7087" stroke-linecap="round" stroke-linejoin="round" stroke-miterlimit="10" d="
			M441.927,245.603C524.354,163.997,606.354,82.997,687.099,0.354"/>
		
			<path fill="none" stroke="#000000" stroke-width="0.7087" stroke-linecap="round" stroke-linejoin="round" stroke-miterlimit="10" d="
			M209.614,477.84c50.74-49.843,101.74-99.843,150.948-150.748"/>
	</g>
	<g id="LINE_86_">
		
			<path fill="none" stroke="#000000" stroke-width="0.7087" stroke-linecap="round" stroke-linejoin="round" stroke-miterlimit="10" d="
			M445.036,247.363C527.354,163.997,610.354,82.997,692.049,0.354"/>
		
			<path fill="none" stroke="#000000" stroke-width="0.7087" stroke-linecap="round" stroke-linejoin="round" stroke-miterlimit="10" d="
			M212.212,480.191c50.143-50.194,99.143-101.194,150.219-150.36"/>
	</g>
	<g id="LINE_87_">
		
			<path fill="none" stroke="#000000" stroke-width="0.7087" stroke-linecap="round" stroke-linejoin="round" stroke-miterlimit="10" d="
			M439.596,245.737c81.758-81.74,163.758-163.74,245.381-245.383"/>
		
			<path fill="none" stroke="#000000" stroke-width="0.7087" stroke-linecap="round" stroke-linejoin="round" stroke-miterlimit="10" d="
			M210.141,475.191c50.214-50.194,100.214-100.194,149.958-149.886"/>
	</g>
	<g id="LINE_88_">
		
			<path fill="none" stroke="#000000" stroke-width="0.7087" stroke-linecap="round" stroke-linejoin="round" stroke-miterlimit="10" d="
			M649.478,243.75C730.354,162.997,812.354,80.997,892.865,0.354"/>
		
			<path fill="none" stroke="#000000" stroke-width="0.7087" stroke-linecap="round" stroke-linejoin="round" stroke-miterlimit="10" d="
			M271.03,622.191c49.324-50.194,99.324-100.194,149.405-149.414"/>
	</g>
	<g id="LINE_89_">
		
			<path fill="none" stroke="#000000" stroke-width="0.7087" stroke-linecap="round" stroke-linejoin="round" stroke-miterlimit="10" d="
			M642.411,243.711C723.354,161.997,805.354,82.997,885.796,0.354"/>
		
			<path fill="none" stroke="#000000" stroke-width="0.7087" stroke-linecap="round" stroke-linejoin="round" stroke-miterlimit="10" d="
			M268.959,617.191c49.396-50.194,99.396-99.194,149.433-149.347"/>
	</g>
	<g id="LINE_90_">
		
			<path fill="none" stroke="#000000" stroke-width="0.7087" stroke-linecap="round" stroke-linejoin="round" stroke-miterlimit="10" d="
			M825.263,268.02c40.092-40.022,81.092-80.022,121.092-120.334"/>
		
			<path fill="none" stroke="#000000" stroke-width="0.7087" stroke-linecap="round" stroke-linejoin="round" stroke-miterlimit="10" d="
			M329.849,764.191c50.506-48.194,99.506-100.194,149.501-149.535"/>
	</g>
	<g id="LINE_91_">
		
			<path fill="none" stroke="#000000" stroke-width="0.7087" stroke-linecap="round" stroke-linejoin="round" stroke-miterlimit="10" d="
			M825.221,261.964c40.134-39.967,80.134-80.967,121.134-121.35"/>
		
			<path fill="none" stroke="#000000" stroke-width="0.7087" stroke-linecap="round" stroke-linejoin="round" stroke-miterlimit="10" d="
			M327.777,759.191c50.577-49.194,99.577-99.194,148.929-148.995"/>
	</g>
	<g id="LINE_92_">
		
			<line fill="none" stroke="#000000" stroke-width="0.7087" stroke-linecap="round" stroke-linejoin="round" stroke-miterlimit="10" x1="151.624" y1="337.839" x2="489.108" y2="0.354"/>
	</g>
	<g id="LINE_93_">
		
			<line fill="none" stroke="#000000" stroke-width="0.7087" stroke-linecap="round" stroke-linejoin="round" stroke-miterlimit="10" x1="150.796" y1="335.839" x2="486.28" y2="0.354"/>
	</g>
	<g id="LINE_94_">
		
			<line fill="none" stroke="#000000" stroke-width="0.7087" stroke-linecap="round" stroke-linejoin="round" stroke-miterlimit="10" x1="153.394" y1="338.191" x2="491.23" y2="0.354"/>
	</g>
	<g id="LINE_95_">
		
			<line fill="none" stroke="#000000" stroke-width="0.7087" stroke-linecap="round" stroke-linejoin="round" stroke-miterlimit="10" x1="151.322" y1="333.191" x2="484.158" y2="0.354"/>
	</g>
	<g id="LINE_96_">
		
			<line fill="none" stroke="#000000" stroke-width="0.7087" stroke-linecap="round" stroke-linejoin="round" stroke-miterlimit="10" x1="92.806" y1="195.839" x2="288.291" y2="0.354"/>
	</g>
	<g id="LINE_97_">
		
			<line fill="none" stroke="#000000" stroke-width="0.7087" stroke-linecap="round" stroke-linejoin="round" stroke-miterlimit="10" x1="91.978" y1="193.839" x2="285.462" y2="0.354"/>
	</g>
	<g id="LINE_98_">
		
			<line fill="none" stroke="#000000" stroke-width="0.7087" stroke-linecap="round" stroke-linejoin="round" stroke-miterlimit="10" x1="94.575" y1="196.191" x2="290.412" y2="0.354"/>
	</g>
	<g id="LINE_99_">
		
			<line fill="none" stroke="#000000" stroke-width="0.7087" stroke-linecap="round" stroke-linejoin="round" stroke-miterlimit="10" x1="92.504" y1="191.191" x2="283.341" y2="0.354"/>
	</g>
	<g id="LINE_100_">
		
			<line fill="none" stroke="#000000" stroke-width="0.7087" stroke-linecap="round" stroke-linejoin="round" stroke-miterlimit="10" x1="148.948" y1="336.604" x2="90.958" y2="196.604"/>
	</g>
	<g id="LINE_101_">
		
			<line fill="none" stroke="#000000" stroke-width="0.7087" stroke-linecap="round" stroke-linejoin="round" stroke-miterlimit="10" x1="146.703" y1="335.104" x2="89.956" y2="198.104"/>
	</g>
	<g id="LINE_102_">
		
			<line fill="none" stroke="#000000" stroke-width="0.7087" stroke-linecap="round" stroke-linejoin="round" stroke-miterlimit="10" x1="150.796" y1="335.839" x2="92.806" y2="195.839"/>
	</g>
	<g id="LINE_103_">
		
			<line fill="none" stroke="#000000" stroke-width="0.7087" stroke-linecap="round" stroke-linejoin="round" stroke-miterlimit="10" x1="151.322" y1="333.191" x2="94.575" y2="196.191"/>
	</g>
	<g id="LINE_104_">
		
			<line fill="none" stroke="#000000" stroke-width="0.7087" stroke-linecap="round" stroke-linejoin="round" stroke-miterlimit="10" x1="90.129" y1="194.604" x2="32.14" y2="54.604"/>
	</g>
	<g id="LINE_105_">
		
			<line fill="none" stroke="#000000" stroke-width="0.7087" stroke-linecap="round" stroke-linejoin="round" stroke-miterlimit="10" x1="87.885" y1="193.104" x2="31.137" y2="56.104"/>
	</g>
	<g id="LINE_106_">
		
			<line fill="none" stroke="#000000" stroke-width="0.7087" stroke-linecap="round" stroke-linejoin="round" stroke-miterlimit="10" x1="91.978" y1="193.839" x2="33.987" y2="53.839"/>
	</g>
	<g id="LINE_107_">
		
			<line fill="none" stroke="#000000" stroke-width="0.7087" stroke-linecap="round" stroke-linejoin="round" stroke-miterlimit="10" x1="92.504" y1="191.191" x2="35.757" y2="54.191"/>
	</g>
	<g id="LINE_108_">
		
			<line fill="none" stroke="#000000" stroke-width="0.7087" stroke-linecap="round" stroke-linejoin="round" stroke-miterlimit="10" x1="207.766" y1="478.605" x2="149.776" y2="338.604"/>
	</g>
	<g id="LINE_109_">
		
			<line fill="none" stroke="#000000" stroke-width="0.7087" stroke-linecap="round" stroke-linejoin="round" stroke-miterlimit="10" x1="205.521" y1="477.105" x2="148.774" y2="340.104"/>
	</g>
	<g id="LINE_110_">
		
			<line fill="none" stroke="#000000" stroke-width="0.7087" stroke-linecap="round" stroke-linejoin="round" stroke-miterlimit="10" x1="209.614" y1="477.84" x2="151.624" y2="337.839"/>
	</g>
	<g id="LINE_111_">
		
			<line fill="none" stroke="#000000" stroke-width="0.7087" stroke-linecap="round" stroke-linejoin="round" stroke-miterlimit="10" x1="210.141" y1="475.191" x2="153.394" y2="338.191"/>
	</g>
	<g id="LINE_112_">
		
			<line fill="none" stroke="#000000" stroke-width="0.7087" stroke-linecap="round" stroke-linejoin="round" stroke-miterlimit="10" x1="266.584" y1="620.605" x2="208.595" y2="480.605"/>
	</g>
	<g id="LINE_113_">
		
			<line fill="none" stroke="#000000" stroke-width="0.7087" stroke-linecap="round" stroke-linejoin="round" stroke-miterlimit="10" x1="264.34" y1="619.105" x2="207.592" y2="482.105"/>
	</g>
	<g id="LINE_114_">
		
			<line fill="none" stroke="#000000" stroke-width="0.7087" stroke-linecap="round" stroke-linejoin="round" stroke-miterlimit="10" x1="268.432" y1="619.84" x2="210.442" y2="479.84"/>
	</g>
	<g id="LINE_115_">
		
			<line fill="none" stroke="#000000" stroke-width="0.7087" stroke-linecap="round" stroke-linejoin="round" stroke-miterlimit="10" x1="268.959" y1="617.191" x2="212.212" y2="480.191"/>
	</g>
	<g id="LINE_116_">
		
			<line fill="none" stroke="#000000" stroke-width="0.7087" stroke-linecap="round" stroke-linejoin="round" stroke-miterlimit="10" x1="325.403" y1="762.605" x2="267.413" y2="622.605"/>
	</g>
	<g id="LINE_117_">
		
			<line fill="none" stroke="#000000" stroke-width="0.7087" stroke-linecap="round" stroke-linejoin="round" stroke-miterlimit="10" x1="323.157" y1="761.105" x2="266.411" y2="624.105"/>
	</g>
	<g id="LINE_118_">
		
			<line fill="none" stroke="#000000" stroke-width="0.7087" stroke-linecap="round" stroke-linejoin="round" stroke-miterlimit="10" x1="327.25" y1="761.84" x2="269.261" y2="621.84"/>
	</g>
	<g id="LINE_119_">
		
			<line fill="none" stroke="#000000" stroke-width="0.7087" stroke-linecap="round" stroke-linejoin="round" stroke-miterlimit="10" x1="327.777" y1="759.191" x2="271.03" y2="622.191"/>
	</g>
	<g id="LINE_120_">
		
			<line fill="none" stroke="#000000" stroke-width="0.7087" stroke-linecap="round" stroke-linejoin="round" stroke-miterlimit="10" x1="384.221" y1="904.605" x2="326.231" y2="764.605"/>
	</g>
	<g id="LINE_121_">
		
			<line fill="none" stroke="#000000" stroke-width="0.7087" stroke-linecap="round" stroke-linejoin="round" stroke-miterlimit="10" x1="381.977" y1="903.105" x2="325.229" y2="766.105"/>
	</g>
	<g id="LINE_122_">
		
			<line fill="none" stroke="#000000" stroke-width="0.7087" stroke-linecap="round" stroke-linejoin="round" stroke-miterlimit="10" x1="386.069" y1="903.84" x2="328.078" y2="763.84"/>
	</g>
	<g id="LINE_123_">
		
			<line fill="none" stroke="#000000" stroke-width="0.7087" stroke-linecap="round" stroke-linejoin="round" stroke-miterlimit="10" x1="386.596" y1="901.191" x2="329.849" y2="764.191"/>
	</g>
	<g id="LINE_124_">
		
			<line fill="none" stroke="#000000" stroke-width="0.7087" stroke-linecap="round" stroke-linejoin="round" stroke-miterlimit="10" x1="440.794" y1="1045.105" x2="384.047" y2="908.105"/>
	</g>
	<g id="LINE_125_">
		
			<line fill="none" stroke="#000000" stroke-width="0.7087" stroke-linecap="round" stroke-linejoin="round" stroke-miterlimit="10" x1="443.039" y1="1046.605" x2="385.05" y2="906.605"/>
	</g>
	<g id="LINE_126_">
		
			<line fill="none" stroke="#000000" stroke-width="0.7087" stroke-linecap="round" stroke-linejoin="round" stroke-miterlimit="10" x1="444.887" y1="1045.84" x2="386.897" y2="905.84"/>
	</g>
	<g id="LINE_127_">
		
			<line fill="none" stroke="#000000" stroke-width="0.7087" stroke-linecap="round" stroke-linejoin="round" stroke-miterlimit="10" x1="445.413" y1="1043.191" x2="388.666" y2="906.191"/>
	</g>
	<g id="LINE_128_">
		
			<line fill="none" stroke="#000000" stroke-width="0.7087" stroke-linecap="round" stroke-linejoin="round" stroke-miterlimit="10" x1="903.955" y1="1187.104" x2="946.354" y2="1144.707"/>
	</g>
	<g id="LINE_129_">
		
			<line fill="none" stroke="#000000" stroke-width="0.7087" stroke-linecap="round" stroke-linejoin="round" stroke-miterlimit="10" x1="911.026" y1="1187.104" x2="946.354" y2="1151.777"/>
	</g>
	<g id="LINE_130_">
		
			<line fill="none" stroke="#000000" stroke-width="0.7087" stroke-linecap="round" stroke-linejoin="round" stroke-miterlimit="10" x1="904.576" y1="1188.604" x2="946.354" y2="1146.827"/>
	</g>
	<g id="LINE_131_">
		
			<line fill="none" stroke="#000000" stroke-width="0.7087" stroke-linecap="round" stroke-linejoin="round" stroke-miterlimit="10" x1="907.405" y1="1188.604" x2="946.354" y2="1149.655"/>
	</g>
	<g id="LINE_132_">
		
			<line fill="none" stroke="#000000" stroke-width="0.7087" stroke-linecap="round" stroke-linejoin="round" stroke-miterlimit="10" x1="911.026" y1="1187.104" x2="946.354" y2="1187.104"/>
	</g>
	<g id="LINE_133_">
		
			<line fill="none" stroke="#000000" stroke-width="0.7087" stroke-linecap="round" stroke-linejoin="round" stroke-miterlimit="10" x1="907.405" y1="1188.604" x2="946.354" y2="1188.604"/>
	</g>
	<g id="LINE_134_">
		
			<line fill="none" stroke="#000000" stroke-width="0.7087" stroke-linecap="round" stroke-linejoin="round" stroke-miterlimit="10" x1="710.207" y1="1187.104" x2="903.955" y2="1187.104"/>
	</g>
	<g id="LINE_135_">
		
			<line fill="none" stroke="#000000" stroke-width="0.7087" stroke-linecap="round" stroke-linejoin="round" stroke-miterlimit="10" x1="706.587" y1="1188.604" x2="904.576" y2="1188.604"/>
	</g>
	<g id="LINE_136_">
		
			<line fill="none" stroke="#000000" stroke-width="0.7087" stroke-linecap="round" stroke-linejoin="round" stroke-miterlimit="10" x1="509.39" y1="1187.104" x2="703.138" y2="1187.104"/>
	</g>
	<g id="LINE_137_">
		
			<line fill="none" stroke="#000000" stroke-width="0.7087" stroke-linecap="round" stroke-linejoin="round" stroke-miterlimit="10" x1="505.769" y1="1188.604" x2="703.759" y2="1188.604"/>
	</g>
	<g id="LINE_138_">
		
			<line fill="none" stroke="#000000" stroke-width="0.7087" stroke-linecap="round" stroke-linejoin="round" stroke-miterlimit="10" x1="33.686" y1="49.191" x2="82.522" y2="0.354"/>
	</g>
	<g id="LINE_139_">
		
			<line fill="none" stroke="#000000" stroke-width="0.7087" stroke-linecap="round" stroke-linejoin="round" stroke-miterlimit="10" x1="35.757" y1="54.191" x2="89.593" y2="0.354"/>
	</g>
	<g id="LINE_140_">
		
			<line fill="none" stroke="#000000" stroke-width="0.7087" stroke-linecap="round" stroke-linejoin="round" stroke-miterlimit="10" x1="33.987" y1="53.839" x2="87.472" y2="0.354"/>
	</g>
	<g id="LINE_141_">
		
			<line fill="none" stroke="#000000" stroke-width="0.7087" stroke-linecap="round" stroke-linejoin="round" stroke-miterlimit="10" x1="33.159" y1="51.839" x2="84.644" y2="0.354"/>
	</g>
	<g id="LINE_142_">
		
			<line fill="none" stroke="#000000" stroke-width="0.7087" stroke-linecap="round" stroke-linejoin="round" stroke-miterlimit="10" x1="29.066" y1="51.104" x2="8.045" y2="0.354"/>
	</g>
	<g id="LINE_143_">
		
			<line fill="none" stroke="#000000" stroke-width="0.7087" stroke-linecap="round" stroke-linejoin="round" stroke-miterlimit="10" x1="31.312" y1="52.604" x2="9.668" y2="0.354"/>
	</g>
	<g id="LINE_144_">
		
			<line fill="none" stroke="#000000" stroke-width="0.7087" stroke-linecap="round" stroke-linejoin="round" stroke-miterlimit="10" x1="33.686" y1="49.191" x2="13.457" y2="0.354"/>
	</g>
	<g id="LINE_145_">
		
			<line fill="none" stroke="#000000" stroke-width="0.7087" stroke-linecap="round" stroke-linejoin="round" stroke-miterlimit="10" x1="33.159" y1="51.839" x2="11.833" y2="0.354"/>
	</g>
	<g id="LINE_155_">
		
			<line fill="none" stroke="#000000" stroke-width="0.7087" stroke-linecap="round" stroke-linejoin="round" stroke-miterlimit="10" x1="825.188" y1="660.956" x2="946.709" y2="539.8"/>
	</g>
	<g id="LINE_154_">
		
			<line fill="none" stroke="#000000" stroke-width="0.7087" stroke-linecap="round" stroke-linejoin="round" stroke-miterlimit="10" x1="825.354" y1="664.831" x2="946.709" y2="544.17"/>
	</g>
	<g id="LINE_153_">
		
			<line fill="none" stroke="#000000" stroke-width="0.7087" stroke-linecap="round" stroke-linejoin="round" stroke-miterlimit="10" x1="825.354" y1="662.997" x2="946.709" y2="542.078"/>
	</g>
	<g id="LINE_152_">
		
			<line fill="none" stroke="#000000" stroke-width="0.7087" stroke-linecap="round" stroke-linejoin="round" stroke-miterlimit="10" x1="825.354" y1="658.164" x2="946.709" y2="537.157"/>
	</g>
</g>
<g id="occulus_1">
	
		<linearGradient id="SVGID_1_" gradientUnits="userSpaceOnUse" x1="314.7576" y1="1548.3699" x2="814.7571" y2="1548.3699" gradientTransform="matrix(1 0 0 -1 8.3999 2093.0933)">
		<stop  offset="0" style="stop-color:#DCFFFF"/>
		<stop  offset="1" style="stop-color:#64AFFF"/>
	</linearGradient>
	
		<polyline opacity="0.5" fill="url(#SVGID_1_)" stroke="#003AFF" stroke-width="0.7087" stroke-linecap="round" stroke-linejoin="bevel" stroke-miterlimit="10" enable-background="new    " points="
		823.157,245.478 323.157,245.478 573.157,844.723 823.157,844.723 823.157,244.723 	"/>
</g>
</svg>
