<?xml version="1.0" encoding="utf-8"?>
<!-- Generator: Adobe Illustrator 15.0.0, SVG Export Plug-In . SVG Version: 6.00 Build 0)  -->
<!DOCTYPE svg PUBLIC "-//W3C//DTD SVG 1.1//EN" "http://www.w3.org/Graphics/SVG/1.1/DTD/svg11.dtd">
<svg version="1.1" id="_x30_" xmlns="http://www.w3.org/2000/svg" xmlns:xlink="http://www.w3.org/1999/xlink" x="0px" y="0px"
	 width="491.5px" height="1331.5px" viewBox="-0.396 -0.396 491.5 1331.5" enable-background="new -0.396 -0.396 491.5 1331.5"
	 xml:space="preserve">
<path fill="none" stroke="#FFFFFF" stroke-width="1.5" stroke-linecap="round" stroke-linejoin="round" stroke-miterlimit="10" d="
	M70.354,5.354v60c0,2.762-2.237,5-5,5h-60"/>
<path fill="none" stroke="#000000" stroke-width="1.5" stroke-linecap="round" stroke-linejoin="round" stroke-miterlimit="10" d="
	M5.354,70.354c-2.761,0-5-2.238-5-5v-60c0-2.762,2.239-5,5-5h60c2.763,0,5,2.238,5,5"/>
<polyline fill="none" stroke="#FFFFFF" stroke-width="1.5" stroke-linecap="round" stroke-linejoin="round" stroke-miterlimit="10" points="
	10.354,60.354 10.354,10.354 60.354,10.354 "/>
<polyline fill="none" stroke="#000000" stroke-width="1.5" stroke-linecap="round" stroke-linejoin="round" stroke-miterlimit="10" points="
	60.354,10.354 60.354,60.354 10.354,60.354 "/>
<path fill="none" stroke="#FFFFFF" stroke-width="1.5" stroke-linecap="round" stroke-linejoin="round" stroke-miterlimit="10" d="
	M210.354,5.354v60c0,2.762-2.237,5-5,5h-60"/>
<path fill="none" stroke="#000000" stroke-width="1.5" stroke-linecap="round" stroke-linejoin="round" stroke-miterlimit="10" d="
	M145.354,70.354c-2.761,0-5-2.238-5-5v-60c0-2.762,2.239-5,5-5h60c2.763,0,5,2.238,5,5"/>
<polyline fill="none" stroke="#FFFFFF" stroke-width="1.5" stroke-linecap="round" stroke-linejoin="round" stroke-miterlimit="10" points="
	150.354,60.354 150.354,10.354 200.354,10.354 "/>
<polyline fill="none" stroke="#000000" stroke-width="1.5" stroke-linecap="round" stroke-linejoin="round" stroke-miterlimit="10" points="
	200.354,10.354 200.354,60.354 150.354,60.354 "/>
<path fill="none" stroke="#FFFFFF" stroke-width="1.5" stroke-linecap="round" stroke-linejoin="round" stroke-miterlimit="10" d="
	M350.354,5.354v60c0,2.762-2.238,5-5,5h-60"/>
<path fill="none" stroke="#000000" stroke-width="1.5" stroke-linecap="round" stroke-linejoin="round" stroke-miterlimit="10" d="
	M285.354,70.354c-2.761,0-5-2.238-5-5v-60c0-2.762,2.239-5,5-5h60c2.762,0,5,2.238,5,5"/>
<polyline fill="none" stroke="#FFFFFF" stroke-width="1.5" stroke-linecap="round" stroke-linejoin="round" stroke-miterlimit="10" points="
	290.354,60.354 290.354,10.354 340.354,10.354 "/>
<polyline fill="none" stroke="#000000" stroke-width="1.5" stroke-linecap="round" stroke-linejoin="round" stroke-miterlimit="10" points="
	340.354,10.354 340.354,60.354 290.354,60.354 "/>
<path fill="none" stroke="#FFFFFF" stroke-width="1.5" stroke-linecap="round" stroke-linejoin="round" stroke-miterlimit="10" d="
	M490.354,5.354v60c0,2.762-2.238,5-5,5h-60"/>
<path fill="none" stroke="#000000" stroke-width="1.5" stroke-linecap="round" stroke-linejoin="round" stroke-miterlimit="10" d="
	M425.354,70.354c-2.761,0-5-2.238-5-5v-60c0-2.762,2.239-5,5-5h60c2.762,0,5,2.238,5,5"/>
<polyline fill="none" stroke="#FFFFFF" stroke-width="1.5" stroke-linecap="round" stroke-linejoin="round" stroke-miterlimit="10" points="
	430.354,60.354 430.354,10.354 480.354,10.354 "/>
<polyline fill="none" stroke="#000000" stroke-width="1.5" stroke-linecap="round" stroke-linejoin="round" stroke-miterlimit="10" points="
	480.354,10.354 480.354,60.354 430.354,60.354 "/>
<path fill="none" stroke="#FFFFFF" stroke-width="1.5" stroke-linecap="round" stroke-linejoin="round" stroke-miterlimit="10" d="
	M70.354,145.354v60c0,2.762-2.237,5-5,5h-60"/>
<path fill="none" stroke="#000000" stroke-width="1.5" stroke-linecap="round" stroke-linejoin="round" stroke-miterlimit="10" d="
	M5.354,210.354c-2.761,0-5-2.238-5-5v-60c0-2.762,2.239-5,5-5h60c2.763,0,5,2.238,5,5"/>
<polyline fill="none" stroke="#FFFFFF" stroke-width="1.5" stroke-linecap="round" stroke-linejoin="round" stroke-miterlimit="10" points="
	10.354,200.354 10.354,150.354 60.354,150.354 "/>
<polyline fill="none" stroke="#000000" stroke-width="1.5" stroke-linecap="round" stroke-linejoin="round" stroke-miterlimit="10" points="
	60.354,150.354 60.354,200.354 10.354,200.354 "/>
<path fill="none" stroke="#FFFFFF" stroke-width="1.5" stroke-linecap="round" stroke-linejoin="round" stroke-miterlimit="10" d="
	M210.354,145.354v60c0,2.762-2.237,5-5,5h-60"/>
<path fill="none" stroke="#000000" stroke-width="1.5" stroke-linecap="round" stroke-linejoin="round" stroke-miterlimit="10" d="
	M145.354,210.354c-2.761,0-5-2.238-5-5v-60c0-2.762,2.239-5,5-5h60c2.763,0,5,2.238,5,5"/>
<polyline fill="none" stroke="#FFFFFF" stroke-width="1.5" stroke-linecap="round" stroke-linejoin="round" stroke-miterlimit="10" points="
	150.354,200.354 150.354,150.354 200.354,150.354 "/>
<polyline fill="none" stroke="#000000" stroke-width="1.5" stroke-linecap="round" stroke-linejoin="round" stroke-miterlimit="10" points="
	200.354,150.354 200.354,200.354 150.354,200.354 "/>
<path fill="none" stroke="#FFFFFF" stroke-width="1.5" stroke-linecap="round" stroke-linejoin="round" stroke-miterlimit="10" d="
	M350.354,145.354v60c0,2.762-2.238,5-5,5h-60"/>
<path fill="none" stroke="#000000" stroke-width="1.5" stroke-linecap="round" stroke-linejoin="round" stroke-miterlimit="10" d="
	M285.354,210.354c-2.761,0-5-2.238-5-5v-60c0-2.762,2.239-5,5-5h60c2.762,0,5,2.238,5,5"/>
<polyline fill="none" stroke="#FFFFFF" stroke-width="1.5" stroke-linecap="round" stroke-linejoin="round" stroke-miterlimit="10" points="
	290.354,200.354 290.354,150.354 340.354,150.354 "/>
<polyline fill="none" stroke="#000000" stroke-width="1.5" stroke-linecap="round" stroke-linejoin="round" stroke-miterlimit="10" points="
	340.354,150.354 340.354,200.354 290.354,200.354 "/>
<path fill="none" stroke="#FFFFFF" stroke-width="1.5" stroke-linecap="round" stroke-linejoin="round" stroke-miterlimit="10" d="
	M490.354,145.354v60c0,2.762-2.238,5-5,5h-60"/>
<path fill="none" stroke="#000000" stroke-width="1.5" stroke-linecap="round" stroke-linejoin="round" stroke-miterlimit="10" d="
	M425.354,210.354c-2.761,0-5-2.238-5-5v-60c0-2.762,2.239-5,5-5h60c2.762,0,5,2.238,5,5"/>
<polyline fill="none" stroke="#FFFFFF" stroke-width="1.5" stroke-linecap="round" stroke-linejoin="round" stroke-miterlimit="10" points="
	430.354,200.354 430.354,150.354 480.354,150.354 "/>
<polyline fill="none" stroke="#000000" stroke-width="1.5" stroke-linecap="round" stroke-linejoin="round" stroke-miterlimit="10" points="
	480.354,150.354 480.354,200.354 430.354,200.354 "/>
<path fill="none" stroke="#FFFFFF" stroke-width="1.5" stroke-linecap="round" stroke-linejoin="round" stroke-miterlimit="10" d="
	M70.354,285.354v60c0,2.762-2.237,5-5,5h-60"/>
<path fill="none" stroke="#000000" stroke-width="1.5" stroke-linecap="round" stroke-linejoin="round" stroke-miterlimit="10" d="
	M5.354,350.354c-2.761,0-5-2.238-5-5v-60c0-2.762,2.239-5,5-5h60c2.763,0,5,2.238,5,5"/>
<polyline fill="none" stroke="#FFFFFF" stroke-width="1.5" stroke-linecap="round" stroke-linejoin="round" stroke-miterlimit="10" points="
	10.354,340.354 10.354,290.354 60.354,290.354 "/>
<polyline fill="none" stroke="#000000" stroke-width="1.5" stroke-linecap="round" stroke-linejoin="round" stroke-miterlimit="10" points="
	60.354,290.354 60.354,340.354 10.354,340.354 "/>
<path fill="none" stroke="#FFFFFF" stroke-width="1.5" stroke-linecap="round" stroke-linejoin="round" stroke-miterlimit="10" d="
	M210.354,285.354v60c0,2.762-2.237,5-5,5h-60"/>
<path fill="none" stroke="#000000" stroke-width="1.5" stroke-linecap="round" stroke-linejoin="round" stroke-miterlimit="10" d="
	M145.354,350.354c-2.761,0-5-2.238-5-5v-60c0-2.762,2.239-5,5-5h60c2.763,0,5,2.238,5,5"/>
<polyline fill="none" stroke="#FFFFFF" stroke-width="1.5" stroke-linecap="round" stroke-linejoin="round" stroke-miterlimit="10" points="
	150.354,340.354 150.354,290.354 200.354,290.354 "/>
<polyline fill="none" stroke="#000000" stroke-width="1.5" stroke-linecap="round" stroke-linejoin="round" stroke-miterlimit="10" points="
	200.354,290.354 200.354,340.354 150.354,340.354 "/>
<path fill="none" stroke="#FFFFFF" stroke-width="1.5" stroke-linecap="round" stroke-linejoin="round" stroke-miterlimit="10" d="
	M350.354,285.354v60c0,2.762-2.238,5-5,5h-60"/>
<path fill="none" stroke="#000000" stroke-width="1.5" stroke-linecap="round" stroke-linejoin="round" stroke-miterlimit="10" d="
	M285.354,350.354c-2.761,0-5-2.238-5-5v-60c0-2.762,2.239-5,5-5h60c2.762,0,5,2.238,5,5"/>
<polyline fill="none" stroke="#FFFFFF" stroke-width="1.5" stroke-linecap="round" stroke-linejoin="round" stroke-miterlimit="10" points="
	290.354,340.354 290.354,290.354 340.354,290.354 "/>
<polyline fill="none" stroke="#000000" stroke-width="1.5" stroke-linecap="round" stroke-linejoin="round" stroke-miterlimit="10" points="
	340.354,290.354 340.354,340.354 290.354,340.354 "/>
<path fill="none" stroke="#FFFFFF" stroke-width="1.5" stroke-linecap="round" stroke-linejoin="round" stroke-miterlimit="10" d="
	M490.354,285.354v60c0,2.762-2.238,5-5,5h-60"/>
<path fill="none" stroke="#000000" stroke-width="1.5" stroke-linecap="round" stroke-linejoin="round" stroke-miterlimit="10" d="
	M425.354,350.354c-2.761,0-5-2.238-5-5v-60c0-2.762,2.239-5,5-5h60c2.762,0,5,2.238,5,5"/>
<polyline fill="none" stroke="#FFFFFF" stroke-width="1.5" stroke-linecap="round" stroke-linejoin="round" stroke-miterlimit="10" points="
	430.354,340.354 430.354,290.354 480.354,290.354 "/>
<polyline fill="none" stroke="#000000" stroke-width="1.5" stroke-linecap="round" stroke-linejoin="round" stroke-miterlimit="10" points="
	480.354,290.354 480.354,340.354 430.354,340.354 "/>
<path fill="none" stroke="#FFFFFF" stroke-width="1.5" stroke-linecap="round" stroke-linejoin="round" stroke-miterlimit="10" d="
	M70.354,425.354v60c0,2.763-2.237,5-5,5h-60"/>
<path fill="none" stroke="#000000" stroke-width="1.5" stroke-linecap="round" stroke-linejoin="round" stroke-miterlimit="10" d="
	M5.354,490.354c-2.761,0-5-2.237-5-5v-60c0-2.762,2.239-5,5-5h60c2.763,0,5,2.238,5,5"/>
<polyline fill="none" stroke="#FFFFFF" stroke-width="1.5" stroke-linecap="round" stroke-linejoin="round" stroke-miterlimit="10" points="
	10.354,480.354 10.354,430.354 60.354,430.354 "/>
<polyline fill="none" stroke="#000000" stroke-width="1.5" stroke-linecap="round" stroke-linejoin="round" stroke-miterlimit="10" points="
	60.354,430.354 60.354,480.354 10.354,480.354 "/>
<path fill="none" stroke="#FFFFFF" stroke-width="1.5" stroke-linecap="round" stroke-linejoin="round" stroke-miterlimit="10" d="
	M210.354,425.354v60c0,2.763-2.237,5-5,5h-60"/>
<path fill="none" stroke="#000000" stroke-width="1.5" stroke-linecap="round" stroke-linejoin="round" stroke-miterlimit="10" d="
	M145.354,490.354c-2.761,0-5-2.237-5-5v-60c0-2.762,2.239-5,5-5h60c2.763,0,5,2.238,5,5"/>
<polyline fill="none" stroke="#FFFFFF" stroke-width="1.5" stroke-linecap="round" stroke-linejoin="round" stroke-miterlimit="10" points="
	150.354,480.354 150.354,430.354 200.354,430.354 "/>
<polyline fill="none" stroke="#000000" stroke-width="1.5" stroke-linecap="round" stroke-linejoin="round" stroke-miterlimit="10" points="
	200.354,430.354 200.354,480.354 150.354,480.354 "/>
<path fill="none" stroke="#FFFFFF" stroke-width="1.5" stroke-linecap="round" stroke-linejoin="round" stroke-miterlimit="10" d="
	M350.354,425.354v60c0,2.763-2.238,5-5,5h-60"/>
<path fill="none" stroke="#000000" stroke-width="1.5" stroke-linecap="round" stroke-linejoin="round" stroke-miterlimit="10" d="
	M285.354,490.354c-2.761,0-5-2.237-5-5v-60c0-2.762,2.239-5,5-5h60c2.762,0,5,2.238,5,5"/>
<polyline fill="none" stroke="#FFFFFF" stroke-width="1.5" stroke-linecap="round" stroke-linejoin="round" stroke-miterlimit="10" points="
	290.354,480.354 290.354,430.354 340.354,430.354 "/>
<polyline fill="none" stroke="#000000" stroke-width="1.5" stroke-linecap="round" stroke-linejoin="round" stroke-miterlimit="10" points="
	340.354,430.354 340.354,480.354 290.354,480.354 "/>
<path fill="none" stroke="#FFFFFF" stroke-width="1.5" stroke-linecap="round" stroke-linejoin="round" stroke-miterlimit="10" d="
	M70.354,565.354v60c0,2.763-2.237,5-5,5h-60"/>
<path fill="none" stroke="#000000" stroke-width="1.5" stroke-linecap="round" stroke-linejoin="round" stroke-miterlimit="10" d="
	M5.354,630.354c-2.761,0-5-2.237-5-5v-60c0-2.762,2.239-5,5-5h60c2.763,0,5,2.238,5,5"/>
<polyline fill="none" stroke="#FFFFFF" stroke-width="1.5" stroke-linecap="round" stroke-linejoin="round" stroke-miterlimit="10" points="
	10.354,620.354 10.354,570.354 60.354,570.354 "/>
<polyline fill="none" stroke="#000000" stroke-width="1.5" stroke-linecap="round" stroke-linejoin="round" stroke-miterlimit="10" points="
	60.354,570.354 60.354,620.354 10.354,620.354 "/>
<path fill="none" stroke="#FFFFFF" stroke-width="1.5" stroke-linecap="round" stroke-linejoin="round" stroke-miterlimit="10" d="
	M210.354,565.354v60c0,2.763-2.237,5-5,5h-60"/>
<path fill="none" stroke="#000000" stroke-width="1.5" stroke-linecap="round" stroke-linejoin="round" stroke-miterlimit="10" d="
	M145.354,630.354c-2.761,0-5-2.237-5-5v-60c0-2.762,2.239-5,5-5h60c2.763,0,5,2.238,5,5"/>
<polyline fill="none" stroke="#FFFFFF" stroke-width="1.5" stroke-linecap="round" stroke-linejoin="round" stroke-miterlimit="10" points="
	150.354,620.354 150.354,570.354 200.354,570.354 "/>
<polyline fill="none" stroke="#000000" stroke-width="1.5" stroke-linecap="round" stroke-linejoin="round" stroke-miterlimit="10" points="
	200.354,570.354 200.354,620.354 150.354,620.354 "/>
<path fill="none" stroke="#FFFFFF" stroke-width="1.5" stroke-linecap="round" stroke-linejoin="round" stroke-miterlimit="10" d="
	M350.354,565.354v60c0,2.763-2.238,5-5,5h-60"/>
<path fill="none" stroke="#000000" stroke-width="1.5" stroke-linecap="round" stroke-linejoin="round" stroke-miterlimit="10" d="
	M285.354,630.354c-2.761,0-5-2.237-5-5v-60c0-2.762,2.239-5,5-5h60c2.762,0,5,2.238,5,5"/>
<polyline fill="none" stroke="#FFFFFF" stroke-width="1.5" stroke-linecap="round" stroke-linejoin="round" stroke-miterlimit="10" points="
	290.354,620.354 290.354,570.354 340.354,570.354 "/>
<polyline fill="none" stroke="#000000" stroke-width="1.5" stroke-linecap="round" stroke-linejoin="round" stroke-miterlimit="10" points="
	340.354,570.354 340.354,620.354 290.354,620.354 "/>
<path fill="none" stroke="#FFFFFF" stroke-width="1.5" stroke-linecap="round" stroke-linejoin="round" stroke-miterlimit="10" d="
	M70.354,705.354v60c0,2.763-2.237,5-5,5h-60"/>
<path fill="none" stroke="#000000" stroke-width="1.5" stroke-linecap="round" stroke-linejoin="round" stroke-miterlimit="10" d="
	M5.354,770.354c-2.761,0-5-2.237-5-5v-60c0-2.762,2.239-5,5-5h60c2.763,0,5,2.238,5,5"/>
<polyline fill="none" stroke="#FFFFFF" stroke-width="1.5" stroke-linecap="round" stroke-linejoin="round" stroke-miterlimit="10" points="
	10.354,760.354 10.354,710.354 60.354,710.354 "/>
<polyline fill="none" stroke="#000000" stroke-width="1.5" stroke-linecap="round" stroke-linejoin="round" stroke-miterlimit="10" points="
	60.354,710.354 60.354,760.354 10.354,760.354 "/>
<path fill="none" stroke="#FFFFFF" stroke-width="1.5" stroke-linecap="round" stroke-linejoin="round" stroke-miterlimit="10" d="
	M210.354,705.354v60c0,2.763-2.237,5-5,5h-60"/>
<path fill="none" stroke="#000000" stroke-width="1.5" stroke-linecap="round" stroke-linejoin="round" stroke-miterlimit="10" d="
	M145.354,770.354c-2.761,0-5-2.237-5-5v-60c0-2.762,2.239-5,5-5h60c2.763,0,5,2.238,5,5"/>
<polyline fill="none" stroke="#FFFFFF" stroke-width="1.5" stroke-linecap="round" stroke-linejoin="round" stroke-miterlimit="10" points="
	150.354,760.354 150.354,710.354 200.354,710.354 "/>
<polyline fill="none" stroke="#000000" stroke-width="1.5" stroke-linecap="round" stroke-linejoin="round" stroke-miterlimit="10" points="
	200.354,710.354 200.354,760.354 150.354,760.354 "/>
<path fill="none" stroke="#FFFFFF" stroke-width="1.5" stroke-linecap="round" stroke-linejoin="round" stroke-miterlimit="10" d="
	M70.354,845.354v60c0,2.763-2.237,5-5,5h-60"/>
<path fill="none" stroke="#000000" stroke-width="1.5" stroke-linecap="round" stroke-linejoin="round" stroke-miterlimit="10" d="
	M5.354,910.354c-2.761,0-5-2.237-5-5v-60c0-2.762,2.239-5,5-5h60c2.763,0,5,2.238,5,5"/>
<polyline fill="none" stroke="#FFFFFF" stroke-width="1.5" stroke-linecap="round" stroke-linejoin="round" stroke-miterlimit="10" points="
	10.354,900.354 10.354,850.354 60.354,850.354 "/>
<polyline fill="none" stroke="#000000" stroke-width="1.5" stroke-linecap="round" stroke-linejoin="round" stroke-miterlimit="10" points="
	60.354,850.354 60.354,900.354 10.354,900.354 "/>
<path fill="none" stroke="#FFFFFF" stroke-width="1.5" stroke-linecap="round" stroke-linejoin="round" stroke-miterlimit="10" d="
	M210.354,845.354v60c0,2.763-2.237,5-5,5h-60"/>
<path fill="none" stroke="#000000" stroke-width="1.5" stroke-linecap="round" stroke-linejoin="round" stroke-miterlimit="10" d="
	M145.354,910.354c-2.761,0-5-2.237-5-5v-60c0-2.762,2.239-5,5-5h60c2.763,0,5,2.238,5,5"/>
<polyline fill="none" stroke="#FFFFFF" stroke-width="1.5" stroke-linecap="round" stroke-linejoin="round" stroke-miterlimit="10" points="
	150.354,900.354 150.354,850.354 200.354,850.354 "/>
<polyline fill="none" stroke="#000000" stroke-width="1.5" stroke-linecap="round" stroke-linejoin="round" stroke-miterlimit="10" points="
	200.354,850.354 200.354,900.354 150.354,900.354 "/>
<path fill="none" stroke="#FFFFFF" stroke-width="1.5" stroke-linecap="round" stroke-linejoin="round" stroke-miterlimit="10" d="
	M70.354,985.354v60c0,2.763-2.237,5-5,5h-60"/>
<path fill="none" stroke="#000000" stroke-width="1.5" stroke-linecap="round" stroke-linejoin="round" stroke-miterlimit="10" d="
	M5.354,1050.354c-2.761,0-5-2.237-5-5v-60c0-2.762,2.239-5,5-5h60c2.763,0,5,2.238,5,5"/>
<polyline fill="none" stroke="#FFFFFF" stroke-width="1.5" stroke-linecap="round" stroke-linejoin="round" stroke-miterlimit="10" points="
	10.354,1040.354 10.354,990.354 60.354,990.354 "/>
<polyline fill="none" stroke="#000000" stroke-width="1.5" stroke-linecap="round" stroke-linejoin="round" stroke-miterlimit="10" points="
	60.354,990.354 60.354,1040.354 10.354,1040.354 "/>
<path fill="none" stroke="#FFFFFF" stroke-width="1.5" stroke-linecap="round" stroke-linejoin="round" stroke-miterlimit="10" d="
	M70.354,1125.354v60c0,2.763-2.237,5-5,5h-60"/>
<path fill="none" stroke="#000000" stroke-width="1.5" stroke-linecap="round" stroke-linejoin="round" stroke-miterlimit="10" d="
	M5.354,1190.354c-2.762,0-5-2.237-5-5v-60c0-2.762,2.238-5,5-5h60c2.763,0,5,2.238,5,5"/>
<polyline fill="none" stroke="#FFFFFF" stroke-width="1.5" stroke-linecap="round" stroke-linejoin="round" stroke-miterlimit="10" points="
	10.354,1180.354 10.354,1130.354 60.354,1130.354 "/>
<polyline fill="none" stroke="#000000" stroke-width="1.5" stroke-linecap="round" stroke-linejoin="round" stroke-miterlimit="10" points="
	60.354,1130.354 60.354,1180.354 10.354,1180.354 "/>
<path fill="none" stroke="#FFFFFF" stroke-width="1.5" stroke-linecap="round" stroke-linejoin="round" stroke-miterlimit="10" d="
	M70.354,1265.354v60c0,2.763-2.237,5-5,5h-60"/>
<path fill="none" stroke="#000000" stroke-width="1.5" stroke-linecap="round" stroke-linejoin="round" stroke-miterlimit="10" d="
	M5.354,1330.354c-2.762,0-5-2.237-5-5v-60c0-2.762,2.238-5,5-5h60c2.763,0,5,2.238,5,5"/>
<polyline fill="none" stroke="#FFFFFF" stroke-width="1.5" stroke-linecap="round" stroke-linejoin="round" stroke-miterlimit="10" points="
	10.354,1320.354 10.354,1270.354 60.354,1270.354 "/>
<polyline fill="none" stroke="#000000" stroke-width="1.5" stroke-linecap="round" stroke-linejoin="round" stroke-miterlimit="10" points="
	60.354,1270.354 60.354,1320.354 10.354,1320.354 "/>
</svg>
