<?xml version="1.0" encoding="utf-8"?>
<!-- Generator: Adobe Illustrator 15.0.2, SVG Export Plug-In . SVG Version: 6.00 Build 0)  -->
<!DOCTYPE svg PUBLIC "-//W3C//DTD SVG 1.1//EN" "http://www.w3.org/Graphics/SVG/1.1/DTD/svg11.dtd">
<svg version="1.1" xmlns="http://www.w3.org/2000/svg" xmlns:xlink="http://www.w3.org/1999/xlink" x="0px" y="0px"
	 width="982.709px" height="1610.709px" viewBox="0 0 982.709 1610.709" enable-background="new 0 0 982.709 1610.709"
	 xml:space="preserve">
<g id="Tôle">
	<g id="ELLIPSE">
		
			<path fill="none" stroke="#000000" stroke-width="0.7087" stroke-linecap="round" stroke-linejoin="round" stroke-miterlimit="10" d="
			M215.354,1555.354c0-19.33,29.102-35,65-35s65,15.67,65,35s-29.102,35-65,35S215.354,1574.685,215.354,1555.354"/>
	</g>
	<g id="ARC_1_">
		<path stroke="#000000" stroke-width="0.7087" stroke-linecap="round" stroke-linejoin="round" stroke-miterlimit="10" d="
			M5.354,1610.354h270c0.419,0,0.839-0.002,1.258-0.005c7.223-0.06,14.434-0.636,21.435-1.716c7.001-1.081,13.792-2.666,20.19-4.73
			c6.397-2.064,12.403-4.608,17.854-7.604c5.451-2.997,10.352-6.447,14.539-10.344c2.189-2.037,4.183-4.196,5.95-6.476
			c1.768-2.279,3.311-4.679,4.588-7.187c1.277-2.508,2.29-5.124,2.997-7.812c0.707-2.688,1.106-5.447,1.178-8.215
			c0.071-2.768-0.185-5.542-0.756-8.257c-0.571-2.716-1.456-5.372-2.615-7.925c-1.526-3.362-3.527-6.545-5.913-9.516
			c-2.386-2.971-5.156-5.732-8.246-8.281c-4.955-4.087-10.733-7.632-17.123-10.616c-6.391-2.984-13.396-5.407-20.79-7.232
			c-7.394-1.825-15.175-3.051-23.087-3.651c-3.8-0.289-7.629-0.434-11.459-0.434h-270c-2.761,0-5,2.238-5,5s2.239,5,5,5h270
			c44.183,0,80,20.147,80,45s-35.817,45-80,45h-270c-2.761,0-5,2.238-5,5S2.593,1610.354,5.354,1610.354z"/>
	</g>
	<g id="ELLIPSE_2_">
		
			<path fill="none" stroke="#000000" stroke-width="0.7087" stroke-linecap="round" stroke-linejoin="round" stroke-miterlimit="10" d="
			M215.354,1055.354c0-19.33,29.102-35,65-35s65,15.67,65,35s-29.102,35-65,35S215.354,1074.685,215.354,1055.354"/>
	</g>
	<g id="ARC_3_">
		<path stroke="#000000" stroke-width="0.7087" stroke-linecap="round" stroke-linejoin="round" stroke-miterlimit="10" d="
			M5.354,1010.354c-2.761,0-5-2.238-5-5s2.239-5,5-5h270c3.83,0,7.659,0.145,11.459,0.434c7.912,0.601,15.693,1.826,23.087,3.651
			c7.394,1.825,14.399,4.248,20.79,7.232c6.39,2.984,12.168,6.529,17.123,10.616c3.09,2.549,5.86,5.311,8.246,8.281
			c2.385,2.971,4.386,6.153,5.913,9.516c1.159,2.553,2.043,5.209,2.615,7.925c0.571,2.715,0.828,5.489,0.756,8.257
			c-0.072,2.768-0.471,5.526-1.178,8.215c-0.707,2.688-1.719,5.304-2.997,7.812c-1.278,2.508-2.82,4.907-4.588,7.187
			c-1.768,2.279-3.761,4.438-5.95,6.476c-4.187,3.896-9.087,7.347-14.539,10.344c-5.451,2.996-11.456,5.54-17.854,7.604
			c-6.398,2.064-13.188,3.649-20.19,4.73c-7.001,1.08-14.212,1.656-21.435,1.716c-0.419,0.003-0.839,0.005-1.258,0.005h-270
			c-2.761,0-5-2.238-5-5s2.239-5,5-5h270c44.183,0,80-20.147,80-45s-35.817-45-80-45H5.354z"/>
	</g>
	<g id="ELLIPSE_4_">
		
			<path fill="none" stroke="#000000" stroke-width="0.7087" stroke-linecap="round" stroke-linejoin="round" stroke-miterlimit="10" d="
			M215.354,555.354c0-19.33,29.102-35,65-35s65,15.67,65,35s-29.102,35-65,35S215.354,574.685,215.354,555.354"/>
	</g>
	<g id="ARC_5_">
		<path stroke="#000000" stroke-width="0.7087" stroke-linecap="round" stroke-linejoin="round" stroke-miterlimit="10" d="
			M5.354,610.354h270c0.419,0,0.839-0.002,1.258-0.005c7.223-0.06,14.434-0.635,21.435-1.715s13.792-2.666,20.19-4.73
			c6.397-2.065,12.403-4.608,17.854-7.605c5.451-2.997,10.352-6.447,14.539-10.344c2.189-2.037,4.183-4.196,5.95-6.475
			c1.768-2.279,3.311-4.679,4.588-7.187c1.277-2.507,2.29-5.124,2.997-7.812c0.707-2.688,1.106-5.446,1.178-8.214
			c0.071-2.768-0.185-5.542-0.756-8.258c-0.571-2.715-1.456-5.372-2.615-7.924c-1.526-3.362-3.527-6.545-5.913-9.516
			c-2.386-2.971-5.156-5.732-8.246-8.281c-4.955-4.087-10.733-7.631-17.123-10.616c-6.391-2.985-13.396-5.408-20.79-7.233
			c-7.394-1.825-15.175-3.051-23.087-3.652c-3.8-0.289-7.629-0.433-11.459-0.433h-270c-2.761,0-5,2.239-5,5s2.239,5,5,5h270
			c44.183,0,80,20.147,80,45c0,24.853-35.817,45-80,45h-270c-2.761,0-5,2.239-5,5S2.593,610.354,5.354,610.354z"/>
	</g>
	<g id="ELLIPSE_6_">
		
			<path fill="none" stroke="#000000" stroke-width="0.7087" stroke-linecap="round" stroke-linejoin="round" stroke-miterlimit="10" d="
			M215.354,55.354c0-19.33,29.102-35,65-35s65,15.67,65,35s-29.102,35-65,35S215.354,74.685,215.354,55.354"/>
	</g>
	<g id="ARC_7_">
		<path stroke="#000000" stroke-width="0.7087" stroke-linecap="round" stroke-linejoin="round" stroke-miterlimit="10" d="
			M5.354,110.354h270c0.419,0,0.839-0.002,1.258-0.005c7.223-0.06,14.434-0.635,21.435-1.715c7.001-1.081,13.792-2.666,20.19-4.73
			c6.397-2.065,12.403-4.608,17.854-7.605c5.451-2.997,10.352-6.447,14.539-10.344c2.189-2.037,4.183-4.196,5.95-6.475
			c1.768-2.279,3.311-4.679,4.588-7.187c1.277-2.508,2.29-5.124,2.997-7.812c0.707-2.688,1.106-5.446,1.178-8.214
			c0.071-2.768-0.185-5.542-0.756-8.258c-0.571-2.715-1.456-5.372-2.615-7.924c-1.526-3.362-3.527-6.545-5.913-9.516
			c-2.386-2.971-5.156-5.732-8.246-8.281c-4.955-4.087-10.733-7.631-17.123-10.616c-6.391-2.985-13.396-5.408-20.79-7.233
			c-7.394-1.825-15.175-3.051-23.087-3.652c-3.8-0.289-7.629-0.433-11.459-0.433h-270c-2.761,0-5,2.238-5,5s2.239,5,5,5h270
			c44.183,0,80,20.147,80,45s-35.817,45-80,45h-270c-2.761,0-5,2.238-5,5S2.593,110.354,5.354,110.354z"/>
	</g>
	<g id="ARC_9_">
		<path stroke="#000000" stroke-width="0.7087" stroke-linecap="round" stroke-linejoin="round" stroke-miterlimit="10" d="
			M977.354,360.354h-691c-0.419,0-0.839-0.002-1.258-0.005c-7.223-0.06-14.434-0.635-21.435-1.715s-13.792-2.666-20.19-4.73
			c-6.397-2.065-12.403-4.608-17.854-7.605c-5.451-2.997-10.352-6.447-14.539-10.344c-2.189-2.037-4.183-4.196-5.95-6.475
			c-1.768-2.279-3.311-4.679-4.588-7.187c-1.277-2.507-2.29-5.124-2.997-7.812c-0.707-2.688-1.106-5.446-1.178-8.214
			c-0.071-2.768,0.185-5.542,0.756-8.258c0.571-2.715,1.456-5.372,2.615-7.924c1.526-3.362,3.527-6.545,5.913-9.516
			c2.386-2.971,5.156-5.732,8.246-8.281c4.955-4.087,10.733-7.631,17.123-10.616c6.391-2.985,13.396-5.408,20.79-7.233
			c7.394-1.825,15.175-3.051,23.087-3.652c3.8-0.289,7.629-0.433,11.459-0.433h691c2.762,0,5,2.239,5,5s-2.238,5-5,5h-691
			c-44.183,0-80,20.147-80,45c0,24.853,35.817,45,80,45h691c2.762,0,5,2.239,5,5S980.116,360.354,977.354,360.354z"/>
	</g>
	<g id="ARC_11_">
		<path stroke="#000000" stroke-width="0.7087" stroke-linecap="round" stroke-linejoin="round" stroke-miterlimit="10" d="
			M977.354,860.354h-691c-0.419,0-0.839-0.002-1.258-0.005c-7.223-0.06-14.434-0.636-21.435-1.716
			c-7.001-1.081-13.792-2.666-20.19-4.73c-6.397-2.064-12.403-4.608-17.854-7.604c-5.451-2.997-10.352-6.447-14.539-10.344
			c-2.189-2.037-4.183-4.196-5.95-6.476c-1.768-2.279-3.311-4.679-4.588-7.187c-1.277-2.508-2.29-5.124-2.997-7.812
			c-0.707-2.688-1.106-5.447-1.178-8.215c-0.071-2.767,0.185-5.542,0.756-8.257c0.571-2.715,1.456-5.372,2.615-7.925
			c1.526-3.362,3.527-6.545,5.913-9.516c2.386-2.971,5.156-5.732,8.246-8.281c4.955-4.087,10.733-7.631,17.123-10.616
			c6.391-2.984,13.396-5.408,20.79-7.233c7.394-1.825,15.175-3.051,23.087-3.652c3.8-0.289,7.629-0.433,11.459-0.433h691
			c2.762,0,5,2.239,5,5s-2.238,5-5,5h-691c-44.183,0-80,20.147-80,45c0,24.853,35.817,45,80,45h691c2.762,0,5,2.238,5,5
			S980.116,860.354,977.354,860.354z"/>
	</g>
	<g id="ARC_13_">
		<path stroke="#000000" stroke-width="0.7087" stroke-linecap="round" stroke-linejoin="round" stroke-miterlimit="10" d="
			M977.354,1360.354h-691c-0.419,0-0.839-0.002-1.258-0.005c-7.223-0.06-14.434-0.636-21.435-1.716
			c-7.001-1.081-13.792-2.666-20.19-4.73c-6.397-2.064-12.403-4.608-17.854-7.604c-5.451-2.997-10.352-6.447-14.539-10.344
			c-2.189-2.037-4.183-4.196-5.95-6.476c-1.768-2.279-3.311-4.679-4.588-7.187c-1.277-2.508-2.29-5.124-2.997-7.812
			c-0.707-2.688-1.106-5.447-1.178-8.215c-0.071-2.768,0.185-5.542,0.756-8.257c0.571-2.716,1.456-5.372,2.615-7.925
			c1.526-3.362,3.527-6.545,5.913-9.516c2.386-2.971,5.156-5.732,8.246-8.281c4.955-4.087,10.733-7.632,17.123-10.616
			c6.391-2.984,13.396-5.407,20.79-7.232c7.394-1.825,15.175-3.051,23.087-3.651c3.8-0.289,7.629-0.434,11.459-0.434h691
			c2.762,0,5,2.238,5,5s-2.238,5-5,5h-691c-44.183,0-80,20.147-80,45s35.817,45,80,45h691c2.762,0,5,2.238,5,5
			S980.116,1360.354,977.354,1360.354z"/>
	</g>
	<g id="HATCH">
		<linearGradient id="SVGID_1_" gradientUnits="userSpaceOnUse" x1="215.3545" y1="1555.3545" x2="345.3545" y2="1555.3545">
			<stop  offset="0" style="stop-color:#DCFFFF"/>
			<stop  offset="1" style="stop-color:#64AFFF"/>
		</linearGradient>
		<path fill-rule="evenodd" clip-rule="evenodd" fill="url(#SVGID_1_)" stroke="#000000" stroke-miterlimit="10" d="
			M215.354,1555.354c0-19.33,29.102-35,65-35s65,15.67,65,35s-29.102,35-65,35S215.354,1574.685,215.354,1555.354L215.354,1555.354z
			"/>
	</g>
	<g id="HATCH_1_">
		<linearGradient id="SVGID_2_" gradientUnits="userSpaceOnUse" x1="215.3545" y1="1055.3545" x2="345.3545" y2="1055.3545">
			<stop  offset="0" style="stop-color:#DCFFFF"/>
			<stop  offset="1" style="stop-color:#64AFFF"/>
		</linearGradient>
		<path fill-rule="evenodd" clip-rule="evenodd" fill="url(#SVGID_2_)" stroke="#000000" stroke-miterlimit="10" d="
			M215.354,1055.354c0-19.33,29.102-35,65-35s65,15.67,65,35s-29.102,35-65,35S215.354,1074.685,215.354,1055.354L215.354,1055.354z
			"/>
	</g>
	<g id="HATCH_2_">
		<linearGradient id="SVGID_3_" gradientUnits="userSpaceOnUse" x1="215.3545" y1="555.3545" x2="345.3545" y2="555.3545">
			<stop  offset="0" style="stop-color:#DCFFFF"/>
			<stop  offset="1" style="stop-color:#64AFFF"/>
		</linearGradient>
		<path fill-rule="evenodd" clip-rule="evenodd" fill="url(#SVGID_3_)" stroke="#000000" stroke-miterlimit="10" d="
			M215.354,555.354c0-19.33,29.102-35,65-35s65,15.67,65,35s-29.102,35-65,35S215.354,574.685,215.354,555.354L215.354,555.354z"/>
	</g>
	<g id="HATCH_3_">
		<linearGradient id="SVGID_4_" gradientUnits="userSpaceOnUse" x1="215.3545" y1="55.3545" x2="345.3545" y2="55.3545">
			<stop  offset="0" style="stop-color:#DCFFFF"/>
			<stop  offset="1" style="stop-color:#64AFFF"/>
		</linearGradient>
		<path fill-rule="evenodd" clip-rule="evenodd" fill="url(#SVGID_4_)" stroke="#000000" stroke-miterlimit="10" d="M215.354,55.354
			c0-19.33,29.102-35,65-35s65,15.67,65,35s-29.102,35-65,35S215.354,74.685,215.354,55.354L215.354,55.354z"/>
	</g>
</g>
<g id="Jaune">
</g>
</svg>
