<?xml version="1.0" encoding="utf-8"?>
<!-- Generator: Adobe Illustrator 15.0.2, SVG Export Plug-In . SVG Version: 6.00 Build 0)  -->
<!DOCTYPE svg PUBLIC "-//W3C//DTD SVG 1.1//EN" "http://www.w3.org/Graphics/SVG/1.1/DTD/svg11.dtd">
<svg version="1.1" id="Tôle" xmlns="http://www.w3.org/2000/svg" xmlns:xlink="http://www.w3.org/1999/xlink" x="0px" y="0px"
	 width="836.363px" height="2111.945px" viewBox="0 0 836.363 2111.945" enable-background="new 0 0 836.363 2111.945"
	 xml:space="preserve">
<g id="ELLIPSE">
	<linearGradient id="SVGID_1_" gradientUnits="userSpaceOnUse" x1="165.8555" y1="459.3555" x2="665.8555" y2="459.3555">
		<stop  offset="0" style="stop-color:#DCFFFF"/>
		<stop  offset="1" style="stop-color:#64AFFF"/>
	</linearGradient>
	
		<path fill="url(#SVGID_1_)" stroke="#000000" stroke-width="0.7087" stroke-linecap="round" stroke-linejoin="round" stroke-miterlimit="10" d="
		M165.855,459.355c0-46.944,111.929-85,250-85s250,38.056,250,85c0,46.944-111.929,85-250,85S165.855,506.3,165.855,459.355"/>
</g>
<g id="ARC_7_">
	<path stroke="#000000" stroke-width="0.7087" stroke-linecap="round" stroke-linejoin="round" stroke-miterlimit="10" d="
		M300.48,383.949l525.875-223.221c2.542-1.079,3.728-4.014,2.649-6.556c-1.079-2.542-4.015-3.728-6.557-2.649L627.98,234.069
		c66.716-56.12,95.397-145.49,73.798-229.952c-0.684-2.676-3.407-4.29-6.082-3.605c-2.676,0.684-4.29,3.407-3.605,6.083
		c26.567,103.892-26.736,211.61-125.446,253.51L237.822,399.682"/>
</g>
<g id="ARC_10_">
	<path stroke="#000000" stroke-width="0.7087" stroke-linecap="round" stroke-linejoin="round" stroke-miterlimit="10" d="
		M191.559,496.896l133.775,339.607c5.953,15.113,11.148,30.515,15.565,46.146c73.292,259.358-77.545,529.024-336.903,602.315
		c-2.658,0.751-4.203,3.515-3.452,6.172s3.514,4.202,6.171,3.451l-1.36,0.383c246.698-68.959,400.845-313.815,356.371-566.08
		l71.344,181.119l-1.261-3.179c3.213,8.045,6.282,16.147,9.204,24.304c134.88,376.418-60.926,790.907-437.345,925.787
		c-2.6,0.932-3.952,3.794-3.021,6.394c0.932,2.6,3.794,3.951,6.394,3.021l-1.687,0.602
		c346.862-123.335,548.706-484.533,471.969-844.583l349.031,886.067c1.012,2.569,3.915,3.832,6.484,2.82
		c2.569-1.013,3.832-3.916,2.82-6.485L205.642,505.363"/>
</g>
</svg>
