<?xml version="1.0" encoding="utf-8"?>
<!-- Generator: Adobe Illustrator 15.0.2, SVG Export Plug-In . SVG Version: 6.00 Build 0)  -->
<!DOCTYPE svg PUBLIC "-//W3C//DTD SVG 1.1//EN" "http://www.w3.org/Graphics/SVG/1.1/DTD/svg11.dtd">
<svg version="1.1" id="Layer_1" xmlns="http://www.w3.org/2000/svg" xmlns:xlink="http://www.w3.org/1999/xlink" x="0px" y="0px"
	 width="950.006px" height="1643.754px" viewBox="0.354 224.11 950.006 1643.754"
	 enable-background="new 0.354 224.11 950.006 1643.754" xml:space="preserve">
<g id="Tôle">
	<g id="ARC_2_">
		
			<linearGradient id="SVGID_1_" gradientUnits="userSpaceOnUse" x1="107.4548" y1="1062.4548" x2="288.4543" y2="1062.4548" gradientTransform="matrix(1 0 0 -1 8.3999 2111.3188)">
			<stop  offset="0" style="stop-color:#DCFFFF"/>
			<stop  offset="1" style="stop-color:#64AFFF"/>
		</linearGradient>
		
			<path fill="url(#SVGID_1_)" stroke="#000000" stroke-width="0.7087" stroke-linecap="round" stroke-linejoin="round" stroke-miterlimit="10" d="
			M127.312,1829.36c226.056-495.776,226.057-1065.209,0.002-1560.985c-1.375-3.016-4.933-4.346-7.947-2.971
			c-2.14,0.976-3.512,3.109-3.512,5.459v1556.004c0,3.313,2.687,6,6,6C124.203,1832.866,126.335,1831.495,127.312,1829.36z"/>
	</g>
	<g id="ARC_4_">
		<path stroke="#000000" stroke-width="0.7087" stroke-linecap="round" stroke-linejoin="round" stroke-miterlimit="10" d="
			M403.024,1341.704l440,524.372c1.774,2.115,4.929,2.393,7.044,0.616s2.393-4.929,0.616-7.044l-440-524.372
			c-1.775-2.115-4.929-2.391-7.044-0.616C401.525,1336.437,401.248,1339.59,403.024,1341.704z"/>
	</g>
	<g id="ARC_6_">
		<path stroke="#000000" stroke-width="0.7087" stroke-linecap="round" stroke-linejoin="round" stroke-miterlimit="10" d="
			M403.024,756.021l440-524.371c1.774-2.115,4.929-2.392,7.044-0.615c2.115,1.774,2.393,4.929,0.616,7.044l-440,524.371
			c-1.775,2.115-4.929,2.392-7.044,0.616C401.525,761.289,401.248,758.136,403.024,756.021z"/>
	</g>
</g>
</svg>
